! Simple
! Song 0
50 20 .. .. .. .. .. .. .. .. .. .. .. .. .. 20 .. .. .. .. .. .. .. .. .. .. .. .. .. .. 
.. .. .. .. .. .. .. .. .. .. .. .. .. 20 .. .. .. .. .. .. .. .. .. .. .. .. .. .. .. .. 
.. .. .. .. .. .. .. .. .. .. .. .. 20 .. .. .. .. .. .. .. .. .. .. .. .. .. .. .. .. .. 
.. .. .. .. .. .. .. .. .. .. 20 .. .. .. .. .. .. .. .. .. .. .. .. .. .. .. .. .. .. .. 
.. .. .. .. .. .. .. .. .. 20 .. .. .. .. .. .. .. .. .. .. .. .. .. .. .. .. .. .. .. .. 
.. .. .. .. .. .. .. 20 .. .. .. .. .. .. .. .. .. .. .. .. .. 20 .. .. .. .. .. .. .. .. 
.. .. .. .. .. .. .. .. .. .. .. .. .. .. .. .. .. .. .. .. 20 .. .. .. .. .. .. .. .. .. 
.. .. .. .. .. .. .. .. .. .. .. .. .. .. .. .. .. .. 20 .. .. .. .. .. .. .. .. .. .. .. 
.. .. 20 .. .. .. .. .. .. .. .. .. .. .. .. .. .. .. .. .. .. .. .. .. .. .. .. .. .. .. 
.. 20 .. .. .. .. .. .. .. .. .. .. .. .. .. .. .. .. .. .. .. .. .. .. .. .. .. .. .. 20 
.. .. .. .. .. .. .. .. .. .. .. .. .. .. .. .. .. .. .. .. .. .. .. .. .. .. .. .. 20 .. 
.. .. .. .. .. .. .. .. .. .. .. .. .. .. .. .. .. .. .. .. .. .. .. .. .. .. 20 .. .. .. 
.. .. .. .. .. .. .. .. .. .. .. .. .. .. .. .. .. .. .. .. .. .. .. .. .. 20 .. .. .. .. 
.. .. .. .. .. .. .. .. .. 20 .. .. .. .. .. .. .. .. .. .. .. .. .. .. .. .. .. .. .. .. 
.. .. .. .. .. .. .. 20 .. .. .. .. .. .. .. .. .. .. .. .. .. .. .. .. .. .. .. .. .. .. 
.. .. .. .. .. .. 39 .. .. .. .. .. 38 39 .. .. .. .. .. .. 38 39 .. .. .. .. .. .. 38 39 
.. .. .. .. .. .. 38 39 .. .. .. .. .. .. 38 39 .. .. .. .. .. .. 38 39 .. .. .. .. .. .. 
38 39 .. .. .. .. .. .. 38 39 .. .. .. .. .. .. 38 39 .. .. .. .. .. .. 38 39 .. .. .. .. 
.. .. 38 39 .. .. .. .. .. .. 38 39 .. .. .. .. .. .. 38 39 .. .. .. .. .. .. 38 39 .. .. 
.. .. .. .. 38 39 .. .. .. .. .. .. 38 39 .. .. .. .. .. .. 38 39 .. .. .. .. .. .. 38 39 
.. .. .. .. .. .. 38 39 .. .. .. .. .. .. 38 39 .. .. .. .. .. .. 38 39 .. .. .. .. .. .. 
38 39 .. .. .. .. .. .. 38 39 .. .. .. .. .. .. 38 39 .. .. .. .. .. .. 38 39 .. .. .. .. 
.. .. 38 39 .. .. .. .. .. .. 38 39 .. .. .. .. .. .. 38 39 .. .. .. 39 .. .. 38 39 .. .. 
.. .. .. .. 38 39 .. .. .. .. .. .. 38 39 .. .. .. .. .. .. 38 39 .. .. .. .. .. .. 38 39 
.. .. .. .. .. .. 37 .. .. .. .. .. .. .. .. .. .. .. .. .. .. .. .. .. .. .. .. .. .. .. 
.. .. .. .. 39 .. .. .. 38 39 .. .. .. .. .. .. 38 39 .. .. .. .. .. .. 38 39 .. .. .. .. 
.. .. 38 39 .. .. .. .. .. .. 38 39 .. .. .. .. .. .. 38 39 .. .. .. .. .. .. 38 39 .. .. 
.. .. .. .. 38 39 .. .. .. .. .. .. 38 39 .. .. .. .. .. .. 38 39 .. .. .. .. .. .. 38 39 
.. .. .. .. .. .. 38 39 .. .. .. .. .. .. 38 39 .. .. .. .. .. .. 38 39 .. .. .. .. .. .. 
38 39 .. .. .. .. .. .. 38 39 .. .. .. .. .. .. 38 39 .. .. .. .. .. .. 38 39 .. .. .. .. 
.. .. 38 39 .. .. .. .. .. .. 38 39 .. .. .. .. .. .. 38 39 .. .. .. .. .. .. 38 39 .. .. 
.. .. .. .. 38 39 .. .. .. .. .. .. 38 39 .. .. .. .. .. .. 38 39 .. .. .. .. .. .. 38 39 
.. .. .. .. .. .. 38 39 .. .. .. .. .. .. 38 39 .. .. .. .. .. .. 38 39 .. .. .. .. .. .. 
38 39 .. .. .. .. .. .. 38 39 .. .. .. .. .. .. 38 39 .. .. .. .. .. .. 38 39 .. .. .. .. 
.. .. 38 39 .. .. .. .. .. .. 38 39 .. .. .. .. .. .. 38 39 .. .. .. .. .. .. 38 39 .. .. 
.. .. .. .. 38 39 .. .. .. .. .. .. 38 39 .. .. .. .. .. .. 38 39 .. .. .. .. .. .. 38 39 
.. .. .. .. .. .. 38 39 .. .. .. .. .. .. 38 39 .. .. .. .. .. .. 38 39 .. .. .. .. .. .. 
38 39 .. .. .. .. .. .. 38 39 .. .. .. .. .. .. 38 39 .. .. .. .. .. .. 38 39 .. .. 39 .. 
.. .. 38 39 .. .. .. .. .. .. 38 39 .. .. .. .. .. .. 38 39 .. .. .. .. .. .. 38 39 .. .. 
.. .. .. .. 38 39 .. .. .. .. .. 37 .. .. .. .. .. .. .. .. .. .. .. .. .. .. .. .. .. .. 
.. .. .. .. .. .. .. .. .. 39 .. .. .. .. 38 39 .. .. .. .. .. .. 38 39 .. .. .. .. .. .. 
38 39 .. .. .. .. .. .. 38 39 .. .. .. .. .. .. 38 39 .. .. .. .. .. .. 38 39 .. .. .. .. 
.. .. 38 39 .. .. .. .. .. .. 38 39 .. .. .. .. .. .. 38 39 .. .. .. .. .. .. 38 39 .. .. 
.. .. .. .. 38 39 .. .. .. .. .. .. 38 39 .. .. .. .. .. .. 38 39 .. .. .. .. .. .. 38 39 
.. .. .. .. .. .. 38 39 .. .. .. .. .. .. 38 39 .. .. .. .. .. .. 38 39 .. .. .. .. .. .. 
38 39 .. .. .. .. .. .. 38 39 .. .. .. .. .. .. 38 39 .. .. .. .. .. .. 38 39 .. .. .. .. 
41 .. .. .. .. .. .. 43 .. .. .. .. .. .. 44 .. .. .. .. .. .. 46 .. .. .. .. .. .. .. 48 
.. .. .. .. .. .. .. .. .. .. .. .. .. .. .. .. .. .. .. .. .. .. .. .. .. .. .. .. .. .. 
.. .. .. .. .. .. .. .. .. .. .. .. .. .. .. .. .. .. .. .. .. .. .. .. .. .. .. .. .. .. 
.. .. .. .. .. .. .. .. .. .. .. .. .. .. .. .. .. .. .. .. .. .. .. .. .. .. .. .. .. .. 
.. .. .. .. .. .. .. .. .. .. .. .. .. .. .. .. .. .. .. .. .. .. .. .. .. .. .. .. .. .. 
.. .. .. .. .. .. .. .. .. .. .. .. .. .. .. .. .. .. .. .. .. 50 .. .. .. .. .. .. 51 .. 
.. .. .. .. .. .. .. .. .. .. .. .. .. .. .. .. .. .. .. .. .. .. .. .. .. .. .. .. .. .. 
.. .. .. .. .. .. .. .. .. .. .. .. .. .. .. .. .. .. .. .. .. .. .. .. .. 48 .. .. .. .. 
.. .. .. .. .. .. .. .. .. .. .. .. .. .. .. .. .. .. .. .. .. .. .. .. .. .. .. .. .. .. 
.. .. .. .. .. .. .. .. .. .. .. .. .. .. .. .. .. .. .. .. .. .. .. .. .. .. .. .. .. .. 
.. .. .. .. .. .. .. .. .. .. .. .. .. .. .. .. .. .. .. .. .. .. .. .. .. .. .. .. .. .. 
.. .. .. .. .. .. .. .. .. .. .. .. .. .. .. .. .. .. .. .. .. .. .. .. .. .. .. .. .. .. 
.. .. .. .. .. .. .. .. .. .. .. .. .. .. .. .. .. .. .. .. .. .. .. .. .. .. .. .. .. .. 
.. .. .. .. .. .. .. .. .. .. .. .. .. .. .. .. .. .. .. .. .. .. .. .. .. .. .. .. .. .. 
.. .. .. .. .. .. .. .. .. .. .. .. .. .. .. .. .. .. .. .. .. .. .. .. .. .. .. .. .. .. 
.. .. .. .. .. 41 .. .. .. .. .. .. 43 .. .. .. .. .. .. 44 .. .. .. .. .. .. .. 46 .. .. 
.. .. .. .. 48 .. .. .. .. .. .. .. .. .. .. .. .. .. .. .. .. .. .. .. .. .. .. .. .. .. 
.. .. .. .. .. .. .. .. .. .. .. .. .. .. .. .. .. .. .. .. .. .. .. .. .. .. .. .. .. .. 
.. .. .. .. .. .. .. .. .. .. .. .. .. .. .. .. .. .. .. .. .. .. .. .. .. .. .. .. .. .. 
.. .. .. .. .. .. .. .. .. .. .. .. .. .. .. .. .. .. .. .. .. .. .. .. .. .. .. .. .. .. 
.. .. .. .. .. .. .. .. .. .. .. .. .. .. .. .. .. .. .. .. .. .. .. .. .. .. 50 .. .. .. 
.. .. .. 51 .. .. .. .. .. .. .. .. .. .. .. .. .. .. .. .. .. .. .. .. .. .. .. .. .. .. 
.. .. .. .. .. .. .. .. .. .. .. .. .. .. .. .. .. .. .. .. .. .. .. 53 .. .. .. .. .. .. 
55 .. .. .. .. .. .. .. .. .. .. .. .. .. .. .. .. .. .. .. .. .. .. .. .. .. .. .. .. .. 
.. .. .. .. .. .. .. .. .. .. .. .. .. .. .. .. .. .. .. .. .. .. .. .. .. .. .. .. .. .. 
.. .. .. .. .. .. .. .. .. .. .. .. .. .. .. .. .. .. .. .. .. .. .. .. .. .. .. .. .. .. 
.. .. .. .. .. .. .. .. .. .. .. .. .. .. .. .. .. .. .. .. .. .. .. .. .. .. .. .. .. .. 
.. .. .. .. .. .. .. .. .. .. .. .. .. .. .. .. .. .. .. .. .. .. .. .. .. .. .. .. .. .. 
.. .. .. .. .. .. .. .. .. .. .. .. .. .. .. .. .. .. .. .. .. .. .. .. .. .. .. .. .. .. 
.. .. .. .. .. .. .. .. .. .. .. .. .. .. .. .. .. .. .. .. .. .. .. .. .. .. 20 .. .. .. 
.. .. .. .. .. .. .. .. .. .. 20 .. .. .. .. .. .. .. .. .. .. .. .. .. .. .. .. .. .. .. 
.. .. .. .. .. .. .. .. .. 20 .. .. .. .. .. .. .. .. .. .. .. .. .. .. .. .. .. .. .. .. 
.. .. .. .. .. .. .. 20 .. .. .. .. .. .. .. .. .. .. .. .. .. .. .. .. .. .. .. .. .. .. 
.. .. .. .. .. .. 20 .. .. .. .. .. .. .. .. .. .. .. .. .. .. .. .. .. .. .. .. .. .. .. 
.. .. .. .. 20 .. .. .. .. .. .. .. .. .. .. .. .. .. .. .. .. .. .. .. .. .. .. .. .. .. 
.. .. .. 20 .. .. .. .. .. .. .. .. .. .. .. .. .. 20 .. .. .. .. .. .. .. .. .. .. .. .. 
.. .. .. .. .. .. .. .. .. .. .. .. .. .. .. 20 .. .. .. .. .. .. .. .. .. .. .. .. .. .. 
.. .. .. .. .. .. .. .. .. .. .. .. .. .. 20 .. .. .. .. .. .. .. .. .. .. .. .. .. 20 .. 
.. .. .. .. .. .. .. .. .. .. .. .. .. .. .. .. .. .. .. .. .. .. .. .. .. .. 20 .. .. .. 
.. .. .. .. .. .. .. .. .. .. .. .. .. .. .. .. .. .. .. .. .. .. .. .. .. 20 .. .. .. .. 
.. .. .. .. .. .. .. .. .. .. .. .. .. .. .. .. .. .. .. .. .. .. .. 20 .. .. .. .. .. .. 
.. .. .. .. .. .. .. .. .. .. .. .. .. .. .. .. .. .. .. .. .. .. 20 .. .. .. .. .. .. .. 
.. .. .. .. .. .. .. .. .. .. .. .. .. .. .. .. .. .. .. .. 20 .. .. .. .. .. .. .. .. .. 
.. .. .. .. 20 .. .. .. .. .. .. .. .. .. .. .. .. .. .. .. .. .. .. .. .. .. .. .. .. .. 
.. .. .. 20 .. .. .. .. .. .. .. .. .. .. .. .. .. .. .. .. .. .. .. .. .. .. .. .. .. .. 
.. 40 .. .. .. .. .. 39 40 .. .. .. .. .. .. 39 40 .. .. .. .. .. .. 39 40 .. .. .. .. .. 
.. 39 40 .. .. .. .. .. .. 39 40 .. .. .. .. .. .. 39 40 .. .. .. .. .. .. 39 40 .. .. .. 
.. .. .. 39 40 .. .. .. .. .. .. 39 40 .. .. .. .. .. .. 39 40 .. .. .. .. .. .. 39 40 .. 
.. .. .. .. .. 39 40 .. .. .. .. .. .. 39 40 .. .. .. .. .. .. 39 40 .. .. .. .. .. .. 39 
40 .. .. .. .. .. .. 39 40 .. .. .. .. .. .. 39 40 .. .. .. .. .. .. 39 40 .. .. .. .. .. 
.. 39 40 .. .. .. .. .. .. 39 40 .. .. .. .. .. .. 39 40 .. .. .. .. .. .. 39 40 .. .. .. 
.. .. .. 39 40 .. .. .. .. .. .. 39 40 .. .. .. .. .. .. 39 40 .. .. .. .. .. .. 39 40 .. 
.. .. .. .. .. 39 40 .. .. .. .. .. .. 39 40 .. .. .. .. 40 .. 39 40 .. .. .. .. .. .. 39 
40 .. .. .. .. .. .. 39 40 .. .. .. .. .. .. 39 40 .. .. .. .. .. .. 39 40 .. .. .. .. .. 
.. 37 38 .. .. .. .. .. .. 37 38 .. .. .. .. .. .. 37 38 .. .. .. .. .. .. 37 38 .. .. .. 
40 .. .. 39 40 .. .. .. .. .. .. 39 40 .. .. .. .. .. .. 39 40 .. .. .. .. .. .. 39 40 .. 
.. .. .. .. .. 39 40 .. .. .. .. .. .. 39 40 .. .. .. .. .. .. 39 40 .. .. .. .. .. .. 39 
40 .. .. .. .. .. .. 39 40 .. .. .. .. .. .. 39 40 .. .. .. .. .. .. 39 40 .. .. .. .. .. 
.. 39 40 .. .. .. .. .. .. 39 40 .. .. .. .. .. .. 39 40 .. .. .. .. .. .. 39 40 .. .. .. 
.. .. .. 39 40 .. .. .. .. .. .. 39 40 .. .. .. .. .. .. 39 40 .. .. .. .. .. .. 39 40 .. 
.. .. .. .. .. 39 40 .. .. .. .. .. .. 39 40 .. .. .. .. .. .. 39 40 .. .. .. .. .. .. 39 
40 .. .. .. .. .. .. 39 40 .. .. .. .. .. .. 39 40 .. .. .. .. .. .. 39 40 .. .. .. .. .. 
.. 39 40 .. .. .. .. .. .. 39 40 .. .. .. .. .. .. 39 40 .. .. .. .. .. .. 39 40 .. .. .. 
.. .. .. 39 40 .. .. .. .. .. .. 39 40 .. .. .. .. .. .. 39 40 .. .. .. .. .. .. 39 40 .. 
.. .. .. .. .. 39 40 .. .. .. .. .. .. 39 40 .. .. .. .. .. .. 39 40 .. .. .. .. .. .. 39 
40 .. .. .. .. .. .. 39 40 .. .. .. .. .. .. 39 40 .. .. .. .. .. .. 39 40 .. .. .. .. .. 
.. 39 40 .. .. .. .. .. .. 39 40 .. .. .. .. .. .. 39 40 .. .. .. .. .. .. 39 40 .. .. .. 
.. .. .. 39 40 .. .. .. .. .. .. 39 40 .. .. .. .. .. .. 39 40 .. .. .. 40 .. .. 39 40 .. 
.. .. .. .. .. 39 40 .. .. .. .. .. .. 39 40 .. .. .. .. .. .. 39 40 .. .. .. .. .. .. 39 
40 .. .. .. .. .. .. 37 38 .. .. .. .. .. .. 37 38 .. .. .. .. .. .. 37 38 .. .. .. .. .. 
.. 37 38 .. .. 40 .. .. .. 39 40 .. .. .. .. .. .. 39 40 .. .. .. .. .. .. 39 40 .. .. .. 
.. .. .. 39 40 .. .. .. .. .. .. 39 40 .. .. .. .. .. .. 39 40 .. .. .. .. .. .. 39 40 .. 
.. .. .. .. .. 39 40 .. .. .. .. .. .. 39 40 .. .. .. .. .. .. 39 40 .. .. .. .. .. .. 39 
40 .. .. .. .. .. .. 39 40 .. .. .. .. .. .. 39 40 .. .. .. .. .. .. 39 40 .. .. .. .. .. 
.. 39 40 .. .. .. .. .. .. 39 40 .. .. .. .. .. .. 39 40 .. .. .. .. .. .. 39 40 .. .. .. 
.. .. .. 39 40 .. .. .. .. .. .. 39 40 .. .. .. .. .. .. 39 40 .. .. .. .. .. 42 .. .. .. 
.. .. .. 44 .. .. .. .. .. .. 45 .. .. .. .. .. .. 47 .. .. .. .. .. .. 49 .. .. .. .. .. 
.. .. .. .. .. .. .. .. .. .. .. .. .. .. .. .. .. .. .. .. .. .. .. .. .. .. .. .. .. .. 
.. .. .. .. .. .. .. .. .. .. .. .. .. .. .. .. .. .. .. .. .. .. .. .. .. .. .. .. .. .. 
.. .. .. .. .. .. .. .. .. .. .. .. .. .. .. .. .. .. .. .. .. .. .. .. .. .. .. .. .. .. 
.. .. .. .. .. .. .. .. .. .. .. .. .. .. .. .. .. .. .. .. .. .. .. .. .. .. .. .. .. .. 
.. .. .. .. .. .. .. .. .. .. .. .. .. .. .. .. 51 .. .. .. .. .. .. 52 .. .. .. .. .. .. 
.. .. .. .. .. .. .. .. .. .. .. .. .. .. .. .. .. .. .. .. .. .. .. .. .. .. .. .. .. .. 
.. .. .. .. .. .. .. .. .. .. .. .. .. .. .. .. .. .. .. .. 49 .. .. .. .. .. .. .. .. .. 
.. .. .. .. .. .. .. .. .. .. .. .. .. .. .. .. .. .. .. .. .. .. .. .. .. .. .. .. .. .. 
.. .. .. .. .. .. .. .. .. .. .. .. .. .. .. .. .. .. .. .. .. .. .. .. .. .. .. .. .. .. 
.. .. .. .. .. .. .. .. .. .. .. .. .. .. .. .. .. .. .. .. .. .. .. .. .. .. .. .. .. .. 
.. .. .. .. .. .. .. .. .. .. .. .. .. .. .. .. .. .. .. .. .. .. .. .. .. .. .. .. .. .. 
.. .. .. .. .. .. .. .. .. .. .. .. .. .. .. .. .. .. .. .. .. .. .. .. .. .. .. .. .. .. 
.. .. .. .. .. .. .. .. .. .. .. .. .. .. .. .. .. .. .. .. .. .. .. .. .. .. .. .. .. .. 
.. .. .. .. .. .. .. .. .. .. .. .. .. .. .. .. .. .. .. .. .. .. .. .. .. .. .. .. .. .. 
.. 42 .. .. .. .. .. .. 44 .. .. .. .. .. .. 45 .. .. .. .. .. .. 47 .. .. .. .. .. .. 49 
.. .. .. .. .. .. .. .. .. .. .. .. .. .. .. .. .. .. .. .. .. .. .. .. .. .. .. .. .. .. 
.. .. .. .. .. .. .. .. .. .. .. .. .. .. .. .. .. .. .. .. .. .. .. .. .. .. .. .. .. .. 
.. .. .. .. .. .. .. .. .. .. .. .. .. .. .. .. .. .. .. .. .. .. .. .. .. .. .. .. .. .. 
.. .. .. .. .. .. .. .. .. .. .. .. .. .. .. .. .. .. .. .. .. .. .. .. .. .. .. .. .. .. 
.. .. .. .. .. .. .. .. .. .. .. .. .. .. .. .. .. .. .. .. .. 51 .. .. .. .. .. .. .. 52 
.. .. .. .. .. .. .. .. .. .. .. .. .. .. .. .. .. .. .. .. .. .. .. .. .. .. .. .. .. .. 
.. .. .. .. .. .. .. .. .. .. .. .. .. .. .. .. .. .. 54 .. .. .. 53 54 .. 56 .. .. .. .. 
55 56 .. .. .. .. .. .. 55 56 .. .. .. .. .. .. 55 56 .. .. .. .. .. .. 55 56 .. .. .. .. 
.. .. 55 56 .. .. .. .. .. .. 55 56 .. .. .. .. .. .. 55 56 .. .. .. .. .. .. 55 56 .. .. 
.. .. .. .. 55 56 .. .. .. .. .. .. 55 56 .. .. .. .. .. .. 55 56 .. .. .. .. .. .. 55 56 
.. .. .. .. .. .. 55 56 .. .. .. .. .. .. 55 56 .. .. .. .. .. .. 55 56 .. .. .. .. .. .. 
55 56 .. .. .. .. .. .. 55 56 .. .. .. .. .. .. 55 56 .. .. .. .. .. .. 55 56 .. .. .. .. 
.. .. 55 56 .. .. .. .. .. .. 55 56 .. .. .. .. .. .. 55 56 .. .. .. .. .. .. 55 56 .. .. 
.. .. .. .. 55 56 .. .. .. .. .. .. 55 56 .. .. .. .. .. .. 55 56 20 .. .. .. .. .. .. .. 
.. .. .. .. .. .. 20 .. .. .. .. .. .. .. .. .. .. .. .. .. .. .. .. .. .. .. .. .. .. .. 
.. .. .. .. 20 .. .. .. .. .. .. .. .. .. .. .. .. .. .. .. .. .. .. .. .. .. .. .. .. .. 
.. .. .. 20 .. .. .. .. .. .. .. .. .. .. .. .. .. .. .. .. .. .. .. .. .. .. .. .. .. .. 
.. 20 .. .. .. .. .. .. .. .. .. .. .. .. .. .. .. .. .. .. .. .. .. .. .. .. .. .. .. .. 
20 .. .. .. .. .. .. .. .. .. .. .. .. .. .. .. .. .. .. .. .. .. .. .. .. .. .. .. 20 .. 
.. .. .. .. .. .. .. .. .. .. .. .. 20 .. .. .. .. .. .. .. .. .. .. .. .. .. .. .. .. .. 
.. .. .. .. .. .. .. .. .. .. .. 20 .. .. .. .. .. .. .. .. .. .. .. .. .. .. .. .. .. .. 
.. .. .. .. .. .. .. .. .. 20 .. .. .. .. .. .. .. .. .. .. .. .. .. 20 .. .. .. .. .. .. 
.. .. .. .. .. .. .. .. .. .. .. .. .. .. .. .. .. .. .. .. .. .. 20 .. .. .. .. .. .. .. 
.. .. .. .. .. .. .. .. .. .. .. .. .. .. .. .. .. .. .. .. 20 .. .. .. .. .. .. .. .. .. 
.. .. .. .. .. .. .. .. .. .. .. .. .. .. .. .. .. .. .. 20 .. .. .. .. .. .. .. .. .. .. 
.. .. .. .. .. .. .. .. .. .. .. .. .. .. .. .. .. 20 .. .. .. .. .. .. .. .. .. .. .. .. 
.. .. .. .. .. .. .. .. .. .. .. .. .. .. .. .. 20 .. .. .. .. .. .. .. .. .. .. .. .. .. 
20 .. .. .. .. .. .. .. .. .. .. .. .. .. .. .. .. .. .. .. .. .. .. .. .. .. .. .. 20 .. 
.. .. .. .. .. .. .. .. .. .. .. .. .. .. .. .. .. .. .. .. .. .. .. .. .. .. .. 39 .. .. 
.. .. .. 38 39 .. .. .. .. .. .. 38 39 .. .. .. .. .. .. 38 39 .. .. .. .. .. .. 38 39 .. 
.. .. .. .. .. 38 39 .. .. .. .. .. .. 38 39 .. .. .. .. .. .. 38 39 .. .. .. .. .. .. 38 
39 .. .. .. .. .. .. 38 39 .. .. .. .. .. .. 38 39 .. .. .. .. .. .. 38 39 .. .. .. .. .. 
.. 38 39 .. .. .. .. .. .. 38 39 .. .. .. .. .. .. 38 39 .. .. .. .. .. .. 38 39 .. .. .. 
.. .. .. 38 39 .. .. .. .. .. .. 38 39 .. .. .. .. .. .. 38 39 .. .. .. .. .. .. 38 39 .. 
.. .. .. .. .. 38 39 .. .. .. .. .. .. 38 39 .. .. .. .. .. .. 38 39 .. .. .. .. .. .. 38 
39 .. .. .. .. .. .. 38 39 .. .. .. .. .. .. 38 39 .. .. .. .. .. .. 38 39 .. .. .. .. .. 
.. 38 39 .. .. .. .. .. .. 38 39 .. .. .. 39 .. .. 38 39 .. .. .. .. .. .. 38 39 .. .. .. 
.. .. .. 38 39 .. .. .. .. .. .. 38 39 .. .. .. .. .. .. 38 39 .. .. .. .. .. .. 37 .. .. 
.. .. .. .. .. .. .. .. .. .. .. .. .. .. .. .. .. .. .. .. .. .. .. .. .. 39 .. .. .. 38 
39 .. .. .. .. .. .. 38 39 .. .. .. .. .. .. 38 39 .. .. .. .. .. .. 38 39 .. .. .. .. .. 
.. 38 39 .. .. .. .. .. .. 38 39 .. .. .. .. .. .. 38 39 .. .. .. .. .. .. 38 39 .. .. .. 
.. .. .. 38 39 .. .. .. .. .. .. 38 39 .. .. .. .. .. .. 38 39 .. .. .. .. .. .. 38 39 .. 
.. .. .. .. .. 38 39 .. .. .. .. .. .. 38 39 .. .. .. .. .. .. 38 39 .. .. .. .. .. .. 38 
39 .. .. .. .. .. .. 38 39 .. .. .. .. .. .. 38 39 .. .. .. .. .. .. 38 39 .. .. .. .. .. 
.. 38 39 .. .. .. .. .. .. 38 39 .. .. .. .. .. .. 38 39 .. .. .. .. .. .. 38 39 .. .. .. 
.. .. .. 38 39 .. .. .. .. .. .. 38 39 .. .. .. .. .. .. 38 39 .. .. .. .. .. .. 38 39 .. 
.. .. .. .. .. 38 39 .. .. .. .. .. .. 38 39 .. .. .. .. .. .. 38 39 .. .. .. .. .. .. 38 
39 .. .. .. .. .. .. 38 39 .. .. .. .. .. .. 38 39 .. .. .. .. .. .. 38 39 .. .. .. .. .. 
.. 38 39 .. .. .. .. .. .. 38 39 .. .. .. .. .. .. 38 39 .. .. .. .. .. .. 38 39 .. .. .. 
.. .. .. 38 39 .. .. .. .. .. .. 38 39 .. .. .. .. .. .. 38 39 .. .. .. .. .. .. 38 39 .. 
.. .. .. .. .. 38 39 .. .. .. .. .. .. 38 39 .. .. .. .. .. .. 38 39 .. .. .. .. .. .. 38 
39 .. .. .. .. .. .. 38 39 .. .. .. .. .. .. 38 39 .. .. 39 .. .. .. 38 39 .. .. .. .. .. 
.. 38 39 .. .. .. .. .. .. 38 39 .. .. .. .. .. .. 38 39 .. .. .. .. .. .. 38 39 .. .. .. 
.. .. 37 .. .. .. .. .. .. .. .. .. .. .. .. .. .. .. .. .. .. .. .. .. .. .. .. .. .. .. 
.. 39 .. .. .. 38 39 .. .. .. .. .. .. 38 39 .. .. .. .. .. .. 38 39 .. .. .. .. .. .. 38 
39 .. .. .. .. .. .. 38 39 .. .. .. .. .. .. 38 39 .. .. .. .. .. .. 38 39 .. .. .. .. .. 
.. 38 39 .. .. .. .. .. .. 38 39 .. .. .. .. .. .. 38 39 .. .. .. .. .. .. 38 39 .. .. .. 
.. .. .. 38 39 .. .. .. .. .. .. 38 39 .. .. .. .. .. .. 38 39 .. .. .. .. .. .. 38 39 .. 
.. .. .. .. .. 38 39 .. .. .. .. .. .. 38 39 .. .. .. .. .. .. 38 39 .. .. .. .. .. .. 38 
39 .. .. .. .. .. .. 38 39 .. .. .. .. .. .. 38 39 .. .. .. .. 41 .. .. .. .. .. .. 43 .. 
.. .. .. .. .. 44 .. .. .. .. .. .. .. 46 .. .. .. .. .. .. 48 .. .. .. .. .. .. .. .. .. 
.. .. .. .. .. .. .. .. .. .. .. .. .. .. .. .. .. .. .. .. .. .. .. .. .. .. .. .. .. .. 
.. .. .. .. .. .. .. .. .. .. .. .. .. .. .. .. .. .. .. .. .. .. .. .. .. .. .. .. .. .. 
.. .. .. .. .. .. .. .. .. .. .. .. .. .. .. .. .. .. .. .. .. .. .. .. .. .. .. .. .. .. 
.. .. .. .. .. .. .. .. .. .. .. .. .. .. .. .. .. .. .. .. .. .. .. .. .. .. .. .. .. .. 
.. .. .. .. .. .. .. .. .. .. .. .. 50 .. .. .. .. .. .. 51 .. .. .. .. .. .. .. .. .. .. 
.. .. .. .. .. .. .. .. .. .. .. .. .. .. .. .. .. .. .. .. .. .. .. .. .. .. .. .. .. .. 
.. .. .. .. .. .. .. .. .. .. .. .. .. .. .. .. 48 .. .. .. .. .. .. .. .. .. .. .. .. .. 
.. .. .. .. .. .. .. .. .. .. .. .. .. .. .. .. .. .. .. .. .. .. .. .. .. .. .. .. .. .. 
.. .. .. .. .. .. .. .. .. .. .. .. .. .. .. .. .. .. .. .. .. .. .. .. .. .. .. .. .. .. 
.. .. .. .. .. .. .. .. .. .. .. .. .. .. .. .. .. .. .. .. .. .. .. .. .. .. .. .. .. .. 
.. .. .. .. .. .. .. .. .. .. .. .. .. .. .. .. .. .. .. .. .. .. .. .. .. .. .. .. .. .. 
.. .. .. .. .. .. .. .. .. .. .. .. .. .. .. .. .. .. .. .. .. .. .. .. .. .. .. .. .. .. 
.. .. .. .. .. .. .. .. .. .. .. .. .. .. .. .. .. .. .. .. .. .. .. .. .. .. .. .. .. .. 
.. .. .. .. .. .. .. .. .. .. .. .. .. .. .. .. .. .. .. .. .. .. .. .. .. .. 41 .. .. .. 
.. .. .. 43 .. .. .. .. .. .. .. 44 .. .. .. .. .. .. 46 .. .. .. .. .. .. 48 .. .. .. .. 
.. .. .. .. .. .. .. .. .. .. .. .. .. .. .. .. .. .. .. .. .. .. .. .. .. .. .. .. .. .. 
.. .. .. .. .. .. .. .. .. .. .. .. .. .. .. .. .. .. .. .. .. .. .. .. .. .. .. .. .. .. 
.. .. .. .. .. .. .. .. .. .. .. .. .. .. .. .. .. .. .. .. .. .. .. .. .. .. .. .. .. .. 
.. .. .. .. .. .. .. .. .. .. .. .. .. .. .. .. .. .. .. .. .. .. .. .. .. .. .. .. .. .. 
.. .. .. .. .. .. .. .. .. .. .. .. .. .. .. .. .. 50 .. .. .. .. .. .. 51 .. .. .. .. .. 
.. .. .. .. .. .. .. .. .. .. .. .. .. .. .. .. .. .. .. .. .. .. .. .. .. .. .. .. .. .. 
.. .. .. .. .. .. .. .. .. .. .. .. .. .. 53 .. .. .. .. .. .. 55 .. .. .. .. .. .. .. .. 
.. .. .. .. .. .. .. .. .. .. .. .. .. .. .. .. .. .. .. .. .. .. .. .. .. .. .. .. .. .. 
.. .. .. .. .. .. .. .. .. .. .. .. .. .. .. .. .. .. .. .. .. .. .. .. .. .. .. .. .. .. 
.. .. .. .. .. .. .. .. .. .. .. .. .. .. .. .. .. .. .. .. .. .. .. .. .. .. .. .. .. .. 
.. .. .. .. .. .. .. .. .. .. .. .. .. .. .. .. .. .. .. .. .. .. .. .. .. .. .. .. .. .. 
.. .. .. .. .. .. .. .. .. .. .. .. .. .. .. .. .. .. .. .. .. .. .. .. .. .. .. .. .. .. 
.. .. .. .. .. .. .. .. .. .. .. .. .. .. .. .. .. .. .. .. .. .. .. .. .. .. .. .. .. .. 
.. .. .. .. .. .. .. .. .. .. .. .. .. .. .. .. .. 20 .. .. .. .. .. .. .. .. .. .. .. .. 
.. 20 .. .. .. .. .. .. .. .. .. .. .. .. .. .. .. .. .. .. .. .. .. .. .. .. .. .. .. .. 
20 .. .. .. .. .. .. .. .. .. .. .. .. .. .. .. .. .. .. .. .. .. .. .. .. .. .. .. 20 .. 
.. .. .. .. .. .. .. .. .. .. .. .. .. .. .. .. .. .. .. .. .. .. .. .. .. .. .. 20 .. .. 
.. .. .. .. .. .. .. .. .. .. .. .. .. .. .. .. .. .. .. .. .. .. .. .. .. 20 .. .. .. .. 
.. .. .. .. .. .. .. .. .. .. .. .. .. .. .. .. .. .. .. .. .. .. .. .. 20 .. .. .. .. .. 
.. .. .. .. .. .. .. .. 20 .. .. .. .. .. .. .. .. .. .. .. .. .. .. .. .. .. .. .. .. .. 
.. .. .. .. .. .. 20 .. .. .. .. .. .. .. .. .. .. .. .. .. .. .. .. .. .. .. .. .. .. .. 
.. .. .. .. .. 20 .. .. .. .. .. .. .. .. .. .. .. .. .. 20 .. .. .. .. .. .. .. .. .. .. 
.. .. .. .. .. .. .. .. .. .. .. .. .. .. .. .. .. 20 .. .. .. .. .. .. .. .. .. .. .. .. 
.. .. .. .. .. .. .. .. .. .. .. .. .. .. .. .. 20 .. .. .. .. .. .. .. .. .. .. .. .. .. 
.. .. .. .. .. .. .. .. .. .. .. .. .. .. 20 .. .. .. .. .. .. .. .. .. .. .. .. .. 
! Song 1
50 14 .. .. .. .. 20 .. .. .. .. .. 19 20 .. .. .. .. .. .. 19 20 .. .. .. .. .. .. 19 20 
.. .. .. .. .. .. 19 20 27 .. .. .. .. .. 26 27 .. .. .. .. .. .. 26 27 .. .. .. .. .. .. 
26 27 .. .. .. .. .. .. 26 27 34 .. .. .. .. 33 .. .. 34 .. .. .. .. 33 .. .. 34 .. .. .. 
.. 33 .. .. 34 .. .. .. .. 33 .. .. 34 .. .. .. .. 33 .. .. 34 .. .. .. .. 33 .. .. 34 .. 
.. .. .. 33 .. .. 34 .. .. .. .. 33 .. .. 34 .. .. .. .. 33 .. .. 34 .. .. .. .. 33 .. .. 
34 .. .. .. .. 33 .. .. 34 .. .. .. .. 33 .. .. 34 .. .. .. .. 33 .. .. 34 .. .. 32 .. .. 
.. .. .. .. .. .. .. .. .. .. .. .. .. .. .. .. .. .. .. .. .. .. .. .. .. .. .. .. .. 39 
.. .. .. .. .. 38 39 .. .. .. .. .. .. 38 39 .. .. .. .. .. .. 38 39 .. .. .. .. .. .. 38 
39 46 .. .. .. .. .. 45 46 .. .. .. .. .. .. 45 46 .. .. .. .. .. .. 45 46 .. .. .. .. .. 
.. 45 46 .. .. .. .. .. .. 45 46 .. .. .. .. .. .. 45 46 .. .. .. .. .. .. 45 46 .. .. .. 
.. .. .. 45 46 .. .. .. .. .. .. 45 46 .. .. .. .. .. .. 45 46 .. .. .. .. .. .. 45 46 .. 
.. .. .. .. .. 45 46 .. .. .. .. .. .. 45 46 .. .. 20 .. .. .. .. .. 19 20 .. .. .. .. .. 
.. 19 20 .. .. .. .. .. .. 19 20 .. .. .. .. .. .. 19 20 27 .. .. .. .. .. 26 27 .. .. .. 
.. .. .. 26 27 .. .. .. .. .. .. 26 27 .. .. .. .. .. .. 26 27 34 .. .. .. .. 33 .. .. 34 
.. .. .. .. 33 .. .. 34 .. .. .. .. 33 .. .. 34 .. .. .. .. 33 .. .. 34 .. .. .. .. 33 .. 
.. 34 .. .. .. .. 33 .. .. 34 .. .. .. .. 33 .. .. 34 .. .. .. .. 33 .. .. 34 .. .. .. .. 
33 .. .. 34 .. .. .. .. 33 .. .. 34 .. .. .. .. 33 .. .. 34 .. .. .. .. 33 .. .. 34 .. .. 
.. .. 33 .. .. 34 .. .. 32 .. .. .. .. .. .. .. .. .. .. .. .. .. .. .. .. .. .. .. .. .. 
.. .. .. .. .. .. .. .. .. .. 39 .. .. .. .. .. 38 39 .. .. .. .. .. .. 38 39 .. .. .. .. 
.. .. 38 39 .. .. .. .. .. .. 38 39 48 .. .. .. .. .. 47 48 .. .. .. .. .. .. 47 48 .. .. 
.. .. .. .. 47 48 .. .. .. .. .. .. 47 48 .. .. .. .. .. .. 47 48 .. .. .. .. .. .. 47 48 
47 .. .. .. .. 46 45 46 .. .. .. 45 .. .. 44 45 44 .. .. .. .. 43 42 43 .. .. .. 42 .. .. 
41 42 41 .. .. .. .. 40 39 40 .. .. .. 39 .. .. 38 39 38 .. .. .. .. 37 .. .. .. .. .. 41 
.. .. .. .. .. 40 41 .. .. 44 .. .. .. 43 44 .. .. .. .. .. .. 43 44 .. .. .. .. .. .. 43 
44 41 .. .. .. .. .. 40 41 .. .. 46 .. .. .. 45 46 .. .. .. .. .. .. 45 46 .. .. .. .. .. 
.. 45 46 41 .. .. .. .. .. 40 41 .. .. 48 .. .. .. 47 48 .. .. .. .. .. .. 47 48 .. .. .. 
.. .. .. 47 48 .. .. .. .. .. .. 47 48 .. .. .. .. .. .. 47 48 .. .. .. .. .. .. 47 48 .. 
.. .. .. .. .. 47 48 .. .. .. .. .. .. 47 48 .. .. .. .. .. .. 47 48 .. .. .. .. .. .. 47 
48 .. .. .. .. .. .. 47 48 .. .. .. .. .. .. 47 48 .. .. 20 .. .. .. .. .. 19 20 .. .. .. 
.. .. .. 19 20 .. .. .. .. .. .. 19 20 .. .. .. .. .. .. 19 20 27 .. .. .. .. .. 26 27 .. 
.. .. .. .. .. 26 27 .. .. .. .. .. .. 26 27 .. .. .. .. .. .. 26 27 34 .. .. .. .. 33 .. 
.. 34 .. .. .. .. 33 .. .. 34 .. .. .. .. 33 .. .. 34 .. .. .. .. 33 .. .. 34 .. .. .. .. 
33 .. .. 34 .. .. .. .. 33 .. .. 34 .. .. .. .. 33 .. .. 34 .. .. .. .. 33 .. .. 34 .. .. 
.. .. 33 .. .. 34 .. .. .. .. 33 .. .. 34 .. .. .. .. 33 .. .. 34 .. .. .. .. 33 .. .. 34 
.. .. .. .. 33 .. .. 34 .. .. 41 .. .. .. .. .. 40 41 .. .. .. 44 .. .. 43 44 .. .. .. .. 
.. .. 43 44 .. .. .. .. .. .. 43 44 41 .. .. .. .. .. 40 41 .. .. .. 46 .. .. 45 46 .. .. 
.. .. .. .. 45 46 .. .. .. .. .. .. 45 46 49 .. .. .. .. .. 48 49 .. .. .. 48 .. .. 47 48 
.. .. .. .. .. .. 47 48 .. .. .. .. .. .. 47 48 .. .. .. .. .. .. 47 48 .. .. .. .. .. .. 
47 48 .. .. .. .. .. .. 47 48 .. .. .. .. .. .. 47 48 .. .. .. .. .. .. 47 48 .. .. .. .. 
.. .. 47 48 .. .. .. .. .. .. 47 48 .. .. .. .. .. .. 47 48 .. .. .. .. .. .. 47 48 .. .. 
.. 29 .. .. .. .. 28 .. .. 29 .. 32 .. .. 31 .. .. 32 .. .. .. .. 31 .. .. 32 .. .. .. .. 
31 .. .. 29 .. .. .. .. 28 .. .. 29 .. 34 .. .. 33 .. .. 34 .. .. .. .. 33 .. .. 34 .. .. 
.. .. 33 .. .. 37 .. .. .. .. 36 .. .. 37 .. 36 .. .. 35 .. .. 36 .. .. .. .. 35 .. .. 36 
.. .. .. .. 35 .. .. 36 .. .. .. .. 35 .. .. 36 .. .. .. .. 35 .. .. 36 .. .. .. .. 35 .. 
.. 36 .. .. .. .. 35 .. .. 36 .. .. .. .. 34 .. .. 35 .. 34 .. .. 33 .. .. .. .. .. .. .. 
31 .. .. 32 .. 31 .. .. .. 30 31 30 .. .. .. .. 28 .. .. 29 .. 20 .. .. .. .. .. 19 20 .. 
.. .. .. .. .. 19 20 .. .. .. .. .. .. 19 20 .. .. .. .. .. .. 19 20 27 .. .. .. .. .. 26 
27 .. .. .. .. .. .. 26 27 .. .. .. .. .. .. 26 27 .. .. .. .. .. .. 26 27 34 .. .. .. .. 
33 .. .. 34 .. .. .. .. 33 .. .. 34 .. .. .. .. 33 .. .. 34 .. .. .. .. 33 .. .. 34 .. .. 
.. .. 33 .. .. 34 .. .. .. .. 33 .. .. 34 .. .. .. .. 33 .. .. 34 .. .. .. .. 33 .. .. 34 
.. .. .. .. 33 .. .. 34 .. .. .. .. 33 .. .. 34 .. .. .. .. 33 .. .. 34 .. .. .. .. 33 .. 
.. 34 .. .. .. .. 33 .. .. 34 .. .. 32 .. .. .. .. .. .. .. .. .. .. .. .. .. .. .. .. .. 
.. .. .. .. .. .. .. .. .. .. .. .. .. .. 39 .. .. .. .. .. 38 39 .. .. .. .. .. .. 38 39 
.. .. .. .. .. .. 38 39 .. .. .. .. .. .. 38 39 46 .. .. .. .. .. 45 46 .. .. .. .. .. .. 
45 46 .. .. .. .. .. .. 45 46 .. .. .. .. .. .. 45 46 .. .. .. .. .. .. 45 46 .. .. .. .. 
.. .. 45 46 .. .. .. .. .. .. 45 46 .. .. .. .. .. .. 45 46 .. .. .. .. .. .. 45 46 .. .. 
.. .. .. .. 45 46 .. .. .. .. .. .. 45 46 .. .. .. .. .. .. 45 46 .. .. .. .. .. .. 45 46 
.. .. .. 20 .. .. .. .. .. 19 20 .. .. .. .. .. .. 19 20 .. .. .. .. .. .. 19 20 .. .. .. 
.. .. .. 19 20 27 .. .. .. .. .. 26 27 .. .. .. .. .. .. 26 27 .. .. .. .. .. .. 26 27 .. 
.. .. .. .. .. 26 27 34 .. .. .. .. 33 .. .. 34 .. .. .. .. 33 .. .. 34 .. .. .. .. 33 .. 
.. 34 .. .. .. .. 33 .. .. 34 .. .. .. .. 33 .. .. 34 .. .. .. .. 33 .. .. 34 .. .. .. .. 
33 .. .. 34 .. .. .. .. 33 .. .. 34 .. .. .. .. 33 .. .. 34 .. .. .. .. 33 .. .. 34 .. .. 
.. .. 33 .. .. 34 .. .. .. .. 33 .. .. 34 .. .. .. .. 33 .. .. 34 .. 32 .. .. .. .. .. .. 
.. .. .. .. .. .. .. .. .. .. .. .. .. .. .. .. .. .. .. .. .. .. .. .. .. 39 .. .. .. .. 
.. 38 39 .. .. .. .. .. .. 38 39 .. .. .. .. .. .. 38 39 .. .. .. .. .. .. 38 39 48 .. .. 
.. .. .. 47 48 .. .. .. .. .. .. 47 48 .. .. .. .. .. .. 47 48 .. .. .. .. .. .. 47 48 .. 
.. .. .. .. .. 47 48 .. .. .. .. .. .. 47 48 47 .. .. .. .. 46 45 46 .. .. .. 45 .. .. 44 
45 44 .. .. .. .. .. 42 43 .. .. .. 42 .. .. 41 42 41 .. .. .. .. .. 39 40 .. .. .. 39 .. 
.. 38 39 38 .. .. .. .. .. 37 .. .. .. .. 44 .. .. .. .. .. 43 44 .. .. .. 41 .. .. 40 41 
.. .. .. .. .. .. 40 41 .. .. .. .. .. .. 40 41 48 .. .. .. .. .. 47 48 .. .. .. 44 .. .. 
43 44 .. .. .. .. .. .. 43 44 .. .. .. .. .. .. 43 44 51 .. .. .. .. .. 50 51 .. .. .. 48 
.. .. 47 48 .. .. .. .. .. .. 47 48 .. .. .. .. .. .. 47 48 .. .. .. .. .. .. 47 48 .. .. 
.. .. .. .. 47 48 .. .. .. .. .. .. 47 48 .. .. .. .. .. .. 47 48 .. .. .. .. .. 46 .. .. 
47 .. .. 46 .. .. 45 46 45 .. .. .. .. 44 43 44 .. .. .. 43 .. .. 42 43 42 .. .. .. .. 41 
40 41 .. .. .. 20 .. .. .. .. .. 19 20 .. .. .. .. .. .. 19 20 .. .. .. .. .. .. 19 20 .. 
.. .. .. .. .. 19 20 27 .. .. .. .. .. 26 27 .. .. .. .. .. .. 26 27 .. .. .. .. .. .. 26 
27 .. .. .. .. .. .. 26 27 34 .. .. .. .. 33 .. .. 34 .. .. .. .. 33 .. .. 34 .. .. .. .. 
33 .. .. 34 .. .. .. .. 33 .. .. 34 .. .. .. .. 33 .. .. 34 .. .. .. .. 33 .. .. 34 .. .. 
.. .. 33 .. .. 34 .. .. .. .. 33 .. .. 34 .. .. .. .. 33 .. .. 34 .. .. .. .. 33 .. .. 34 
.. .. .. .. 33 .. .. 34 .. .. .. .. 33 .. .. 34 .. .. .. .. 33 .. .. 34 .. 44 .. .. .. .. 
.. 43 44 .. .. .. 41 .. .. 40 41 .. .. .. .. .. .. 40 41 .. .. .. .. .. .. 40 41 48 .. .. 
.. .. .. 47 48 .. .. .. 44 .. .. 43 44 .. .. .. .. .. .. 43 44 .. .. .. .. .. .. 43 44 53 
.. .. .. .. 52 .. .. 53 .. .. 48 .. .. .. .. .. 47 48 .. .. .. .. .. .. 47 48 .. .. .. .. 
.. .. 47 48 .. .. .. .. .. .. 47 48 .. .. .. .. .. .. 47 48 .. .. .. .. .. .. 47 48 .. .. 
.. .. .. .. 47 48 .. .. .. 47 .. .. 46 47 46 .. .. .. .. 45 .. .. .. .. .. 44 .. .. .. .. 
43 .. .. .. .. 42 .. .. .. .. .. 41 .. .. .. .. 29 .. .. .. .. 28 .. .. 29 .. .. 32 .. 31 
.. .. 32 .. .. .. .. 31 .. .. 32 .. .. .. .. 31 .. .. 29 .. .. .. .. 28 .. .. 29 .. .. 34 
.. 33 .. .. 34 .. .. .. .. 33 .. .. 34 .. .. .. .. 33 .. .. 37 .. .. .. .. 36 .. .. 37 .. 
.. 36 .. 35 .. .. 36 .. .. .. .. 35 .. .. 36 .. .. .. .. 35 .. .. 36 .. .. .. .. 35 .. .. 
36 .. .. .. .. 35 .. .. 36 .. .. .. .. 35 .. .. 36 .. .. .. .. 35 .. .. 36 .. .. .. .. 34 
.. .. 35 .. .. 34 .. 33 .. .. .. .. .. .. .. 31 .. .. 32 .. .. 31 .. .. 30 31 30 .. .. .. 
.. 28 .. .. 29 .. .. 20 .. .. .. .. .. 19 20 .. .. .. .. .. .. 19 20 .. .. .. .. .. .. 19 
20 .. .. .. .. .. .. 19 20 27 .. .. .. .. .. 26 27 .. .. .. .. .. .. 26 27 .. .. .. .. .. 
.. 26 27 .. .. .. .. .. .. 26 27 34 .. .. .. .. 33 .. .. 34 .. .. .. .. 33 .. .. 34 .. .. 
.. .. 33 .. .. 34 .. .. .. .. 33 .. .. 34 .. .. .. .. 33 .. .. 34 .. .. .. .. 33 .. .. 34 
.. .. .. .. 33 .. .. 34 .. .. .. .. 33 .. .. 34 .. .. .. .. 33 .. .. 34 .. .. .. .. 33 .. 
.. 34 .. .. .. .. 33 .. .. 34 .. .. .. .. 33 .. .. 34 .. .. .. .. 33 .. .. 34 .. 32 .. .. 
.. .. .. .. .. .. .. .. .. .. .. .. .. .. .. .. .. .. .. .. .. .. .. .. .. .. .. .. .. 39 
.. .. .. .. .. 38 39 .. .. .. .. .. .. 38 39 .. .. .. .. .. .. 38 39 .. .. .. .. .. .. 38 
39 46 .. .. .. .. .. 45 46 .. .. .. .. .. .. 45 46 .. .. .. .. .. .. 45 46 .. .. .. .. .. 
.. 45 46 .. .. .. .. .. .. 45 46 .. .. .. .. .. .. 45 46 .. .. .. .. .. .. 45 46 .. .. .. 
.. .. .. 45 46 .. .. .. .. .. .. 45 46 .. .. .. .. .. .. 45 46 .. .. .. .. .. .. 45 46 .. 
.. .. .. .. .. 45 46 .. .. .. .. .. .. 45 46 .. .. .. 20 .. .. .. .. .. 19 20 .. .. .. .. 
.. .. 19 20 .. .. .. .. .. .. 19 20 .. .. .. .. .. .. 19 20 27 .. .. .. .. .. 26 27 .. .. 
.. .. .. .. 26 27 .. .. .. .. .. .. 26 27 .. .. .. .. .. .. 26 27 34 .. .. .. .. 33 .. .. 
34 .. .. .. .. 33 .. .. 34 .. .. .. .. 33 .. .. 34 .. .. .. .. 33 .. .. 34 .. .. .. .. 33 
.. .. 34 .. .. .. .. 33 .. .. 34 .. .. .. .. 33 .. .. 34 .. .. .. .. 33 .. .. 34 .. .. .. 
.. 33 .. .. 34 .. .. .. .. 33 .. .. 34 .. .. .. .. 33 .. .. 34 .. .. .. .. 33 .. .. 34 .. 
.. .. .. 33 .. .. 34 .. .. 32 .. .. .. .. .. .. .. .. .. .. .. .. .. .. .. .. .. .. .. .. 
.. .. .. .. .. .. .. .. .. .. .. 39 .. .. .. .. .. 38 39 .. .. .. .. .. .. 38 39 .. .. .. 
.. .. .. 38 39 .. .. .. .. .. .. 38 39 48 .. .. .. .. .. 47 48 .. .. .. .. .. .. 47 48 .. 
.. .. .. .. .. 47 48 .. .. .. .. .. .. 47 48 .. .. .. .. .. .. 47 48 .. .. .. .. .. .. 47 
48 47 .. .. .. .. 46 45 46 .. .. 45 .. .. .. 44 45 44 .. .. .. .. 43 42 43 .. .. 42 .. .. 
.. 41 42 41 .. .. .. .. 40 39 40 .. .. 39 .. .. .. 38 39 38 .. .. .. .. 39 38 39 .. .. 43 
.. .. .. .. .. 42 43 .. .. .. 46 .. .. 45 46 .. .. .. .. .. .. 45 46 .. .. .. .. .. .. 45 
46 43 .. .. .. .. .. 42 43 .. .. .. 48 .. .. 47 48 .. .. .. .. .. .. 47 48 .. .. .. .. .. 
.. 47 48 43 .. .. .. .. .. 42 43 .. .. .. 50 .. .. 49 50 .. .. .. .. .. .. 49 50 .. .. .. 
.. .. .. 49 50 .. .. .. .. .. .. 49 50 .. .. .. .. .. .. 49 50 .. .. .. .. .. .. 49 50 .. 
.. .. .. .. .. 49 50 .. .. .. .. .. .. 49 50 .. .. .. .. .. .. 49 50 .. .. .. .. .. .. 49 
50 .. .. .. .. .. .. 49 50 .. .. .. .. .. .. 49 50 .. .. .. 22 .. .. .. .. .. 21 22 .. .. 
.. .. .. .. 21 22 .. .. .. .. .. .. 21 22 .. .. .. .. .. .. 21 22 29 .. .. .. .. 28 .. .. 
29 .. .. .. .. 28 .. .. 29 .. .. .. .. 28 .. .. 29 .. .. .. .. 28 .. .. 36 .. .. .. .. 35 
.. .. 36 .. .. .. .. 35 .. .. 36 .. .. .. .. 35 .. .. 36 .. .. .. .. 35 .. .. 36 .. .. .. 
.. 35 .. .. 36 .. .. .. .. 35 .. .. 36 .. .. .. .. 35 .. .. 36 .. .. .. .. 35 .. .. 36 .. 
.. .. .. 35 .. .. 36 .. .. .. .. 35 .. .. 36 .. .. .. .. 35 .. .. 36 .. .. .. .. 35 .. .. 
36 .. .. .. .. 35 .. .. 36 .. .. 43 .. .. .. .. .. 42 43 .. .. 46 .. .. .. 45 46 .. .. .. 
.. .. .. 45 46 .. .. .. .. .. .. 45 46 43 .. .. .. .. .. 42 43 .. .. 48 .. .. .. 47 48 .. 
.. .. .. .. .. 47 48 .. .. .. .. .. .. 47 48 51 .. .. .. .. .. 50 51 .. .. 50 .. .. .. 49 
50 .. .. .. .. .. .. 49 50 .. .. .. .. .. .. 49 50 .. .. .. .. .. .. 49 50 .. .. .. .. .. 
.. 49 50 .. .. .. .. .. .. 49 50 .. .. .. .. .. .. 49 50 .. .. .. .. .. .. 49 50 .. .. .. 
.. .. .. 49 50 .. .. .. .. .. .. 49 50 .. .. .. .. .. .. 49 50 .. .. .. .. .. .. 49 50 .. 
.. 31 .. .. .. .. .. 30 31 .. .. .. 34 .. 33 .. .. 34 .. .. .. .. 33 .. .. 34 .. .. .. .. 
33 .. .. 31 .. .. .. .. .. 30 31 .. .. .. 36 .. 35 .. .. 36 .. .. .. .. 35 .. .. 36 .. .. 
.. .. 35 .. .. 39 .. .. .. .. 38 50 38 39 .. .. 38 .. 37 .. .. 38 .. .. .. .. 37 .. .. 38 
.. .. .. .. 37 .. .. 38 .. .. .. .. 37 .. .. 38 .. .. .. .. 37 .. .. 38 .. .. .. .. 37 .. 
.. 38 .. .. .. .. 37 .. .. 38 .. .. .. .. 37 36 .. 37 .. .. 36 .. 35 .. .. .. .. .. .. .. 
34 33 .. 34 .. .. 33 .. .. 32 33 32 .. .. .. .. 31 30 31 .. .. .. 22 .. .. .. .. .. 21 22 
.. .. .. .. .. .. 21 22 .. .. .. .. .. .. 21 22 .. .. .. .. .. .. 21 22 29 .. .. .. .. 28 
.. .. 29 .. .. .. .. 28 .. .. 29 .. .. .. .. 28 .. .. 29 .. .. .. .. 28 .. .. 36 .. .. .. 
.. 35 .. .. 36 .. .. .. .. 35 .. .. 36 .. .. .. .. 35 .. .. 36 .. .. .. .. 35 .. .. 36 .. 
.. .. .. 35 .. .. 36 .. .. .. .. 35 .. .. 36 .. .. .. .. 35 .. .. 36 .. .. .. .. 35 .. .. 
36 .. .. .. .. 35 .. .. 36 .. .. .. .. 35 .. .. 36 .. .. .. .. 35 .. .. 36 .. .. .. .. 35 
.. .. 36 .. .. .. .. 35 .. .. 36 .. .. 34 .. .. .. .. .. .. .. .. .. .. .. .. .. .. .. .. 
.. .. .. .. .. .. .. .. .. .. .. .. .. .. .. 41 .. .. .. .. .. 40 41 .. .. .. .. .. .. 40 
41 .. .. .. .. .. .. 40 41 .. .. .. .. .. .. 40 41 48 .. .. .. .. .. 47 48 .. .. .. .. .. 
.. 47 48 .. .. .. .. .. .. 47 48 .. .. .. .. .. .. 47 48 .. .. .. .. .. .. 47 48 .. .. .. 
.. .. .. 47 48 .. .. .. .. .. .. 47 48 .. .. .. .. .. .. 47 48 .. .. .. .. .. .. 47 48 .. 
.. .. .. .. .. 47 48 .. .. .. .. .. .. 47 48 .. .. .. .. .. .. 47 48 .. .. .. .. .. .. 47 
48 .. .. 22 .. .. .. .. .. 21 22 .. .. .. .. .. .. 21 22 .. .. .. .. .. .. 21 22 .. .. .. 
.. .. .. 21 22 29 .. .. .. .. 28 .. .. 29 .. .. .. .. 28 .. .. 29 .. .. .. .. 28 .. .. 29 
.. .. .. .. 28 .. .. 36 .. .. .. .. 35 .. .. 36 .. .. .. .. 35 .. .. 36 .. .. .. .. 35 .. 
.. 36 .. .. .. .. 35 .. .. 36 .. .. .. .. 35 .. .. 36 .. .. .. .. 35 .. .. 36 .. .. .. .. 
35 .. .. 36 .. .. .. .. 35 .. .. 36 .. .. .. .. 35 .. .. 36 .. .. .. .. 35 .. .. 36 .. .. 
.. .. 35 .. .. 36 .. .. .. .. 35 .. .. 36 .. .. .. .. 35 .. .. 36 .. .. 34 .. .. .. .. .. 
.. .. .. .. .. .. .. .. .. .. .. .. .. .. .. .. .. .. .. .. .. .. .. .. .. .. 41 .. .. .. 
.. .. 40 41 .. .. .. .. .. .. 40 41 .. .. .. .. .. .. 40 41 .. .. .. .. .. .. 40 41 50 .. 
.. .. .. .. 49 50 .. .. .. .. .. .. 49 50 .. .. .. .. .. .. 49 50 .. .. .. .. .. .. 49 50 
.. .. .. .. .. .. 49 50 .. .. .. .. .. .. 49 50 49 .. .. .. .. 48 47 48 .. .. .. 47 .. 46 
.. .. .. .. .. .. .. 45 44 45 .. .. .. 44 .. .. 43 44 43 .. .. .. .. 42 41 42 .. .. .. 41 
.. .. 40 41 40 .. .. .. .. 36 .. .. .. .. .. 43 .. .. .. .. .. 42 43 .. .. 40 .. .. .. 39 
40 .. .. .. .. .. .. 39 40 .. .. .. .. .. .. 39 40 47 .. .. .. .. 46 .. .. 47 .. 43 .. .. 
.. 42 43 .. .. .. .. .. .. 42 43 .. .. .. .. .. .. 42 43 50 .. .. .. .. .. 49 50 .. .. 47 
.. .. 46 .. .. 47 .. .. .. .. 46 .. .. 47 .. .. .. .. 46 .. .. 47 .. .. .. .. 46 .. .. 47 
.. .. .. .. 46 .. .. 47 .. .. .. .. 46 .. .. 47 .. .. .. .. 46 .. .. 47 .. .. .. .. 46 45 
46 .. .. 45 .. .. .. 44 45 44 .. .. .. .. 43 42 43 .. .. 42 .. .. .. 41 42 41 .. .. .. .. 
40 39 40 .. .. 19 .. .. .. .. .. .. .. .. .. .. .. .. .. .. .. .. .. .. .. .. .. .. .. .. 
.. .. .. .. .. .. .. 26 .. .. .. .. 25 .. .. 26 .. .. .. .. 25 .. .. 26 .. .. .. .. 25 .. 
.. 26 .. .. .. .. 25 .. .. 33 .. .. .. .. .. 32 33 .. .. .. .. .. .. 32 33 .. .. .. .. .. 
.. 32 33 .. .. .. .. .. .. 32 33 .. .. .. .. .. .. 32 33 .. .. .. .. .. .. 32 33 .. .. .. 
.. .. .. 32 33 .. .. .. .. .. .. 32 33 .. .. .. .. .. .. 32 33 .. .. .. .. .. .. 32 33 .. 
.. .. .. .. .. 32 33 .. .. .. .. .. .. 32 33 .. .. .. .. .. .. 32 33 .. .. .. 43 .. .. .. 
.. .. 42 43 .. .. .. 40 .. .. 39 40 .. .. .. .. .. .. 39 40 .. .. .. .. .. .. 39 40 47 .. 
.. .. .. 46 .. .. 47 .. .. 43 .. .. 42 43 .. .. .. .. .. .. 42 43 .. .. .. .. .. .. 42 43 
52 .. .. .. .. .. 51 52 .. .. .. 47 .. .. .. .. .. 46 47 .. .. .. .. .. .. 46 47 .. .. .. 
.. .. .. 46 47 .. .. .. .. .. .. 46 47 .. .. .. .. .. .. 46 47 .. .. .. .. .. .. 46 47 .. 
.. .. .. .. .. 46 47 .. .. 46 .. .. .. .. .. 45 .. .. .. .. 44 .. .. .. .. 43 .. .. .. .. 
.. 42 .. .. .. .. 41 .. .. .. .. 40 .. .. .. .. .. 28 .. .. .. .. .. 27 28 .. .. 31 .. .. 
.. 30 31 .. .. .. .. .. .. 30 31 .. .. .. .. .. .. 30 31 28 .. .. .. .. .. 27 28 .. .. 33 
.. .. .. 32 33 .. .. .. .. .. .. 32 33 .. .. .. .. .. .. 32 33 36 .. .. .. .. 35 .. .. 36 
.. 35 .. .. 34 .. .. 35 .. .. .. .. 34 .. .. 35 .. .. .. .. 34 .. .. 35 .. .. .. .. 34 .. 
.. 35 .. .. .. .. 34 .. .. 35 .. .. .. .. 34 .. .. 35 .. .. .. .. 34 .. .. 35 .. .. .. .. 
33 .. .. 34 .. 33 .. .. .. 32 33 32 .. .. .. .. 31 30 31 .. .. 30 .. .. .. 29 30 29 .. .. 
.. .. 28 .. .. 29 .. 20 .. .. .. .. .. 19 20 .. .. .. .. .. .. 19 20 .. .. .. .. .. .. 19 
20 .. .. .. .. .. .. 19 20 27 .. .. .. .. .. 26 27 .. .. .. .. .. .. 26 27 .. .. .. .. .. 
.. 26 27 .. .. .. .. .. .. 26 27 34 .. .. .. .. 33 .. .. 34 .. .. .. .. 33 .. .. 34 .. .. 
.. .. 33 .. .. 34 .. .. .. .. 33 .. .. 34 .. .. .. .. 33 .. .. 34 .. .. .. .. 33 .. .. 34 
.. .. .. .. 33 .. .. 34 .. .. .. .. 33 .. .. 34 .. .. .. .. 33 .. .. 34 .. .. .. .. 33 .. 
.. 34 .. .. .. .. 33 .. .. 34 .. .. .. .. 33 .. .. 34 .. .. .. .. 33 .. .. 34 .. .. 32 .. 
.. .. .. .. .. .. .. .. .. .. .. .. .. .. .. .. .. .. .. .. .. .. .. .. .. .. .. .. .. .. 
39 .. .. .. .. .. 38 39 .. .. .. .. .. .. 38 39 .. .. .. .. .. .. 38 39 .. .. .. .. .. .. 
38 39 46 .. .. .. .. .. 45 46 .. .. .. .. .. .. 45 46 .. .. .. .. .. .. 45 46 .. .. .. .. 
.. .. 45 46 .. .. .. .. .. .. 45 46 .. .. .. .. .. .. 45 46 .. .. .. .. .. .. 45 46 .. .. 
.. .. .. .. 45 46 .. .. .. .. .. .. 45 46 .. .. .. .. .. .. 45 46 .. .. .. .. .. .. 45 46 
.. .. .. .. .. .. 45 46 .. .. .. .. .. .. 45 46 .. .. .. 20 .. .. .. .. .. 19 20 .. .. .. 
.. .. .. 19 20 .. .. .. .. .. .. 19 20 .. .. .. .. .. .. 19 20 27 .. .. .. .. .. 26 27 .. 
.. .. .. .. .. 26 27 .. .. .. .. .. .. 26 27 .. .. .. .. .. .. 26 27 34 .. .. .. .. 33 .. 
.. 34 .. .. .. .. 33 .. .. 34 .. .. .. .. 33 .. .. 34 .. .. .. .. 33 .. .. 34 .. .. .. .. 
33 .. .. 34 .. .. .. .. 33 .. .. 34 .. .. .. .. 33 .. .. 34 .. .. .. .. 33 .. .. 34 .. .. 
.. .. 33 .. .. 34 .. .. .. .. 33 .. .. 34 .. .. .. .. 33 .. .. 34 .. .. .. .. 33 .. .. 34 
.. .. .. .. 33 .. .. 34 .. 32 .. .. .. .. .. .. .. .. .. .. .. .. .. .. .. .. .. .. .. .. 
.. .. .. .. .. .. .. .. .. .. .. 39 .. .. .. .. .. 38 39 .. .. .. .. .. .. 38 39 .. .. .. 
.. .. .. 38 39 .. .. .. .. .. .. 38 39 48 .. .. .. .. .. 47 48 .. .. .. .. .. .. 47 48 .. 
.. .. .. .. .. 47 48 .. .. .. .. .. .. 47 48 .. .. .. .. .. .. 47 48 .. .. .. .. .. .. 47 
48 47 .. .. .. .. 46 45 46 .. .. .. 45 .. .. 44 45 44 .. .. .. .. .. 42 43 .. .. .. 42 .. 
.. 41 42 41 .. .. .. .. .. 39 40 .. .. .. 39 .. .. 38 39 38 .. .. .. .. .. 37 .. .. .. .. 
41 .. .. .. .. .. 40 41 .. .. .. 44 .. .. 43 44 .. .. .. .. .. .. 43 44 .. .. .. .. .. .. 
43 44 41 .. .. .. .. .. 40 41 .. .. .. 46 .. .. 45 46 .. .. .. .. .. .. 45 46 .. .. .. .. 
.. .. 45 46 41 .. .. .. .. .. 40 41 .. .. .. 48 .. .. 47 48 .. .. .. .. .. .. 47 48 .. .. 
.. .. .. .. 47 48 .. .. .. .. .. .. 47 48 .. .. .. .. .. .. 47 48 .. .. .. .. .. .. 47 48 
.. .. .. .. .. .. 47 48 .. .. .. .. .. .. 47 48 .. .. .. .. .. .. 47 48 .. .. .. .. .. .. 
47 48 .. .. .. .. .. .. 47 48 .. .. .. .. .. .. 47 48 .. .. .. 20 .. .. .. .. .. 19 20 .. 
.. .. .. .. .. 19 20 .. .. .. .. .. .. 19 20 .. .. .. .. .. .. 19 20 27 .. .. .. .. .. 26 
27 .. .. .. .. .. .. 26 27 .. .. .. .. .. .. 26 27 .. .. .. .. .. .. 26 27 34 .. .. .. .. 
33 .. .. 34 .. .. .. .. 33 .. .. 34 .. .. .. .. 33 .. .. 34 .. .. .. .. 33 .. .. 34 .. .. 
.. .. 33 .. .. 34 .. .. .. .. 33 .. .. 34 .. .. .. .. 33 .. .. 34 .. .. .. .. 33 .. .. 34 
.. .. .. .. 33 .. .. 34 .. .. .. .. 33 .. .. 34 .. .. .. .. 33 .. .. 34 .. .. .. .. 33 .. 
.. 34 .. .. .. .. 33 .. .. 34 .. 41 .. .. .. .. .. 40 41 .. .. .. 44 .. .. 43 44 .. .. .. 
.. .. .. 43 44 .. .. .. .. .. .. 43 44 41 .. .. .. .. .. 40 41 .. .. .. 46 .. .. 45 46 .. 
.. .. .. .. .. 45 46 .. .. .. .. .. .. 45 46 49 .. .. .. .. .. 48 49 .. .. .. 48 .. .. 47 
48 .. .. .. .. .. .. 47 48 .. .. .. .. .. .. 47 48 .. .. .. .. .. .. 47 48 .. .. .. .. .. 
.. 47 48 .. .. .. .. .. .. 47 48 .. .. .. .. .. .. 47 48 .. .. .. .. .. .. 47 48 .. .. .. 
.. .. .. 47 48 .. .. .. .. .. .. 47 48 .. .. .. .. .. .. 47 48 .. .. .. .. .. .. 47 48 .. 
.. .. 29 .. .. .. .. 28 .. .. 29 .. .. 32 .. 31 .. .. 32 .. .. .. .. 31 .. .. 32 .. .. .. 
.. 31 .. .. 29 .. .. .. .. 28 .. .. 29 .. .. 34 .. 33 .. .. 34 .. .. .. .. 33 .. .. 34 .. 
.. .. .. 33 .. .. 37 .. .. .. .. 36 .. .. 37 .. .. 36 .. 35 .. .. 36 .. .. .. .. 35 .. .. 
36 .. .. .. .. 35 .. .. 36 .. .. .. .. 35 .. .. 36 .. .. .. .. 35 .. .. 36 .. .. .. .. 35 
.. .. 36 .. .. .. .. 35 .. .. 36 .. .. .. .. 34 .. .. 35 .. .. 34 .. 33 .. .. .. .. .. .. 
.. 31 .. .. 32 .. .. 31 .. .. 30 31 30 .. .. .. .. 28 .. .. 29 .. .. 20 .. .. .. .. .. 19 
20 .. .. .. .. .. .. 19 20 .. .. .. .. .. .. 19 20 .. .. .. .. .. .. 19 20 27 .. .. .. .. 
.. 26 27 .. .. .. .. .. .. 26 27 .. .. .. .. .. .. 26 27 .. .. .. .. .. .. 26 27 34 .. .. 
.. .. 33 .. .. 34 .. .. .. .. 33 .. .. 34 .. .. .. .. 33 .. .. 34 .. .. .. .. 33 .. .. 34 
.. .. .. .. 33 .. .. 34 .. .. .. .. 33 .. .. 34 .. .. .. .. 33 .. .. 34 .. .. .. .. 33 .. 
.. 34 .. .. .. .. 33 .. .. 34 .. .. .. .. 33 .. .. 34 .. .. .. .. 33 .. .. 34 .. .. .. .. 
33 .. .. 34 .. .. .. .. 33 .. .. 34 .. 32 .. .. .. .. .. .. .. .. .. .. .. .. .. .. .. .. 
.. .. .. .. .. .. .. .. .. .. .. .. .. .. .. 39 .. .. .. .. .. 38 39 .. .. .. .. .. .. 38 
39 .. .. .. .. .. .. 38 39 .. .. .. .. .. .. 38 39 46 .. .. .. .. .. 45 46 .. .. .. .. .. 
.. 45 46 .. .. .. .. .. .. 45 46 .. .. .. .. .. .. 45 46 .. .. .. .. .. .. 45 46 .. .. .. 
.. .. .. 45 46 .. .. .. .. .. .. 45 46 .. .. .. .. .. .. 45 46 .. .. .. .. .. .. 45 46 .. 
.. .. .. .. .. 45 46 .. .. .. .. .. .. 45 46 .. .. .. .. .. .. 45 46 .. .. .. .. .. 
! Song 2
50 24 .. .. .. .. .. 23 24 .. .. .. .. .. .. 23 24 .. .. .. .. .. .. 23 24 .. .. .. .. .. 
.. 23 24 .. .. .. .. .. .. 23 24 .. .. .. .. .. .. 23 24 .. .. .. .. .. .. 23 24 .. .. .. 
.. .. .. 23 24 .. .. .. .. .. .. 23 24 .. .. .. .. .. .. 23 24 .. .. .. .. .. .. 23 24 .. 
.. .. .. .. .. 23 24 .. .. .. .. .. .. 23 24 .. .. .. .. .. .. 23 24 .. .. .. .. .. .. 23 
24 .. .. .. .. .. .. 23 24 .. .. .. .. .. .. 23 24 .. .. .. .. .. .. 23 24 .. .. .. .. .. 
.. 23 24 .. .. .. .. .. .. 23 24 21 .. .. .. .. .. 20 21 22 .. .. .. .. .. 21 22 .. .. .. 
.. .. .. 21 22 21 .. .. .. .. .. 20 21 24 .. .. .. .. .. 23 24 .. .. .. .. .. .. 23 24 .. 
.. .. .. .. .. 23 24 .. .. .. .. .. .. 23 24 .. .. .. .. .. .. 23 24 .. .. .. .. .. .. 23 
24 .. .. .. .. .. .. 23 24 .. .. .. .. .. .. 23 24 .. .. .. .. .. .. 23 24 .. .. .. .. .. 
.. 23 24 .. .. .. .. .. .. 23 24 .. .. .. .. .. .. 23 24 .. .. .. .. .. .. 23 24 .. .. .. 
.. .. .. 23 24 .. .. .. .. .. .. 23 24 .. .. .. .. .. .. 23 24 .. .. .. .. .. .. 23 24 .. 
.. .. .. .. .. 23 24 .. .. .. .. .. .. 23 24 .. .. .. .. .. .. 23 24 18 .. .. .. .. .. .. 
.. 19 .. .. .. .. .. .. .. .. .. .. .. .. .. .. .. 18 .. .. .. .. .. .. .. 24 .. .. .. .. 
.. 23 24 .. .. .. .. .. .. 23 24 .. .. .. .. .. .. 23 24 .. .. .. .. .. .. 23 24 .. .. .. 
.. .. .. 23 24 .. .. .. .. .. .. 23 24 .. .. .. .. .. .. 23 24 .. .. .. .. .. .. 23 24 .. 
.. .. .. .. .. 23 24 .. .. .. .. .. .. 23 24 .. .. .. .. .. .. 23 24 .. .. .. .. .. .. 23 
24 .. .. .. .. .. .. 23 24 .. .. .. .. .. .. 23 24 .. .. .. .. .. .. 23 24 .. .. .. .. .. 
.. 23 24 .. .. .. .. .. .. 23 24 .. .. .. .. .. .. 23 24 .. .. .. .. .. .. 23 24 .. .. .. 
.. .. .. 23 24 21 .. .. .. .. .. 20 21 22 .. .. .. .. .. 21 22 .. .. .. .. .. .. 21 22 21 
.. .. .. .. .. 20 21 24 .. .. .. .. .. 23 24 .. .. .. .. .. .. 23 24 .. .. .. .. .. .. 23 
24 .. .. .. .. .. .. 23 24 .. .. .. .. .. .. 23 24 .. .. .. .. .. .. 23 24 .. .. .. .. .. 
.. 23 24 .. .. .. .. .. .. 23 24 .. .. .. .. .. .. 23 24 .. .. .. .. .. .. 23 24 .. .. .. 
.. .. .. 23 24 .. .. .. .. .. .. 23 24 .. .. .. .. .. .. 23 24 .. .. .. .. .. .. 23 24 .. 
.. .. .. .. .. 23 24 .. .. .. .. .. .. 23 24 .. .. .. .. .. .. 23 24 .. .. .. .. .. .. 23 
24 .. .. .. .. .. .. 23 24 .. .. .. .. .. .. 23 24 17 .. .. .. .. 19 .. .. 18 .. .. .. .. 
.. .. .. .. .. .. .. .. .. .. .. 17 .. .. .. .. 19 .. .. 24 .. .. .. .. .. 23 24 .. .. .. 
.. .. .. 23 24 .. .. .. .. .. .. 23 24 .. .. .. .. .. .. 23 24 .. .. .. .. .. .. 23 24 .. 
.. .. .. .. .. 23 24 .. .. .. .. .. .. 23 24 .. .. .. .. .. .. 23 24 .. .. .. .. .. .. 23 
24 .. .. .. .. .. .. 23 24 .. .. .. .. .. .. 23 24 .. .. .. .. .. .. 23 24 .. .. .. .. .. 
.. 23 24 .. .. .. .. .. .. 23 24 .. .. .. .. .. .. 23 24 .. .. .. .. .. .. 23 24 .. .. .. 
.. .. .. 23 24 .. .. .. .. .. .. 23 24 .. .. .. .. .. .. 23 24 .. .. .. .. .. .. 23 24 21 
.. .. .. .. .. 20 21 22 .. .. .. .. .. 21 22 .. .. .. .. .. .. 21 22 21 .. .. .. .. .. 20 
21 24 .. .. .. .. .. 23 24 .. .. .. .. .. .. 23 24 .. .. .. .. .. .. 23 24 .. .. .. .. .. 
.. 23 24 .. .. .. .. .. .. 23 24 .. .. .. .. .. .. 23 24 .. .. .. .. .. .. 23 24 .. .. .. 
.. .. .. 23 24 .. .. .. .. .. .. 23 24 .. .. .. .. .. .. 23 24 .. .. .. .. .. .. 23 24 .. 
.. .. .. .. .. 23 24 .. .. .. .. .. .. 23 24 .. .. .. .. .. .. 23 24 .. .. .. .. .. .. 23 
24 .. .. .. .. .. .. 23 24 .. .. .. .. .. .. 23 24 .. .. .. .. .. .. 23 24 .. .. .. .. .. 
.. 23 24 .. .. .. .. .. .. 23 24 18 .. .. .. .. .. .. .. 19 .. .. .. .. .. .. .. .. .. .. 
.. .. .. .. .. 18 .. .. .. .. .. .. .. 24 .. .. .. .. .. 23 24 .. .. .. .. .. .. 23 24 .. 
.. .. .. .. .. 23 24 .. .. .. .. .. .. 23 24 .. .. .. .. .. .. 23 24 .. .. .. .. .. .. 23 
24 .. .. .. .. .. .. 23 24 .. .. .. .. .. .. 23 24 .. .. .. .. .. .. 23 24 .. .. .. .. .. 
.. 23 24 .. .. .. .. .. .. 23 24 .. .. .. .. .. .. 23 24 .. .. .. .. .. .. 23 24 .. .. .. 
.. .. .. 23 24 .. .. .. .. .. .. 23 24 .. .. .. .. .. .. 23 24 .. .. .. .. .. .. 23 24 .. 
.. .. .. .. .. 23 24 .. .. .. .. .. .. 23 24 .. .. .. .. .. .. 23 24 21 .. .. .. .. .. 20 
21 22 .. .. .. .. .. 21 22 .. .. .. .. .. .. 21 22 21 .. .. .. .. .. 20 21 24 .. .. .. .. 
.. 23 24 .. .. .. .. .. .. 23 24 .. .. .. .. .. .. 23 24 .. .. .. .. .. .. 23 24 .. .. .. 
.. .. .. 23 24 .. .. .. .. .. .. 23 24 .. .. .. .. .. .. 23 24 .. .. .. .. .. .. 23 24 .. 
.. .. .. .. .. 23 24 .. .. .. .. .. .. 23 24 .. .. .. .. .. .. 23 24 .. .. .. .. .. .. 23 
24 .. .. .. .. .. .. 23 24 .. .. .. .. .. .. 23 24 .. .. .. .. .. .. 23 24 .. .. .. .. .. 
.. 23 24 .. .. .. .. .. .. 23 24 .. .. .. .. .. .. 23 24 .. .. .. .. .. .. 23 24 .. .. .. 
.. .. .. 23 24 17 .. .. .. .. 19 .. .. 18 .. .. .. .. .. .. .. .. .. .. .. .. .. .. .. 17 
.. .. .. .. 19 .. .. 24 .. .. .. .. .. 23 24 .. .. .. .. .. .. 23 24 .. .. .. .. .. .. 23 
24 .. .. .. .. .. .. 23 24 .. .. .. .. .. .. 23 24 .. .. .. .. .. .. 23 24 .. .. .. .. .. 
.. 23 24 .. .. .. .. .. .. 23 24 .. .. .. .. .. .. 23 24 .. .. .. .. .. .. 23 24 .. .. .. 
.. .. .. 23 24 .. .. .. .. .. .. 23 24 .. .. .. .. .. .. 23 24 .. .. .. .. .. .. 23 24 .. 
.. .. .. .. .. 23 24 .. .. .. .. .. .. 23 24 .. .. .. .. .. .. 23 24 .. .. .. .. .. .. 23 
24 .. .. .. .. .. .. 23 24 .. .. .. .. .. .. 23 24 21 .. .. .. .. .. 20 21 22 .. .. .. .. 
.. 21 22 .. .. .. .. .. .. 21 22 21 .. .. .. .. .. 20 21 24 .. .. .. .. .. 23 24 .. .. .. 
.. .. .. 23 24 .. .. .. .. .. .. 23 24 .. .. .. .. .. .. 23 24 .. .. .. .. .. .. 23 24 .. 
.. .. .. .. .. 23 24 .. .. .. .. .. .. 23 24 .. .. .. .. .. .. 23 24 .. .. .. .. .. .. 23 
24 .. .. .. .. .. .. 23 24 .. .. .. .. .. .. 23 24 .. .. .. .. .. .. 23 24 .. .. .. .. .. 
.. 23 24 .. .. .. .. .. .. 23 24 .. .. .. .. .. .. 23 24 .. .. .. .. .. .. 23 24 .. .. .. 
.. .. .. 23 24 .. .. .. .. .. .. 23 24 .. .. .. .. .. .. 23 24 .. .. .. .. .. .. 23 24 18 
.. .. .. .. .. .. .. 19 .. .. .. .. .. .. .. .. .. .. .. .. .. .. .. 18 .. .. .. .. .. .. 
.. 24 .. .. .. .. .. 23 24 .. .. .. .. .. .. 23 24 .. .. .. .. .. .. 23 24 .. .. .. .. .. 
.. 23 24 .. .. .. .. .. .. 23 24 .. .. .. .. .. .. 23 24 .. .. .. .. .. .. 23 24 .. .. .. 
.. .. .. 23 24 .. .. .. .. .. .. 23 24 .. .. .. .. .. .. 23 24 .. .. .. .. .. .. 23 24 .. 
.. .. .. .. .. 23 24 .. .. .. .. .. .. 23 24 .. .. .. .. .. .. 23 24 .. .. .. .. .. .. 23 
24 .. .. .. .. .. .. 23 24 .. .. .. .. .. .. 23 24 .. .. .. .. .. .. 23 24 .. .. .. .. .. 
.. 23 24 .. .. .. .. .. .. 23 24 21 .. .. .. .. .. 20 21 22 .. .. .. .. .. 21 22 .. .. .. 
.. .. .. 21 22 21 .. .. .. .. .. 20 21 24 .. .. .. .. .. 23 24 .. .. .. .. .. .. 23 24 .. 
.. .. .. .. .. 23 24 .. .. .. .. .. .. 23 24 .. .. .. .. .. .. 23 24 .. .. .. .. .. .. 23 
24 .. .. .. .. .. .. 23 24 .. .. .. .. .. .. 23 24 .. .. .. .. .. .. 23 24 .. .. .. .. .. 
.. 23 24 .. .. .. .. .. .. 23 24 .. .. .. .. .. .. 23 24 .. .. .. .. .. .. 23 24 .. .. .. 
.. .. .. 23 24 .. .. .. .. .. .. 23 24 .. .. .. .. .. .. 23 24 .. .. .. .. .. .. 23 24 .. 
.. .. .. .. .. 23 24 .. .. .. .. .. .. 23 24 .. .. .. .. .. .. 23 24 17 .. .. .. .. 19 .. 
.. 18 .. .. .. .. .. .. .. .. .. .. .. .. .. .. .. 17 .. .. .. .. 19 .. .. 25 .. .. .. .. 
.. 24 25 .. .. .. .. .. .. 24 25 .. .. .. .. .. .. 24 25 .. .. .. .. .. .. 24 25 .. .. .. 
.. .. .. 24 25 .. .. .. .. .. .. 24 25 .. .. .. .. .. .. 24 25 .. .. .. .. .. .. 24 25 .. 
.. .. .. .. .. 24 25 .. .. .. .. .. .. 24 25 .. .. .. .. .. .. 24 25 .. .. .. .. .. .. 24 
25 .. .. .. .. .. .. 24 25 .. .. .. .. .. .. 24 25 .. .. .. .. .. .. 24 25 .. .. .. .. .. 
.. 24 25 .. .. .. .. .. .. 24 25 .. .. .. .. .. .. 24 25 .. .. .. .. .. .. 24 25 .. .. .. 
.. .. .. 24 25 22 .. .. .. .. .. 21 22 23 .. .. .. .. .. 22 23 .. .. .. .. .. .. 22 23 22 
.. .. .. .. .. 21 22 25 .. .. .. .. .. 24 25 .. .. .. .. .. .. 24 25 .. .. .. .. .. .. 24 
25 .. .. .. .. .. .. 24 25 .. .. .. .. .. .. 24 25 .. .. .. .. .. .. 24 25 .. .. .. .. .. 
.. 24 25 .. .. .. .. .. .. 24 25 .. .. .. .. .. .. 24 25 .. .. .. .. .. .. 24 25 .. .. .. 
.. .. .. 24 25 .. .. .. .. .. .. 24 25 .. .. .. .. .. .. 24 25 .. .. .. .. .. .. 24 25 .. 
.. .. .. .. .. 24 25 .. .. .. .. .. .. 24 25 .. .. .. .. .. .. 24 25 .. .. .. .. .. .. 24 
25 .. .. .. .. .. .. 24 25 .. .. .. .. .. .. 24 25 19 .. .. .. .. .. .. .. 20 .. .. .. .. 
.. 19 20 .. .. .. .. .. .. 19 20 19 .. .. .. .. .. .. .. 25 .. .. .. .. .. 24 25 .. .. .. 
.. .. .. 24 25 .. .. .. .. .. .. 24 25 .. .. .. .. .. .. 24 25 .. .. .. .. .. .. 24 25 .. 
.. .. .. .. .. 24 25 .. .. .. .. .. .. 24 25 .. .. .. .. .. .. 24 25 .. .. .. .. .. .. 24 
25 .. .. .. .. .. .. 24 25 .. .. .. .. .. .. 24 25 .. .. .. .. .. .. 24 25 .. .. .. .. .. 
.. 24 25 .. .. .. .. .. .. 24 25 .. .. .. .. .. .. 24 25 .. .. .. .. .. .. 24 25 .. .. .. 
.. .. .. 24 25 .. .. .. .. .. .. 24 25 .. .. .. .. .. .. 24 25 .. .. .. .. .. .. 24 25 22 
.. .. .. .. .. 21 22 23 .. .. .. .. .. 22 23 .. .. .. .. .. .. 22 23 22 .. .. .. .. .. 21 
22 25 .. .. .. .. .. 24 25 .. .. .. .. .. .. 24 25 .. .. .. .. .. .. 24 25 .. .. .. .. .. 
.. 24 25 .. .. .. .. .. .. 24 25 .. .. .. .. .. .. 24 25 .. .. .. .. .. .. 24 25 .. .. .. 
.. .. .. 24 25 .. .. .. .. .. .. 24 25 .. .. .. .. .. .. 24 25 .. .. .. .. .. .. 24 25 .. 
.. .. .. .. .. 24 25 .. .. .. .. .. .. 24 25 .. .. .. .. .. .. 24 25 .. .. .. .. .. .. 24 
25 .. .. .. .. .. .. 24 25 .. .. .. .. .. .. 24 25 .. .. .. .. .. .. 24 25 .. .. .. .. .. 
.. 24 25 .. .. .. .. .. .. 24 25 18 .. .. .. .. .. .. .. 19 .. .. .. .. .. .. .. .. .. .. 
.. .. .. .. .. 18 .. .. .. .. .. .. .. 27 .. .. .. .. .. 26 27 .. .. .. .. .. .. 26 27 .. 
.. .. .. .. .. 26 27 .. .. .. .. .. .. 26 27 .. .. .. .. .. .. 26 27 .. .. .. .. .. .. 26 
27 .. .. .. .. .. .. 26 27 .. .. .. .. .. .. 26 27 .. .. .. .. .. .. 26 27 .. .. .. .. .. 
.. 26 27 .. .. .. .. .. .. 26 27 .. .. .. .. .. .. 26 27 .. .. .. .. .. .. 26 27 .. .. .. 
.. .. .. 26 27 .. .. .. .. .. .. 26 27 .. .. .. .. .. .. 26 27 .. .. .. .. .. .. 26 27 .. 
.. .. .. .. .. 26 27 .. .. .. .. .. .. 26 27 .. .. .. .. .. .. 26 27 24 .. .. .. .. .. 23 
24 25 .. .. .. .. .. 24 25 .. .. .. .. .. .. 24 25 24 .. .. .. .. .. 23 24 27 .. .. .. .. 
.. 26 27 .. .. .. .. .. .. 26 27 .. .. .. .. .. .. 26 27 .. .. .. .. .. .. 26 27 .. .. .. 
.. .. .. 26 27 .. .. .. .. .. .. 26 27 .. .. .. .. .. .. 26 27 .. .. .. .. .. .. 26 27 .. 
.. .. .. .. .. 26 27 .. .. .. .. .. .. 26 27 .. .. .. .. .. .. 26 27 .. .. .. .. .. .. 26 
27 .. .. .. .. .. .. 26 27 .. .. .. .. .. .. 26 27 .. .. .. .. .. .. 26 27 .. .. .. .. .. 
.. 26 27 .. .. .. .. .. .. 26 27 .. .. .. .. .. .. 26 27 .. .. .. .. .. .. 26 27 .. .. .. 
.. .. .. 26 27 21 .. .. .. .. .. 20 21 22 .. .. .. .. .. 21 22 .. .. .. .. .. .. 21 22 21 
.. .. .. .. .. 20 21 27 .. .. .. .. .. 26 27 .. .. .. .. .. .. 26 27 .. .. .. .. .. .. 26 
27 .. .. .. .. .. .. 26 27 .. .. .. .. .. .. 26 27 .. .. .. .. .. .. 26 27 .. .. .. .. .. 
.. 26 27 .. .. .. .. .. .. 26 27 .. .. .. .. .. .. 26 27 .. .. .. .. .. .. 26 27 .. .. .. 
.. .. .. 26 27 .. .. .. .. .. .. 26 27 .. .. .. .. .. .. 26 27 .. .. .. .. .. .. 26 27 .. 
.. .. .. .. .. 26 27 .. .. .. .. .. .. 26 27 .. .. .. .. .. .. 26 27 .. .. .. .. .. .. 26 
27 .. .. .. .. .. .. 26 27 .. .. .. .. .. .. 26 27 24 .. .. .. .. .. 23 24 25 .. .. .. .. 
.. 24 25 .. .. .. .. .. .. 24 25 24 .. .. .. .. .. 23 24 27 .. .. .. .. .. 26 27 .. .. .. 
.. .. .. 26 27 .. .. .. .. .. .. 26 27 .. .. .. .. .. .. 26 27 .. .. .. .. .. .. 26 27 .. 
.. .. .. .. .. 26 27 .. .. .. .. .. .. 26 27 .. .. .. .. .. .. 26 27 .. .. .. .. .. .. 26 
27 .. .. .. .. .. .. 26 27 .. .. .. .. .. .. 26 27 .. .. .. .. .. .. 26 27 .. .. .. .. .. 
.. 26 27 .. .. .. .. .. .. 26 27 .. .. .. .. .. .. 26 27 .. .. .. .. .. .. 26 27 .. .. .. 
.. .. .. 26 27 .. .. .. .. .. .. 26 27 .. .. .. .. .. .. 26 27 .. .. .. .. .. .. 26 27 20 
.. .. .. .. .. 19 20 21 .. .. .. .. .. 20 21 .. .. .. .. .. .. 20 21 20 .. .. .. .. .. 19 
20 27 .. .. .. .. .. 26 27 .. .. .. .. .. .. 26 27 .. .. .. .. .. .. 26 27 .. .. .. .. .. 
.. 26 27 .. .. .. .. .. .. 26 27 .. .. .. .. .. .. 26 27 .. .. .. .. .. .. 26 27 .. .. .. 
.. .. .. 26 27 .. .. .. .. .. .. 26 27 .. .. .. .. .. .. 26 27 .. .. .. .. .. .. 26 27 .. 
.. .. .. .. .. 26 27 .. .. .. .. .. .. 26 27 .. .. .. .. .. .. 26 27 .. .. .. .. .. .. 26 
27 .. .. .. .. .. .. 26 27 .. .. .. .. .. .. 26 27 .. .. .. .. .. .. 26 27 .. .. .. .. .. 
.. 26 27 .. .. .. .. .. .. 26 27 24 .. .. .. .. .. 23 24 25 .. .. .. .. .. 24 25 .. .. .. 
.. .. .. 24 25 24 .. .. .. .. .. 23 24 27 .. .. .. .. .. 26 27 .. .. .. .. .. .. 26 27 .. 
.. .. .. .. .. 26 27 .. .. .. .. .. .. 26 27 .. .. .. .. .. .. 26 27 .. .. .. .. .. .. 26 
27 .. .. .. .. .. .. 26 27 .. .. .. .. .. .. 26 27 .. .. .. .. .. .. 26 27 .. .. .. .. .. 
.. 26 27 .. .. .. .. .. .. 26 27 .. .. .. .. .. .. 26 27 .. .. .. .. .. .. 26 27 .. .. .. 
.. .. .. 26 27 .. .. .. .. .. .. 26 27 .. .. .. .. .. .. 26 27 .. .. .. .. .. .. 26 27 .. 
.. .. .. .. .. 26 27 .. .. .. .. .. .. 26 27 .. .. .. .. .. .. 26 27 21 .. .. .. .. .. 20 
21 22 .. .. .. .. .. 21 22 .. .. .. .. .. .. 21 22 21 .. .. .. .. .. 20 21 27 .. .. .. .. 
.. 26 27 .. .. .. .. .. .. 26 27 .. .. .. .. .. .. 26 27 .. .. .. .. .. .. 26 27 .. .. .. 
.. .. .. 26 27 .. .. .. .. .. .. 26 27 .. .. .. .. .. .. 26 27 .. .. .. .. .. .. 26 27 .. 
.. .. .. .. .. 26 27 .. .. .. .. .. .. 26 27 .. .. .. .. .. .. 26 27 .. .. .. .. .. .. 26 
27 .. .. .. .. .. .. 26 27 .. .. .. .. .. .. 26 27 .. .. .. .. .. .. 26 27 .. .. .. .. .. 
.. 26 27 .. .. .. .. .. .. 26 27 .. .. .. .. .. .. 26 27 .. .. .. .. .. .. 26 27 .. .. .. 
.. .. .. 26 27 24 .. .. .. .. .. 23 24 25 .. .. .. .. .. 24 25 .. .. .. .. .. .. 24 25 24 
.. .. .. .. .. 23 24 27 .. .. .. .. .. 26 27 .. .. .. .. .. .. 26 27 .. .. .. .. .. .. 26 
27 .. .. .. .. .. .. 26 27 .. .. .. .. .. .. 26 27 .. .. .. .. .. .. 26 27 .. .. .. .. .. 
.. 26 27 .. .. .. .. .. .. 26 27 .. .. .. .. .. .. 26 27 .. .. .. .. .. .. 26 27 .. .. .. 
.. .. .. 26 27 .. .. .. .. .. .. 26 27 .. .. .. .. .. .. 26 27 .. .. .. .. .. .. 26 27 .. 
.. .. .. .. .. 26 27 .. .. .. .. .. .. 26 27 .. .. .. .. .. .. 26 27 .. .. .. .. .. .. 26 
27 .. .. .. .. .. .. 26 27 .. .. .. .. .. .. 26 27 20 .. .. .. .. .. 19 20 21 .. .. .. .. 
.. 20 21 .. .. .. .. .. .. 20 21 20 .. .. .. .. .. 19 20 24 .. .. .. .. .. 23 24 .. .. .. 
.. .. .. 23 24 .. .. .. .. .. .. 23 24 .. .. .. .. .. .. 23 24 .. .. .. .. .. .. 23 24 .. 
.. .. .. .. .. 23 24 .. .. .. .. .. .. 23 24 .. .. .. .. .. .. 23 24 .. .. .. .. .. .. 23 
24 .. .. .. .. .. .. 23 24 .. .. .. .. .. .. 23 24 .. .. .. .. .. .. 23 24 .. .. .. .. .. 
.. 23 24 .. .. .. .. .. .. 23 24 .. .. .. .. .. .. 23 24 .. .. .. .. .. .. 23 24 .. .. .. 
.. .. .. 23 24 .. .. .. .. .. .. 23 24 .. .. .. .. .. .. 23 24 .. .. .. .. .. .. 23 24 21 
.. .. .. .. .. 20 21 22 .. .. .. .. .. 21 22 .. .. .. .. .. .. 21 22 21 .. .. .. .. .. 20 
21 24 .. .. .. .. .. 23 24 .. .. .. .. .. .. 23 24 .. .. .. .. .. .. 23 24 .. .. .. .. .. 
.. 23 24 .. .. .. .. .. .. 23 24 .. .. .. .. .. .. 23 24 .. .. .. .. .. .. 23 24 .. .. .. 
.. .. .. 23 24 .. .. .. .. .. .. 23 24 .. .. .. .. .. .. 23 24 .. .. .. .. .. .. 23 24 .. 
.. .. .. .. .. 23 24 .. .. .. .. .. .. 23 24 .. .. .. .. .. .. 23 24 .. .. .. .. .. .. 23 
24 .. .. .. .. .. .. 23 24 .. .. .. .. .. .. 23 24 .. .. .. .. .. .. 23 24 .. .. .. .. .. 
.. 23 24 .. .. .. .. .. .. 23 24 18 .. .. .. .. .. .. .. 19 .. .. .. .. .. .. .. .. .. .. 
.. .. .. .. .. 18 .. .. .. .. .. .. .. 24 .. .. .. .. .. 23 24 .. .. .. .. .. .. 23 24 .. 
.. .. .. .. .. 23 24 .. .. .. .. .. .. 23 24 .. .. .. .. .. .. 23 24 .. .. .. .. .. .. 23 
24 .. .. .. .. .. .. 23 24 .. .. .. .. .. .. 23 24 .. .. .. .. .. .. 23 24 .. .. .. .. .. 
.. 23 24 .. .. .. .. .. .. 23 24 .. .. .. .. .. .. 23 24 .. .. .. .. .. .. 23 24 .. .. .. 
.. .. .. 23 24 .. .. .. .. .. .. 23 24 .. .. .. .. .. .. 23 24 .. .. .. .. .. .. 23 24 .. 
.. .. .. .. .. 23 24 .. .. .. .. .. .. 23 24 .. .. .. .. .. .. 23 24 21 .. .. .. .. .. 20 
21 22 .. .. .. .. .. 21 22 .. .. .. .. .. .. 21 22 21 .. .. .. .. .. 20 21 24 .. .. .. .. 
.. 23 24 .. .. .. .. .. .. 23 24 .. .. .. .. .. .. 23 24 .. .. .. .. .. .. 23 24 .. .. .. 
.. .. .. 23 24 .. .. .. .. .. .. 23 24 .. .. .. .. .. .. 23 24 .. .. .. .. .. .. 23 24 .. 
.. .. .. .. .. 23 24 .. .. .. .. .. .. 23 24 .. .. .. .. .. .. 23 24 .. .. .. .. .. .. 23 
24 .. .. .. .. .. .. 23 24 .. .. .. .. .. .. 23 24 .. .. .. .. .. .. 23 24 .. .. .. .. .. 
.. 23 24 .. .. .. .. .. .. 23 24 .. .. .. .. .. .. 23 24 .. .. .. .. .. .. 23 24 .. .. .. 
.. .. .. 23 24 17 .. .. .. .. 19 .. .. 18 .. .. .. .. .. .. .. .. .. .. .. .. .. .. .. 17 
.. .. .. .. 19 .. .. 24 .. .. .. .. .. 23 24 .. .. .. .. .. .. 23 24 .. .. .. .. .. .. 23 
24 .. .. .. .. .. .. 23 24 .. .. .. .. .. .. 23 24 .. .. .. .. .. .. 23 24 .. .. .. .. .. 
.. 23 24 .. .. .. .. .. .. 23 24 .. .. .. .. .. .. 23 24 .. .. .. .. .. .. 23 24 .. .. .. 
.. .. .. 23 24 .. .. .. .. .. .. 23 24 .. .. .. .. .. .. 23 24 .. .. .. .. .. .. 23 24 .. 
.. .. .. .. .. 23 24 .. .. .. .. .. .. 23 24 .. .. .. .. .. .. 23 24 .. .. .. .. .. .. 23 
24 .. .. .. .. .. .. 23 24 .. .. .. .. .. .. 23 24 21 .. .. .. .. .. 20 21 22 .. .. .. .. 
.. 21 22 .. .. .. .. .. .. 21 22 21 .. .. .. .. .. 20 21 24 .. .. .. .. .. 23 24 .. .. .. 
.. .. .. 23 24 .. .. .. .. .. .. 23 24 .. .. .. .. .. .. 23 24 .. .. .. .. .. .. 23 24 .. 
.. .. .. .. .. 23 24 .. .. .. .. .. .. 23 24 .. .. .. .. .. .. 23 24 .. .. .. .. .. .. 23 
24 .. .. .. .. .. .. 23 24 .. .. .. .. .. .. 23 24 .. .. .. .. .. .. 23 24 .. .. .. .. .. 
.. 23 24 .. .. .. .. .. .. 23 24 .. .. .. .. .. .. 23 24 .. .. .. .. .. .. 23 24 .. .. .. 
.. .. .. 23 24 .. .. .. .. .. .. 23 24 .. .. .. .. .. .. 23 24 .. .. .. .. .. .. 23 24 18 
.. .. .. .. .. .. .. 19 .. .. .. .. .. .. .. .. .. .. .. .. .. .. .. 18 .. .. .. .. .. .. 
.. 24 .. .. .. .. .. 23 24 .. .. .. .. .. .. 23 24 .. .. .. .. .. .. 23 24 .. .. .. .. .. 
.. 23 24 .. .. .. .. .. .. 23 24 .. .. .. .. .. .. 23 24 .. .. .. .. .. .. 23 24 .. .. .. 
.. .. .. 23 24 .. .. .. .. .. .. 23 24 .. .. .. .. .. .. 23 24 .. .. .. .. .. .. 23 24 .. 
.. .. .. .. .. 23 24 .. .. .. .. .. .. 23 24 .. .. .. .. .. .. 23 24 .. .. .. .. .. .. 23 
24 .. .. .. .. .. .. 23 24 .. .. .. .. .. .. 23 24 .. .. .. .. .. .. 23 24 .. .. .. .. .. 
.. 23 24 .. .. .. .. .. .. 23 24 21 .. .. .. .. .. 20 21 22 .. .. .. .. .. 21 22 .. .. .. 
.. .. .. 21 22 21 .. .. .. .. .. 20 21 24 .. .. .. .. .. 23 24 .. .. .. .. .. .. 23 24 .. 
.. .. .. .. .. 23 24 .. .. .. .. .. .. 23 24 .. .. .. .. .. .. 23 24 .. .. .. .. .. .. 23 
24 .. .. .. .. .. .. 23 24 .. .. .. .. .. .. 23 24 .. .. .. .. .. .. 23 24 .. .. .. .. .. 
.. 23 24 .. .. .. .. .. .. 23 24 .. .. .. .. .. .. 23 24 .. .. .. .. .. .. 23 24 .. .. .. 
.. .. .. 23 24 .. .. .. .. .. .. 23 24 .. .. .. .. .. .. 23 24 .. .. .. .. .. .. 23 24 .. 
.. .. .. .. .. 23 24 .. .. .. .. .. .. 23 24 .. .. .. .. .. .. 23 24 17 .. .. .. .. 19 .. 
.. 18 .. .. .. .. .. .. .. .. .. .. .. .. .. .. .. 17 .. .. .. .. 19 .. .. 24 .. .. .. .. 
.. 23 24 .. .. .. .. .. .. 23 24 .. .. .. .. .. .. 23 24 .. .. .. .. .. .. 23 24 .. .. .. 
.. .. .. 23 24 .. .. .. .. .. .. 23 24 .. .. .. .. .. .. 23 24 .. .. .. .. .. .. 23 24 .. 
.. .. .. .. .. 23 24 .. .. .. .. .. .. 23 24 .. .. .. .. .. .. 23 24 .. .. .. .. .. .. 23 
24 .. .. .. .. .. .. 23 24 .. .. .. .. .. .. 23 24 .. .. .. .. .. .. 23 24 .. .. .. .. .. 
.. 23 24 .. .. .. .. .. .. 23 24 .. .. .. .. .. .. 23 24 .. .. .. .. .. .. 23 24 .. .. .. 
.. .. .. 23 24 21 .. .. .. .. .. 20 21 22 .. .. .. .. .. 21 22 .. .. .. .. .. .. 21 22 21 
.. .. .. .. .. 20 21 24 .. .. .. .. .. 23 24 .. .. .. .. .. .. 23 24 .. .. .. .. .. .. 23 
24 .. .. .. .. .. .. 23 24 .. .. .. .. .. .. 23 24 .. .. .. .. .. .. 23 24 .. .. .. .. .. 
.. 23 24 .. .. .. .. .. .. 23 24 .. .. .. .. .. .. 23 24 .. .. .. .. .. .. 23 24 .. .. .. 
.. .. .. 23 24 .. .. .. .. .. .. 23 24 .. .. .. .. .. .. 23 24 .. .. .. .. .. .. 23 24 .. 
.. .. .. .. .. 23 24 .. .. .. .. .. .. 23 24 .. .. .. .. .. .. 23 24 .. .. .. .. .. .. 23 
24 .. .. .. .. .. .. 23 24 .. .. .. .. .. .. 23 24 18 .. .. .. .. .. .. .. 19 .. .. .. .. 
.. .. .. .. .. .. .. .. .. .. .. 18 .. .. .. .. .. .. .. 24 .. .. .. .. .. 23 24 .. .. .. 
.. .. .. 23 24 .. .. .. .. .. .. 23 24 .. .. .. .. .. .. 23 24 .. .. .. .. .. .. 23 24 .. 
.. .. .. .. .. 23 24 .. .. .. .. .. .. 23 24 .. .. .. .. .. .. 23 24 .. .. .. .. .. .. 23 
24 .. .. .. .. .. .. 23 24 .. .. .. .. .. .. 23 24 .. .. .. .. .. .. 23 24 .. .. .. .. .. 
.. 23 24 .. .. .. .. .. .. 23 24 .. .. .. .. .. .. 23 24 .. .. .. .. .. .. 23 24 .. .. .. 
.. .. .. 23 24 .. .. .. .. .. .. 23 24 .. .. .. .. .. .. 23 24 .. .. .. .. .. .. 23 24 21 
.. .. .. .. .. 20 21 22 .. .. .. .. .. 21 22 .. .. .. .. .. .. 21 22 21 .. .. .. .. .. 20 
21 24 .. .. .. .. .. 23 24 .. .. .. .. .. .. 23 24 .. .. .. .. .. .. 23 24 .. .. .. .. .. 
.. 23 24 .. .. .. .. .. .. 23 24 .. .. .. .. .. .. 23 24 .. .. .. .. .. .. 23 24 .. .. .. 
.. .. .. 23 24 .. .. .. .. .. .. 23 24 .. .. .. .. .. .. 23 24 .. .. .. .. .. .. 23 24 .. 
.. .. .. .. .. 23 24 .. .. .. .. .. .. 23 24 .. .. .. .. .. .. 23 24 .. .. .. .. .. .. 23 
24 .. .. .. .. .. .. 23 24 .. .. .. .. .. .. 23 24 .. .. .. .. .. .. 23 24 .. .. .. .. .. 
.. 23 24 .. .. .. .. .. .. 23 24 17 .. .. .. .. 19 .. .. 18 .. .. .. .. .. .. .. .. .. .. 
.. .. .. .. .. 17 .. .. .. .. 19 .. .. 25 .. .. .. .. .. 24 25 .. .. .. .. .. .. 24 25 .. 
.. .. .. .. .. 24 25 .. .. .. .. .. .. 24 25 .. .. .. .. .. .. 24 25 .. .. .. .. .. .. 24 
25 .. .. .. .. .. .. 24 25 .. .. .. .. .. .. 24 25 .. .. .. .. .. .. 24 25 .. .. .. .. .. 
.. 24 25 .. .. .. .. .. .. 24 25 .. .. .. .. .. .. 24 25 .. .. .. .. .. .. 24 25 .. .. .. 
.. .. .. 24 25 .. .. .. .. .. .. 24 25 .. .. .. .. .. .. 24 25 .. .. .. .. .. .. 24 25 .. 
.. .. .. .. .. 24 25 .. .. .. .. .. .. 24 25 .. .. .. .. .. .. 24 25 22 .. .. .. .. .. 21 
22 23 .. .. .. .. .. 22 23 .. .. .. .. .. .. 22 23 22 .. .. .. .. .. 21 22 25 .. .. .. .. 
.. 24 25 .. .. .. .. .. .. 24 25 .. .. .. .. .. .. 24 25 .. .. .. .. .. .. 24 25 .. .. .. 
.. .. .. 24 25 .. .. .. .. .. .. 24 25 .. .. .. .. .. .. 24 25 .. .. .. .. .. .. 24 
! Song 3
50 58 .. .. .. .. .. .. 59 .. .. .. .. 60 .. 59 60 .. .. .. .. .. .. 59 60 .. .. .. .. .. 
.. 59 60 .. .. .. .. .. .. 59 60 .. .. .. .. .. .. 59 60 56 .. .. .. .. .. 57 .. .. .. .. 
.. 58 .. .. .. .. .. .. .. .. .. .. .. .. .. .. .. .. .. .. .. .. .. .. .. .. .. .. .. .. 
.. .. .. .. .. .. .. .. 54 .. .. .. .. 53 55 .. .. .. .. .. 56 55 56 .. .. .. .. .. .. 55 
56 .. .. .. .. .. .. 55 56 .. .. .. .. .. .. 55 56 .. .. .. .. .. .. 55 56 .. .. 55 .. .. 
.. .. .. 54 .. .. .. .. .. 53 .. .. .. .. .. .. .. .. .. .. .. .. .. .. .. .. .. .. .. .. 
.. .. .. .. .. .. .. .. .. .. .. .. .. .. .. .. .. .. .. .. .. .. .. .. .. .. .. .. .. .. 
.. .. .. .. .. .. .. .. .. .. .. .. .. .. .. .. .. .. .. .. .. .. .. .. .. .. .. .. .. .. 
.. .. .. .. .. .. .. .. .. .. .. .. .. .. .. .. .. .. .. .. .. .. .. .. .. .. .. .. .. .. 
.. .. .. .. .. .. .. .. .. .. .. .. .. .. .. .. .. .. .. .. .. .. .. .. .. .. .. .. .. .. 
.. .. .. .. .. .. .. .. .. .. .. .. .. .. .. .. .. .. .. .. .. .. .. .. .. .. .. .. .. .. 
.. .. .. .. .. .. .. .. .. .. .. .. .. .. .. .. .. .. .. .. .. .. .. .. .. .. .. .. .. .. 
.. .. .. .. .. .. .. .. 
! End
