! Simple
! Song 0
14 48 .. .. .. .. .. .. .. .. .. .. .. .. .. .. 48 .. .. .. .. .. .. 55 .. .. .. .. .. .. 
.. .. .. .. .. .. .. .. 55 .. .. .. .. .. .. .. 51 .. .. .. .. .. .. .. .. .. .. .. .. .. 
.. 51 .. .. .. .. .. .. 58 .. .. .. .. .. .. .. .. .. .. .. .. .. .. 58 .. .. .. .. .. .. 
.. 55 .. .. .. .. .. .. .. .. .. .. .. .. .. .. 62 .. .. .. .. .. .. .. .. .. .. .. .. .. 
.. 48 .. .. .. .. .. .. .. .. .. .. .. .. .. .. 48 .. .. .. .. .. .. 55 .. .. .. .. .. .. 
.. .. .. .. .. .. .. .. 55 .. .. .. .. .. .. .. 51 .. .. .. .. .. .. .. .. .. .. .. .. .. 
.. 51 .. .. .. .. .. .. 58 .. .. .. .. .. .. .. .. .. .. .. .. .. .. 58 .. .. .. .. .. .. 
.. 55 .. .. .. .. .. .. .. .. .. .. .. .. .. .. 62 .. .. .. .. .. .. .. .. .. .. .. .. .. 
.. 48 .. .. .. .. .. .. .. .. .. .. .. .. .. .. 48 .. .. .. .. .. .. 55 .. .. .. .. .. .. 
.. .. .. .. .. .. .. .. 55 .. .. .. .. .. .. .. 51 .. .. .. .. .. .. .. .. .. .. .. .. .. 
.. 51 .. .. .. .. .. .. 58 .. .. .. .. .. .. .. .. .. .. .. .. .. .. 58 .. .. .. .. .. .. 
.. 55 .. .. .. .. .. .. .. .. .. .. .. .. .. .. 62 .. .. .. .. .. .. .. .. .. .. .. .. .. 
.. 51 .. .. .. .. .. .. .. 50 .. .. .. .. .. .. 48 .. .. .. .. .. .. .. 51 .. .. .. .. .. 
.. 50 .. .. .. .. .. .. .. 48 .. .. .. .. .. .. 51 .. .. .. .. .. .. .. 50 .. .. .. .. .. 
.. 48 .. .. .. .. .. .. .. 51 .. .. .. .. .. .. 50 .. .. .. .. .. .. .. 48 .. .. .. .. .. 
.. 48 .. .. .. .. .. .. .. 48 .. .. .. .. .. .. .. .. .. .. .. .. .. .. .. .. .. .. .. .. 
.. .. .. .. .. .. .. .. .. .. .. .. .. .. .. .. .. .. .. .. .. .. .. .. .. .. .. .. .. .. 
.. .. .. .. .. .. .. .. .. .. .. .. .. .. .. .. .. .. .. .. .. .. .. .. .. .. .. .. .. .. 
.. .. .. .. .. .. .. .. .. .. .. .. .. .. .. .. .. .. .. .. .. .. .. .. .. .. .. .. .. .. 
.. .. .. .. .. .. .. .. .. .. .. .. .. .. .. .. .. .. .. .. .. .. .. .. .. .. .. .. .. .. 
.. .. .. .. .. .. .. .. .. .. .. .. .. .. .. .. .. .. .. .. .. .. .. .. .. .. .. .. 
! Song 1
14 27 .. .. .. .. .. .. .. .. .. 28 .. .. .. .. .. .. .. .. .. 29 .. .. .. .. .. .. .. .. 
30 .. .. .. .. .. .. .. 31 .. .. .. .. .. .. .. .. .. 32 .. .. .. .. .. .. .. 33 .. .. .. 
.. .. .. .. .. .. 34 .. .. .. .. .. .. .. .. 35 .. .. .. .. .. .. .. .. 36 .. .. .. .. .. 
.. .. .. 37 .. .. .. .. .. .. .. .. 38 .. .. .. .. 39 .. .. .. .. .. .. 40 .. .. .. .. .. 
.. .. .. 41 .. .. .. .. .. .. .. .. .. 42 .. .. .. .. .. .. .. 43 .. .. .. .. .. .. .. .. 
44 .. .. .. .. .. .. .. .. 45 .. .. .. .. .. .. .. .. .. 46 .. .. .. .. .. .. .. .. 47 .. 
.. .. .. .. .. .. .. 48 .. .. .. .. .. .. .. .. 49 .. .. .. .. .. .. .. .. 50 .. .. .. .. 
.. .. .. .. 51 .. .. .. .. .. .. 52 .. .. .. .. .. .. .. .. .. 53 .. .. .. .. .. .. .. .. 
54 .. .. .. .. .. .. .. 55 .. .. .. .. .. .. .. .. .. 56 .. .. .. .. .. .. .. 57 .. .. .. 
.. .. .. .. .. .. 58 .. .. .. .. .. .. .. .. 59 .. .. .. .. .. .. .. .. 60 .. .. .. .. .. 
.. .. .. 61 .. .. .. .. .. .. .. .. 62 .. .. .. .. .. .. .. .. 63 .. .. .. .. .. .. 64 .. 
.. .. .. .. .. .. .. .. 65 .. .. .. .. .. .. .. 66 .. .. .. .. .. .. .. .. 67 .. .. .. .. 
.. .. .. .. .. 68 .. .. .. .. .. .. .. .. 69 .. .. .. .. .. .. .. .. 70 .. .. .. .. .. .. 
.. .. 71 .. .. .. .. .. .. .. .. 72 .. .. .. .. .. .. .. 73 .. .. .. .. .. .. .. .. 74 .. 
.. .. .. .. .. .. .. .. 39 .. .. .. .. .. .. .. .. .. .. .. .. .. .. .. .. .. .. .. .. .. 
.. .. .. .. .. 42 .. .. .. .. .. .. .. .. .. .. .. .. 39 .. .. .. .. .. .. .. .. .. .. .. 
.. .. .. .. .. .. .. .. .. .. .. .. .. .. .. 42 .. .. .. .. .. .. .. .. .. .. .. .. 39 .. 
.. .. .. .. .. .. .. .. .. .. .. 42 .. .. .. .. .. .. 39 .. .. .. .. .. .. .. .. .. .. .. 
.. .. .. .. .. .. .. .. .. .. .. .. .. .. .. .. .. .. .. .. .. 42 .. .. .. .. .. .. .. .. 
.. .. .. .. .. 39 .. .. .. .. .. .. .. .. .. .. .. .. .. .. .. .. .. .. .. .. .. .. .. .. 
.. .. 44 .. .. .. .. .. .. .. .. .. .. .. .. 39 .. .. .. .. .. .. .. .. .. .. .. .. 42 .. 
.. .. .. .. .. 39 .. .. .. .. .. .. .. .. .. .. .. .. .. .. .. .. .. .. .. .. .. .. .. .. 
.. .. .. .. .. .. .. .. 42 .. .. .. .. .. .. .. .. .. .. .. .. .. 39 .. .. .. .. .. .. .. 
.. .. .. .. .. .. .. .. .. .. .. .. .. .. .. .. .. .. 42 .. .. .. .. .. .. .. .. .. .. .. 
.. .. 39 .. .. .. .. .. .. .. .. .. .. .. .. 42 .. .. .. .. .. .. 39 .. .. .. .. .. .. .. 
.. .. .. .. .. .. .. .. .. .. .. .. .. .. .. .. .. .. .. .. .. .. .. .. .. 42 .. .. .. .. 
.. .. .. .. .. .. .. .. .. 39 .. .. .. .. .. .. .. .. .. .. .. .. .. .. .. .. .. .. .. .. 
.. .. .. .. .. 44 .. .. .. .. .. .. .. .. .. .. .. .. .. 39 .. .. .. .. .. .. .. .. .. .. 
.. .. 46 .. .. .. .. .. .. 39 .. .. .. .. .. .. .. .. .. .. .. .. .. .. .. .. .. .. .. .. 
.. .. .. .. .. .. .. .. .. .. .. .. 42 .. .. .. .. .. .. .. .. .. .. .. .. 39 .. .. .. .. 
.. .. .. .. .. .. .. .. .. .. .. .. .. .. .. .. .. .. .. .. .. .. 42 .. .. .. .. .. .. .. 
.. .. .. .. .. 39 .. .. .. .. .. .. .. .. .. .. .. .. .. 42 .. .. .. .. .. 39 .. .. .. .. 
.. .. .. .. .. .. .. .. .. .. .. .. .. .. .. .. .. .. .. .. .. .. .. .. .. .. .. .. .. 42 
.. .. .. .. .. .. .. .. .. .. .. .. 39 .. .. .. .. .. .. .. .. .. .. .. .. .. .. .. .. .. 
.. .. .. .. .. .. .. .. .. 44 .. .. .. .. .. .. .. .. .. .. .. .. 39 .. .. .. .. .. .. .. 
.. .. .. .. .. .. 42 .. .. .. .. .. 39 .. .. .. .. .. .. .. .. .. .. .. .. .. .. .. .. .. 
.. .. .. .. .. .. .. .. .. .. .. .. .. .. .. .. 42 .. .. .. .. .. .. .. .. .. .. .. .. 39 
.. .. .. .. .. .. .. .. .. .. .. .. .. .. .. .. .. .. .. .. .. .. .. .. .. .. 42 .. .. .. 
.. .. .. .. .. .. .. .. .. 39 .. .. .. .. .. .. .. .. .. .. .. .. .. 42 .. .. .. .. .. 39 
.. .. .. .. .. .. .. .. .. .. .. .. .. .. .. .. .. .. .. .. .. .. .. .. .. .. .. .. .. .. 
.. .. .. 42 .. .. .. .. .. .. .. .. .. .. .. .. 39 .. .. .. .. .. .. .. .. .. .. .. .. .. 
.. .. .. .. .. .. .. .. .. .. .. .. .. 42 .. .. .. .. .. .. .. .. .. .. .. .. 39 .. .. .. 
.. .. .. .. .. .. .. .. .. 42 .. .. .. .. .. .. 39 .. .. .. .. .. .. .. .. .. .. .. .. .. 
.. .. .. .. .. .. .. .. .. .. .. .. .. .. .. .. .. .. .. 42 .. .. .. .. .. .. .. .. .. .. 
.. .. .. 39 .. .. .. .. .. .. .. .. .. .. .. .. .. .. .. .. .. .. .. .. .. .. .. .. .. .. 
42 .. .. .. .. .. .. .. .. .. .. .. .. 39 .. .. .. .. .. .. .. .. .. .. .. .. 42 .. .. .. 
.. .. .. 39 .. .. .. .. .. .. .. .. .. .. .. .. .. .. .. .. .. .. .. .. .. .. .. .. .. .. 
.. .. .. .. .. .. 42 .. .. .. .. .. .. .. .. .. .. .. .. .. 39 .. .. .. .. .. .. .. .. .. 
.. .. .. .. .. .. .. .. .. .. .. .. .. .. .. .. 44 .. .. .. .. .. .. .. .. .. .. .. .. .. 
39 .. .. .. .. .. .. .. .. .. .. .. .. 42 .. .. .. .. .. .. 39 .. .. .. .. .. .. .. .. .. 
.. .. .. .. .. .. .. .. .. .. .. .. .. .. .. .. .. .. .. .. .. .. .. 42 .. .. .. .. .. .. 
.. .. .. .. .. .. .. 39 .. .. .. .. .. .. .. .. .. .. .. .. .. .. .. .. .. .. .. .. .. .. 
.. .. .. 42 .. .. .. .. .. .. .. .. .. .. .. .. .. 39 .. .. .. .. .. .. .. .. .. .. .. .. 
42 .. .. .. .. .. .. 39 .. .. .. .. .. .. .. .. .. .. .. .. .. .. .. .. .. .. .. .. .. .. 
.. .. .. .. .. .. .. .. .. .. 42 .. .. .. .. .. .. .. .. .. .. .. .. 39 .. .. .. .. .. .. 
.. .. .. .. .. .. .. .. .. .. .. .. .. .. .. .. .. .. .. .. 44 .. .. .. .. .. .. .. .. .. 
.. .. .. 39 .. .. .. .. .. .. .. .. .. .. .. .. .. 46 .. .. .. .. .. 39 .. .. .. .. .. .. 
.. .. .. .. .. .. .. .. .. .. .. .. .. .. .. .. .. .. .. .. .. .. .. .. .. .. .. 42 .. .. 
.. .. .. .. .. .. .. .. .. .. 39 .. .. .. .. .. .. .. .. .. .. .. .. .. .. .. .. .. .. .. 
.. .. .. .. .. .. .. 42 .. .. .. .. .. .. .. .. .. .. .. .. 39 .. .. .. .. .. .. .. .. .. 
.. .. .. .. 42 .. .. .. .. .. 39 .. .. .. .. .. .. .. .. .. .. .. .. .. .. .. .. .. .. .. 
.. .. .. .. .. .. .. .. .. .. .. .. .. .. 42 .. .. .. .. .. .. .. .. .. .. .. .. 39 .. .. 
.. .. .. .. .. .. .. .. .. .. .. .. .. .. .. .. .. .. .. .. .. .. .. .. 44 .. .. .. .. .. 
.. .. .. .. .. .. .. 39 .. .. .. .. .. .. .. .. .. .. .. .. 42 .. .. .. .. .. .. 39 .. .. 
.. .. .. .. .. .. .. .. .. .. .. .. .. .. .. .. .. .. .. .. .. .. .. .. .. .. .. .. .. .. 
.. 42 .. .. .. .. .. .. .. .. .. .. .. .. 39 .. .. .. .. .. .. .. .. .. .. .. .. .. .. .. 
.. .. .. .. .. .. .. .. .. .. .. 42 .. .. .. .. .. .. .. .. .. .. .. .. 39 .. .. .. .. .. 
.. .. .. .. .. .. .. 42 .. .. .. .. .. .. 39 .. .. .. .. .. .. .. .. .. .. .. .. .. .. .. 
.. .. .. .. .. .. .. .. .. .. .. .. .. .. .. .. .. 42 .. .. .. .. .. .. .. .. .. .. .. .. 
.. 39 .. .. .. .. .. .. .. .. .. .. .. .. .. .. .. .. .. .. .. .. .. .. .. .. .. 42 .. .. 
.. .. .. .. .. .. .. .. .. .. .. 39 .. .. .. .. .. .. .. .. .. .. .. .. 42 .. .. .. .. .. 
.. 39 .. .. .. .. .. .. .. 38 .. .. .. .. .. .. 37 .. .. .. .. .. .. .. .. 36 .. .. .. .. 
.. .. .. 35 .. .. .. .. .. .. 34 .. .. .. .. .. .. .. 33 .. .. .. .. .. .. .. 32 .. .. .. 
.. .. .. .. 31 .. .. .. .. .. .. .. 30 .. .. .. .. .. .. .. 29 .. .. .. .. .. .. .. 28 .. 
.. .. .. .. .. .. 27 .. .. .. .. .. .. 26 .. .. .. .. .. .. .. 25 .. .. .. .. .. .. .. 24 
.. .. .. .. .. .. .. 23 .. .. .. .. .. .. .. 22 .. .. .. .. .. .. .. 21 .. .. .. .. .. .. 
.. 20 .. .. .. .. .. .. .. 19 .. .. .. .. .. .. .. 18 .. .. .. .. .. .. .. 17 .. .. .. .. 
.. .. 16 .. .. .. .. .. .. .. .. 15 .. .. .. .. .. .. .. .. .. .. .. .. .. .. .. .. .. .. 
.. .. .. .. .. .. .. .. .. .. .. 39 .. .. .. .. .. .. .. .. .. .. .. .. .. .. .. .. .. .. 
.. .. .. .. .. .. .. .. 42 .. .. .. .. .. .. 39 .. .. .. .. .. .. .. .. .. .. .. .. .. .. 
.. .. .. .. .. 44 .. .. .. .. .. 39 .. .. .. .. .. .. .. .. .. .. .. .. .. 42 .. .. .. .. 
.. 39 .. .. .. .. .. .. .. .. .. .. .. .. .. 41 .. .. .. .. .. 39 .. .. .. .. .. .. .. .. 
.. .. .. .. .. .. .. .. .. .. .. .. .. .. .. .. .. .. .. .. .. .. .. .. .. 42 .. .. .. .. 
.. 39 .. .. .. .. .. .. .. .. .. .. .. .. .. .. .. .. .. .. .. .. 44 .. .. .. .. .. 39 .. 
.. .. .. .. .. .. .. .. .. .. .. .. 42 .. .. .. .. .. 39 .. .. .. .. .. .. .. .. .. .. .. 
.. .. 41 .. .. .. .. .. 39 .. .. .. .. .. .. 46 .. .. .. .. .. .. .. .. .. .. .. .. .. .. 
.. .. .. .. .. .. .. .. .. .. .. .. 49 .. .. .. .. .. 46 .. .. .. .. .. .. .. .. .. .. .. 
.. .. .. .. .. .. .. .. 51 .. .. .. .. .. .. 46 .. .. .. .. .. .. .. .. .. .. .. .. 49 .. 
.. .. .. .. .. 46 .. .. .. .. .. .. .. .. .. .. .. .. 48 .. .. .. .. .. .. 46 .. .. .. .. 
.. .. .. .. .. .. .. .. .. .. .. .. .. .. .. .. .. .. .. .. .. .. .. .. .. .. .. .. .. 49 
.. .. .. .. .. 46 .. .. .. .. .. .. .. .. .. .. .. .. .. .. .. .. .. .. .. 51 .. .. .. .. 
.. .. 46 .. .. .. .. .. .. .. .. .. .. .. .. 49 .. .. .. .. .. .. 46 .. .. .. .. .. .. .. 
.. .. .. .. .. 48 .. .. .. .. .. .. 46 .. .. .. .. .. .. 45 .. 44 19 .. 20 21 22 23 .. 24 
25 26 27 .. 28 29 30 31 .. 32 33 34 35 36 .. 37 38 39 40 .. 41 42 43 44 45 .. 46 47 48 49 
.. 50 51 52 53 .. 54 55 56 57 58 .. 59 60 61 62 .. 63 64 65 66 .. .. .. .. .. .. .. .. .. 
.. .. .. .. .. .. .. .. .. .. .. .. .. .. .. .. .. .. .. .. .. .. .. .. .. .. .. .. .. .. 
.. .. 65 .. 64 .. 63 .. 62 .. .. 61 .. 60 .. 59 .. 58 .. 57 .. 56 .. 55 .. .. 54 .. 53 .. 
52 .. 51 .. 50 .. 49 .. .. 48 .. 47 .. 46 .. 45 .. 44 .. 43 .. .. 42 .. 41 .. 40 .. 39 .. 
38 .. 37 .. .. 36 .. 35 .. .. .. .. .. .. .. .. .. .. .. .. .. .. .. .. .. .. .. .. .. .. 
.. .. .. .. .. .. .. .. .. .. .. .. .. .. .. .. .. .. .. .. 36 .. 18 .. .. .. .. .. .. 19 
.. .. .. .. 20 .. .. .. 21 .. .. .. .. 22 .. .. .. .. 23 .. .. .. 24 .. .. .. .. 25 .. .. 
.. 26 .. .. .. .. 27 .. .. .. 28 .. .. .. .. 29 .. .. .. 30 .. .. .. .. 31 .. .. .. .. 32 
.. .. .. 33 .. .. .. .. 34 .. .. .. 35 .. .. .. 36 .. .. .. .. 37 .. .. .. .. 38 .. .. .. 
39 .. .. .. .. 40 .. .. .. 42 .. .. .. .. .. .. 43 .. .. .. .. .. .. .. .. 44 .. .. .. .. 
.. .. .. .. 45 .. .. .. .. .. .. .. .. 46 .. .. .. .. .. .. .. .. .. 47 .. .. .. .. .. .. 
.. 48 .. .. .. .. .. .. .. .. .. 49 .. .. .. .. .. .. .. .. 50 .. .. .. .. .. .. .. .. 51 
.. .. .. .. .. .. .. .. 52 .. .. .. .. .. .. .. .. 53 .. .. .. .. .. .. .. .. 54 .. .. .. 
.. .. .. 55 .. .. .. .. .. .. .. .. .. 56 .. .. .. .. .. .. .. 57 .. .. .. .. .. .. .. .. 
58 .. .. .. .. .. .. .. .. .. 59 .. .. .. .. .. .. .. .. 60 .. .. .. .. .. .. .. .. 61 .. 
.. .. .. .. .. .. .. 62 .. .. .. .. .. .. .. .. 63 .. .. .. .. .. .. .. .. 64 .. .. .. .. 
.. .. .. .. 65 .. .. .. .. .. 66 .. .. 67 .. .. .. .. 68 .. .. .. .. 69 .. .. .. 70 .. .. 
.. .. 71 .. .. .. 72 .. .. .. 73 .. .. .. .. 74 .. .. .. .. 75 .. .. .. .. 76 .. .. .. 77 
.. .. .. 78 .. .. .. 79 .. .. .. .. 80 .. .. .. .. 81 .. .. .. 82 .. .. .. .. .. 83 .. .. 
.. 84 .. .. .. 85 .. .. .. .. 86 .. .. .. .. 87 .. .. .. .. 88 .. .. 89 .. .. .. .. 90 .. 
89 .. .. 88 87 .. 39 .. .. .. .. .. .. .. .. .. .. .. .. .. .. .. .. .. .. .. .. .. .. .. 
.. .. .. 42 .. .. .. .. .. .. 39 .. .. .. .. .. .. .. .. .. .. .. .. .. .. .. .. .. .. .. 
44 .. .. .. .. .. .. 39 .. .. .. .. .. .. .. .. .. .. .. .. 42 .. .. .. .. .. .. 39 .. .. 
.. .. .. .. .. 51 .. 49 47 .. 46 .. 44 42 .. 41 .. 39 .. .. .. .. .. .. .. .. .. .. .. .. 
.. .. .. .. .. .. .. .. .. .. .. .. .. .. .. .. .. .. .. .. 42 .. .. .. .. .. .. 39 .. .. 
.. .. .. .. .. .. .. .. .. .. .. .. .. .. .. .. .. 44 .. .. .. .. .. 39 .. .. .. .. .. .. 
.. .. .. .. .. .. .. 42 .. .. .. .. .. 39 .. .. .. .. .. .. .. .. .. .. .. .. .. 49 .. .. 
.. .. .. 51 .. .. 50 .. .. .. 39 .. .. .. .. .. .. .. .. .. .. .. .. .. .. .. .. .. .. .. 
.. .. .. .. .. .. .. 42 .. .. .. .. .. .. 39 .. .. .. .. .. .. .. .. .. .. .. .. .. .. .. 
.. .. .. .. 44 .. .. .. .. .. 39 .. .. .. .. .. .. .. .. .. .. .. .. .. 42 .. .. .. .. .. 
39 .. .. .. .. .. .. .. .. 51 49 .. 47 .. 46 44 .. 42 .. 41 39 .. .. .. .. .. .. .. .. .. 
.. .. .. .. .. .. .. .. .. .. .. .. .. .. .. .. .. .. .. .. .. .. .. .. 42 .. .. .. .. .. 
39 .. .. .. .. .. .. .. .. .. .. .. .. .. .. .. .. .. .. .. 44 .. .. .. .. .. .. 39 .. .. 
.. .. .. .. .. .. .. .. .. .. 42 .. .. .. .. .. .. 39 .. .. .. .. .. .. .. .. .. .. .. .. 
.. 49 .. .. .. .. .. 46 .. .. .. .. .. .. .. .. .. .. .. .. .. .. .. .. .. .. .. .. .. .. 
.. .. .. .. .. .. .. 48 46 45 44 43 42 41 40 38 37 36 35 34 33 32 30 29 28 27 26 25 .. .. 
.. 49 .. .. .. .. .. 44 .. .. .. .. .. .. .. .. .. .. .. .. .. 51 .. .. .. .. .. 44 .. .. 
.. .. .. .. .. .. .. .. .. .. .. .. .. .. 43 42 41 40 39 38 37 .. 36 35 46 .. .. .. .. .. 
.. .. .. .. .. .. .. .. .. .. .. .. .. .. .. .. .. .. .. .. .. 49 .. .. .. .. .. 46 .. .. 
.. .. .. .. .. .. .. .. .. .. .. .. .. .. .. .. .. 51 .. .. .. .. .. .. 46 .. .. .. .. .. 
.. .. .. .. .. .. .. 49 .. .. .. .. .. .. 46 .. .. .. .. .. .. .. .. .. .. .. .. .. .. .. 
.. 43 42 41 40 39 38 37 .. 36 35 46 .. .. .. .. .. .. .. .. .. .. .. .. .. .. .. .. .. .. 
.. .. .. .. .. .. .. .. .. .. .. 48 46 45 44 43 42 41 40 38 37 36 35 34 33 32 30 29 28 27 
26 25 .. .. 49 .. .. .. .. .. .. 44 .. .. .. .. .. .. .. .. .. .. .. .. 51 .. .. .. .. .. 
.. 44 .. .. .. .. .. .. .. .. .. .. .. .. .. .. .. .. 43 42 41 40 39 38 37 .. 36 35 46 .. 
.. .. .. .. .. .. .. .. .. .. .. .. .. .. .. .. .. .. .. .. .. .. .. .. 49 .. .. .. .. .. 
.. 46 .. .. .. .. .. .. .. .. .. .. .. .. .. .. .. .. .. .. .. 51 .. .. .. .. .. .. 46 .. 
.. .. .. .. .. .. .. .. .. .. .. 49 .. .. .. .. .. .. 46 .. .. .. .. .. .. .. .. .. .. .. 
.. .. .. .. .. 43 42 41 40 39 38 37 .. 36 35 51 .. .. .. .. .. .. .. .. .. .. .. .. .. .. 
.. .. .. .. .. .. .. .. .. .. .. 54 .. .. .. .. .. .. 51 .. .. .. .. .. .. .. .. .. .. .. 
.. .. .. .. .. .. .. .. 56 .. .. .. .. .. .. 51 .. .. .. .. .. .. .. .. .. .. .. .. 54 .. 
.. .. .. .. .. 51 .. .. .. .. .. .. .. .. .. .. .. .. 53 .. .. .. .. .. .. 51 .. .. .. .. 
.. .. .. .. .. .. .. .. .. .. .. .. .. .. .. .. .. .. .. .. .. .. .. .. .. .. .. .. 54 .. 
.. .. .. .. .. 51 .. .. .. .. .. .. .. .. .. .. .. .. .. .. .. .. .. .. .. 56 .. .. .. .. 
.. .. 51 .. .. .. .. .. .. .. .. .. .. .. .. 54 .. .. .. .. .. .. 51 .. .. .. .. .. .. .. 
.. .. .. .. .. 53 .. .. .. .. .. .. 51 .. .. .. .. .. .. .. .. .. .. .. .. .. .. .. .. .. 
.. .. .. .. .. .. .. .. .. .. .. .. .. .. .. 54 .. .. .. .. .. .. 51 .. .. .. .. .. .. .. 
.. .. .. .. .. .. .. .. .. .. .. .. 56 .. .. .. .. .. 51 .. .. .. .. .. .. .. .. .. .. .. 
.. .. 54 .. .. .. .. .. 51 .. .. .. .. .. .. .. .. .. .. .. .. .. 53 .. .. .. .. .. 51 .. 
.. .. .. .. .. .. .. .. .. .. .. .. .. .. .. .. .. .. .. .. .. .. .. .. .. .. .. .. .. .. 
.. .. 54 .. .. .. .. .. .. 51 .. .. .. .. .. .. .. .. .. .. .. .. .. .. .. .. .. .. .. 56 
.. .. .. .. .. 51 .. .. .. .. .. .. .. .. .. .. .. .. .. 54 .. .. .. .. .. 51 .. .. .. .. 
.. .. .. .. .. .. .. .. .. 53 .. .. .. .. .. 51 .. .. .. .. .. .. 39 .. .. .. .. .. .. .. 
.. .. .. .. .. .. .. .. .. .. .. .. .. .. .. .. .. .. .. 42 .. .. .. .. .. 39 .. .. .. .. 
.. .. .. .. .. .. .. .. .. .. .. .. .. .. .. 44 .. .. .. .. .. .. 39 .. .. .. .. .. .. .. 
.. .. .. .. .. 42 .. .. .. .. .. .. 39 .. .. .. .. .. .. .. .. .. .. .. .. 51 .. 49 .. 47 
.. 46 44 .. 42 .. 41 39 .. .. .. .. .. .. .. .. .. .. .. .. .. .. .. .. .. .. .. .. .. .. 
.. .. .. .. .. .. 42 .. .. .. .. .. 39 .. .. .. .. .. .. .. .. .. .. .. .. .. .. .. .. .. 
.. .. 44 .. .. .. .. .. .. 39 .. .. .. .. .. .. .. .. .. .. .. .. 42 .. .. .. .. .. .. 39 
.. .. .. .. .. .. .. .. .. .. .. .. 49 .. .. .. .. .. .. 51 .. .. .. .. .. .. 39 .. .. .. 
.. .. .. .. .. .. .. .. .. .. .. .. .. .. .. .. .. .. .. .. .. .. 42 .. .. .. .. .. .. 39 
.. .. .. .. .. .. .. .. .. .. .. .. .. .. .. .. .. .. .. 44 .. .. .. .. .. .. 39 .. .. .. 
.. .. .. .. .. .. .. .. .. 42 .. .. .. .. .. .. 39 .. .. .. .. .. .. .. .. .. .. .. .. 51 
.. 49 .. 47 46 .. 44 .. 42 41 .. 39 .. .. .. .. .. .. .. .. .. .. .. .. .. .. .. .. .. .. 
.. .. .. .. .. .. .. .. .. 42 .. .. .. .. .. .. 39 .. .. .. .. .. .. .. .. .. .. .. .. .. 
.. .. .. .. .. .. 44 .. .. .. .. .. .. 39 .. .. .. .. .. .. .. .. .. .. .. .. 42 .. .. .. 
.. .. .. 39 .. .. .. .. .. .. .. .. .. .. .. .. 49 .. .. .. .. .. .. 51 .. .. .. .. .. 15 
.. .. .. .. .. .. .. .. .. .. .. .. .. .. .. .. .. .. .. .. .. .. .. .. .. .. 18 .. .. .. 
.. .. .. .. .. .. .. .. .. .. .. .. .. .. .. .. .. .. .. .. .. .. .. 20 .. .. .. .. .. .. 
.. .. .. .. .. .. .. .. .. .. .. .. .. 18 .. .. .. .. .. .. .. .. .. .. .. .. .. .. .. .. 
.. .. .. 15 .. .. .. .. .. .. .. .. .. .. .. .. .. .. .. .. .. .. .. .. .. .. .. .. .. .. 
.. .. .. .. .. .. .. .. .. .. .. .. .. 18 .. .. .. .. .. .. .. .. .. .. .. .. .. .. .. .. 
.. .. .. .. .. .. .. .. .. .. 20 .. .. .. .. .. .. .. .. .. .. .. .. .. .. .. .. .. .. .. 
25 .. .. .. .. .. .. .. .. .. .. .. .. .. .. .. .. .. .. .. 27 .. .. .. .. .. .. .. .. .. 
.. .. .. 15 .. .. .. .. .. .. .. .. .. .. .. .. .. .. .. .. .. .. .. .. .. .. .. .. .. .. 
18 .. .. .. .. .. .. .. .. .. .. .. .. .. .. .. .. .. .. .. .. .. .. .. .. .. .. 20 .. .. 
.. .. .. .. .. .. .. .. .. .. .. .. .. .. .. .. .. 18 .. .. .. .. .. .. .. .. .. .. .. .. 
.. .. .. .. .. .. .. 15 .. .. .. .. .. .. .. .. .. .. .. .. .. .. .. .. .. .. .. .. .. .. 
.. .. .. .. .. .. .. .. .. .. .. .. .. .. .. .. .. 18 .. .. .. .. .. .. .. .. .. .. .. .. 
.. .. .. .. .. .. .. .. .. .. .. .. .. 20 .. .. .. .. .. .. .. .. .. .. .. .. .. .. .. .. 
.. .. .. 27 .. .. .. .. .. .. .. .. .. .. .. .. .. .. .. .. .. .. .. 15 .. .. .. .. .. .. 
.. .. .. .. .. .. .. 39 .. .. .. .. .. .. .. .. .. .. .. .. .. .. .. .. .. .. .. .. .. .. 
.. .. .. .. 42 .. .. .. .. .. 39 .. .. .. .. .. .. .. .. .. .. .. .. .. .. .. .. .. .. .. 
.. .. .. .. .. .. .. .. .. .. .. .. .. .. .. .. .. .. .. .. .. .. .. .. .. .. .. 42 .. .. 
.. .. .. .. 39 .. .. .. .. .. .. .. .. .. .. .. .. .. .. .. .. .. .. .. .. .. .. .. .. .. 
.. .. .. .. .. .. .. .. .. .. .. .. .. .. .. .. .. .. .. .. 42 .. .. .. .. .. .. 39 .. .. 
.. .. .. .. .. .. .. .. .. .. .. .. .. .. .. .. .. 44 .. .. .. .. .. .. 39 .. .. .. .. .. 
.. .. .. .. .. .. .. 42 .. .. .. .. .. .. 39 .. .. .. .. .. .. .. .. .. .. .. .. 49 .. .. 
.. .. .. .. 51 .. .. .. .. .. .. 39 .. .. .. .. .. .. .. .. .. .. .. .. .. .. .. .. .. .. 
.. .. .. .. .. .. .. 42 .. .. .. .. .. .. 39 .. .. .. .. .. .. .. .. .. .. .. .. .. .. .. 
.. .. .. .. .. .. .. .. .. .. .. .. .. .. .. .. .. .. .. .. .. .. .. .. .. .. .. .. .. .. 
.. 42 .. .. .. .. .. 39 .. .. .. .. .. .. .. .. .. .. .. .. .. .. .. .. .. .. .. .. .. .. 
.. .. .. .. .. .. .. .. .. .. .. .. .. .. .. .. .. .. .. .. .. .. .. .. 42 .. .. .. .. .. 
.. 39 .. .. .. .. .. .. .. .. .. .. .. .. .. .. .. .. .. .. .. 44 .. .. .. .. .. 39 .. .. 
.. .. .. .. .. .. .. .. .. .. .. 42 .. .. .. .. .. .. 39 .. .. .. .. .. .. .. .. .. .. .. 
.. 49 .. .. .. .. .. .. 51 .. .. .. .. .. 39 .. .. .. .. .. .. .. .. .. .. .. .. .. .. .. 
.. .. .. .. .. .. .. .. .. .. .. 42 .. .. .. .. .. .. 39 .. .. .. .. .. .. .. .. .. .. .. 
.. .. .. .. .. .. .. .. .. .. .. .. .. .. .. .. .. .. .. .. .. .. .. .. .. .. .. .. .. .. 
.. .. .. .. 42 .. .. .. .. .. .. 39 .. .. .. .. .. .. .. .. .. .. .. .. .. .. .. .. .. .. 
.. .. .. .. .. .. .. .. .. .. .. .. .. .. .. .. .. .. .. .. .. .. .. .. .. .. .. .. 42 .. 
.. .. .. .. 39 .. .. .. .. .. .. .. .. .. .. .. .. .. .. .. .. .. .. .. .. 44 .. .. .. .. 
.. 39 .. .. .. .. .. .. .. .. .. .. .. .. .. 42 .. .. .. .. .. 39 .. .. .. .. .. .. .. .. 
.. .. .. .. .. 49 .. .. .. .. .. 51 .. .. .. .. .. .. 39 .. .. .. .. .. .. .. .. .. .. .. 
.. .. .. .. .. .. .. .. .. .. .. .. .. .. .. 42 .. .. .. .. .. 39 .. .. .. .. .. .. .. .. 
.. .. .. .. .. .. .. .. .. .. .. .. .. .. .. .. .. .. .. .. .. .. .. .. .. .. .. .. .. .. 
.. .. .. .. .. .. .. .. 42 .. .. .. .. .. .. 39 .. .. .. .. .. .. .. .. .. .. .. .. .. .. 
.. .. .. .. .. .. .. .. .. .. .. .. .. .. .. .. .. .. .. .. .. .. .. .. .. .. .. .. .. .. 
.. 42 .. .. .. .. .. .. 39 .. .. .. .. .. .. .. .. .. .. .. .. .. .. .. .. .. .. .. 44 .. 
.. .. .. .. .. 39 .. .. .. .. .. .. .. .. .. .. .. .. 42 .. .. .. .. .. .. 39 .. .. .. .. 
.. .. .. .. .. .. .. .. 49 .. .. .. .. .. .. 51 .. .. .. .. .. .. 39 .. .. .. .. .. .. .. 
.. .. .. .. .. .. .. .. .. .. .. .. .. .. .. .. .. .. 42 .. .. .. .. .. .. .. .. .. .. .. 
.. .. 39 .. .. .. .. .. .. .. .. .. .. .. .. .. .. .. .. .. .. .. .. .. .. .. .. .. 42 .. 
.. .. .. .. .. .. .. .. .. .. .. .. 39 .. .. .. .. .. .. .. .. .. .. .. .. 42 .. .. .. .. 
.. .. 39 .. .. .. .. .. .. .. .. .. .. .. .. .. .. .. .. .. .. .. .. .. .. .. .. .. .. .. 
.. .. .. .. .. 42 .. .. .. .. .. .. .. .. .. .. .. .. .. 39 .. .. .. .. .. .. .. .. .. .. 
.. .. .. .. .. .. .. .. .. .. .. .. .. .. .. 44 .. .. .. .. .. .. .. .. .. .. .. .. .. 39 
.. .. .. .. .. .. .. .. .. .. .. .. 42 .. .. .. .. .. .. 39 .. .. .. .. .. .. .. .. .. .. 
.. .. .. .. .. .. .. .. .. .. .. .. .. .. .. .. .. .. .. .. .. .. 42 .. .. .. .. .. .. .. 
.. .. .. .. .. 39 .. .. .. .. .. .. .. .. .. .. .. .. .. .. .. .. .. .. .. .. .. .. .. .. 
.. .. 42 .. .. .. .. .. .. .. .. .. .. .. .. 39 .. .. .. .. .. .. .. .. .. .. .. .. .. 42 
.. .. .. .. .. .. 39 .. .. .. .. .. .. .. .. .. .. .. .. .. .. .. .. .. .. .. .. .. .. .. 
.. .. .. .. .. .. .. .. .. 42 .. .. .. .. .. .. .. .. .. .. .. .. 39 .. .. .. .. .. .. .. 
.. .. .. .. .. .. .. .. .. .. .. .. .. .. .. .. .. .. .. 44 .. .. .. .. .. .. .. .. .. .. 
.. .. 39 .. .. .. .. .. .. .. .. .. .. .. .. .. 46 .. .. .. .. .. 39 .. .. .. .. .. .. 27 
.. .. .. .. .. .. .. .. .. 28 .. .. .. .. .. .. .. .. .. 29 .. .. .. .. .. .. .. .. 30 .. 
.. .. .. .. .. .. 31 .. .. .. .. .. .. .. .. .. 32 .. .. .. .. .. .. .. 33 .. .. .. .. .. 
.. .. .. .. 34 .. .. .. .. .. .. .. .. 35 .. .. .. .. .. .. .. .. 36 .. .. .. .. .. .. .. 
.. 37 .. .. .. .. .. .. .. .. 38 .. .. .. .. .. 39 .. .. .. .. .. .. 40 .. .. .. .. .. .. 
.. .. 41 .. .. .. .. .. .. .. .. .. 42 .. .. .. .. .. .. .. 43 .. .. .. .. .. .. .. .. 44 
.. .. .. .. .. .. .. .. 45 .. .. .. .. .. .. .. .. .. 46 .. .. .. .. .. .. .. .. 47 .. .. 
.. .. .. .. .. .. 48 .. .. .. .. .. .. .. .. 49 .. .. .. .. .. .. .. .. 50 .. .. .. .. .. 
.. .. .. 51 .. .. .. .. .. .. 52 .. .. .. .. .. .. .. .. .. 53 .. .. .. .. .. .. .. .. 54 
.. .. .. .. .. .. .. 55 .. .. .. .. .. .. .. .. .. 56 .. .. .. .. .. .. .. 57 .. .. .. .. 
.. .. .. .. .. 58 .. .. .. .. .. .. .. .. 59 .. .. .. .. .. .. .. .. 60 .. .. .. .. .. .. 
.. .. 61 .. .. .. .. .. .. .. .. 62 .. .. .. .. .. .. .. .. 63 .. .. .. .. .. .. 64 
! Song 2
14 17 .. .. .. .. .. .. 18 19 .. 20 21 .. 22 23 .. 24 25 26 .. 27 28 .. 29 30 .. 31 32 .. 
33 34 .. 35 36 37 .. 38 39 .. 40 41 .. 42 43 .. 44 45 .. 46 47 48 .. 49 50 .. 51 52 .. 53 
54 .. 55 56 .. 57 58 .. 59 60 61 .. 62 63 .. 64 65 .. 66 67 .. 68 69 .. 70 71 72 .. 73 74 
.. 75 76 .. 77 78 .. 79 80 .. 81 82 .. 83 84 .. 85 86 .. 87 88 89 .. .. .. .. .. .. .. .. 
.. 53 .. .. .. .. .. .. .. .. .. .. .. .. .. .. 60 .. .. .. .. .. .. .. .. .. .. .. .. .. 
.. 56 .. .. .. .. .. .. .. .. .. .. .. .. .. .. 53 .. .. .. .. .. .. .. .. .. .. .. .. .. 
.. 56 .. .. .. .. .. .. .. .. .. .. .. .. .. .. 53 .. .. .. .. .. .. .. .. .. .. .. .. .. 
.. 56 .. .. .. .. .. .. .. .. .. .. .. .. .. .. 58 .. .. .. .. .. .. .. .. .. .. .. .. .. 
.. 36 .. .. .. .. .. .. .. .. .. .. .. .. .. .. 43 .. .. .. .. .. .. .. .. .. .. .. .. .. 
.. 39 .. .. .. .. .. .. .. .. .. .. .. .. .. .. 36 .. .. .. .. .. .. .. .. .. .. .. .. .. 
.. 39 .. .. .. .. .. .. .. .. .. .. .. .. .. .. 36 .. .. .. .. .. .. .. .. .. .. .. .. .. 
.. 39 .. .. .. .. .. .. .. .. .. .. .. .. .. .. 41 .. .. .. .. .. .. .. .. .. .. .. .. .. 
.. 43 .. .. .. .. .. .. .. .. .. .. .. .. .. .. .. .. .. .. .. .. .. .. .. .. .. .. .. .. 
.. 43 .. .. .. .. .. .. .. .. .. .. .. .. .. .. .. .. .. .. .. .. .. .. .. .. .. .. .. .. 
.. 46 .. .. .. .. .. .. .. .. .. .. .. .. .. .. 46 .. .. .. .. .. .. .. .. .. .. .. .. .. 
.. .. .. .. .. .. .. .. .. .. .. .. .. .. .. .. 48 .. .. .. .. .. .. .. .. .. .. .. .. .. 
.. .. .. .. .. .. .. .. .. .. .. .. .. .. .. .. .. .. .. .. .. .. .. .. 48 .. .. .. .. .. 
.. 48 .. .. .. .. .. .. .. 48 .. .. .. .. .. .. 48 .. .. .. .. .. .. .. 48 .. .. .. .. .. 
.. 48 .. .. .. .. .. .. .. 48 .. .. .. .. .. .. 48 .. .. .. .. .. .. .. 48 .. .. .. .. .. 
.. 48 .. .. .. .. .. .. .. 48 .. .. .. .. .. .. .. .. .. .. .. .. .. .. .. .. .. .. .. .. 
.. .. .. .. .. .. .. .. .. .. .. .. .. .. .. .. .. .. .. .. .. .. .. .. .. .. .. .. .. .. 
.. .. .. .. .. .. .. .. .. .. .. .. .. .. .. .. .. .. .. .. .. .. .. .. .. .. .. .. .. .. 
.. .. .. .. .. .. .. .. .. .. .. .. .. .. .. .. .. .. .. .. .. .. .. .. .. .. .. .. .. .. 
.. .. .. .. .. .. .. .. .. .. .. .. .. .. .. 
! Song 3
14 36 .. .. .. .. .. .. .. .. .. 39 .. .. .. .. .. .. .. .. .. 38 37 36 35 34 33 .. 32 31 
30 29 28 .. 27 .. .. .. .. .. .. .. .. .. .. .. .. .. .. .. .. .. .. .. .. 28 .. .. .. 29 
.. .. 30 .. .. .. 31 .. .. .. .. .. 27 .. .. .. .. .. .. .. .. .. 29 .. .. .. .. .. .. .. 
.. .. .. .. .. .. .. .. .. .. .. .. .. 36 .. .. .. .. .. .. .. .. .. .. .. .. .. .. .. .. 
.. .. .. 27 .. .. .. .. .. .. .. .. .. .. .. .. .. .. .. .. .. .. .. .. 36 .. .. .. .. .. 
.. .. .. .. 24 .. .. .. .. .. .. .. .. .. 36 .. .. .. .. .. .. .. .. .. .. 39 .. .. .. .. 
.. .. .. .. .. 38 37 36 35 34 33 .. 32 31 30 29 28 .. 27 .. .. .. .. .. .. .. .. .. .. .. 
.. .. .. .. .. .. .. .. .. 28 .. .. .. 29 .. .. 30 .. .. .. 31 .. .. .. .. .. 27 .. .. .. 
.. .. .. .. .. .. 29 .. .. .. .. .. .. .. .. .. .. .. .. .. .. .. .. .. .. .. .. 36 .. .. 
.. .. .. .. .. .. .. .. .. .. .. .. .. .. .. .. .. 27 .. .. .. .. .. .. .. .. .. .. .. .. 
.. .. .. .. .. .. .. .. .. .. .. .. .. .. .. .. .. .. .. .. .. .. .. .. .. .. .. .. 36 .. 
.. .. .. .. .. .. .. .. 39 .. .. .. .. .. .. .. .. .. .. 38 37 36 35 34 33 .. 32 31 30 29 
28 .. 27 .. .. .. .. .. .. .. .. .. .. .. .. .. .. .. .. .. .. .. 28 .. .. .. 29 .. .. 30 
.. .. .. 31 .. .. .. .. .. .. 27 .. .. .. .. .. .. .. .. .. 29 .. .. .. .. .. .. .. .. .. 
.. .. .. .. .. .. .. .. .. .. .. 36 .. .. .. .. .. .. .. .. .. .. .. .. .. .. .. .. .. .. 
.. 27 .. .. .. .. .. .. .. .. .. .. .. .. .. .. .. .. .. .. .. .. 36 .. .. .. .. .. .. .. 
.. .. 24 .. .. .. .. .. .. .. .. .. 36 .. .. .. .. .. .. .. .. .. 39 .. .. .. .. .. .. .. 
.. .. .. 38 37 36 35 34 33 .. 32 31 30 29 28 .. 27 .. .. .. .. .. .. .. .. .. .. .. .. .. 
.. .. .. .. .. .. 28 .. .. .. 29 .. .. 30 .. .. .. 31 .. .. .. .. .. .. 27 .. .. .. .. .. 
.. .. .. .. 29 .. .. .. .. .. .. .. .. .. .. .. .. .. .. .. .. .. .. .. 36 .. .. .. .. .. 
.. .. .. .. .. .. .. .. .. .. .. .. .. .. .. 27 .. .. .. .. .. .. .. .. .. 24 .. .. .. .. 
.. .. .. .. .. .. .. .. .. .. .. .. .. .. .. .. .. .. .. .. .. .. .. .. .. .. 36 .. .. .. 
.. .. .. .. .. .. 31 .. .. .. .. .. .. .. .. .. 27 .. .. .. .. .. .. .. .. .. .. .. .. .. 
.. .. .. .. .. .. .. 24 .. .. .. .. .. .. .. .. .. .. .. .. .. .. .. .. .. .. .. .. .. .. 
.. .. .. .. .. .. .. .. .. .. .. .. .. .. .. .. .. .. .. .. .. .. .. .. .. .. .. .. 27 .. 
.. .. .. .. .. .. .. .. .. .. .. .. .. .. .. .. .. .. .. .. .. .. .. .. .. .. .. .. .. .. 
.. .. .. .. .. .. .. .. .. .. .. .. .. .. .. .. .. .. .. .. .. .. .. .. .. .. .. .. .. .. 
.. .. .. .. .. .. .. .. .. .. 36 .. .. .. .. .. .. .. .. .. 31 .. .. .. .. .. .. .. .. .. 
27 .. .. .. .. .. .. .. .. .. .. .. .. .. .. .. .. .. .. .. .. 24 .. .. .. .. .. .. .. .. 
.. .. .. .. .. .. .. .. .. .. .. .. .. .. .. .. .. .. .. .. .. .. .. .. .. .. .. .. .. .. 
.. .. .. .. .. .. .. .. .. .. .. .. 27 .. .. .. .. .. .. .. .. .. .. .. .. .. .. .. .. .. 
.. .. .. .. .. .. .. .. .. .. .. .. .. .. .. .. .. .. .. .. .. .. .. .. .. .. .. .. .. .. 
.. .. .. 22 .. .. .. .. .. .. .. .. .. .. .. .. .. .. .. .. .. .. .. .. 36 .. .. .. .. .. 
.. .. .. .. 31 .. .. .. .. .. .. .. .. .. 27 .. .. .. .. .. .. .. .. .. .. .. .. .. .. .. 
.. .. .. .. .. 24 .. .. .. .. .. .. .. .. .. .. .. .. .. .. .. .. .. .. .. .. .. .. .. .. 
.. .. .. .. .. .. .. .. .. .. .. .. .. .. .. .. .. .. .. .. .. .. .. .. .. .. 27 .. .. .. 
.. .. .. .. .. .. .. .. .. .. .. .. .. .. .. .. .. .. .. .. .. .. .. .. .. .. .. .. .. .. 
.. .. .. .. .. .. .. .. .. .. .. .. .. .. .. .. .. .. .. .. .. .. .. .. .. .. .. .. .. .. 
.. .. .. .. .. .. .. 36 .. .. .. .. .. .. .. .. .. .. 31 .. .. .. .. .. .. .. .. .. 27 .. 
.. .. .. .. .. .. .. .. .. .. .. .. .. .. .. .. .. .. 24 .. .. .. .. .. .. .. .. .. .. .. 
.. .. .. .. .. .. .. .. .. .. .. .. .. .. .. .. .. .. .. .. .. .. .. .. .. .. .. .. .. .. 
.. .. .. .. .. .. .. .. .. .. 27 .. .. .. .. .. .. .. .. .. .. .. .. .. .. .. .. .. .. .. 
.. .. .. .. .. .. .. .. .. .. .. .. .. .. .. .. .. .. .. .. .. .. .. .. .. .. .. .. .. .. 
.. .. .. .. .. .. .. .. .. .. .. .. .. .. .. .. .. .. .. .. .. 60 .. .. .. .. .. .. .. .. 
.. 55 .. .. .. .. .. .. .. .. .. .. 51 .. .. .. .. .. .. .. .. .. .. .. .. .. .. .. .. .. 
.. .. 48 .. .. .. .. .. .. .. .. .. .. .. .. .. .. .. .. .. .. .. .. .. .. .. .. .. .. .. 
.. .. .. .. .. .. .. .. .. .. .. .. .. .. .. .. .. .. .. .. .. .. .. 51 .. .. .. .. .. .. 
.. .. .. .. .. .. .. .. .. .. .. .. .. .. .. .. .. .. .. .. .. .. .. .. .. .. .. .. .. .. 
.. .. .. .. .. .. .. .. .. .. .. .. .. .. .. .. .. .. .. .. .. .. .. .. .. .. .. .. .. .. 
.. .. .. .. .. 60 .. .. .. .. .. .. .. .. .. 55 .. .. .. .. .. .. .. .. .. .. 51 .. .. .. 
.. .. .. .. .. .. .. .. .. .. .. .. .. .. .. .. 48 .. .. .. .. .. .. .. .. .. .. .. .. .. 
.. .. .. .. .. .. .. .. .. .. .. .. .. .. .. .. .. .. .. .. .. .. .. .. .. .. .. .. .. .. 
.. .. .. .. .. .. .. 51 .. .. .. .. .. .. .. .. .. .. .. .. .. .. .. .. .. .. .. .. .. .. 
.. .. .. .. .. .. .. .. .. .. .. .. .. .. .. .. .. .. .. .. .. .. .. .. .. .. .. .. 46 .. 
.. .. .. .. .. .. .. .. .. .. .. .. .. .. .. .. .. .. .. 60 .. .. .. .. .. .. .. .. .. 55 
.. .. .. .. .. .. .. .. .. 51 .. .. .. .. .. .. .. .. .. .. .. .. .. .. .. .. .. .. .. .. 
48 .. .. .. .. .. .. .. .. .. .. .. .. .. .. .. .. .. .. .. .. .. .. .. .. .. .. .. .. .. 
.. .. .. .. .. .. .. .. .. .. .. .. .. .. .. .. .. .. .. .. .. 51 .. .. .. .. .. .. .. .. 
.. .. .. .. .. .. .. .. .. .. .. .. .. .. .. .. .. .. .. .. .. .. .. .. .. .. .. .. .. .. 
.. .. .. .. .. .. .. .. .. .. .. .. .. .. .. .. .. .. .. .. .. .. .. .. .. .. .. .. .. .. 
.. .. .. 60 .. .. .. .. .. .. .. .. .. 55 .. .. .. .. .. .. .. .. .. 51 .. .. .. .. .. .. 
.. .. .. .. .. .. .. .. .. .. .. .. .. .. 48 .. .. .. .. .. .. .. .. .. .. .. .. .. .. .. 
.. .. .. .. .. .. .. .. .. .. .. .. .. .. .. .. .. .. .. .. .. .. .. .. .. .. .. .. .. .. 
.. .. .. .. .. 51 .. .. .. .. .. .. .. .. .. .. .. .. .. .. .. .. .. .. .. .. .. .. .. .. 
.. .. .. .. .. .. .. .. .. .. .. .. .. .. .. .. .. .. .. .. .. .. .. .. .. .. .. .. .. .. 
.. .. .. .. .. .. .. .. .. .. .. .. .. .. .. .. .. 60 .. .. .. .. .. .. .. .. .. 55 .. .. 
.. .. .. .. .. .. .. 51 .. .. .. .. .. .. .. .. .. .. .. .. .. .. .. .. .. .. .. .. 48 .. 
.. .. .. .. .. .. .. .. .. .. .. .. .. .. .. .. .. .. .. .. .. .. .. .. .. .. .. .. .. .. 
.. .. .. .. .. .. .. .. .. .. .. .. .. .. .. .. .. .. .. 51 .. .. .. .. .. .. .. .. .. .. 
.. .. .. .. .. .. .. .. .. .. .. .. .. .. .. .. .. .. .. .. .. .. .. .. .. .. .. .. .. .. 
.. .. .. .. .. .. .. .. .. .. .. .. .. .. .. .. .. .. .. .. .. .. .. .. .. .. .. .. .. .. 
60 .. .. .. .. .. .. .. .. .. .. 55 .. .. .. .. .. .. .. .. .. 51 .. .. .. .. .. .. .. .. 
.. .. .. .. .. .. .. .. .. .. .. 48 .. .. .. .. .. .. .. .. .. .. .. .. .. .. .. .. .. .. 
.. .. .. .. .. .. .. .. .. .. .. .. .. .. .. .. .. .. .. .. .. .. .. .. .. .. .. .. .. .. 
.. .. .. 51 .. .. .. .. .. .. .. .. .. .. .. .. .. .. .. .. .. .. .. .. .. .. .. .. .. .. 
.. .. .. .. .. .. .. .. .. .. .. .. .. .. .. .. .. .. .. .. .. .. .. .. .. .. .. .. .. .. 
.. .. .. .. .. .. .. .. .. .. .. .. .. .. 60 .. .. .. .. .. .. .. .. .. .. 55 .. .. .. .. 
.. .. .. .. .. 51 .. .. .. .. .. .. .. .. .. .. .. .. .. .. .. .. .. .. .. 48 .. .. .. .. 
.. .. .. .. .. .. .. .. .. .. .. .. .. .. .. .. .. .. .. .. .. .. .. .. .. .. .. .. .. .. 
.. .. .. .. .. .. .. .. .. .. .. .. .. .. .. .. 51 .. .. .. .. .. .. .. .. .. .. .. .. .. 
.. .. .. .. .. .. .. .. .. .. .. .. .. .. .. .. .. .. .. .. .. .. .. .. .. .. .. .. .. .. 
.. .. .. .. .. .. .. .. .. .. .. .. .. .. .. .. .. .. .. .. .. .. .. .. .. .. .. .. 60 .. 
.. .. .. .. .. .. .. .. 55 .. .. .. .. .. .. .. .. .. .. 51 .. .. .. .. .. .. .. .. .. .. 
.. .. .. .. .. .. .. .. .. 48 .. .. .. .. .. .. .. .. .. .. .. .. .. .. .. .. .. .. .. .. 
.. .. .. .. .. .. .. .. .. .. .. .. .. .. .. .. .. .. .. .. .. .. .. .. .. .. .. .. .. .. 
51 .. .. .. .. .. .. .. .. .. .. .. .. .. .. .. .. .. .. .. .. .. .. .. .. .. .. .. .. .. 
.. .. .. .. .. .. .. .. .. .. .. .. .. .. .. .. .. .. .. .. .. .. .. .. .. .. .. .. .. .. 
.. .. .. .. .. .. .. .. .. .. .. .. 36 .. .. .. .. .. .. .. .. .. 39 .. .. .. .. .. .. .. 
.. .. 38 37 36 35 34 33 .. 32 31 30 29 28 .. 27 .. .. .. .. .. .. .. .. .. .. .. .. .. .. 
.. .. .. .. .. .. 28 .. .. .. 29 .. .. 30 .. .. .. 31 .. .. .. .. .. .. 27 .. .. .. .. .. 
.. .. .. .. 29 .. .. .. .. .. .. .. .. .. .. .. .. .. .. .. .. .. .. .. 36 .. .. .. .. .. 
.. .. .. .. .. .. .. .. .. .. .. .. .. .. .. 27 .. .. .. .. .. .. .. .. .. .. .. .. .. .. 
.. .. .. .. .. 36 .. .. .. .. .. .. .. .. .. .. 24 .. .. .. .. .. .. .. .. .. 36 .. .. .. 
.. .. .. .. .. .. 39 .. .. .. .. .. .. .. .. .. 38 37 36 35 34 33 .. 32 31 30 29 28 .. 27 
.. .. .. .. .. .. .. .. .. .. .. .. .. .. .. .. .. .. .. .. 28 .. .. .. 29 .. .. 30 .. .. 
.. 31 .. .. .. .. .. 27 .. .. .. .. .. .. .. .. .. .. 29 .. .. .. .. .. .. .. .. .. .. .. 
.. .. .. .. .. .. .. .. 36 .. .. .. .. .. .. .. .. .. .. .. .. .. .. .. .. .. .. .. .. 27 
.. .. .. .. .. .. .. .. .. .. .. .. .. .. .. .. .. .. .. .. .. .. .. .. .. .. .. .. .. .. 
.. .. .. .. .. .. .. .. .. .. 36 .. .. .. .. .. .. .. .. .. 39 .. .. .. .. .. .. .. .. .. 
38 37 36 35 34 33 .. 32 31 30 29 28 .. 27 .. .. .. .. .. .. .. .. .. .. .. .. .. .. .. .. 
.. .. .. .. 28 .. .. .. 29 .. .. 30 .. .. .. 31 .. .. .. .. .. 27 .. .. .. .. .. .. .. .. 
.. .. 29 .. .. .. .. .. .. .. .. .. .. .. .. .. .. .. .. .. .. .. 36 .. .. .. .. .. .. .. 
.. .. .. .. .. .. .. .. .. .. .. .. .. 27 .. .. .. .. .. .. .. .. .. .. .. .. .. .. .. .. 
.. .. .. 36 .. .. .. .. .. .. .. .. .. 24 .. .. .. .. .. .. .. .. .. 36 .. .. .. .. .. .. 
.. .. .. .. 39 .. .. .. .. .. .. .. .. .. 38 37 36 35 34 33 .. 32 31 30 29 28 .. 27 .. .. 
.. .. .. .. .. .. .. .. .. .. .. .. .. .. .. .. .. .. 28 .. .. .. 29 .. .. 30 .. .. .. 31 
.. .. .. .. .. 27 .. .. .. .. .. .. .. .. .. 29 .. .. .. .. .. .. .. .. .. .. .. .. .. .. 
.. .. .. .. .. .. 36 .. .. .. .. .. .. .. .. .. .. .. .. .. .. .. .. .. .. .. 27 .. .. .. 
.. .. .. .. .. .. .. 24 .. .. .. .. .. .. .. .. .. .. .. .. .. .. .. .. .. .. .. .. .. .. 
.. .. .. .. .. .. .. 36 .. .. .. .. .. .. .. .. .. .. 31 .. .. .. .. .. .. .. .. .. 27 .. 
.. .. .. .. .. .. .. .. .. .. .. .. .. .. .. .. .. .. 24 .. .. .. .. .. .. .. .. .. .. .. 
.. .. .. .. .. .. .. .. .. .. .. .. .. .. .. .. .. .. .. .. .. .. .. .. .. .. .. .. .. .. 
.. .. .. .. .. .. .. .. .. 27 .. .. .. .. .. .. .. .. .. .. .. .. .. .. .. .. .. .. .. .. 
.. .. .. .. .. .. .. .. .. .. .. .. .. .. .. .. .. .. .. .. .. .. .. .. .. .. .. .. .. .. 
.. .. .. .. .. .. .. .. .. .. .. .. .. .. .. .. .. .. .. .. .. 36 .. .. .. .. .. .. .. .. 
.. 31 .. .. .. .. .. .. .. .. .. .. 27 .. .. .. .. .. .. .. .. .. .. .. .. .. .. .. .. .. 
.. .. 24 .. .. .. .. .. .. .. .. .. .. .. .. .. .. .. .. .. .. .. .. .. .. .. .. .. .. .. 
.. .. .. .. .. .. .. .. .. .. .. .. .. .. .. .. .. .. .. .. .. .. .. 27 .. .. .. .. .. .. 
.. .. .. .. .. .. .. .. .. .. .. .. .. .. .. .. .. .. .. .. .. .. .. .. .. .. .. .. .. .. 
.. .. .. .. .. .. .. .. .. .. .. .. .. .. .. 22 .. .. .. .. .. .. .. .. .. .. .. .. .. .. 
.. .. .. .. .. 36 .. .. .. .. .. .. .. .. .. 31 .. .. .. .. .. .. .. .. .. 27 .. .. .. .. 
.. .. .. .. .. .. .. .. .. .. .. .. .. .. .. .. 24 .. .. .. .. .. .. .. .. .. .. .. .. .. 
.. .. .. .. .. .. .. .. .. .. .. .. .. .. .. .. .. .. .. .. .. .. .. .. .. .. .. .. .. .. 
.. .. .. .. .. .. .. 27 .. .. .. .. .. .. .. .. .. .. .. .. .. .. .. .. .. .. .. .. .. .. 
.. .. .. .. .. .. .. .. .. .. .. .. .. .. .. .. .. .. .. .. .. .. .. .. .. .. .. .. .. .. 
.. .. .. .. .. .. .. .. .. .. .. .. .. .. .. .. .. .. .. 36 .. .. .. .. .. .. .. .. .. 31 
.. .. .. .. .. .. .. .. .. 27 .. .. .. .. .. .. .. .. .. .. .. .. .. .. .. .. .. .. .. .. 
24 .. .. .. .. .. .. .. .. .. .. .. .. .. .. .. .. .. .. .. .. .. .. .. .. .. .. .. .. .. 
.. .. .. .. .. .. .. .. .. .. .. .. .. .. .. .. .. .. .. .. .. 27 .. .. .. .. .. .. .. .. 
.. .. .. .. .. .. .. .. .. .. .. .. .. .. .. .. .. .. .. .. .. .. .. .. .. .. .. .. .. .. 
.. .. .. .. .. .. .. .. .. .. .. .. .. .. .. .. .. .. .. .. .. .. .. .. .. .. .. .. .. .. 
.. .. .. 60 .. .. .. .. .. .. .. .. .. 55 .. .. .. .. .. .. .. .. .. 51 .. .. .. .. .. .. 
.. .. .. .. .. .. .. .. .. .. .. .. .. .. 48 .. .. .. .. .. .. .. .. .. .. .. .. .. .. .. 
.. .. .. .. .. .. .. .. .. .. .. .. .. .. .. .. .. .. .. .. .. .. .. .. .. .. .. .. .. .. 
.. .. .. .. .. 51 .. .. .. .. .. .. .. .. .. .. .. .. .. .. .. .. .. .. .. .. .. .. .. .. 
.. .. .. .. .. .. .. .. .. .. .. .. .. .. .. .. .. .. .. .. .. .. .. .. .. .. .. .. .. .. 
.. .. .. .. .. .. .. .. .. .. .. .. .. .. .. .. .. 60 .. .. .. .. .. .. .. .. .. 55 .. .. 
.. .. .. .. .. .. .. 51 .. .. .. .. .. .. .. .. .. .. .. .. .. .. .. .. .. .. .. 48 .. .. 
.. .. .. .. .. .. .. .. .. .. .. .. .. .. .. .. .. .. .. .. .. .. .. .. .. .. .. .. .. .. 
.. .. .. .. .. .. .. .. .. .. .. .. .. .. .. .. .. .. .. 51 .. .. .. .. .. .. .. .. .. .. 
.. .. .. .. .. .. .. .. .. .. .. .. .. .. .. .. .. .. .. .. .. .. .. .. .. .. .. .. .. .. 
.. .. .. .. .. .. .. .. .. .. 46 .. .. .. .. .. .. .. .. .. .. .. .. .. .. .. .. .. .. .. 
60 .. .. .. .. .. .. .. .. .. .. 55 .. .. .. .. .. .. .. .. .. 51 .. .. .. .. .. .. .. .. 
.. .. .. .. .. .. .. .. .. .. .. 48 .. .. .. .. .. .. .. .. .. .. .. .. .. .. .. .. .. .. 
.. .. .. .. .. .. .. .. .. .. .. .. .. .. .. .. .. .. .. .. .. .. .. .. .. .. .. .. .. .. 
.. .. .. 51 .. .. .. .. .. .. .. .. .. .. .. .. .. .. .. .. .. .. .. .. .. .. .. .. .. .. 
.. .. .. .. .. .. .. .. .. .. .. .. .. .. .. .. .. .. .. .. .. .. .. .. .. .. .. .. .. .. 
.. .. .. .. .. .. .. .. .. .. .. .. .. .. 60 .. .. .. .. .. .. .. .. .. 55 .. .. .. .. .. 
.. .. .. .. .. 51 .. .. .. .. .. .. .. .. .. .. .. .. .. .. .. .. .. .. .. 48 .. .. .. .. 
.. .. .. .. .. .. .. .. .. .. .. .. .. .. .. .. .. .. .. .. .. .. .. .. .. .. .. .. .. .. 
.. .. .. .. .. .. .. .. .. .. .. .. .. .. .. .. 51 .. .. .. .. .. .. .. .. .. .. .. .. .. 
.. .. .. .. .. .. .. .. .. .. .. .. .. .. .. .. .. .. .. .. .. .. .. .. .. .. .. .. .. .. 
.. .. .. .. .. .. .. .. .. .. .. .. .. .. .. .. .. .. .. .. .. .. .. .. .. .. .. .. 60 .. 
.. .. .. .. .. .. .. .. 55 .. .. .. .. .. .. .. .. .. .. 51 .. .. .. .. .. .. .. .. .. .. 
.. .. .. .. .. .. .. .. .. 48 .. .. .. .. .. .. .. .. .. .. .. .. .. .. .. .. .. .. .. .. 
.. .. .. .. .. .. .. .. .. .. .. .. .. .. .. .. .. .. .. .. .. .. .. .. .. .. .. .. .. .. 
51 .. .. .. .. .. .. .. .. .. .. .. .. .. .. .. .. .. .. .. .. .. .. .. .. .. .. .. .. .. 
.. .. .. .. .. .. .. .. .. .. .. .. .. .. .. .. .. .. .. .. .. .. .. .. .. .. .. .. .. .. 
.. .. .. .. .. .. .. .. .. .. .. .. 60 .. .. .. .. .. .. .. .. .. 55 .. .. .. .. .. .. .. 
.. .. 51 .. .. .. .. .. .. .. .. .. .. .. .. .. .. .. .. .. .. .. .. 48 .. .. .. .. .. .. 
.. .. .. .. .. .. .. .. .. .. .. .. .. .. .. .. .. .. .. .. .. .. .. .. .. .. .. .. .. .. 
.. .. .. .. .. .. .. .. .. .. .. .. .. .. 51 .. .. .. .. .. .. .. .. .. .. .. .. .. .. .. 
.. .. .. .. .. .. .. .. .. .. .. .. .. .. .. .. .. .. .. .. .. .. .. .. .. .. .. .. .. .. 
.. .. .. .. .. .. .. .. .. .. .. .. .. .. .. .. .. .. .. .. .. .. .. .. .. .. 60 .. .. .. 
.. .. .. .. .. .. 55 .. .. .. .. .. .. .. .. .. 51 .. .. .. .. .. .. .. .. .. .. .. .. .. 
.. .. .. .. .. .. .. 48 .. .. .. .. .. .. .. .. .. .. .. .. .. .. .. .. .. .. .. .. .. .. 
.. .. .. .. .. .. .. .. .. .. .. .. .. .. .. .. .. .. .. .. .. .. .. .. .. .. .. .. 51 .. 
.. .. .. .. .. .. .. .. .. .. .. .. .. .. .. .. .. .. .. .. .. .. .. .. .. .. .. .. .. .. 
.. .. .. .. .. .. .. .. .. .. .. .. .. .. .. .. .. .. .. .. .. .. .. .. .. .. .. .. .. .. 
.. .. .. .. .. .. .. .. .. .. 60 .. .. .. .. .. .. .. .. .. 55 .. .. .. .. .. .. .. .. .. 
51 .. .. .. .. .. .. .. .. .. .. .. .. .. .. .. .. .. .. .. .. 48 .. .. .. .. .. .. .. .. 
.. .. .. .. .. .. .. .. .. .. .. .. .. .. .. .. .. .. .. .. .. .. .. .. .. .. .. .. .. .. 
.. .. .. .. .. .. .. .. .. .. .. .. 51 .. .. .. .. .. .. .. .. .. .. .. .. .. .. .. .. .. 
.. .. .. .. .. .. .. .. .. .. .. .. .. .. .. .. .. .. .. .. .. .. .. .. .. .. .. .. .. .. 
.. .. .. .. .. .. .. .. .. .. .. .. .. .. .. .. .. .. .. .. .. .. .. 36 .. .. .. .. .. .. 
.. .. .. .. 39 .. .. .. .. .. .. .. .. .. 38 37 36 35 34 33 .. 32 31 30 29 28 .. 27 .. .. 
.. .. .. .. .. .. .. .. .. .. .. .. .. .. .. .. .. .. 28 .. .. .. 29 .. .. 30 .. .. .. 31 
.. .. .. .. .. 27 .. .. .. .. .. .. .. .. .. 29 .. .. .. .. .. .. .. .. .. .. .. .. .. .. 
.. .. .. .. .. .. 36 .. .. .. .. .. .. .. .. .. .. .. .. .. .. .. .. .. .. .. 27 .. .. .. 
.. .. .. .. .. .. .. .. .. .. .. .. .. .. .. .. .. 36 .. .. .. .. .. .. .. .. .. 24 .. .. 
.. .. .. .. .. .. .. 36 .. .. .. .. .. .. .. .. .. 39 .. .. .. .. .. .. .. .. .. .. 38 37 
36 35 34 33 .. 32 31 30 29 28 .. 27 .. .. .. .. .. .. .. .. .. .. .. .. .. .. .. .. .. .. 
.. 28 .. .. .. 29 .. .. 30 .. .. .. 31 .. .. .. .. .. .. 27 .. .. .. .. .. .. .. .. .. 29 
.. .. .. .. .. .. .. .. .. .. .. .. .. .. .. .. .. .. .. .. 36 .. .. .. .. .. .. .. .. .. 
.. .. .. .. .. .. .. .. .. .. 27 .. .. .. .. .. .. .. .. .. .. .. .. .. .. .. .. .. .. .. 
.. .. .. .. .. .. .. .. .. .. .. .. .. .. .. .. .. .. .. .. .. 36 .. .. .. .. .. .. .. .. 
.. 39 .. .. .. .. .. .. .. .. .. .. 38 37 36 35 34 33 .. 32 31 30 29 28 .. 27 .. .. .. .. 
.. .. .. .. .. .. .. .. .. .. .. .. .. .. .. 28 .. .. .. 29 .. .. 30 .. .. .. 31 .. .. .. 
.. .. .. 27 .. .. .. .. .. .. .. .. .. 29 .. .. .. .. .. .. .. .. .. .. .. .. .. .. .. .. 
.. .. .. 36 .. .. .. .. .. .. .. .. .. .. .. .. .. .. .. .. .. .. .. .. 27 .. .. .. .. .. 
.. .. .. .. .. .. .. .. .. .. .. .. .. .. 36 .. .. .. .. .. .. .. .. .. .. 24 .. .. .. .. 
.. .. .. .. .. 36 .. .. .. .. .. .. .. .. .. 39 .. .. .. .. .. .. .. .. .. 38 37 36 35 34 
33 .. 32 31 30 29 28 .. 27 .. .. .. .. .. .. .. .. .. .. .. .. .. .. .. .. .. .. .. .. 28 
.. .. .. 29 .. .. 30 .. .. .. 31 .. .. .. .. .. .. 27 .. .. .. .. .. .. .. .. .. 29 .. .. 
.. .. .. .. .. .. .. .. .. .. .. .. .. .. .. .. .. 36 .. .. .. .. .. .. .. .. .. .. .. .. 
.. .. .. .. .. .. .. .. 27 .. .. .. .. .. .. .. .. .. 24 .. .. .. .. .. .. .. .. .. .. .. 
.. .. .. .. .. .. .. .. .. .. .. .. .. .. .. .. .. .. .. 36 .. .. .. .. .. .. .. .. .. 31 
.. .. .. .. .. .. .. .. .. 27 .. .. .. .. .. .. .. .. .. .. .. .. .. .. .. .. .. .. .. .. 
24 .. .. .. .. .. .. .. .. .. .. .. .. .. .. .. .. .. .. .. .. .. .. .. .. .. .. .. .. .. 
.. .. .. .. .. .. .. .. .. .. .. .. .. .. .. .. .. .. .. .. .. 27 .. .. .. .. .. .. .. .. 
.. .. .. .. .. .. .. .. .. .. .. .. .. .. .. .. .. .. .. .. .. .. .. .. .. .. .. .. .. .. 
.. .. .. .. .. .. .. .. .. .. .. .. .. .. .. .. .. .. .. .. .. .. .. .. .. .. .. .. .. .. 
.. .. .. 36 .. .. .. .. .. .. .. .. .. 31 .. .. .. .. .. .. .. .. .. 27 .. .. .. .. .. .. 
.. .. .. .. .. .. .. .. .. .. .. .. .. .. 24 .. .. .. .. .. .. .. .. .. .. .. .. .. .. .. 
.. .. .. .. .. .. .. .. .. .. .. .. .. .. .. .. .. .. .. .. .. .. .. .. .. .. .. .. .. .. 
.. .. .. .. .. 27 .. .. .. .. .. .. .. .. .. .. .. .. .. .. .. .. .. .. .. .. .. .. .. .. 
.. .. .. .. .. .. .. .. .. .. .. .. .. .. .. .. .. .. .. .. .. .. .. .. .. .. 22 .. .. .. 
.. .. .. .. .. .. .. .. .. .. .. .. .. .. .. .. 36 .. .. .. .. .. .. .. .. .. .. 31 .. .. 
.. .. .. .. .. .. .. 27 .. .. .. .. .. .. .. .. .. .. .. .. .. .. .. .. .. .. .. 24 .. .. 
.. .. .. .. .. .. .. .. .. .. .. .. .. .. .. .. .. .. .. .. .. .. .. .. .. .. .. .. .. .. 
.. .. .. .. .. .. .. .. .. .. .. .. .. .. .. .. .. .. .. 27 .. .. .. .. .. .. .. .. .. .. 
.. .. .. .. .. .. .. .. .. .. .. .. .. .. .. .. .. .. .. .. .. .. .. .. .. .. .. .. .. .. 
.. .. .. .. .. .. .. .. .. .. .. .. .. .. .. .. .. .. .. .. .. .. .. .. .. .. .. .. .. .. 
36 .. .. .. .. .. .. .. .. .. .. 31 .. .. .. .. .. .. .. .. .. 27 .. .. .. .. .. .. .. .. 
.. .. .. .. .. .. .. .. .. .. .. 24 .. .. .. .. .. .. .. .. .. .. .. .. .. .. .. .. .. .. 
.. .. .. .. .. .. .. .. .. .. .. .. .. .. .. .. .. .. .. .. .. .. .. .. .. .. .. .. .. .. 
.. .. 27 .. .. .. .. .. .. .. .. .. .. .. .. .. .. .. .. .. .. .. .. .. .. .. .. .. .. .. 
.. .. .. .. .. .. .. .. .. .. .. .. .. .. .. .. .. .. .. .. .. .. .. .. .. .. .. .. .. .. 
.. .. .. .. .. .. .. .. .. .. .. .. .. .. 60 .. .. .. .. .. .. .. .. .. 55 .. .. .. .. .. 
.. .. .. .. .. 51 .. .. .. .. .. .. .. .. .. .. .. .. .. .. .. .. .. .. .. 48 .. .. .. .. 
.. .. .. .. .. .. .. .. .. .. .. .. .. .. .. .. .. .. .. .. .. .. .. .. .. .. .. .. .. .. 
.. .. .. .. .. .. .. .. .. .. .. .. .. .. .. .. 51 .. .. .. .. .. .. .. .. .. .. .. .. .. 
.. .. .. .. .. .. .. .. .. .. .. .. .. .. .. .. .. .. .. .. .. .. .. .. .. .. .. .. .. .. 
.. .. .. .. .. .. .. .. .. .. .. .. .. .. .. .. .. .. .. .. .. .. .. .. .. .. .. .. 60 .. 
.. .. .. .. .. .. .. .. 55 .. .. .. .. .. .. .. .. .. 51 .. .. .. .. .. .. .. .. .. .. .. 
.. .. .. .. .. .. .. .. .. 48 .. .. .. .. .. .. .. .. .. .. .. .. .. .. .. .. .. .. .. .. 
.. .. .. .. .. .. .. .. .. .. .. .. .. .. .. .. .. .. .. .. .. .. .. .. .. .. .. .. .. .. 
51 .. .. .. .. .. .. .. .. .. .. .. .. .. .. .. .. .. .. .. .. .. .. .. .. .. .. .. .. .. 
.. .. .. .. .. .. .. .. .. .. .. .. .. .. .. .. .. .. .. .. .. 46 .. .. .. .. .. .. .. .. 
.. .. .. .. .. .. .. .. .. .. .. .. 60 .. .. .. .. .. .. .. .. .. 55 .. .. .. .. .. .. .. 
.. .. 51 .. .. .. .. .. .. .. .. .. .. .. .. .. .. .. .. .. .. .. .. 48 .. .. .. .. .. .. 
.. .. .. .. .. .. .. .. .. .. .. .. .. .. .. .. .. .. .. .. .. .. .. .. .. .. .. .. .. .. 
.. .. .. .. .. .. .. .. .. .. .. .. .. .. 51 .. .. .. .. .. .. .. .. .. .. .. .. .. .. .. 
.. .. .. .. .. .. .. .. .. .. .. .. .. .. .. .. .. .. .. .. .. .. .. .. .. .. .. .. .. .. 
.. .. .. .. .. .. .. .. .. .. .. .. .. .. .. .. .. .. .. .. .. .. .. .. .. .. 60 .. .. .. 
.. .. .. .. .. .. 55 .. .. .. .. .. .. .. .. .. 51 .. .. .. .. .. .. .. .. .. .. .. .. .. 
.. .. .. .. .. .. .. 48 .. .. .. .. .. .. .. .. .. .. .. .. .. .. .. .. .. .. .. .. .. .. 
.. .. .. .. .. .. .. .. .. .. .. .. .. .. .. .. .. .. .. .. .. .. .. .. .. .. .. .. 51 .. 
.. .. .. .. .. .. .. .. .. .. .. .. .. .. .. .. .. .. .. .. .. .. .. .. .. .. .. .. 
! Song 4
14 55 .. .. .. .. .. .. .. .. .. .. 55 .. .. .. .. .. .. .. .. .. .. .. .. .. .. .. .. .. 
.. .. .. .. .. .. .. .. .. .. .. .. .. .. .. .. .. .. .. .. .. .. .. .. .. .. .. .. .. .. 
.. .. .. .. .. .. .. .. .. .. .. .. .. .. .. .. .. .. .. .. .. .. .. .. .. .. .. .. .. .. 
.. .. .. .. .. .. .. .. .. .. .. .. .. .. .. .. .. .. .. .. .. .. .. .. .. .. .. .. .. .. 
.. .. .. .. .. .. .. .. .. .. .. .. .. .. .. .. .. .. .. .. .. .. .. .. .. .. .. .. .. .. 
.. .. .. .. .. .. .. .. .. .. .. .. .. .. .. .. .. .. .. .. .. .. .. .. .. 51 .. .. .. .. 
.. .. .. .. .. .. 51 .. .. .. .. .. .. .. .. .. .. .. .. .. .. .. .. .. .. .. .. .. .. .. 
.. .. .. .. .. .. .. .. .. .. .. .. .. .. .. .. .. .. .. .. .. .. .. .. .. .. .. .. .. .. 
.. .. .. .. .. .. .. .. .. .. .. .. .. .. .. .. .. .. .. .. .. .. .. .. .. .. .. .. .. .. 
.. .. .. .. .. .. .. .. .. .. .. .. .. .. .. .. .. .. .. .. .. .. .. .. .. .. .. .. .. .. 
.. .. .. .. .. .. .. .. .. .. .. .. .. .. .. .. .. .. .. .. .. .. .. .. .. .. .. .. .. .. 
.. .. .. .. .. .. .. .. .. .. .. .. .. .. .. .. .. .. .. .. .. .. .. .. .. .. .. .. .. .. 
.. 50 .. .. .. .. .. .. .. .. .. .. 50 .. .. .. .. .. .. .. .. .. .. .. .. .. .. .. .. .. 
.. .. .. .. .. .. .. .. .. .. .. .. .. .. .. .. .. .. .. .. .. .. .. .. .. .. .. .. .. .. 
.. .. .. .. .. .. .. .. .. .. .. .. .. .. .. .. .. .. .. .. .. .. .. .. .. .. .. .. .. .. 
.. .. .. .. .. .. .. .. .. .. .. .. .. .. .. .. .. .. .. .. .. .. .. .. .. .. .. .. .. .. 
.. .. .. .. .. .. .. .. .. .. .. .. .. .. .. .. .. .. .. .. .. .. .. .. .. .. .. .. .. .. 
.. .. .. .. .. .. .. .. .. .. .. .. .. .. .. 55 .. .. .. .. .. .. .. .. .. .. 55 .. .. .. 
.. .. .. .. .. .. .. .. .. .. .. .. .. .. .. .. .. .. .. .. .. .. .. .. .. .. .. .. .. .. 
.. .. .. .. .. .. .. .. .. .. .. .. .. .. .. .. .. .. .. .. .. .. .. .. .. .. .. .. .. .. 
.. .. .. .. .. .. .. 50 .. .. .. .. .. .. .. .. .. .. 50 .. .. .. .. .. .. .. .. .. .. .. 
.. .. .. .. .. .. .. .. .. .. .. .. .. .. .. .. .. .. .. .. .. .. .. .. .. .. .. .. .. .. 
.. .. .. .. .. .. .. .. .. .. .. .. .. .. .. .. .. .. .. .. .. .. .. .. .. .. .. .. .. .. 
.. .. .. .. .. .. .. .. .. .. .. .. .. .. .. 24 .. .. .. .. .. .. .. .. .. .. 24 .. .. .. 
.. .. .. .. .. .. .. .. .. .. .. .. .. .. .. .. .. .. .. .. .. .. .. .. .. .. .. .. .. .. 
.. .. .. .. .. .. .. .. .. .. .. .. .. .. .. .. .. .. .. .. .. .. .. .. .. .. .. .. .. .. 
.. .. .. .. .. .. .. .. .. .. .. .. .. .. .. .. .. .. .. .. .. .. .. .. .. .. .. .. .. .. 
.. .. .. .. .. .. .. .. .. .. .. .. .. .. .. .. .. .. .. .. .. .. .. .. .. .. .. .. .. .. 
.. .. .. .. .. .. .. .. .. .. .. .. .. .. .. .. .. .. .. .. .. .. .. .. .. .. .. .. .. .. 
.. .. .. .. .. .. .. .. .. .. .. .. .. .. .. .. .. .. .. .. .. .. .. .. .. .. .. .. .. .. 
.. .. .. .. .. .. .. .. .. .. .. .. .. .. .. .. .. .. .. .. .. .. .. .. .. .. .. .. .. .. 
.. .. .. .. .. .. .. .. .. .. .. .. .. .. .. .. .. .. .. .. .. .. .. .. .. .. .. .. .. .. 
.. .. .. .. .. .. .. .. .. .. .. .. .. .. .. .. .. .. .. .. .. .. .. .. .. .. .. .. .. .. 
.. .. .. .. .. 24 .. .. .. .. .. .. .. .. .. .. .. .. .. .. .. .. .. .. .. .. .. .. .. .. 
.. .. .. .. .. .. .. .. .. .. .. .. .. .. .. .. .. .. .. .. .. .. .. .. .. .. .. .. .. .. 
.. .. .. .. .. .. .. .. .. .. .. .. .. .. .. .. .. .. .. .. .. .. .. .. .. .. .. .. .. .. 
.. .. .. .. .. .. .. .. .. .. .. .. .. .. .. .. .. .. .. .. .. .. .. .. .. .. .. .. .. .. 
.. .. .. .. .. .. .. .. .. .. .. .. .. .. .. .. .. .. .. .. .. .. .. .. .. .. .. .. .. .. 
.. .. .. .. .. .. .. .. .. .. .. .. .. .. .. .. .. .. .. .. .. .. .. .. .. .. .. .. .. .. 
.. .. .. .. .. .. .. .. .. .. .. .. .. .. .. .. .. .. .. .. .. .. .. .. .. .. .. .. .. .. 
.. .. .. .. .. .. .. .. .. .. .. .. .. .. .. .. .. .. .. .. .. .. .. .. .. .. .. .. .. 
! Song 5
14 .. .. .. .. .. .. .. .. .. .. .. .. .. 46 .. .. .. .. .. .. 48 .. .. .. .. .. 51 .. .. 
.. .. .. .. 53 .. .. .. .. .. .. 46 .. .. .. .. .. 48 .. .. .. .. .. .. 51 .. .. .. .. .. 
.. 53 .. .. .. .. .. 46 .. .. .. .. .. .. 48 .. .. .. .. .. .. 51 .. .. .. .. .. 53 .. .. 
.. .. .. .. 46 .. .. .. .. .. .. 48 .. .. .. .. .. 51 .. .. .. .. .. .. 53 .. .. .. .. .. 
.. 46 .. .. .. .. .. 48 .. .. .. .. .. .. 51 .. .. .. .. .. .. 53 .. .. .. .. .. 46 .. .. 
.. .. .. .. 48 .. .. .. .. .. .. 51 .. .. .. .. .. 53 .. .. .. .. .. .. 46 .. .. .. .. .. 
.. 48 .. .. .. .. .. 51 .. .. .. .. .. .. 53 .. .. .. .. .. .. 46 .. .. .. .. .. .. 48 .. 
.. .. .. .. 51 .. .. .. .. .. .. 53 .. .. .. .. .. .. 46 .. .. .. .. .. 48 .. .. .. .. .. 
.. 51 .. .. .. .. .. .. 53 .. .. .. .. .. 46 .. .. .. .. .. .. 48 .. .. .. .. .. .. 51 .. 
.. .. .. .. 53 .. .. .. .. .. .. 46 .. .. .. .. .. .. 48 .. .. .. .. .. 51 .. .. .. .. .. 
.. 53 .. .. .. .. .. .. 46 .. .. .. .. .. 48 .. .. .. .. .. .. 51 .. .. .. .. .. .. 53 .. 
.. .. .. .. 46 .. .. .. .. .. .. 48 .. .. .. .. .. .. 51 .. .. .. .. .. 53 .. .. .. .. .. 
.. 46 .. .. .. .. .. .. 48 .. .. .. .. .. 51 .. .. .. .. .. .. 53 .. .. .. .. .. .. 46 .. 
.. .. .. .. .. 48 .. .. .. .. .. 51 .. .. .. .. .. .. 53 .. .. .. .. .. .. 46 .. .. .. .. 
.. 48 .. .. .. .. .. .. 51 .. .. .. .. .. .. 53 .. .. .. .. .. .. .. .. .. .. .. .. 51 .. 
.. .. .. .. .. 48 .. .. .. .. .. 46 .. .. .. .. .. .. 53 .. .. .. .. .. .. 51 .. .. .. .. 
.. 48 .. .. .. .. .. .. 46 .. .. .. .. .. .. 53 .. .. .. .. .. 51 .. .. .. .. .. .. 48 .. 
.. .. .. .. .. 46 .. .. .. .. .. 53 .. .. .. .. .. .. 51 .. .. .. .. .. .. 48 .. .. .. .. 
.. 46 .. .. .. .. .. .. 53 .. .. .. .. .. .. 51 .. .. .. .. .. 48 .. .. .. .. .. .. 46 .. 
.. .. .. .. .. 53 .. .. .. .. .. .. 51 .. .. .. .. .. 48 .. .. .. .. .. .. 46 .. .. .. .. 
.. .. 53 .. .. .. .. .. 51 .. .. .. .. .. .. 48 .. .. .. .. .. .. 46 .. .. .. .. .. 53 .. 
.. .. .. .. .. 51 .. .. .. .. .. .. .. .. .. .. .. .. .. .. .. .. .. .. .. 53 .. .. .. .. 
.. .. 51 .. .. .. .. .. 48 .. .. .. .. .. .. 46 .. .. .. .. .. .. 53 .. .. .. .. .. 51 .. 
.. .. .. .. .. 48 .. .. .. .. .. .. 46 .. .. .. .. .. 53 .. .. .. .. .. .. 51 .. .. .. .. 
.. .. 48 .. .. .. .. .. 46 .. .. .. .. .. .. 53 .. .. .. .. .. .. 51 .. .. .. .. .. 48 .. 
.. .. .. .. .. 46 .. .. .. .. .. .. 53 .. .. .. .. .. .. 51 .. .. .. .. .. 48 .. .. .. .. 
.. .. 46 .. .. .. .. .. .. 53 .. .. .. .. .. 51 .. .. .. .. .. .. 48 .. .. .. .. .. .. 46 
.. .. .. .. .. 53 .. .. .. .. .. .. 51 .. .. .. .. .. .. 48 .. .. .. .. .. 46 .. .. .. .. 
.. .. 53 .. .. .. .. .. .. 51 .. .. .. .. .. .. .. .. .. .. .. .. .. .. .. .. .. .. .. 34 
.. .. .. .. .. 36 .. .. .. .. .. .. .. .. .. .. .. .. .. .. .. .. .. .. .. 34 .. .. .. .. 
.. .. 36 .. .. .. .. .. .. 39 .. .. .. .. .. 36 .. .. .. .. .. .. 41 .. .. .. .. .. .. 36 
.. .. .. .. .. 39 .. .. .. .. .. .. 36 .. .. .. .. .. .. 34 .. .. .. .. .. 36 .. .. .. .. 
.. .. .. .. .. .. .. .. .. .. .. .. .. .. .. .. 34 .. .. .. .. .. 36 .. .. .. .. .. .. .. 
.. .. .. .. .. .. 34 .. .. .. .. .. 36 .. .. .. .. .. .. .. .. .. .. .. .. .. 39 .. .. .. 
.. .. 36 .. .. .. .. .. .. 41 .. .. .. .. .. .. 36 .. .. .. .. .. 39 .. .. .. .. .. .. 36 
.. .. .. .. .. .. 34 .. .. .. .. .. 36 .. .. .. .. .. .. .. .. .. .. .. .. .. 39 .. .. .. 
.. .. 34 .. .. .. .. .. .. 36 .. .. .. .. .. .. .. .. .. .. .. .. .. .. .. .. .. .. .. 34 
.. .. .. .. .. .. 36 .. .. .. .. .. 39 .. .. .. .. .. .. 36 .. .. .. .. .. .. 41 .. .. .. 
.. .. 36 .. .. .. .. .. .. 39 .. .. .. .. .. .. 36 .. .. .. .. .. .. 34 .. .. .. .. .. 36 
.. .. .. .. .. .. .. .. .. .. .. .. .. .. .. .. .. .. .. 34 .. .. .. .. .. .. 36 .. .. .. 
.. .. .. .. .. .. .. .. .. 34 .. .. .. .. .. .. 36 .. .. .. .. .. .. .. .. .. .. .. .. 39 
.. .. .. .. .. .. 36 .. .. .. .. .. .. 41 .. .. .. .. .. 36 .. .. .. .. .. .. 39 .. .. .. 
.. .. .. 36 .. .. .. .. .. 34 .. .. .. .. .. .. 36 .. .. .. .. .. .. 32 .. .. .. .. .. 34 
.. .. .. .. .. .. .. .. .. .. .. .. .. .. .. .. .. .. .. .. .. .. .. .. .. .. .. .. .. .. 
.. .. .. 37 .. .. .. .. .. 34 .. .. .. .. .. .. 39 .. .. .. .. .. .. 34 .. .. .. .. .. .. 
37 .. .. .. .. .. 34 .. .. .. .. .. .. 32 .. .. .. .. .. .. 34 .. .. .. .. .. .. .. .. .. 
.. .. .. .. .. .. .. .. .. .. 32 .. .. .. .. .. 34 .. .. .. .. .. .. .. .. .. .. .. .. .. 
.. .. .. .. .. .. .. .. .. .. .. .. .. .. .. .. .. .. .. .. 37 .. .. .. .. .. 34 .. .. .. 
.. .. .. 39 .. .. .. .. .. .. 34 .. .. .. .. .. 37 .. .. .. .. .. .. 34 .. .. .. .. .. .. 
32 .. .. .. .. .. 34 .. .. .. .. .. .. .. .. .. .. .. .. .. 37 .. .. .. .. .. 32 .. .. .. 
.. .. .. 34 .. .. .. .. .. .. .. .. .. .. .. .. .. .. .. .. .. .. .. .. .. .. .. .. .. .. 
.. .. .. .. .. .. .. 37 .. .. .. .. .. 34 .. .. .. .. .. .. 39 .. .. .. .. .. .. 34 .. .. 
.. .. .. 37 .. .. .. .. .. .. 34 .. .. .. .. .. .. 32 .. .. .. .. .. 34 .. .. .. .. .. .. 
.. .. .. .. .. .. .. .. .. .. .. .. .. 32 .. .. .. .. .. .. 34 .. .. .. .. .. .. .. .. .. 
.. .. .. .. .. .. .. .. .. .. .. .. .. .. .. .. .. .. .. .. .. .. .. 37 .. .. .. .. .. .. 
34 .. .. .. .. .. .. 34 .. 35 .. .. 36 45 44 .. 43 .. 42 41 .. 40 39 .. 38 .. 37 36 .. 35 
34 .. 33 .. 32 31 .. 30 29 .. 28 .. 27 26 .. 25 24 .. 23 .. 22 .. .. .. .. .. .. .. .. .. 
.. .. .. .. .. .. .. .. .. .. .. .. .. 48 .. .. .. .. .. .. 36 .. .. .. .. .. .. .. .. .. 
.. .. .. .. .. .. .. .. .. .. 39 .. .. .. .. .. .. 36 .. .. .. .. .. .. .. .. .. .. .. .. 
39 .. .. .. .. .. .. .. .. .. .. .. .. .. 36 .. .. .. .. .. .. .. .. .. .. .. .. 36 .. .. 
.. .. .. .. .. .. .. .. .. .. 36 .. .. .. .. .. .. 39 .. .. .. .. .. .. 41 .. .. .. .. .. 
48 .. .. .. .. .. .. 36 .. .. .. .. .. .. .. .. .. .. .. .. .. .. .. .. .. .. .. 39 .. .. 
.. .. .. .. 36 .. .. .. .. .. .. .. .. .. .. .. .. 39 .. .. .. .. .. .. .. .. .. .. .. .. 
36 .. .. .. .. .. .. .. .. .. .. .. .. .. 36 .. .. .. .. .. .. .. .. .. .. .. .. 36 .. .. 
.. .. .. .. 39 .. .. .. .. .. .. 41 .. .. .. .. .. 48 .. .. .. .. .. .. 36 .. .. .. .. .. 
.. .. .. .. .. .. .. .. .. .. .. .. .. .. 39 .. .. .. .. .. .. 36 .. .. .. .. .. .. .. .. 
.. .. .. .. 39 .. .. .. .. .. .. .. .. .. .. .. .. 36 .. .. .. .. .. .. .. .. .. .. .. .. 
.. 36 .. .. .. .. .. .. .. .. .. .. .. .. 36 .. .. .. .. .. .. 39 .. .. .. .. .. .. .. .. 
40 .. .. .. .. 41 .. .. .. .. 42 .. .. .. .. .. .. .. .. .. .. .. .. .. .. .. .. .. .. .. 
.. .. .. .. .. .. .. .. .. .. .. .. .. .. .. .. .. .. .. .. .. .. .. .. .. .. .. .. .. .. 
.. .. .. .. .. .. .. .. .. .. .. .. .. .. .. .. .. .. .. .. .. .. .. .. .. .. .. .. .. .. 
.. .. .. .. .. .. .. .. 46 .. .. .. .. .. 34 .. .. .. .. .. .. .. .. .. .. .. .. .. .. .. 
.. .. .. .. 37 .. .. .. .. .. .. 34 .. .. .. .. .. .. .. .. .. .. .. .. 37 .. .. .. .. .. 
.. .. .. .. .. .. .. .. 34 .. .. .. .. .. .. .. .. .. .. .. .. 34 .. .. .. .. .. .. .. .. 
.. .. .. .. 34 .. .. .. .. .. .. 37 .. .. .. .. .. .. 39 .. .. .. .. .. 46 .. .. .. .. .. 
.. 34 .. .. .. .. .. .. .. .. .. .. .. .. .. .. .. .. .. .. .. 37 .. .. .. .. .. .. 34 .. 
.. .. .. .. .. .. .. .. .. .. .. 37 .. .. .. .. .. .. .. .. .. .. .. .. .. 34 .. .. .. .. 
.. .. .. .. .. .. .. .. 34 .. .. .. .. .. .. .. .. .. .. .. .. 34 .. .. .. .. .. .. 37 .. 
.. .. .. .. .. 39 .. .. .. .. .. 46 .. .. .. .. .. .. 34 .. .. .. .. .. .. .. .. .. .. .. 
.. .. .. .. .. .. .. .. 37 .. .. .. .. .. .. 34 .. .. .. .. .. .. .. .. .. .. .. .. 37 .. 
.. .. .. .. .. .. .. .. .. .. .. 34 .. .. .. .. .. .. .. .. .. .. .. .. .. 34 .. .. .. .. 
.. .. .. .. .. .. .. .. 34 .. .. .. .. .. .. 46 .. .. .. .. .. 34 .. .. .. .. .. .. 46 .. 
.. .. .. .. .. 34 .. .. .. .. .. .. .. .. .. .. .. .. .. .. .. .. .. .. .. 37 .. .. .. .. 
.. 34 .. .. .. .. .. .. .. .. .. .. .. .. .. 37 .. .. .. .. .. .. .. .. .. 34 35 36 37 38 
.. 39 40 41 42 .. 43 44 45 46 .. 47 48 49 50 .. 51 52 53 54 .. 55 56 57 58 .. .. .. .. .. 
.. .. .. .. .. .. .. .. .. .. .. .. .. .. .. 72 .. .. .. .. .. .. 67 .. .. .. .. .. 46 .. 
.. .. .. .. .. 48 .. .. .. .. .. .. 51 .. .. .. .. .. 53 .. .. .. .. .. .. 46 .. .. .. .. 
.. .. 48 .. .. .. .. .. 51 .. .. .. .. .. .. 53 .. .. .. .. .. .. 46 .. .. .. .. .. 48 .. 
.. .. .. .. .. 51 .. .. .. .. .. .. 53 .. .. .. .. .. 46 .. .. .. .. .. .. 48 .. .. .. .. 
.. .. 72 .. .. .. .. .. 67 .. .. .. .. .. .. 46 .. .. .. .. .. .. 48 .. .. .. .. .. .. 51 
.. .. .. .. .. 53 .. .. .. .. .. .. 46 .. .. .. .. .. .. 48 .. .. .. .. .. 51 .. .. .. .. 
.. .. 53 .. .. .. .. .. .. 46 .. .. .. .. .. 48 .. .. .. .. .. .. 51 .. .. .. .. .. .. 53 
.. .. .. .. .. 46 .. .. .. .. .. .. 48 .. .. .. .. .. .. 72 .. .. .. .. .. 67 .. .. .. .. 
.. .. 46 .. .. .. .. .. .. 48 .. .. .. .. .. 51 .. .. .. .. .. .. 53 .. .. .. .. .. .. 46 
.. .. .. .. .. 48 .. .. .. .. .. .. 51 .. .. .. .. .. .. 53 .. .. .. .. .. 46 .. .. .. .. 
.. .. 48 .. .. .. .. .. .. 51 .. .. .. .. .. 53 .. .. .. .. .. .. 46 .. .. .. .. .. .. 48 
.. .. .. .. .. .. 72 .. .. .. .. .. 67 .. .. .. .. .. .. 46 .. .. .. .. .. .. 48 .. .. .. 
.. .. 51 .. .. .. .. .. .. 53 .. .. .. .. .. .. 46 .. .. .. .. .. 48 .. .. .. .. .. .. 51 
.. .. .. .. .. .. 53 .. .. .. .. .. 46 .. .. .. .. .. .. 48 .. .. .. .. .. .. 51 .. .. .. 
.. .. 53 .. .. .. .. .. .. 46 .. .. .. .. .. .. 48 .. .. .. .. .. .. .. .. .. .. .. .. 36 
.. .. .. .. .. .. .. .. .. .. .. .. .. .. .. .. .. .. .. 39 .. .. .. .. .. .. 36 .. .. .. 
.. .. .. .. .. .. .. .. .. 39 .. .. .. .. .. .. .. .. .. .. 39 .. 36 .. .. .. .. .. .. .. 
.. .. .. .. .. .. .. .. .. .. .. .. .. .. .. .. .. .. .. .. .. .. .. .. .. .. 39 .. .. .. 
.. .. .. 41 .. .. .. .. .. 48 .. .. .. .. .. .. 36 .. .. .. .. .. .. .. .. .. .. .. .. .. 
.. .. .. .. .. .. 39 .. .. .. .. .. .. 36 .. .. .. .. .. .. .. .. .. .. .. .. 39 .. .. .. 
.. .. .. .. .. .. .. 39 .. 36 .. .. .. .. .. .. .. .. .. .. .. .. .. .. .. .. .. .. .. .. 
.. .. .. .. .. .. .. .. .. .. .. .. .. 39 .. .. .. .. .. 41 .. .. .. .. .. .. 48 .. .. .. 
.. .. .. 36 .. .. .. .. .. .. .. .. .. .. .. .. .. .. .. .. .. .. .. 39 .. .. .. .. .. 36 
.. .. .. .. .. .. .. .. .. .. .. .. .. 39 .. .. .. .. .. .. .. .. .. .. 39 .. 36 .. .. .. 
.. .. .. .. .. .. .. .. .. .. .. .. .. .. .. .. .. .. .. .. .. .. .. .. .. .. .. .. .. .. 
39 .. .. .. .. .. 41 .. .. .. .. .. .. 48 .. .. .. .. .. .. 36 .. .. .. .. .. .. .. .. .. 
.. .. .. .. .. .. .. .. .. .. 39 .. .. .. .. .. 36 .. .. .. .. .. .. .. .. .. .. .. .. .. 
39 .. .. .. .. .. .. .. .. .. .. 39 .. 36 .. .. .. .. .. .. 39 .. .. .. .. .. 41 .. .. .. 
.. .. .. 36 .. .. .. .. .. .. 39 .. .. .. .. .. 41 .. .. .. .. .. .. 36 .. .. .. .. .. .. 
48 .. .. .. .. .. 36 .. .. .. .. .. .. .. .. .. .. .. .. .. .. .. .. .. .. .. 39 .. .. .. 
.. .. .. 36 .. .. .. .. .. .. 48 .. .. .. .. .. .. 36 .. .. .. .. .. .. .. .. .. .. .. .. 
.. .. .. .. .. .. .. 39 .. .. .. .. .. 36 .. .. .. .. .. .. 48 .. .. .. .. .. .. 36 .. .. 
.. .. .. .. .. .. .. .. .. .. .. .. .. .. .. .. .. 48 .. .. .. .. .. 36 .. .. .. .. .. .. 
.. .. .. .. .. .. .. .. .. .. .. .. .. 39 .. .. .. .. .. .. 36 .. .. .. .. .. .. 48 .. .. 
.. .. .. 36 .. .. .. .. .. .. .. .. .. .. .. .. .. .. .. .. .. .. .. 39 .. .. .. .. .. .. 
36 .. .. .. .. .. .. 48 .. .. .. .. .. 36 .. .. .. .. .. .. .. .. .. .. .. .. .. .. .. .. 
.. .. .. 48 .. .. .. .. .. .. 36 .. .. .. .. .. .. .. .. .. .. .. .. .. .. .. .. .. .. .. 
39 .. .. .. .. .. .. 36 .. .. .. .. .. .. 48 .. .. .. .. .. 36 .. .. .. .. .. .. .. .. .. 
.. .. .. .. .. .. .. .. .. .. 39 .. .. .. .. .. .. 36 .. .. .. .. .. .. 48 .. .. .. .. .. 
36 .. .. .. .. .. .. .. .. .. .. .. .. .. .. .. .. .. .. .. 48 .. .. .. .. .. .. 36 .. .. 
.. .. .. .. .. .. .. .. .. .. .. .. .. .. .. .. .. 39 .. .. .. .. .. .. 36 .. .. .. .. .. 
.. .. .. .. .. .. .. 39 .. .. .. .. .. .. .. .. .. .. 39 .. 36 .. .. .. .. .. .. 39 .. .. 
.. .. .. .. 41 .. .. .. .. .. 36 .. .. .. .. .. .. 39 .. .. .. .. .. .. 41 .. .. .. .. .. 
.. 36 .. .. .. .. .. .. .. .. .. .. .. .. .. .. .. .. .. .. .. 34 .. .. .. .. .. 36 .. .. 
.. .. .. .. .. .. .. .. .. .. .. .. .. .. .. .. .. .. .. .. .. .. .. .. .. .. .. .. .. .. 
.. 39 .. .. .. .. .. 36 .. .. .. .. .. .. 41 .. .. .. .. .. .. 36 .. .. .. .. .. 39 .. .. 
.. .. .. .. 36 .. .. .. .. .. .. 34 .. .. .. .. .. 36 .. .. .. .. .. .. .. .. .. .. .. .. 
.. .. .. .. .. .. .. 34 .. .. .. .. .. .. 36 .. .. .. .. .. .. .. .. .. .. .. .. .. .. .. 
.. .. .. .. .. .. .. .. .. .. .. .. .. .. .. .. .. 39 .. .. .. .. .. .. 36 .. .. .. .. .. 
.. 41 .. .. .. .. .. 36 .. .. .. .. .. .. 39 .. .. .. .. .. .. 36 .. .. .. .. .. .. 34 .. 
.. .. .. .. 36 .. .. .. .. .. .. .. .. .. .. .. .. .. 39 .. .. .. .. .. 34 .. .. .. .. .. 
.. 36 .. .. .. .. .. .. .. .. .. .. .. .. .. .. .. .. .. .. .. .. .. .. .. .. .. .. .. .. 
.. .. .. .. 39 .. .. .. .. .. .. 36 .. .. .. .. .. .. 41 .. .. .. .. .. 36 .. .. .. .. .. 
.. 39 .. .. .. .. .. .. 36 .. .. .. .. .. 34 .. .. .. .. .. .. 36 .. .. .. .. .. .. .. .. 
.. .. .. .. .. .. .. .. .. .. .. 34 .. .. .. .. .. .. 36 .. .. .. .. .. .. .. .. .. .. .. 
.. .. .. .. .. .. .. .. .. .. .. .. .. .. .. .. .. .. .. .. .. 39 .. .. .. .. .. .. 36 .. 
.. .. .. .. .. 41 .. .. .. .. .. 36 .. .. .. .. .. .. 39 .. .. .. .. .. .. 36 .. .. .. .. 
.. 34 .. .. .. .. .. .. 36 .. .. .. .. .. .. .. .. .. .. .. .. .. .. .. .. .. .. .. 32 .. 
.. .. .. .. .. 34 .. .. .. .. .. .. .. .. .. .. .. .. .. .. .. .. .. .. .. .. .. .. .. .. 
.. .. .. .. .. .. .. .. 37 .. .. .. .. .. .. 34 .. .. .. .. .. 39 .. .. .. .. .. .. 34 .. 
.. .. .. .. .. 37 .. .. .. .. .. 34 .. .. .. .. .. .. 32 .. .. .. .. .. .. 34 .. .. .. .. 
.. .. .. .. .. .. .. .. .. .. .. .. .. .. .. 32 .. .. .. .. .. 34 .. .. .. .. .. .. .. .. 
.. .. .. .. .. .. .. .. .. .. .. .. .. .. .. .. .. .. .. .. .. .. .. .. .. 37 .. .. .. .. 
.. .. 34 .. .. .. .. .. 39 .. .. .. .. .. .. 34 .. .. .. .. .. .. 37 .. .. .. .. .. 34 .. 
.. .. .. .. .. 32 .. .. .. .. .. .. 34 .. .. .. .. .. .. .. .. .. .. .. .. 37 .. .. .. .. 
.. .. 32 .. .. .. .. .. 34 .. .. .. .. .. .. .. .. .. .. .. .. .. .. .. .. .. .. .. .. .. 
.. .. .. .. .. .. .. .. .. .. .. .. 37 .. .. .. .. .. 34 .. .. .. .. .. .. 39 .. .. .. .. 
.. .. 34 .. .. .. .. .. 37 .. .. .. .. .. .. 34 .. .. .. .. .. .. 32 .. .. .. .. .. 34 .. 
.. .. .. .. .. .. .. .. .. .. .. .. .. .. .. .. .. .. .. 32 .. .. .. .. .. 34 .. .. .. .. 
.. .. .. .. .. .. .. .. .. .. .. .. .. .. .. .. .. .. .. .. .. .. .. .. .. .. .. .. .. 37 
.. .. .. .. .. 34 .. .. .. .. .. .. 39 .. .. .. .. .. .. 34 .. .. .. .. .. 37 .. .. .. .. 
.. .. 34 .. .. .. .. .. .. 32 .. .. .. .. .. 34 .. .. .. .. .. .. 46 .. .. .. .. .. .. 48 
.. .. .. .. .. 51 .. .. .. .. .. .. 53 .. .. .. .. .. .. 46 .. .. .. .. .. 48 .. .. .. .. 
.. .. 51 .. .. .. .. .. .. 53 .. .. .. .. .. 46 .. .. .. .. .. .. 48 .. .. .. .. .. .. 51 
.. .. .. .. .. 53 .. .. .. .. .. .. 46 .. .. .. .. .. .. 48 .. .. .. .. .. 51 .. .. .. .. 
.. .. 53 .. .. .. .. .. .. 46 .. .. .. .. .. .. 48 .. .. .. .. .. 51 .. .. .. .. .. .. 53 
.. .. .. .. .. .. 46 .. .. .. .. .. 48 .. .. .. .. .. .. 51 .. .. .. .. .. .. 53 .. .. .. 
.. .. 46 .. .. .. .. .. .. 48 .. .. .. .. .. .. 51 .. .. .. .. .. 53 .. .. .. .. .. .. 46 
.. .. .. .. .. .. 48 .. .. .. .. .. 51 .. .. .. .. .. .. 53 .. .. .. .. .. .. 46 .. .. .. 
.. .. 48 .. .. .. .. .. .. 51 .. .. .. .. .. .. 53 .. .. .. .. .. 46 .. .. .. .. .. .. 48 
.. .. .. .. .. .. 51 .. .. .. .. .. 53 .. .. .. .. .. .. 46 .. .. .. .. .. .. 48 .. .. .. 
.. .. 51 .. .. .. .. .. .. 53 .. .. .. .. .. .. 46 .. .. .. .. .. .. 48 .. .. .. .. .. 51 
.. .. .. .. .. .. 53 .. .. .. .. .. .. 46 .. .. .. .. .. 48 .. .. .. .. .. .. 51 .. .. .. 
.. .. .. 53 .. .. .. .. .. 46 .. .. .. .. .. .. 48 .. .. .. .. .. .. 51 .. .. .. .. .. 53 
.. .. .. .. .. .. 46 .. .. .. .. .. .. 48 .. .. .. .. .. 51 .. .. .. .. .. .. 53 .. .. .. 
.. .. .. 46 .. .. .. .. .. 48 .. .. .. .. .. .. 51 .. .. .. .. .. .. 53 .. .. .. .. .. 46 
.. .. .. .. .. .. 48 .. .. .. .. .. .. 51 .. .. .. .. .. 53 .. .. .. .. .. .. 46 .. .. .. 
.. .. .. 48 .. .. .. .. .. 51 .. .. .. .. .. .. 53 .. .. .. .. .. .. 46 .. .. .. .. .. .. 
48 .. .. .. .. .. 51 .. .. .. .. .. .. 53 .. .. .. .. .. .. 46 .. .. .. .. .. 48 .. .. .. 
.. .. .. 51 .. .. .. .. .. .. 53 .. .. .. .. .. 46 .. .. .. .. .. .. 48 .. .. .. .. .. .. 
51 .. .. .. .. .. 53 .. .. .. .. .. .. 46 .. .. .. .. .. .. 48 .. .. .. .. .. 51 .. .. .. 
.. .. .. 53 .. .. .. .. .. .. 46 .. .. .. .. .. 48 .. .. .. .. .. .. 51 .. .. .. .. .. .. 
53 .. .. .. .. .. 46 .. .. .. .. .. .. 48 .. .. .. .. .. .. 51 .. .. .. .. .. 53 .. .. .. 
.. .. .. 46 .. .. .. .. .. .. 48 .. .. .. .. .. 51 .. .. .. .. .. .. 53 .. .. .. .. .. .. 
46 .. .. .. .. .. .. 48 .. .. .. .. .. 51 .. .. .. .. .. .. 53 .. .. .. .. .. .. 46 .. .. 
.. .. .. 48 .. .. .. .. .. .. 51 .. .. .. .. .. .. 53 .. .. .. .. .. 46 .. .. .. .. .. .. 
48 .. .. .. .. .. .. 51 .. .. .. .. .. 53 .. .. .. .. .. .. 46 .. .. .. .. .. .. 48 .. .. 
.. .. .. 51 .. .. .. .. .. .. 53 .. .. .. .. .. .. 46 .. .. .. .. .. 48 .. .. .. .. .. .. 
51 .. .. .. .. .. .. 53 .. .. .. .. .. 46 .. .. .. .. .. .. 48 .. .. .. .. .. .. 51 .. .. 
.. .. .. 53 .. .. .. .. .. .. 46 .. .. .. .. .. .. 48 .. .. .. .. .. 51 .. .. .. .. .. .. 
53 .. .. .. .. .. .. 72 .. .. .. .. .. 67 .. .. .. .. .. .. 46 .. .. .. .. .. .. 48 .. .. 
.. .. .. .. 51 .. .. .. .. .. 53 .. .. .. .. .. .. 46 .. .. .. .. .. .. 48 .. .. .. .. .. 
51 .. .. .. .. .. .. 53 .. .. .. .. .. .. 46 .. .. .. .. .. 48 .. .. .. .. .. .. 51 .. .. 
.. .. .. .. 53 .. .. .. .. .. 46 .. .. .. .. .. .. 48 .. .. .. .. .. .. 72 .. .. .. .. .. 
67 .. .. .. .. .. .. 46 .. .. .. .. .. .. 48 .. .. .. .. .. 51 .. .. .. .. .. .. 53 .. .. 
.. .. .. .. 46 .. .. .. .. .. 48 .. .. .. .. .. .. 51 .. .. .. .. .. .. 53 .. .. .. .. .. 
46 .. .. .. .. .. .. 48 .. .. .. .. .. .. 51 .. .. .. .. .. 53 .. .. .. .. .. .. 46 .. .. 
.. .. .. .. 48 .. .. .. .. .. .. 72 .. .. .. .. .. 67 .. .. .. .. .. .. 46 .. .. .. .. .. 
.. 48 .. .. .. .. .. 51 .. .. .. .. .. .. 53 .. .. .. .. .. .. 46 .. .. .. .. .. 48 .. .. 
.. .. .. .. 51 .. .. .. .. .. .. 53 .. .. .. .. .. 46 .. .. .. .. .. .. 48 .. .. .. .. .. 
.. 51 .. .. .. .. .. 53 .. .. .. .. .. .. 46 .. .. .. .. .. .. 48 .. .. .. .. .. 72 .. .. 
.. .. .. .. 67 .. .. .. .. .. .. 46 .. .. .. .. .. 48 .. .. .. .. .. .. 51 .. .. .. .. .. 
.. 53 .. .. .. .. .. 46 .. .. .. .. .. .. 48 .. .. .. .. .. .. 51 .. .. .. .. .. 53 .. .. 
.. .. .. .. 46 .. .. .. .. .. .. 48 .. .. .. .. .. .. 51 .. .. .. .. .. 53 .. .. .. .. .. 
.. 46 .. .. .. .. .. .. 48 .. .. .. .. .. 36 .. .. .. .. .. .. .. .. .. .. .. .. .. .. .. 
.. .. .. .. .. .. .. .. .. .. .. .. .. .. .. .. .. .. .. .. .. .. .. .. .. .. .. .. .. .. 
.. .. .. .. .. .. .. .. .. .. .. .. .. .. .. .. .. .. .. .. .. .. .. .. .. .. .. .. .. .. 
.. .. .. .. .. .. .. .. .. .. .. .. .. .. .. .. .. .. .. .. .. .. .. .. .. .. .. .. .. .. 
.. .. .. .. .. .. .. .. .. .. .. .. .. .. .. .. .. .. .. .. .. .. .. .. .. .. .. .. .. .. 
.. .. .. .. .. .. .. .. .. .. .. .. .. .. .. .. .. .. .. .. .. .. .. .. .. .. .. .. .. .. 
.. .. .. .. .. .. .. .. .. .. .. .. .. .. .. .. .. .. .. .. .. .. .. .. .. .. .. .. .. .. 
.. .. .. .. .. .. .. .. .. .. .. .. .. .. .. .. .. .. .. .. .. .. .. .. .. .. .. .. .. .. 
.. .. .. .. .. .. .. .. .. .. .. .. .. .. .. .. .. .. .. .. .. .. .. .. .. .. .. .. .. .. 
.. .. .. .. .. .. .. .. .. .. .. .. .. .. .. .. .. .. .. .. .. .. .. .. .. .. .. .. .. .. 
.. .. .. .. .. .. .. .. .. .. .. .. .. .. .. .. .. .. .. .. .. .. .. .. .. .. .. .. .. .. 
.. .. .. .. .. .. .. .. .. .. .. .. .. .. .. .. .. .. .. .. .. .. .. .. .. .. .. .. .. .. 
.. .. .. .. .. .. .. .. .. .. .. .. .. .. .. .. .. .. .. .. .. .. .. .. .. .. .. .. .. .. 
.. .. .. .. .. .. .. .. .. .. .. .. .. .. .. .. .. .. .. .. .. .. .. .. .. .. .. .. .. .. 
.. .. .. .. .. .. .. .. .. .. .. .. .. .. .. .. .. .. .. .. .. .. .. .. .. .. .. .. .. .. 
.. .. .. .. .. 46 .. .. .. .. .. .. 48 .. .. .. .. .. 51 .. .. .. .. .. .. 53 .. .. .. .. 
.. .. 46 .. .. .. .. .. 48 .. .. .. .. .. .. 51 .. .. .. .. .. .. 53 .. .. .. .. .. 46 .. 
.. .. .. .. .. 48 .. .. .. .. .. .. 51 .. .. .. .. .. 53 .. .. .. .. .. .. 46 .. .. .. .. 
.. .. 48 .. .. .. .. .. 51 .. .. .. .. .. .. 53 .. .. .. .. .. .. 46 .. .. .. .. .. .. 48 
.. .. .. .. .. 51 .. .. .. .. .. .. 53 .. .. .. .. .. .. 46 .. .. .. .. .. 48 .. .. .. .. 
.. .. 51 .. .. .. .. .. .. 53 .. .. .. .. .. 46 .. .. .. .. .. .. 48 .. .. .. .. .. .. 51 
.. .. .. .. .. 53 .. .. .. .. .. .. 46 .. .. .. .. .. .. 48 .. .. .. .. .. 51 .. .. .. .. 
.. .. 53 .. .. .. .. .. .. 46 .. .. .. .. .. 48 .. .. .. .. .. .. 51 .. .. .. .. .. .. 53 
.. .. .. .. .. 46 .. .. .. .. .. .. 48 .. .. .. .. .. .. 51 .. .. .. .. .. 53 .. .. .. .. 
.. .. 46 .. .. .. .. .. .. 48 .. .. .. .. .. 51 .. .. .. .. .. .. 53 .. .. .. .. .. .. 46 
.. .. .. .. .. .. 48 .. .. .. .. .. 51 .. .. .. .. .. .. 53 .. .. .. .. .. .. 46 .. .. .. 
.. .. 48 .. .. .. .. .. .. 51 .. .. .. .. .. .. 53 .. .. .. .. .. 46 .. .. .. .. .. .. 48 
.. .. .. .. .. .. 51 .. .. .. .. .. 53 .. .. .. .. .. .. 46 .. .. .. .. .. .. 48 .. .. .. 
.. .. 51 .. .. .. .. .. .. 53 .. .. .. .. .. .. 46 .. .. .. .. .. 48 .. .. .. .. .. .. 51 
.. .. .. .. .. .. 53 .. .. .. .. .. .. .. .. .. .. .. .. 51 .. .. .. .. .. .. 48 .. .. .. 
.. .. 46 .. .. .. .. .. .. 53 .. .. .. .. .. .. 51 .. .. .. .. .. 48 .. .. .. .. .. .. 46 
.. .. .. .. .. .. 53 .. .. .. .. .. .. 51 .. .. .. .. .. 48 .. .. .. .. .. .. 46 .. .. .. 
.. .. .. 53 .. .. .. .. .. 51 .. .. .. .. .. .. 48 .. .. .. .. .. .. 46 .. .. .. .. .. 53 
.. .. .. .. .. .. 51 .. .. .. .. .. .. 48 .. .. .. .. .. 46 .. .. .. .. .. .. 53 .. .. .. 
.. .. .. 51 .. .. .. .. .. 48 .. .. .. .. .. .. 46 .. .. .. .. .. .. 53 .. .. .. .. .. 51 
.. .. .. .. .. .. 48 .. .. .. .. .. .. 46 .. .. .. .. .. 53 .. .. .. .. .. .. 51 .. .. .. 
.. .. .. .. .. .. .. .. .. .. .. .. .. .. .. .. 53 .. .. .. .. .. .. 51 .. .. .. .. .. 48 
.. .. .. .. .. .. 46 .. .. .. .. .. .. 53 .. .. .. .. .. 51 .. .. .. .. .. .. 48 .. .. .. 
.. .. .. 46 .. .. .. .. .. .. 53 .. .. .. .. .. 51 .. .. .. .. .. .. 48 .. .. .. .. .. .. 
46 .. .. .. .. .. 53 .. .. .. .. .. .. 51 .. .. .. .. .. .. 48 .. .. .. .. .. 46 .. 
! End
