! Simple
! Song 0
50 14 .. .. .. .. 69 57 .. .. .. .. 14 64 52 .. .. .. .. .. .. .. .. .. .. .. .. .. 14 69 
57 .. .. .. .. .. 14 64 52 .. .. .. .. .. .. .. .. .. .. .. .. .. 14 69 57 .. .. .. .. .. 
14 64 52 .. .. .. .. .. .. .. .. .. .. .. .. .. 14 69 57 .. .. .. .. .. 14 64 52 .. .. .. 
.. .. .. .. .. .. .. .. .. .. 14 .. .. .. .. .. .. .. .. .. .. .. .. .. .. .. .. .. .. .. 
.. .. .. .. .. .. .. .. .. .. .. .. .. 67 55 .. .. .. .. .. 14 64 52 .. .. .. .. .. .. .. 
.. .. .. .. .. .. 14 67 55 .. .. .. .. .. 14 64 52 .. .. .. .. .. .. .. .. .. .. .. .. .. 
14 67 55 .. .. .. .. .. 14 64 52 .. .. .. .. .. .. .. .. .. .. .. .. .. 14 67 55 .. .. .. 
.. .. 14 64 52 .. .. .. .. .. .. .. .. .. .. .. .. .. 14 .. .. .. .. .. .. .. .. .. .. .. 
.. .. .. .. .. .. .. .. .. .. .. .. .. .. .. .. .. .. .. .. .. 66 54 .. .. .. .. .. 14 62 
50 .. .. .. .. .. .. .. .. .. .. .. .. .. 14 66 54 .. .. .. .. .. 14 62 50 .. .. .. .. .. 
.. .. .. .. .. .. .. .. 14 66 54 .. .. .. .. .. 14 62 50 .. .. .. .. .. .. .. .. .. .. .. 
.. .. 14 66 54 .. .. .. .. .. 14 62 50 .. .. .. .. .. .. .. .. .. .. .. .. .. 14 .. .. .. 
.. .. .. .. .. .. .. .. .. .. .. .. .. .. .. .. .. .. .. .. .. .. .. .. .. .. .. .. .. 64 
52 .. .. .. .. .. 14 61 49 .. .. .. .. .. .. .. .. .. .. .. .. .. 14 64 52 .. .. .. .. .. 
14 61 49 .. .. .. .. .. .. .. .. .. .. .. .. .. 14 64 52 .. .. .. .. .. 14 61 49 .. .. .. 
.. .. .. .. .. .. .. .. .. .. 14 64 52 .. .. .. .. .. 14 61 49 .. .. .. .. .. .. .. .. .. 
.. .. .. .. 14 .. .. .. .. .. .. .. .. .. .. .. .. .. .. .. .. .. .. .. .. .. .. .. .. .. 
.. .. .. .. .. .. .. .. .. .. .. .. .. .. .. .. .. .. .. .. .. .. .. 38 .. .. .. .. .. .. 
14 .. .. .. .. .. .. .. .. 38 .. .. .. .. .. .. .. 40 .. .. .. .. .. .. 14 .. .. .. .. .. 
.. .. .. .. .. .. .. .. .. .. .. 38 .. .. .. .. .. .. 14 .. .. .. .. .. .. .. .. 38 .. .. 
.. .. .. .. .. 40 .. .. .. .. .. .. 14 .. .. .. .. .. .. .. .. .. .. .. .. .. .. .. .. .. 
.. .. .. .. .. .. .. .. .. .. .. .. .. .. .. .. .. .. .. .. .. .. .. .. .. .. .. .. .. .. 
.. 38 .. .. .. .. .. .. 14 .. .. .. .. .. .. .. .. 38 .. .. .. .. .. .. .. 40 .. .. .. .. 
.. .. 14 .. .. .. .. .. .. .. .. .. .. .. .. .. .. .. .. 38 .. .. .. .. .. .. 14 .. .. .. 
.. .. .. .. .. 38 .. .. .. .. .. .. .. 40 .. .. .. .. .. .. 14 .. .. .. .. .. .. .. .. .. 
.. .. .. .. .. .. .. .. .. .. .. .. .. .. .. .. .. .. .. .. .. .. .. .. .. .. .. .. .. .. 
.. .. .. .. .. .. .. .. .. 38 .. .. .. .. .. .. 14 .. .. .. .. .. .. .. .. 38 .. .. .. .. 
.. .. .. 40 .. .. .. .. .. .. 14 .. .. .. .. .. .. .. .. .. .. .. .. .. .. .. .. 38 .. .. 
.. .. .. .. 14 .. .. .. .. .. .. .. .. 38 .. .. .. .. .. .. .. 40 .. .. .. .. .. .. 14 .. 
.. .. .. .. .. .. .. .. .. .. .. .. .. .. .. .. .. .. .. .. .. .. .. .. .. .. .. .. .. .. 
.. .. .. .. .. .. .. .. .. .. .. .. .. .. .. .. .. 38 .. .. .. .. .. .. 14 .. .. .. .. .. 
.. .. .. 38 .. .. .. .. .. .. .. 40 .. .. .. .. .. .. 14 .. .. .. .. .. .. .. .. .. .. .. 
.. .. .. .. .. 38 .. .. .. .. .. .. 14 .. .. .. .. .. .. .. .. 38 .. .. .. .. .. .. .. 40 
.. .. .. .. .. .. 14 .. .. .. .. .. .. .. .. .. .. .. .. .. .. .. .. .. .. .. .. .. .. .. 
.. .. .. .. .. .. .. .. .. 54 .. .. .. 55 .. .. .. .. .. .. .. .. .. .. .. .. .. .. .. .. 
.. .. 14 54 .. .. .. .. .. .. .. .. .. .. .. .. .. .. 14 52 .. .. .. .. .. .. 14 50 .. .. 
.. .. .. .. 14 52 .. .. .. .. .. .. 14 .. .. .. .. .. .. .. .. 45 .. .. .. .. .. .. .. 47 
.. .. .. .. .. .. 14 50 .. .. .. .. .. .. 14 48 .. .. .. 49 .. .. .. .. .. .. .. .. .. .. 
14 50 .. .. .. .. .. .. 14 52 .. .. .. .. .. .. .. .. .. .. .. .. .. .. .. .. .. .. .. .. 
.. .. .. .. .. .. .. .. .. .. .. .. .. .. .. .. .. .. .. .. .. .. .. .. .. .. 14 .. .. .. 
.. .. .. .. .. .. .. .. .. .. .. .. .. .. .. .. .. .. .. .. .. 73 61 .. .. .. .. .. 14 64 
52 .. .. .. .. .. 14 71 59 .. .. .. .. .. 14 73 61 .. .. .. .. .. 14 74 62 .. .. .. .. .. 
14 73 61 .. .. .. .. .. 14 69 57 .. .. .. .. .. 14 64 52 .. .. .. .. .. 14 54 .. .. .. 55 
.. .. .. .. .. .. .. .. .. .. 14 57 .. .. .. .. .. .. 14 54 .. .. .. .. .. .. 14 .. .. .. 
.. .. .. .. .. 55 .. .. .. .. .. .. 14 .. .. .. .. .. .. .. .. 54 .. .. .. .. .. .. .. .. 
.. .. .. .. .. .. .. 55 .. .. .. 54 .. .. .. 52 .. .. .. .. .. .. .. .. .. .. .. .. .. .. 
14 50 .. .. .. .. .. .. 14 49 .. .. .. .. .. .. 14 50 .. .. .. .. .. .. 14 52 .. .. .. .. 
.. .. 14 48 .. .. .. 49 .. .. .. .. .. .. .. .. .. .. 14 47 .. .. .. .. .. .. 14 45 .. .. 
.. .. .. .. .. .. .. .. .. .. .. .. .. .. .. .. .. .. .. .. .. .. .. .. .. .. .. .. .. .. 
.. .. .. .. .. .. 14 .. .. .. .. .. .. .. .. 64 52 .. .. .. .. .. 14 69 57 .. .. .. .. .. 
14 74 62 .. .. .. .. .. 14 73 61 .. .. .. .. .. 14 69 57 .. .. .. .. .. 14 64 52 .. .. .. 
.. .. 14 61 49 .. .. .. .. .. 14 54 .. .. .. 55 .. .. .. .. .. .. .. .. .. .. .. .. .. .. 
.. .. .. .. 14 54 .. .. .. .. .. .. .. .. .. .. .. .. .. .. 14 52 .. .. .. .. .. .. 14 50 
.. .. .. .. .. .. 14 52 .. .. .. .. .. .. 14 .. .. .. .. .. .. .. .. 45 .. .. .. .. .. .. 
.. 47 .. .. .. .. .. .. 14 50 .. .. .. .. .. .. 14 48 .. .. .. 49 .. .. .. .. .. .. .. .. 
.. .. 14 50 .. .. .. .. .. .. 14 52 .. .. .. .. .. .. .. .. .. .. .. .. .. .. .. .. .. .. 
.. .. .. .. .. .. .. .. .. .. .. .. .. .. .. .. .. .. .. .. .. .. .. .. .. .. .. .. 14 .. 
.. .. .. .. .. .. .. .. .. .. .. .. .. .. .. .. .. .. .. .. .. .. .. 73 61 .. .. .. .. .. 
14 64 52 .. .. .. .. .. 14 71 59 .. .. .. .. .. 14 73 61 .. .. .. .. .. 14 74 62 .. .. .. 
.. .. 14 73 61 .. .. .. .. .. 14 69 57 .. .. .. .. .. 14 64 52 .. .. .. .. .. 14 .. .. .. 
.. .. .. .. .. 58 .. .. .. 59 .. .. .. .. .. .. .. .. .. .. .. .. .. .. .. .. .. .. 14 61 
.. .. .. .. .. .. 14 62 .. .. .. .. .. .. 14 .. .. .. .. .. .. .. .. 59 .. .. .. .. .. .. 
14 .. .. .. .. .. .. .. .. 55 .. .. .. .. .. .. 14 54 .. .. .. .. .. .. 14 52 .. .. .. .. 
.. .. 14 50 .. .. .. .. .. .. 14 52 .. .. .. .. .. .. 14 54 .. .. .. .. .. .. 14 52 .. .. 
.. .. .. .. 14 .. .. .. .. .. .. .. .. 45 .. .. .. .. .. .. .. .. .. .. .. .. .. .. .. .. 
.. .. .. .. .. .. .. .. .. .. .. .. .. .. .. .. .. .. .. .. .. .. .. .. .. .. .. .. .. .. 
.. .. .. .. .. .. .. .. .. .. .. .. .. .. .. .. 14 69 57 .. .. .. .. .. 14 67 55 .. .. .. 
.. .. 14 69 57 .. .. .. .. .. 14 74 62 .. .. .. .. .. 14 73 61 .. .. .. .. .. 14 69 57 .. 
.. .. .. .. .. .. .. .. .. .. .. .. 14 .. .. .. .. .. .. .. .. .. .. .. .. .. .. .. .. 36 
.. .. .. .. .. .. 14 .. .. .. .. .. .. .. .. 36 .. .. .. .. .. .. .. 38 .. .. .. .. .. .. 
14 .. .. .. .. .. .. .. .. .. .. .. .. .. .. .. .. 36 .. .. .. .. .. .. 14 .. .. .. .. .. 
.. .. .. 36 .. .. .. .. .. .. .. 38 .. .. .. .. .. .. 14 .. .. .. .. .. .. .. .. .. .. .. 
.. .. .. .. .. .. .. .. .. .. .. .. .. .. .. .. .. .. .. .. .. .. .. .. .. .. .. .. .. .. 
.. .. .. .. .. .. .. 36 .. .. .. .. .. .. 14 .. .. .. .. .. .. .. .. 36 .. .. .. .. .. .. 
.. 38 .. .. .. .. .. .. 14 .. .. .. .. .. .. .. .. .. .. .. .. .. .. .. .. 36 .. .. .. .. 
.. .. 14 .. .. .. .. .. .. .. .. 36 .. .. .. .. .. .. .. 38 .. .. .. .. .. .. 14 .. .. .. 
.. .. .. .. .. .. .. .. .. .. .. .. .. .. .. .. .. .. .. .. .. .. .. .. .. .. .. .. .. .. 
.. .. .. .. .. .. .. .. .. .. .. .. .. .. .. 36 .. .. .. .. .. .. 14 .. .. .. .. .. .. .. 
.. 36 .. .. .. .. .. .. .. 38 .. .. .. .. .. .. 14 .. .. .. .. .. .. .. .. .. .. .. .. .. 
.. .. .. 36 .. .. .. .. .. .. 14 .. .. .. .. .. .. .. .. 36 .. .. .. .. .. .. .. 38 .. .. 
.. .. .. .. 14 .. .. .. .. .. .. .. .. .. .. .. .. .. .. .. .. .. .. .. .. .. .. .. .. .. 
.. .. .. .. .. .. .. .. .. .. .. .. .. .. .. .. .. .. .. .. .. .. .. 36 .. .. .. .. .. .. 
14 .. .. .. .. .. .. .. .. 36 .. .. .. .. .. .. .. 38 .. .. .. .. .. .. 14 .. .. .. .. .. 
.. .. .. .. .. .. .. .. .. .. .. 36 .. .. .. .. .. .. 14 .. .. .. .. .. .. .. .. 36 .. .. 
.. .. .. .. .. 38 .. .. .. .. .. .. 14 .. .. .. .. .. .. .. .. .. .. .. .. .. .. .. .. .. 
.. .. .. .. .. .. .. .. .. .. .. .. .. .. .. 69 57 .. .. .. .. .. 14 64 52 .. .. .. .. .. 
.. .. .. .. .. .. .. .. 14 69 57 .. .. .. .. .. 14 64 52 .. .. .. .. .. .. .. .. .. .. .. 
.. .. 14 69 57 .. .. .. .. .. 14 64 52 .. .. .. .. .. .. .. .. .. .. .. .. .. 14 69 57 .. 
.. .. .. .. 14 64 52 .. .. .. .. .. .. .. .. .. .. .. .. .. 14 .. .. .. .. .. .. .. .. .. 
.. .. .. .. .. .. .. .. .. .. .. .. .. .. .. .. .. .. .. .. .. .. .. 67 55 .. .. .. .. .. 
14 64 52 .. .. .. .. .. .. .. .. .. .. .. .. .. 14 67 55 .. .. .. .. .. 14 64 52 .. .. .. 
.. .. .. .. .. .. .. .. .. .. 14 67 55 .. .. .. .. .. 14 64 52 .. .. .. .. .. .. .. .. .. 
.. .. .. .. 14 67 55 .. .. .. .. .. 14 64 52 .. .. .. .. .. .. .. .. .. .. .. .. .. 14 .. 
.. .. .. .. .. .. .. .. .. .. .. .. .. .. .. .. .. .. .. .. .. .. .. .. .. .. .. .. .. .. 
.. 66 54 .. .. .. .. .. 14 62 50 .. .. .. .. .. .. .. .. .. .. .. .. .. 14 66 54 .. .. .. 
.. .. 14 62 50 .. .. .. .. .. .. .. .. .. .. .. .. .. 14 66 54 .. .. .. .. .. 14 62 50 .. 
.. .. .. .. .. .. .. .. .. .. .. .. 14 66 54 .. .. .. .. .. 14 62 50 .. .. .. .. .. .. .. 
.. .. .. .. .. .. 14 .. .. .. .. .. .. .. .. .. .. .. .. .. .. .. .. .. .. .. .. .. .. .. 
.. .. .. .. .. .. .. .. .. 64 52 .. .. .. .. .. 14 61 49 .. .. .. .. .. .. .. .. .. .. .. 
.. .. 14 64 52 .. .. .. .. .. 14 61 49 .. .. .. .. .. .. .. .. .. .. .. .. .. 14 64 52 .. 
.. .. .. .. 14 61 49 .. .. .. .. .. .. .. .. .. .. .. .. .. 14 64 52 .. .. .. .. .. 14 61 
49 .. .. .. .. .. .. .. .. .. .. .. .. .. 14 45 .. .. .. 47 .. .. .. 49 .. .. .. 57 .. .. 
.. 52 .. .. .. 49 .. .. .. 47 .. .. .. 45 .. .. 14 69 57 .. .. .. .. .. 14 64 52 .. .. .. 
.. .. .. .. .. .. .. .. .. .. 14 69 57 .. .. .. .. .. 14 64 52 .. .. .. .. .. .. .. .. .. 
.. .. .. .. 14 69 57 .. .. .. .. .. 14 64 52 .. .. .. .. .. .. .. .. .. .. .. .. .. 14 69 
57 .. .. .. .. .. 14 64 52 .. .. .. .. .. .. .. .. .. .. .. .. .. 14 .. .. .. .. .. .. .. 
.. .. .. .. .. .. .. .. .. .. .. .. .. .. .. .. .. .. .. .. .. .. .. .. .. 67 55 .. .. .. 
.. .. 14 64 52 .. .. .. .. .. .. .. .. .. .. .. .. .. 14 67 55 .. .. .. .. .. 14 64 52 .. 
.. .. .. .. .. .. .. .. .. .. .. .. 14 67 55 .. .. .. .. .. 14 64 52 .. .. .. .. .. .. .. 
.. .. .. .. .. .. 14 67 55 .. .. .. .. .. 14 64 52 .. .. .. .. .. .. .. .. .. .. .. .. .. 
14 .. .. .. .. .. .. .. .. .. .. .. .. .. .. .. .. .. .. .. .. .. .. .. .. .. .. .. .. .. 
.. .. .. 66 54 .. .. .. .. .. 14 62 50 .. .. .. .. .. .. .. .. .. .. .. .. .. 14 66 54 .. 
.. .. .. .. 14 62 50 .. .. .. .. .. .. .. .. .. .. .. .. .. 14 66 54 .. .. .. .. .. 14 62 
50 .. .. .. .. .. .. .. .. .. .. .. .. .. 14 66 54 .. .. .. .. .. 14 62 50 .. .. .. .. .. 
.. .. .. .. .. .. .. .. 14 .. .. .. .. .. .. .. .. .. .. .. .. .. .. .. .. .. .. .. .. .. 
.. .. .. .. .. .. .. .. .. .. .. 64 52 .. .. .. .. .. 14 61 49 .. .. .. .. .. .. .. .. .. 
.. .. .. .. 14 64 52 .. .. .. .. .. 14 61 49 .. .. .. .. .. .. .. .. .. .. .. .. .. 14 64 
52 .. .. .. .. .. 14 61 49 .. .. .. .. .. .. .. .. .. .. .. .. .. 14 64 52 .. .. .. .. .. 
14 61 49 .. .. .. .. .. .. .. .. .. .. .. .. .. 14 45 .. .. .. 47 .. .. .. 49 .. .. .. 57 
.. .. .. 52 .. .. .. 49 .. .. .. 47 .. .. .. 45 .. .. 14 54 .. .. .. 55 .. .. .. .. .. .. 
.. .. .. .. .. .. .. .. .. .. .. .. 14 54 .. .. .. .. .. .. .. .. .. .. .. .. .. .. 14 52 
.. .. .. .. .. .. 14 50 .. .. .. .. .. .. 14 52 .. .. .. .. .. .. 14 .. .. .. .. .. .. .. 
.. 45 .. .. .. .. .. .. .. 47 .. .. .. .. .. .. 14 50 .. .. .. .. .. .. 14 48 .. .. .. 49 
.. .. .. .. .. .. .. .. .. .. 14 50 .. .. .. .. .. .. 14 52 .. .. .. .. .. .. .. .. .. .. 
.. .. .. .. .. .. .. .. .. .. .. .. .. .. .. .. .. .. .. .. .. .. .. .. .. .. .. .. .. .. 
.. .. .. .. .. .. 14 .. .. .. .. .. .. .. .. .. .. .. .. .. .. .. .. .. .. .. .. .. .. .. 
.. 73 61 .. .. .. .. .. 14 64 52 .. .. .. .. .. 14 71 59 .. .. .. .. .. 14 73 61 .. .. .. 
.. .. 14 74 62 .. .. .. .. .. 14 73 61 .. .. .. .. .. 14 69 57 .. .. .. .. .. 14 64 52 .. 
.. .. .. .. 14 54 .. .. .. 55 .. .. .. .. .. .. .. .. .. .. 14 57 .. .. .. .. .. .. 14 54 
.. .. .. .. .. .. 14 .. .. .. .. .. .. .. .. 55 .. .. .. .. .. .. 14 .. .. .. .. .. .. .. 
.. 54 .. .. .. .. .. .. .. .. .. .. .. .. .. .. .. 55 .. .. .. 54 .. .. .. 52 .. .. .. .. 
.. .. .. .. .. .. .. .. .. .. 14 50 .. .. .. .. .. .. 14 49 .. .. .. .. .. .. 14 50 .. .. 
.. .. .. .. 14 52 .. .. .. .. .. .. 14 48 .. .. .. 49 .. .. .. .. .. .. .. .. .. .. 14 47 
.. .. .. .. .. .. 14 45 .. .. .. .. .. .. .. .. .. .. .. .. .. .. .. .. .. .. .. .. .. .. 
.. .. .. .. .. .. .. .. .. .. .. .. .. .. .. .. 14 .. .. .. .. .. .. .. .. 64 52 .. .. .. 
.. .. 14 69 57 .. .. .. .. .. 14 74 62 .. .. .. .. .. 14 73 61 .. .. .. .. .. 14 69 57 .. 
.. .. .. .. 14 64 52 .. .. .. .. .. 14 61 49 .. .. .. .. .. 14 54 .. .. .. 55 .. .. .. .. 
.. .. .. .. .. .. .. .. .. .. .. .. .. .. 14 54 .. .. .. .. .. .. .. .. .. .. .. .. .. .. 
14 52 .. .. .. .. .. .. 14 50 .. .. .. .. .. .. 14 52 .. .. .. .. .. .. 14 .. .. .. .. .. 
.. .. .. 45 .. .. .. .. .. .. .. 47 .. .. .. .. .. .. 14 50 .. .. .. .. .. .. 14 48 .. .. 
.. 49 .. .. .. .. .. .. .. .. .. .. 14 50 .. .. .. .. .. .. 14 52 .. .. .. .. .. .. .. .. 
.. .. .. .. .. .. .. .. .. .. .. .. .. .. .. .. .. .. .. .. .. .. .. .. .. .. .. .. .. .. 
.. .. .. .. .. .. .. .. 14 .. .. .. .. .. .. .. .. .. .. .. .. .. .. .. .. .. .. .. .. .. 
.. .. .. 73 61 .. .. .. .. .. 14 64 52 .. .. .. .. .. 14 71 59 .. .. .. .. .. 14 73 61 .. 
.. .. .. .. 14 74 62 .. .. .. .. .. 14 73 61 .. .. .. .. .. 14 69 57 .. .. .. .. .. 14 64 
52 .. .. .. .. .. 14 .. .. .. .. .. .. .. .. 58 .. .. .. 59 .. .. .. .. .. .. .. .. .. .. 
.. .. .. .. .. .. .. .. 14 61 .. .. .. .. .. .. 14 62 .. .. .. .. .. .. 14 .. .. .. .. .. 
.. .. .. 59 .. .. .. .. .. .. 14 .. .. .. .. .. .. .. .. 55 .. .. .. .. .. .. 14 54 .. .. 
.. .. .. .. 14 52 .. .. .. .. .. .. 14 50 .. .. .. .. .. .. 14 52 .. .. .. .. .. .. 14 54 
.. .. .. .. .. .. 14 52 .. .. .. .. .. .. 14 .. .. .. .. .. .. .. .. 45 .. .. .. .. .. .. 
.. .. .. .. .. .. .. .. .. .. .. .. .. .. .. .. .. .. .. .. .. .. .. .. .. .. .. .. .. .. 
.. .. .. .. .. .. .. .. .. .. .. .. .. .. .. .. .. .. .. .. .. .. .. .. .. .. 14 69 57 .. 
.. .. .. .. 14 67 55 .. .. .. .. .. 14 69 57 .. .. .. .. .. 14 74 62 .. .. .. .. .. 14 73 
61 .. .. .. .. .. 14 69 57 .. .. .. .. .. .. .. .. .. .. .. .. .. 14 57 .. .. .. 58 .. .. 
.. .. .. .. .. .. .. .. 14 55 .. .. .. .. .. .. 14 57 .. .. .. 58 .. .. .. .. .. .. .. .. 
.. .. 14 55 .. .. .. .. .. .. 14 .. .. .. .. .. .. .. .. 58 .. .. .. .. .. .. 14 59 .. .. 
.. .. .. .. 14 53 .. .. .. .. .. .. 14 55 .. .. .. .. .. .. 14 50 .. .. .. .. .. .. 14 62 
.. .. .. .. .. .. 14 61 .. .. .. .. .. .. 14 60 .. .. .. .. .. .. 14 55 .. .. .. .. .. .. 
14 58 .. .. .. .. .. .. .. 59 .. .. .. .. .. .. 14 67 .. .. .. .. .. .. 14 58 .. .. .. .. 
.. .. .. 59 .. .. .. .. .. .. 14 65 .. .. .. .. .. .. 14 58 .. .. .. .. .. .. .. 59 .. .. 
.. .. .. .. 14 64 .. .. .. .. .. .. 14 65 .. .. .. .. .. .. 14 60 .. .. .. .. .. .. 14 61 
.. .. .. .. .. .. 14 62 .. .. .. .. .. .. 14 58 .. .. .. .. .. .. 14 55 .. .. .. .. .. .. 
14 50 .. .. .. .. .. .. 14 53 .. .. .. .. .. .. .. .. .. .. .. .. .. .. .. .. .. .. .. .. 
.. .. 14 55 .. .. .. .. .. .. 14 .. .. .. .. .. .. .. .. .. .. .. .. .. .. .. .. 58 .. .. 
.. .. .. .. .. .. .. .. .. .. .. .. .. .. .. .. .. .. .. .. 14 59 .. .. .. .. .. .. 14 67 
.. .. .. 65 .. .. .. 62 .. .. .. 61 .. .. .. 60 .. .. .. 58 .. .. .. 55 .. .. .. 53 .. .. 
.. 50 .. .. .. 49 .. .. .. 48 .. .. .. 46 .. .. .. 43 .. .. .. .. .. .. 14 .. .. .. .. .. 
.. .. .. 67 55 .. .. .. .. .. .. .. .. .. .. .. .. .. 14 79 67 .. .. .. .. .. .. .. .. .. 
.. .. .. .. 14 65 53 .. .. .. .. .. 14 67 55 .. .. .. .. .. .. .. .. .. .. .. .. .. 14 79 
67 .. .. .. .. .. .. .. .. .. .. .. .. .. 14 77 65 .. .. .. .. .. 14 79 67 .. .. .. .. .. 
14 67 55 .. .. .. .. .. .. .. .. .. .. .. .. .. .. .. .. .. .. .. .. .. 14 55 .. .. .. .. 
.. .. .. .. .. .. .. .. .. .. 14 .. .. .. .. .. .. .. .. 53 .. .. .. .. .. .. 14 .. .. .. 
.. .. .. .. .. 49 .. .. .. .. .. .. .. 48 .. .. .. .. .. .. 14 46 .. .. .. .. .. .. 14 49 
.. .. .. 50 .. .. .. .. .. .. .. .. .. .. 14 43 .. .. .. .. .. .. 14 .. .. .. .. .. .. .. 
.. 46 .. .. .. .. .. .. 14 43 .. .. .. .. .. .. 14 48 .. .. .. .. .. .. 14 46 .. .. .. .. 
.. .. 14 49 .. .. .. .. .. .. 14 50 .. .. .. .. .. .. 14 55 .. .. .. .. .. .. 14 49 .. .. 
.. .. .. .. 14 48 .. .. .. .. .. .. 14 46 .. .. .. .. .. .. 14 43 .. .. .. .. .. .. 14 57 
.. .. .. 58 .. .. .. .. .. .. 14 .. .. .. .. 55 .. .. .. .. .. .. .. .. .. .. .. .. .. .. 
.. .. .. .. .. .. .. .. .. .. .. .. .. .. .. .. 14 .. .. .. .. .. .. .. .. .. .. .. .. .. 
.. .. .. .. .. .. .. .. .. .. .. 62 .. .. .. .. .. .. 14 55 .. .. .. .. .. .. 14 61 .. .. 
.. .. .. .. 14 60 .. .. .. .. .. .. 14 58 .. .. .. .. .. .. 14 55 .. .. .. .. .. .. 14 43 
.. .. .. .. .. .. 14 62 .. .. .. .. .. .. .. 65 .. .. .. .. .. .. 14 55 .. .. .. .. .. .. 
14 61 .. .. .. .. .. .. 14 60 .. .. .. .. .. .. 14 58 .. .. .. .. .. .. 14 55 .. .. .. .. 
.. .. 14 53 .. .. .. .. .. .. 14 50 .. .. .. .. .. .. 14 54 .. .. .. 55 .. .. .. .. .. .. 
.. .. .. .. .. .. .. .. .. .. .. .. .. .. .. .. .. .. .. .. .. .. .. .. .. .. .. .. .. .. 
.. .. .. .. .. .. .. .. .. .. .. .. .. .. .. .. .. .. .. .. .. .. 14 .. .. .. .. .. .. .. 
.. 67 55 .. .. .. .. .. 14 70 58 .. .. .. .. .. 14 71 59 .. .. .. .. .. 14 65 53 .. .. .. 
.. .. 14 67 55 .. .. .. .. .. 14 79 67 .. .. .. .. .. 14 .. .. .. .. .. .. .. .. .. .. .. 
.. .. .. .. .. 59 .. .. .. .. .. .. .. 55 .. .. .. .. .. .. 14 50 .. .. .. .. .. .. 14 47 
.. .. .. .. .. .. 14 50 .. .. .. .. .. .. .. 55 .. .. .. .. .. .. 14 61 .. .. .. 62 .. .. 
.. .. .. .. .. .. .. .. .. .. .. .. .. .. .. .. 14 62 .. .. .. .. .. .. 14 61 .. .. .. .. 
.. .. 14 59 .. .. .. .. .. .. 14 61 .. .. .. .. .. .. 14 62 .. .. .. .. .. .. 14 64 .. .. 
.. .. .. .. 14 61 .. .. .. .. .. .. 14 57 .. .. .. .. .. .. .. .. .. .. .. .. .. .. .. .. 
.. .. .. .. .. .. .. .. .. .. .. .. .. .. .. .. .. .. .. .. .. .. .. .. .. .. .. .. .. .. 
14 57 .. .. .. .. .. .. 14 62 .. .. .. .. .. .. 14 57 .. .. .. .. .. .. 14 61 .. .. .. .. 
.. .. 14 64 .. .. .. .. .. .. 14 62 .. .. .. .. .. .. 14 61 .. .. .. .. .. .. 14 57 .. .. 
.. .. .. .. 14 52 .. .. .. .. .. .. 14 59 .. .. .. .. .. .. .. .. .. .. .. .. .. .. .. .. 
.. .. .. .. .. .. 14 58 .. .. .. 57 .. .. .. .. .. .. .. .. .. .. .. .. .. .. .. .. .. .. 
14 55 .. .. .. .. .. .. .. .. .. .. .. .. .. .. 14 55 .. .. .. 54 .. .. .. .. .. .. .. .. 
.. .. .. 55 .. .. .. 54 .. .. .. 52 .. .. .. .. .. .. .. .. .. .. .. .. .. .. 14 50 .. .. 
.. .. .. .. 14 49 .. .. .. .. .. .. 14 52 .. .. .. .. .. .. 14 48 .. .. .. 49 .. .. .. .. 
.. .. .. .. .. .. .. 47 .. .. .. .. .. .. 14 45 .. .. .. .. .. .. .. .. .. .. .. .. .. .. 
.. .. .. .. .. .. .. .. .. .. .. .. .. .. .. .. 14 .. .. .. .. .. .. .. .. 73 61 .. .. .. 
.. .. 14 74 62 .. .. .. .. .. 14 75 64 .. .. .. .. .. 14 73 61 .. .. .. .. .. .. .. .. .. 
.. .. .. .. 14 71 59 .. .. .. .. .. 14 69 57 .. .. .. .. .. .. .. .. .. .. .. .. .. 14 59 
.. .. .. 61 .. .. .. 62 .. .. .. 67 .. .. .. 59 .. .. .. 61 .. .. .. 62 .. .. .. 66 .. .. 
.. 64 .. .. .. 62 .. .. .. 61 .. .. .. 59 .. .. .. 57 .. .. .. 55 .. .. .. 54 .. .. .. 52 
.. .. .. 54 .. .. .. .. .. .. .. .. .. .. .. .. .. .. .. 55 .. .. .. 54 .. .. .. 52 .. .. 
.. .. .. .. 14 .. .. .. .. .. .. .. .. 54 .. .. .. .. .. .. 14 55 .. .. .. .. .. .. 14 57 
.. .. .. .. .. .. 14 59 .. .. .. .. .. .. 14 55 .. .. .. .. .. .. 14 52 .. .. .. .. .. .. 
14 57 .. .. .. .. .. .. 14 .. .. .. .. .. .. .. .. 59 .. .. .. .. .. .. 14 55 .. .. .. .. 
.. .. 14 52 .. .. .. .. .. .. 14 59 .. .. .. .. .. .. 14 61 .. .. .. .. .. .. 14 57 .. .. 
.. .. .. .. 14 .. .. .. .. .. .. .. .. .. .. .. .. .. .. .. .. .. .. .. .. .. .. .. .. .. 
.. .. .. .. .. .. .. .. .. .. .. .. .. .. .. .. .. .. .. .. .. .. .. 59 .. .. .. .. .. .. 
14 59 .. .. .. .. .. .. 14 .. .. .. .. .. .. .. .. 59 .. .. .. .. .. .. 14 59 .. .. .. .. 
.. .. 14 .. .. .. .. .. .. .. .. 59 .. .. .. .. .. .. 14 .. .. .. .. .. .. .. .. 61 .. .. 
.. .. .. .. 14 .. .. .. .. .. .. .. .. 62 .. .. .. .. .. .. 14 .. .. .. .. .. .. .. .. 61 
.. .. .. .. .. .. .. 59 .. .. .. .. .. .. 14 .. .. .. .. .. .. .. .. 59 .. .. .. .. .. .. 
.. 61 .. .. .. .. .. .. .. .. .. .. .. .. .. .. 14 57 .. .. .. .. .. .. 14 .. .. .. .. .. 
.. .. .. .. .. .. .. .. .. .. .. 69 57 .. .. .. .. .. .. .. .. .. .. .. .. .. 14 67 55 .. 
.. .. .. .. 14 71 59 .. .. .. .. .. .. .. .. .. .. .. .. .. 14 69 57 .. .. .. .. .. .. .. 
.. .. .. .. .. .. .. .. .. .. .. .. .. .. .. .. .. .. .. .. .. .. .. .. .. .. .. .. .. .. 
14 52 .. .. .. 53 .. .. .. .. .. .. .. .. .. .. .. .. .. .. .. .. .. .. 14 52 .. .. .. .. 
.. .. .. .. .. .. .. .. .. .. 14 50 .. .. .. .. .. .. 14 48 .. .. .. .. .. .. 14 50 .. .. 
.. .. .. .. 14 .. .. .. .. .. .. .. .. 43 .. .. .. .. .. .. .. 45 .. .. .. .. .. .. 14 48 
.. .. .. .. .. .. 14 46 .. .. .. 47 .. .. .. .. .. .. .. .. .. .. 14 48 .. .. .. .. .. .. 
14 50 .. .. .. .. .. .. .. .. .. .. .. .. .. .. .. .. .. .. .. .. .. .. .. .. .. .. .. .. 
.. .. .. .. .. .. .. .. .. .. .. .. .. .. .. .. .. .. 14 .. .. .. .. .. .. .. .. .. .. .. 
.. .. .. .. .. .. .. .. .. .. .. .. .. 71 59 .. .. .. .. .. 14 62 50 .. .. .. .. .. 14 69 
57 .. .. .. .. .. 14 71 59 .. .. .. .. .. 14 72 60 .. .. .. .. .. 14 71 59 .. .. .. .. .. 
14 67 55 .. .. .. .. .. 14 62 50 .. .. .. .. .. 14 52 .. .. .. 53 .. .. .. .. .. .. .. .. 
.. .. 14 55 .. .. .. .. .. .. 14 52 .. .. .. .. .. .. 14 .. .. .. .. .. .. .. .. 53 .. .. 
.. .. .. .. 14 .. .. .. .. .. .. .. .. 52 .. .. .. .. .. .. .. .. .. .. .. .. .. .. .. 53 
.. .. .. 52 .. .. .. 50 .. .. .. .. .. .. .. .. .. .. .. .. .. .. 14 48 .. .. .. .. .. .. 
14 47 .. .. .. .. .. .. 14 48 .. .. .. .. .. .. 14 50 .. .. .. .. .. .. 14 46 .. .. .. 47 
.. .. .. .. .. .. .. .. .. .. 14 45 .. .. .. .. .. .. 14 43 .. .. .. .. .. .. .. .. .. .. 
.. .. .. .. .. .. .. .. .. .. .. .. .. .. .. .. .. .. .. .. .. .. .. .. .. .. .. .. 14 .. 
.. .. .. .. .. .. .. 62 50 .. .. .. .. .. 14 67 55 .. .. .. .. .. 14 72 60 .. .. .. .. .. 
14 71 59 .. .. .. .. .. 14 67 55 .. .. .. .. .. 14 62 50 .. .. .. .. .. 14 59 47 .. 
! End
