! Simple
! Song 0
50 .. .. .. .. .. 24 .. .. .. .. .. .. .. .. .. .. .. .. .. .. 19 .. .. .. .. .. .. .. .. 
.. .. .. .. .. 27 .. .. .. .. .. .. .. .. .. .. .. .. .. .. 19 .. .. .. .. .. .. .. .. .. 
.. .. .. .. .. 24 .. .. .. .. .. .. .. .. .. .. .. .. .. 19 .. .. .. .. .. .. .. .. .. .. 
.. .. .. .. 27 .. .. .. .. .. .. .. .. .. .. .. .. .. .. 19 .. .. .. .. .. .. .. .. .. .. 
.. .. .. .. 24 .. .. .. .. .. .. .. .. .. .. .. .. .. 19 .. .. .. .. .. .. .. .. .. .. .. 
.. .. .. 27 .. .. .. .. .. .. .. .. .. .. .. .. .. .. 19 .. .. .. .. .. .. .. .. .. .. .. 
.. .. 24 .. .. .. .. .. .. .. .. .. .. .. .. .. .. 19 .. .. .. .. .. .. .. .. .. .. .. .. 
.. .. 27 .. .. .. .. .. .. .. .. .. .. .. .. .. 19 .. .. .. .. .. .. .. .. .. .. .. .. .. 
.. 25 .. .. .. .. .. .. .. .. .. .. .. .. .. .. 20 .. .. .. .. .. .. .. .. .. .. .. .. .. 
.. 29 .. .. .. .. .. .. .. .. .. .. .. .. .. 20 .. .. .. .. .. .. .. .. .. .. .. .. .. .. 
25 .. .. .. .. .. .. .. .. .. .. .. .. .. .. 20 .. .. .. .. .. .. .. .. .. .. .. .. .. 29 
.. .. .. .. .. .. .. .. .. .. .. .. .. .. 20 .. .. .. .. .. .. .. .. .. .. .. .. .. .. 25 
.. .. .. .. .. .. .. .. .. .. .. .. .. 20 .. .. .. .. .. .. .. .. .. .. .. .. .. .. 29 .. 
.. .. .. .. .. .. .. .. .. .. .. .. .. 20 .. .. .. .. .. .. .. .. .. .. .. .. .. .. 25 .. 
.. .. .. .. .. .. .. .. .. .. .. .. 20 .. .. .. .. .. .. .. .. .. .. .. .. .. .. 29 .. .. 
.. .. .. .. .. .. .. .. .. .. .. .. 20 .. .. .. .. .. .. .. .. .. .. .. .. .. 24 .. .. .. 
.. .. .. .. .. .. .. .. .. .. .. 19 .. .. .. .. .. .. .. .. .. .. .. .. .. .. 27 .. .. .. 
.. .. .. .. .. .. .. .. .. .. 19 .. .. .. .. .. .. .. .. .. .. .. .. .. .. 24 .. .. .. .. 
.. .. .. .. .. .. .. .. .. .. 19 .. .. .. .. .. .. .. .. .. .. .. .. .. .. 27 .. .. .. .. 
.. .. .. .. .. .. .. .. .. 19 .. .. .. .. .. .. .. .. .. .. .. .. .. .. 24 .. .. .. .. .. 
.. .. .. .. .. .. .. .. .. 19 .. .. .. .. .. .. .. .. .. .. .. .. .. 27 .. .. .. .. .. .. 
.. .. .. .. .. .. .. .. 19 .. .. .. .. .. .. .. .. .. .. .. .. .. .. 24 .. .. .. .. .. .. 
.. .. .. .. .. .. .. 19 .. .. .. .. .. .. .. .. .. .. .. .. .. .. 27 .. .. .. .. .. .. .. 
.. .. .. .. .. .. .. 19 .. .. .. .. .. .. .. .. .. .. .. .. .. .. 23 .. .. .. .. .. .. .. 
.. .. .. .. .. .. 18 .. .. .. .. .. .. .. .. .. .. .. .. .. .. 27 .. .. .. .. .. .. .. .. 
.. .. .. .. .. .. 18 .. .. .. .. .. .. .. .. .. .. .. .. .. 23 .. .. .. .. .. .. .. .. .. 
.. .. .. .. .. 18 .. .. .. .. .. .. .. .. .. .. .. .. .. .. 27 .. .. .. .. .. .. .. .. .. 
.. .. .. .. 18 .. .. .. .. .. .. .. .. .. .. .. .. .. .. 23 .. .. .. .. .. .. .. .. .. .. 
.. .. .. .. 18 .. .. .. .. .. .. .. .. .. .. .. .. .. .. 27 .. .. .. .. .. .. .. .. .. .. 
.. .. .. 18 .. .. .. .. .. .. .. .. .. .. .. .. .. .. 23 .. .. .. .. .. .. .. .. .. .. .. 
.. .. .. 18 .. .. .. .. .. .. .. .. .. .. .. .. .. 27 .. .. .. .. .. .. .. .. .. .. .. .. 
.. .. 18 .. .. .. .. .. .. .. .. .. .. .. .. .. .. 24 .. .. .. .. .. .. .. .. .. .. .. .. 
.. 19 .. .. .. .. .. .. .. .. .. .. .. .. .. .. 27 .. .. .. .. .. .. .. .. .. .. .. .. .. 
.. 19 .. .. .. .. .. .. .. .. .. .. .. .. .. 24 .. .. .. .. .. .. .. .. .. .. .. .. .. .. 
19 .. .. .. .. .. .. .. .. .. .. .. .. .. .. 27 .. .. .. .. .. .. .. .. .. .. .. .. .. .. 
19 .. .. .. .. .. .. .. .. .. .. .. .. .. 24 .. .. .. .. .. .. .. .. .. .. .. .. .. .. 19 
.. .. .. .. .. .. .. .. .. .. .. .. .. .. 27 .. .. .. .. .. .. .. .. .. .. .. .. .. 19 .. 
.. .. .. .. .. .. .. .. .. .. .. .. .. 24 .. .. .. .. .. .. .. .. .. .. .. .. .. .. 19 .. 
.. .. .. .. .. .. .. .. .. .. .. .. 27 .. .. .. .. .. .. .. .. .. .. .. .. .. .. 19 .. .. 
.. .. .. .. .. .. .. .. .. .. .. .. 25 .. .. .. .. .. .. .. .. .. .. .. .. .. .. 20 .. .. 
.. .. .. .. .. .. .. .. .. .. .. 29 .. .. .. .. .. .. .. .. .. .. .. .. .. .. 20 .. .. .. 
.. .. .. .. .. .. .. .. .. .. .. 25 .. .. .. .. .. .. .. .. .. .. .. .. .. 20 .. .. .. .. 
.. .. .. .. .. .. .. .. .. .. 29 .. .. .. .. .. .. .. .. .. .. .. .. .. .. 20 .. .. .. .. 
.. .. .. .. .. .. .. .. .. 25 .. .. .. .. .. .. .. .. .. .. .. .. .. .. 20 .. .. .. .. .. 
.. .. .. .. .. .. .. .. 29 .. .. .. .. .. .. .. .. .. .. .. .. .. .. 20 .. .. .. .. .. .. 
.. .. .. .. .. .. .. 25 .. .. .. .. .. .. .. .. .. .. .. .. .. .. 20 .. .. .. .. .. .. .. 
.. .. .. .. .. .. 29 .. .. .. .. .. .. .. .. .. .. .. .. .. .. 20 .. .. .. .. .. .. .. .. 
.. .. .. .. .. 24 .. .. .. .. .. .. .. .. .. .. .. .. .. 19 .. .. .. .. .. .. .. .. .. .. 
.. .. .. .. 27 .. .. .. .. .. .. .. .. .. .. .. .. .. 19 .. .. .. .. .. .. .. .. .. .. .. 
.. .. 24 .. .. .. .. .. .. .. .. .. .. .. .. .. 19 .. .. .. .. .. .. .. .. .. .. .. .. .. 
.. 27 .. .. .. .. .. .. .. .. .. .. .. .. .. 19 .. .. .. .. .. .. .. .. .. .. .. .. .. 24 
.. .. .. .. .. .. .. .. .. .. .. .. .. 19 .. .. .. .. .. .. .. .. .. .. .. .. .. 27 .. .. 
.. .. .. .. .. .. .. .. .. .. .. 19 .. .. .. .. .. .. .. .. .. .. .. .. .. 24 .. .. .. .. 
.. .. .. .. .. .. .. .. .. 19 .. .. .. .. .. .. .. .. .. .. .. .. .. 27 .. .. .. .. .. .. 
.. .. .. .. .. .. .. 19 .. .. .. .. .. .. .. .. .. .. .. .. .. 23 .. .. .. .. .. .. .. .. 
.. .. .. .. 19 .. .. .. .. .. .. .. .. .. .. .. .. .. 26 .. .. .. .. .. .. .. .. .. .. .. 
.. 19 .. .. .. .. .. .. .. .. .. .. .. .. .. 23 .. .. .. .. .. .. .. .. .. .. .. .. .. 19 
.. .. .. .. .. .. .. .. .. .. .. .. 26 .. .. .. .. .. .. .. .. .. .. .. .. .. 19 .. .. .. 
.. .. .. .. .. .. .. .. .. 23 .. .. .. .. .. .. .. .. .. .. .. .. 19 .. .. .. .. .. .. .. 
.. .. .. .. .. .. 26 .. .. .. .. .. .. .. .. .. .. .. .. 19 .. .. .. .. .. .. .. .. .. .. 
.. .. 23 .. .. .. .. .. .. .. .. .. .. .. .. .. 19 .. .. .. .. .. .. .. .. .. .. .. .. 26 
.. .. .. .. .. .. .. .. .. .. .. .. 19 .. .. .. .. .. .. .. .. .. .. .. .. 24 .. .. .. .. 
.. .. .. .. .. .. .. .. .. 19 .. .. .. .. .. .. .. .. .. .. .. .. 27 .. .. .. .. .. .. .. 
.. .. .. .. .. 19 .. .. .. .. .. .. .. .. .. .. .. .. 24 .. .. .. .. .. .. .. .. .. .. .. 
.. 19 .. .. .. .. .. .. .. .. .. .. .. .. 27 .. .. .. .. .. .. .. .. .. .. .. .. 19 .. .. 
.. .. .. .. .. .. .. .. .. .. 24 .. .. .. .. .. .. .. .. .. .. .. .. 19 .. .. .. .. .. .. 
.. .. .. .. .. .. 27 .. .. .. .. .. .. .. .. .. .. .. .. 19 .. .. .. .. .. .. .. .. .. .. 
.. .. 24 .. .. .. .. .. .. .. .. .. .. .. .. 19 .. .. .. .. .. .. .. .. .. .. .. .. 27 .. 
.. .. .. .. .. .. .. .. .. .. .. 19 .. .. .. .. .. .. .. .. .. .. .. .. .. 25 .. .. .. .. 
.. .. .. .. .. .. .. .. 20 .. .. .. .. .. .. .. .. .. .. .. .. 29 .. .. .. .. .. .. .. .. 
.. .. .. .. 20 .. .. .. .. .. .. .. .. .. .. .. .. 25 .. .. .. .. .. .. .. .. .. .. .. .. 
20 .. .. .. .. .. .. .. .. .. .. .. .. 29 .. .. .. .. .. .. .. .. .. .. .. .. 20 .. .. .. 
.. .. .. .. .. .. .. .. .. 25 .. .. .. .. .. .. .. .. .. .. .. .. 20 .. .. .. .. .. .. .. 
.. .. .. .. .. 29 .. .. .. .. .. .. .. .. .. .. .. .. 20 .. .. .. .. .. .. .. .. .. .. .. 
.. 25 .. .. .. .. .. .. .. .. .. .. .. .. 20 .. .. .. .. .. .. .. .. .. .. .. .. 29 .. .. 
.. .. .. .. .. .. .. .. .. .. 20 .. .. .. .. .. .. .. .. .. .. .. .. .. 24 .. .. .. .. .. 
.. .. .. .. .. .. .. 19 .. .. .. .. .. .. .. .. .. .. .. .. 27 .. .. .. .. .. .. .. .. .. 
.. .. .. 19 .. .. .. .. .. .. .. .. .. .. .. .. 24 .. .. .. .. .. .. .. .. .. .. .. .. 19 
.. .. .. .. .. .. .. .. .. .. .. .. 27 .. .. .. .. .. .. .. .. .. .. .. .. 19 .. .. .. .. 
.. .. .. .. .. .. .. .. 24 .. .. .. .. .. .. .. .. .. .. .. .. 19 .. .. .. .. .. .. .. .. 
.. .. .. .. 27 .. .. .. .. .. .. .. .. .. .. .. .. 19 .. .. .. .. .. .. .. .. .. .. .. .. 
24 .. .. .. .. .. .. .. .. .. .. .. .. 19 .. .. .. .. .. .. .. .. .. .. .. .. 27 .. .. .. 
.. .. .. .. .. .. .. .. .. .. 19 .. .. .. .. .. .. .. .. .. .. .. .. 23 .. .. .. .. .. .. 
.. .. .. .. .. .. 18 .. .. .. .. .. .. .. .. .. .. .. .. 27 .. .. .. .. .. .. .. .. .. .. 
.. .. 18 .. .. .. .. .. .. .. .. .. .. .. .. 23 .. .. .. .. .. .. .. .. .. .. .. .. 18 .. 
.. .. .. .. .. .. .. .. .. .. .. 27 .. .. .. .. .. .. .. .. .. .. .. .. 18 .. .. .. .. .. 
.. .. .. .. .. .. .. 23 .. .. .. .. .. .. .. .. .. .. .. .. 18 .. .. .. .. .. .. .. .. .. 
.. .. .. 27 .. .. .. .. .. .. .. .. .. .. .. .. 18 .. .. .. .. .. .. .. .. .. .. .. .. 23 
.. .. .. .. .. .. .. .. .. .. .. .. 18 .. .. .. .. .. .. .. .. .. .. .. .. .. 27 .. .. .. 
.. .. .. .. .. .. .. .. .. 18 .. .. .. .. .. .. .. .. .. .. .. .. 24 .. .. .. .. .. .. .. 
.. .. .. .. .. 19 .. .. .. .. .. .. .. .. .. .. .. .. 27 .. .. .. .. .. .. .. .. .. .. .. 
.. 19 .. .. .. .. .. .. .. .. .. .. .. .. 24 .. .. .. .. .. .. .. .. .. .. .. .. 19 .. .. 
.. .. .. .. .. .. .. .. .. .. 27 .. .. .. .. .. .. .. .. .. .. .. .. 19 .. .. .. .. .. .. 
.. .. .. .. .. .. 24 .. .. .. .. .. .. .. .. .. .. .. .. 19 .. .. .. .. .. .. .. .. .. .. 
.. .. 27 .. .. .. .. .. .. .. .. .. .. .. .. 19 .. .. .. .. .. .. .. .. .. .. .. .. 24 .. 
.. .. .. .. .. .. .. .. .. .. .. .. 19 .. .. .. .. .. .. .. .. .. .. .. .. 27 .. .. .. .. 
.. .. .. .. .. .. .. .. 19 .. .. .. .. .. .. .. .. .. .. .. .. 25 .. .. .. .. .. .. .. .. 
.. .. .. .. 20 .. .. .. .. .. .. .. .. .. .. .. .. 29 .. .. .. .. .. .. .. .. .. .. .. .. 
20 .. .. .. .. .. .. .. .. .. .. .. .. 25 .. .. .. .. .. .. .. .. .. .. .. .. 20 .. .. .. 
.. .. .. .. .. .. .. .. .. 29 .. .. .. .. .. .. .. .. .. .. .. .. 20 .. .. .. .. .. .. .. 
.. .. .. .. .. 25 .. .. .. .. .. .. .. .. .. .. .. .. 20 .. .. .. .. .. .. .. .. .. .. .. 
.. 29 .. .. .. .. .. .. .. .. .. .. .. .. 20 .. .. .. .. .. .. .. .. .. .. .. .. 25 .. .. 
.. .. .. .. .. .. .. .. .. .. .. 20 .. .. .. .. .. .. .. .. .. .. .. .. 29 .. .. .. .. .. 
.. .. .. .. .. .. .. 20 .. .. .. .. .. .. .. .. .. .. .. .. 23 .. .. .. .. .. .. .. .. .. 
.. .. .. 19 .. .. .. .. .. .. .. .. .. .. .. .. 26 .. .. .. .. .. .. .. .. .. .. .. .. 19 
.. .. .. .. .. .. .. .. .. .. .. .. 23 .. .. .. .. .. .. .. .. .. .. .. .. 19 .. .. .. .. 
.. .. .. .. .. .. .. .. 26 .. .. .. .. .. .. .. .. .. .. .. .. 19 .. .. .. .. .. .. .. .. 
.. .. .. .. 23 .. .. .. .. .. .. .. .. .. .. .. .. 19 .. .. .. .. .. .. .. .. .. .. .. .. 
26 .. .. .. .. .. .. .. .. .. .. .. .. 19 .. .. .. .. .. .. .. .. .. .. .. .. .. 23 .. .. 
.. .. .. .. .. .. .. .. .. .. 19 .. .. .. .. .. .. .. .. .. .. .. .. 26 .. .. .. .. .. .. 
.. .. .. .. .. .. 19 .. .. .. .. .. .. .. .. .. .. .. .. 23 .. .. .. .. .. .. .. .. .. .. 
.. .. 19 .. .. .. .. .. .. .. .. .. .. .. .. 26 .. .. .. .. .. .. .. .. .. .. .. .. 19 .. 
.. .. .. .. .. .. .. .. .. .. .. 23 .. .. .. .. .. .. .. .. .. .. .. .. 19 .. .. .. .. .. 
.. .. .. .. .. .. .. 26 .. .. .. .. .. .. .. .. .. .. .. .. 19 .. .. .. .. .. .. .. .. .. 
.. .. .. 23 .. .. .. .. .. .. .. .. .. .. .. .. .. 19 .. .. .. .. .. .. .. .. .. .. .. .. 
.. 26 .. .. .. .. .. .. .. .. .. .. .. .. .. 19 .. .. .. .. .. .. .. .. .. .. .. .. .. 23 
.. .. .. .. .. .. .. .. .. .. .. .. .. 19 .. .. .. .. .. .. .. .. .. .. .. .. .. 26 .. .. 
.. .. .. .. .. .. .. .. .. .. .. 19 .. .. .. .. .. .. .. .. .. .. .. .. .. .. 24 .. .. .. 
.. .. .. .. .. .. .. .. .. .. 19 .. .. .. .. .. .. .. .. .. .. .. .. .. .. 27 .. .. .. .. 
.. .. .. .. .. .. .. .. .. .. 19 .. .. .. .. .. .. .. .. .. .. .. .. .. 24 .. .. .. .. .. 
.. .. .. .. .. .. .. .. .. 19 .. .. .. .. .. .. .. .. .. .. .. .. .. .. 27 .. .. .. .. .. 
.. .. .. .. .. .. .. .. 19 .. .. .. .. .. .. .. .. .. .. .. .. .. .. 24 .. .. .. .. .. .. 
.. .. .. .. .. .. .. .. 19 .. .. .. .. .. .. .. .. .. .. .. .. .. 27 .. .. .. .. .. .. .. 
.. .. .. .. .. .. .. 19 .. .. .. .. .. .. .. .. .. .. .. .. .. .. 24 .. .. .. .. .. .. .. 
.. .. .. .. .. .. .. 19 .. .. .. .. .. .. .. .. .. .. .. .. .. 27 .. .. .. .. .. .. .. .. 
.. .. .. .. .. .. 19 .. .. .. .. .. .. .. .. .. .. .. .. .. .. 25 .. .. .. .. .. .. .. .. 
.. .. .. .. .. 20 .. .. .. .. .. .. .. .. .. .. .. .. .. .. 29 .. .. .. .. .. .. .. .. .. 
.. .. .. .. .. 20 .. .. .. .. .. .. .. .. .. .. .. .. .. 25 .. .. .. .. .. .. .. .. .. .. 
.. .. .. .. 20 .. .. .. .. .. .. .. .. .. .. .. .. .. .. 29 .. .. .. .. .. .. .. .. .. .. 
.. .. .. .. 20 .. .. .. .. .. .. .. .. .. .. .. .. .. 25 .. .. .. .. .. .. .. .. .. .. .. 
.. .. .. 20 .. .. .. .. .. .. .. .. .. .. .. .. .. .. 29 .. .. .. .. .. .. .. .. .. .. .. 
.. .. 20 .. .. .. .. .. .. .. .. .. .. .. .. .. .. 25 .. .. .. .. .. .. .. .. .. .. .. .. 
.. .. 20 .. .. .. .. .. .. .. .. .. .. .. .. .. 29 .. .. .. .. .. .. .. .. .. .. .. .. .. 
.. 20 .. .. .. .. .. .. .. .. .. .. .. .. .. .. 24 .. .. .. .. .. .. .. .. .. .. .. .. .. 
.. 19 .. .. .. .. .. .. .. .. .. .. .. .. .. 27 .. .. .. .. .. .. .. .. .. .. .. .. .. .. 
19 .. .. .. .. .. .. .. .. .. .. .. .. .. .. 24 .. .. .. .. .. .. .. .. .. .. .. .. .. 19 
.. .. .. .. .. .. .. .. .. .. .. .. .. .. 27 .. .. .. .. .. .. .. .. .. .. .. .. .. .. 19 
.. .. .. .. .. .. .. .. .. .. .. .. .. 24 .. .. .. .. .. .. .. .. .. .. .. .. .. .. 19 .. 
.. .. .. .. .. .. .. .. .. .. .. .. .. 27 .. .. .. .. .. .. .. .. .. .. .. .. .. .. 19 .. 
.. .. .. .. .. .. .. .. .. .. .. .. 24 .. .. .. .. .. .. .. .. .. .. .. .. .. .. 19 .. .. 
.. .. .. .. .. .. .. .. .. .. .. .. 27 .. .. .. .. .. .. .. .. .. .. .. .. .. 19 .. .. .. 
.. .. .. .. .. .. .. .. .. .. .. 23 .. .. .. .. .. .. .. .. .. .. .. .. .. .. 18 .. .. .. 
.. .. .. .. .. .. .. .. .. .. 27 .. .. .. .. .. .. .. .. .. .. .. .. .. .. 18 .. .. .. .. 
.. .. .. .. .. .. .. .. .. .. 23 .. .. .. .. .. .. .. .. .. .. .. .. .. .. 18 .. .. .. .. 
.. .. .. .. .. .. .. .. .. 27 .. .. .. .. .. .. .. .. .. .. .. .. .. .. 18 .. .. .. .. .. 
.. .. .. .. .. .. .. .. .. 23 .. .. .. .. .. .. .. .. .. .. .. .. .. 18 .. .. .. .. .. .. 
.. .. .. .. .. .. .. .. 27 .. .. .. .. .. .. .. .. .. .. .. .. .. .. 18 .. .. .. .. .. .. 
.. .. .. .. .. .. .. 23 .. .. .. .. .. .. .. .. .. .. .. .. .. .. 18 .. .. .. .. .. .. .. 
.. .. .. .. .. .. .. 27 .. .. .. .. .. .. .. .. .. .. .. .. .. .. 18 .. .. .. .. .. .. .. 
.. .. .. .. .. .. 24 .. .. .. .. .. .. .. .. .. .. .. .. .. .. 19 .. .. .. .. .. .. .. .. 
.. .. .. .. .. .. 27 .. .. .. .. .. .. .. .. .. .. .. .. .. 19 .. .. .. .. .. .. .. .. .. 
.. .. .. .. .. 24 .. .. .. .. .. .. .. .. .. .. .. .. .. .. 19 .. .. .. .. .. .. .. .. .. 
.. .. .. .. 27 .. .. .. .. .. .. .. .. .. .. .. .. .. .. 19 .. .. .. .. .. .. .. .. .. .. 
.. .. .. .. 24 .. .. .. .. .. .. .. .. .. .. .. .. .. .. 19 .. .. .. .. .. .. .. .. .. .. 
.. .. .. 27 .. .. .. .. .. .. .. .. .. .. .. .. .. .. 19 .. .. .. .. .. .. .. .. .. .. .. 
.. .. .. 24 .. .. .. .. .. .. .. .. .. .. .. .. .. 19 .. .. .. .. .. .. .. .. .. .. .. .. 
.. .. 27 .. .. .. .. .. .. .. .. .. .. .. .. .. .. 19 .. .. .. .. .. .. .. .. .. .. .. .. 
.. 25 .. .. .. .. .. .. .. .. .. .. .. .. .. .. 20 .. .. .. .. .. .. .. .. .. .. .. .. .. 
.. 29 .. .. .. .. .. .. .. .. .. .. .. .. .. 20 .. .. .. .. .. .. .. .. .. .. .. .. .. .. 
25 .. .. .. .. .. .. .. .. .. .. .. .. .. .. 20 .. .. .. .. .. .. .. .. .. .. .. .. .. .. 
29 .. .. .. .. .. .. .. .. .. .. .. .. .. 20 .. .. .. .. .. .. .. .. .. .. .. .. .. .. 25 
.. .. .. .. .. .. .. .. .. .. .. .. .. 20 .. .. .. .. .. .. .. .. .. .. .. .. .. .. 29 .. 
.. .. .. .. .. .. .. .. .. .. .. .. 20 .. .. .. .. .. .. .. .. .. .. .. .. .. .. 25 .. .. 
.. .. .. .. .. .. .. .. .. .. .. 20 .. .. .. .. .. .. .. .. .. .. .. .. .. .. 29 .. .. .. 
.. .. .. .. .. .. .. .. .. .. 20 .. .. .. .. .. .. .. .. .. .. .. .. .. .. 24 .. .. .. .. 
.. .. .. .. .. .. .. .. .. 19 .. .. .. .. .. .. .. .. .. .. .. .. .. 27 .. .. .. .. .. .. 
.. .. .. .. .. .. .. 19 .. .. .. .. .. .. .. .. .. .. .. .. .. .. 24 .. .. .. .. .. .. .. 
.. .. .. .. .. .. 19 .. .. .. .. .. .. .. .. .. .. .. .. .. 27 .. .. .. .. .. .. .. .. .. 
.. .. .. .. 19 .. .. .. .. .. .. .. .. .. .. .. .. .. 24 .. .. .. .. .. .. .. .. .. .. .. 
.. .. 19 .. .. .. .. .. .. .. .. .. .. .. .. .. 27 .. .. .. .. .. .. .. .. .. .. .. .. .. 
19 .. .. .. .. .. .. .. .. .. .. .. .. .. 24 .. .. .. .. .. .. .. .. .. .. .. .. .. 19 .. 
.. .. .. .. .. .. .. .. .. .. .. .. 27 .. .. .. .. .. .. .. .. .. .. .. .. .. 19 .. .. .. 
.. .. .. .. .. .. .. .. .. .. 23 .. .. .. .. .. .. .. .. .. .. .. .. .. 19 .. .. .. .. .. 
.. .. .. .. .. .. .. 26 .. .. .. .. .. .. .. .. .. .. .. .. .. 19 .. .. .. .. .. .. .. .. 
.. .. .. .. .. 23 .. .. .. .. .. .. .. .. .. .. .. .. 19 .. .. .. .. .. .. .. .. .. .. .. 
.. .. 26 .. .. .. .. .. .. .. .. .. .. .. .. 19 .. .. .. .. .. .. .. .. .. .. .. .. .. 23 
.. .. .. .. .. .. .. .. .. .. .. .. 19 .. .. .. .. .. .. .. .. .. .. .. .. 26 .. .. .. .. 
.. .. .. .. .. .. .. .. .. 19 .. .. .. .. .. .. .. .. .. .. .. .. 23 .. .. .. .. .. .. .. 
.. .. .. .. .. 19 .. .. .. .. .. .. .. .. .. .. .. .. 26 .. .. .. .. .. .. .. .. .. .. .. 
.. .. 19 .. .. .. .. .. .. .. .. .. .. .. .. 24 .. .. .. .. .. .. .. .. .. .. .. .. 19 .. 
.. .. .. .. .. .. .. .. .. .. .. 27 .. .. .. .. .. .. .. .. .. .. .. .. 19 .. .. .. .. .. 
.. .. .. .. .. .. .. 24 .. .. .. .. .. .. .. .. .. .. .. .. 19 .. .. .. .. .. .. .. .. .. 
.. .. .. 27 .. .. .. .. .. .. .. .. .. .. .. .. 19 .. .. .. .. .. .. .. .. .. .. .. .. .. 
24 .. .. .. .. .. .. .. .. .. .. .. .. 19 .. .. .. .. .. .. .. .. .. .. .. .. 27 .. .. .. 
.. .. .. .. .. .. .. .. .. 19 .. .. .. .. .. .. .. .. .. .. .. .. 24 .. .. .. .. .. .. .. 
.. .. .. .. .. 19 .. .. .. .. .. .. .. .. .. .. .. .. 27 .. .. .. .. .. .. .. .. .. .. .. 
.. 19 .. .. .. .. .. .. .. .. .. .. .. .. 25 .. .. .. .. .. .. .. .. .. .. .. .. 20 .. .. 
.. .. .. .. .. .. .. .. .. .. 29 .. .. .. .. .. .. .. .. .. .. .. .. 20 .. .. .. .. .. .. 
.. .. .. .. .. .. 25 .. .. .. .. .. .. .. .. .. .. .. .. 20 .. .. .. .. .. .. .. .. .. .. 
.. .. 29 .. .. .. .. .. .. .. .. .. .. .. .. 20 .. .. .. .. .. .. .. .. .. .. .. .. .. 25 
.. .. .. .. .. .. .. .. .. .. .. .. 20 .. .. .. .. .. .. .. .. .. .. .. .. 29 .. .. .. .. 
.. .. .. .. .. .. .. .. 20 .. .. .. .. .. .. .. .. .. .. .. .. 25 .. .. .. .. .. .. .. .. 
.. .. .. .. 20 .. .. .. .. .. .. .. .. .. .. .. .. 29 .. .. .. .. .. .. .. .. .. .. .. .. 
20 .. .. .. .. .. .. .. .. .. .. .. .. 24 .. .. .. .. .. .. .. .. .. .. .. .. 19 .. .. .. 
.. .. .. .. .. .. .. .. .. 27 .. .. .. .. .. .. .. .. .. .. .. .. 19 .. .. .. .. .. .. .. 
.. .. .. .. .. 24 .. .. .. .. .. .. .. .. .. .. .. .. 19 .. .. .. .. .. .. .. .. .. .. .. 
.. 27 .. .. .. .. .. .. .. .. .. .. .. .. .. 19 .. .. .. .. .. .. .. .. .. .. .. .. 24 .. 
.. .. .. .. .. .. .. .. .. .. .. 19 .. .. .. .. .. .. .. .. .. .. .. .. 27 .. .. .. .. .. 
.. .. .. .. .. .. .. 19 .. .. .. .. .. .. .. .. .. .. .. .. 24 .. .. .. .. .. .. .. .. .. 
.. .. .. 19 .. .. .. .. .. .. .. .. .. .. .. .. 27 .. .. .. .. .. .. .. .. .. .. .. .. 19 
.. .. .. .. .. .. .. .. .. .. .. .. 23 .. .. .. .. .. .. .. .. .. .. .. .. 18 .. .. .. .. 
.. .. .. .. .. .. .. .. 27 .. .. .. .. .. .. .. .. .. .. .. .. 18 .. .. .. .. .. .. .. .. 
.. .. .. .. 23 .. .. .. .. .. .. .. .. .. .. .. .. 18 .. .. .. .. .. .. .. .. .. .. .. .. 
.. 27 .. .. .. .. .. .. .. .. .. .. .. .. 18 .. .. .. .. .. .. .. .. .. .. .. .. 23 .. .. 
.. .. .. .. .. .. .. .. .. .. 18 .. .. .. .. .. .. .. .. .. .. .. .. 27 .. .. .. .. .. .. 
.. .. .. .. .. .. 18 .. .. .. .. .. .. .. .. .. .. .. .. 23 .. .. .. .. .. .. .. .. .. .. 
.. .. 18 .. .. .. .. .. .. .. .. .. .. .. .. 27 .. .. .. .. .. .. .. .. .. .. .. .. 18 .. 
.. .. .. .. .. .. .. .. .. .. .. 24 .. .. .. .. .. .. .. .. .. .. .. .. 19 .. .. .. .. .. 
.. .. .. .. .. .. .. 27 .. .. .. .. .. .. .. .. .. .. .. .. 19 .. .. .. .. .. .. .. .. .. 
.. .. .. 24 .. .. .. .. .. .. .. .. .. .. .. .. .. 19 .. .. .. .. .. .. .. .. .. .. .. .. 
27 .. .. .. .. .. .. .. .. .. .. .. .. 19 .. .. .. .. .. .. .. .. .. .. .. .. 24 .. .. .. 
.. .. .. .. .. .. .. .. .. 19 .. .. .. .. .. .. .. .. .. .. .. .. 27 .. .. .. .. .. .. .. 
.. .. .. .. .. 19 .. .. .. .. .. .. .. .. .. .. .. .. 24 .. .. .. .. .. .. .. .. .. .. .. 
.. 19 .. .. .. .. .. .. .. .. .. .. .. .. 27 .. .. .. .. .. .. .. .. .. .. .. .. 19 .. .. 
.. .. .. .. .. .. .. .. .. .. 25 .. .. .. .. .. .. .. .. .. .. .. .. 20 .. .. .. .. .. .. 
.. .. .. .. .. .. 29 .. .. .. .. .. .. .. .. .. .. .. .. 20 .. .. .. .. .. .. .. .. .. .. 
.. .. 25 .. .. .. .. .. .. .. .. .. .. .. .. .. 20 .. .. .. .. .. .. .. .. .. .. .. .. 29 
.. .. .. .. .. .. .. .. .. .. .. .. 20 .. .. .. .. .. .. .. .. .. .. .. .. 25 .. .. .. .. 
.. .. .. .. .. .. .. .. 20 .. .. .. .. .. .. .. .. .. .. .. .. 29 .. .. .. .. .. .. .. .. 
.. .. .. .. 20 .. .. .. .. .. .. .. .. .. .. .. .. 25 .. .. .. .. .. .. .. .. .. .. .. .. 
20 .. .. .. .. .. .. .. .. .. .. .. .. 29 .. .. .. .. .. .. .. .. .. .. .. .. 20 .. .. .. 
.. .. .. .. .. .. .. .. .. 23 .. .. .. .. .. .. .. .. .. .. .. .. 19 .. .. .. .. .. .. .. 
.. .. .. .. .. 26 .. .. .. .. .. .. .. .. .. .. .. .. 19 .. .. .. .. .. .. .. .. .. .. .. 
.. .. 23 .. .. .. .. .. .. .. .. .. .. .. .. 19 .. .. .. .. .. .. .. .. .. .. .. .. 26 .. 
.. .. .. .. .. .. .. .. .. .. .. 19 .. .. .. .. .. .. .. .. .. .. .. .. 23 .. .. .. .. .. 
.. .. .. .. .. .. .. 19 .. .. .. .. .. .. .. .. .. .. .. .. 26 .. .. .. .. .. .. .. .. .. 
.. .. .. 19 .. .. .. .. .. .. .. .. .. .. .. .. 23 .. .. .. .. .. .. .. .. .. .. .. .. 19 
.. .. .. .. .. .. .. .. .. .. .. .. 26 .. .. .. .. .. .. .. .. .. .. .. .. 19 .. .. .. .. 
.. .. .. .. .. .. .. .. 23 .. .. .. .. .. .. .. .. .. .. .. .. 19 .. .. .. .. .. .. .. .. 
.. .. .. .. 26 .. .. .. .. .. .. .. .. .. .. .. .. .. 19 .. .. .. .. .. .. .. .. .. .. .. 
.. 23 .. .. .. .. .. .. .. .. .. .. .. .. 19 .. .. .. .. .. .. .. .. .. .. .. .. 26 .. .. 
.. .. .. .. .. .. .. .. .. .. 19 .. .. .. .. .. .. .. .. .. .. .. .. 23 .. .. .. .. .. .. 
.. .. .. .. .. .. .. 19 .. .. .. .. .. .. .. .. .. .. .. .. .. 26 .. .. .. .. .. .. .. .. 
.. .. .. .. .. 19 .. .. .. .. .. .. .. .. .. .. .. .. .. 23 .. .. .. .. .. .. .. .. .. .. 
.. .. .. 19 .. .. .. .. .. .. .. .. .. .. .. .. .. 26 .. .. .. .. .. .. .. .. .. .. .. .. 
.. 19 .. .. .. .. .. .. .. .. .. .. .. .. .. 24 .. .. .. .. .. .. .. .. .. .. .. .. .. .. 
19 .. .. .. .. .. .. .. .. .. .. .. .. .. 27 .. .. .. .. .. .. .. .. .. .. .. .. .. .. 19 
.. .. .. .. .. .. .. .. .. .. .. .. .. .. 24 .. .. .. .. .. .. .. .. .. .. .. .. .. .. 19 
.. .. .. .. .. .. .. .. .. .. .. .. .. 27 .. .. .. .. .. .. .. .. .. .. .. .. .. .. 
! Song 1
50 .. .. .. .. .. 31 .. .. .. .. .. .. .. .. 31 .. .. .. .. .. .. .. .. 24 .. .. .. .. .. 
31 .. .. .. .. .. .. .. .. .. 31 .. .. .. .. .. .. .. .. 36 .. .. .. .. .. 31 .. .. .. .. 
.. .. .. .. 31 .. .. .. .. .. .. .. .. .. 24 .. .. .. .. .. 31 .. .. .. .. .. .. .. .. 31 
.. .. .. .. .. .. .. .. 36 .. .. .. .. .. .. 32 .. .. .. .. .. .. .. .. 32 .. .. .. .. .. 
.. .. .. 29 .. .. .. .. .. 32 .. .. .. .. .. .. .. .. .. 32 .. .. .. .. .. .. .. .. 36 .. 
.. .. .. .. 32 .. .. .. .. .. .. .. .. 32 .. .. .. .. .. .. .. .. .. 27 .. .. .. .. .. 29 
.. .. .. .. .. .. .. .. 29 .. .. .. .. .. .. .. .. 36 .. .. .. .. .. .. 31 .. .. .. .. .. 
.. .. .. 31 .. .. .. .. .. .. .. .. 24 .. .. .. .. .. 31 .. .. .. .. .. .. .. .. .. 31 .. 
.. .. .. .. .. .. .. 36 .. .. .. .. .. 31 .. .. .. .. .. .. .. .. 31 .. .. .. .. .. .. .. 
.. .. 24 .. .. .. .. .. 31 .. .. .. .. .. .. .. .. 31 .. .. .. .. .. .. .. .. 36 .. .. .. 
.. .. 34 .. .. .. .. .. .. .. .. .. 34 .. .. .. .. .. .. .. .. 29 .. .. .. .. .. 34 .. .. 
.. .. .. .. .. .. 34 .. .. .. .. .. .. .. .. .. 38 .. .. .. .. .. 34 .. .. .. .. .. .. .. 
.. 34 .. .. .. .. .. .. .. .. 29 .. .. .. .. .. .. 34 .. .. .. .. .. .. .. .. 38 .. .. .. 
.. .. .. .. .. 34 .. .. .. .. .. 31 .. .. .. .. .. .. .. .. .. .. .. .. .. .. .. .. .. .. 
31 .. .. .. .. .. 36 .. .. .. .. .. .. .. .. .. .. .. 31 .. .. .. .. .. .. .. .. .. .. .. 
.. 48 .. .. .. .. .. .. .. .. 51 .. .. 24 .. .. .. .. .. .. .. .. .. .. .. .. 27 .. .. .. 
.. .. .. .. .. .. .. .. 31 .. .. .. .. .. .. .. .. .. .. .. 29 .. .. .. .. .. .. .. .. .. 
.. .. .. .. .. .. .. .. .. 29 .. .. .. .. .. 34 .. .. .. .. .. .. .. .. .. .. .. 29 .. .. 
.. .. .. .. .. .. .. .. .. .. 58 .. .. .. .. .. .. .. .. 53 .. .. 22 .. .. .. .. .. 24 .. 
.. .. .. .. .. 26 .. .. .. .. .. .. .. .. .. .. .. 22 .. .. .. .. .. .. .. .. .. .. .. 27 
.. .. .. .. .. .. .. .. .. .. .. .. 67 .. .. .. .. .. 27 .. .. .. .. .. 22 .. .. .. .. .. 
.. .. .. .. .. .. 27 .. .. .. .. .. .. .. .. .. .. .. .. 22 .. .. .. .. .. .. .. .. .. .. 
.. 27 .. .. .. .. .. 27 .. .. .. .. .. 22 .. .. .. .. .. .. .. .. .. .. .. .. 27 .. .. .. 
.. .. .. .. .. .. .. .. 27 .. .. .. .. .. .. .. .. .. .. .. .. .. .. .. .. .. .. 27 .. .. 
.. .. .. 22 .. .. .. .. .. .. .. .. .. .. .. 27 .. .. .. .. .. .. .. .. .. .. .. .. 51 .. 
.. .. .. .. .. .. .. .. .. .. 22 .. .. .. .. .. 27 .. .. .. .. .. 22 .. .. .. .. .. .. .. 
.. .. .. .. .. 27 .. .. .. .. .. .. .. .. .. .. .. .. .. .. .. .. .. .. .. .. .. .. .. .. 
.. .. .. .. .. .. .. .. .. .. .. .. .. .. .. .. .. .. .. .. .. .. .. .. .. .. .. .. .. .. 
.. .. .. .. .. .. .. .. .. .. .. .. .. .. .. .. .. .. .. .. .. .. .. .. .. .. .. .. .. .. 
.. .. .. .. .. .. .. .. .. .. .. .. .. .. .. .. .. .. .. .. .. .. .. .. .. .. .. .. .. .. 
.. .. .. .. .. .. .. .. .. .. .. .. .. .. .. .. .. .. .. .. .. .. 
! Song 2
50 .. .. .. .. .. 22 .. .. .. .. .. .. .. .. .. .. .. 34 .. .. .. .. .. .. .. .. .. .. .. 
22 .. .. .. .. .. .. .. .. .. .. .. 34 .. .. .. .. .. .. .. .. .. .. .. 22 .. .. .. .. .. 
.. .. .. .. .. .. 34 .. .. .. .. .. .. .. .. .. .. .. 22 .. .. .. .. .. .. .. .. .. .. .. 
.. 34 .. .. .. .. .. .. .. .. .. .. .. 24 .. .. .. .. .. .. .. .. .. .. .. 36 .. .. .. .. 
.. .. .. .. .. .. .. 24 .. .. .. .. .. .. .. .. .. .. .. 36 .. .. .. .. .. .. .. .. .. .. 
.. 26 .. .. .. .. .. .. .. .. .. .. .. 38 .. .. .. .. .. .. .. .. .. .. .. .. 26 .. .. .. 
.. .. .. .. .. .. .. .. 38 .. .. .. .. .. .. .. .. .. .. .. 27 .. .. .. .. .. .. .. .. .. 
.. .. .. 39 .. .. .. .. .. .. .. .. .. .. .. .. 27 .. .. .. .. .. .. .. .. .. .. .. 39 .. 
.. .. .. .. .. .. .. .. .. .. .. 27 .. .. .. .. .. .. .. .. .. .. .. .. 39 .. .. .. .. .. 
.. .. .. .. .. .. .. 27 .. .. .. .. .. .. .. .. .. .. .. .. 39 .. .. .. .. .. .. .. .. .. 
.. .. .. 27 .. .. .. .. .. .. .. .. .. .. .. 39 .. .. .. .. .. .. .. .. .. .. .. .. 27 .. 
.. .. .. .. .. .. .. .. .. .. .. 39 .. .. .. .. .. .. .. .. .. .. .. .. 27 .. .. .. .. .. 
.. .. .. .. .. .. .. 39 .. .. .. .. .. .. .. .. .. .. .. .. 27 .. .. .. .. .. .. .. .. .. 
.. .. 39 .. .. .. .. .. .. .. .. .. .. .. .. .. .. .. .. .. .. .. .. .. .. .. .. .. .. .. 
.. .. .. .. .. .. .. .. .. .. .. .. .. .. .. .. .. .. .. .. .. .. .. .. .. .. .. .. .. .. 
.. .. .. .. .. .. .. .. .. .. .. .. .. .. .. .. .. .. .. .. .. .. .. .. .. .. .. .. .. .. 
.. .. .. .. .. .. .. .. .. .. .. .. .. .. .. .. .. .. .. .. .. .. .. .. .. .. .. .. .. .. 
.. .. .. .. .. .. .. .. .. .. .. .. .. .. .. .. .. .. 
! Song 3
50 .. .. .. .. 45 .. .. .. .. .. .. .. .. .. .. 45 .. .. .. .. 45 .. .. .. .. 45 .. .. .. 
.. .. .. .. .. .. .. 42 .. .. .. .. .. .. .. .. .. 46 .. .. .. .. .. .. .. .. .. .. 42 .. 
.. .. .. .. .. .. .. .. 48 .. .. .. .. .. .. .. .. .. .. 43 .. .. .. .. .. .. .. .. .. .. 
.. .. .. .. .. .. .. .. .. .. .. .. .. .. .. .. .. .. .. .. .. .. .. .. .. .. .. .. .. .. 
.. .. .. .. .. .. .. .. .. .. .. .. .. .. .. .. .. .. .. .. .. .. .. .. .. .. .. .. .. .. 
.. .. .. .. .. .. .. .. .. .. .. .. .. .. .. .. .. .. .. .. .. .. .. .. .. .. .. .. .. .. 
.. .. .. .. .. .. .. .. .. .. .. .. .. .. .. .. .. .. .. .. .. .. .. .. .. .. .. .. .. .. 
! Song 4
50 .. .. .. .. .. 29 .. .. .. .. .. .. .. .. .. .. .. .. .. .. .. 34 .. .. .. .. .. .. .. 
.. .. .. .. .. .. .. .. 34 .. .. .. .. .. .. .. .. .. .. .. .. .. .. .. 34 .. .. .. .. .. 
.. .. .. .. .. .. .. .. .. .. 34 .. .. .. .. .. .. .. .. .. .. .. .. .. .. 34 .. .. .. .. 
.. .. .. .. .. .. .. .. .. .. .. 29 .. .. .. .. .. .. .. .. .. .. .. .. .. .. .. 34 .. .. 
.. .. .. .. .. .. .. .. .. .. .. .. .. 34 .. .. .. .. .. .. .. .. .. .. .. .. .. .. .. 34 
.. .. .. .. .. .. .. .. .. .. .. .. .. .. .. 34 .. .. .. .. .. .. .. .. .. .. .. .. .. .. 
.. 34 .. .. .. .. .. .. .. .. .. .. .. .. .. .. .. 31 .. .. .. .. .. .. .. .. .. .. .. .. 
.. .. 39 .. .. .. .. .. .. .. .. .. .. .. .. .. .. .. 39 .. .. .. .. .. .. .. .. .. .. .. 
.. .. .. .. 39 .. .. .. .. .. .. .. .. .. .. .. .. .. .. .. 39 .. .. .. .. .. .. .. .. .. 
.. .. .. .. .. .. 34 .. .. .. .. .. .. .. .. .. .. .. .. .. .. .. 33 .. .. .. .. .. .. .. 
.. .. .. .. .. .. .. .. 41 .. .. .. .. .. .. .. .. .. .. .. .. .. .. 41 .. .. .. .. .. .. 
.. .. .. .. .. .. .. .. .. 41 .. .. .. .. .. .. .. .. .. .. .. .. .. .. .. 41 .. .. .. .. 
.. .. .. .. .. .. .. .. .. .. .. .. .. .. .. .. .. .. .. .. .. .. .. .. .. .. .. 31 .. .. 
.. .. .. .. .. .. .. .. .. .. .. .. .. 36 .. .. .. .. .. .. .. .. .. .. .. .. .. .. .. 36 
.. .. .. .. .. .. .. .. .. .. .. .. .. .. 36 .. .. .. .. .. .. .. .. .. .. .. .. .. .. .. 
36 .. .. .. .. .. .. .. .. .. .. .. .. .. .. .. 36 .. .. .. .. .. .. .. .. .. .. .. .. .. 
.. .. 29 .. .. .. .. .. .. .. .. .. .. .. .. .. .. .. 34 .. .. .. .. .. .. .. .. .. .. .. 
.. .. .. .. 34 .. .. .. .. .. .. .. .. .. .. .. .. .. .. .. 34 .. .. .. .. .. .. .. .. .. 
.. .. .. .. .. .. 34 .. .. .. .. .. .. .. .. .. .. .. .. .. .. 34 .. .. .. .. .. .. .. .. 
.. .. .. .. .. .. .. 29 .. .. .. .. .. .. .. .. .. .. .. .. .. .. .. 34 .. .. .. .. .. .. 
.. .. .. .. .. .. .. .. .. 34 .. .. .. .. .. .. .. .. .. .. .. .. .. .. .. 34 .. .. .. .. 
.. .. .. .. .. .. .. .. .. .. .. 34 .. .. .. .. .. .. .. .. .. .. .. .. .. .. .. 31 .. .. 
.. .. .. .. .. .. .. .. .. .. .. .. 29 .. .. .. .. .. .. .. .. .. .. .. .. .. .. .. 36 .. 
.. .. .. .. .. .. .. .. .. .. .. .. .. .. 36 .. .. .. .. .. .. .. .. .. .. .. .. .. .. .. 
36 .. .. .. .. .. .. .. .. .. .. .. .. .. .. .. 36 .. .. .. .. .. .. .. .. .. .. .. .. .. 
.. .. .. .. .. .. .. .. .. .. .. .. .. .. .. .. .. .. 29 .. .. .. .. .. .. .. .. .. .. .. 
.. .. .. .. 34 .. .. .. .. .. .. .. .. .. .. .. .. .. .. 34 .. .. .. .. .. .. .. .. .. .. 
.. .. .. .. .. 34 .. .. .. .. .. .. .. .. .. .. .. .. .. .. .. 34 .. .. .. .. .. .. .. .. 
.. .. .. .. .. .. .. 34 .. .. .. .. .. .. .. .. .. .. .. .. .. .. .. 29 .. .. .. .. .. .. 
.. .. .. .. .. .. .. .. .. 34 .. .. .. .. .. .. .. .. .. .. .. .. .. .. .. 34 .. .. .. .. 
.. .. .. .. .. .. .. .. .. .. 34 .. .. .. .. .. .. .. .. .. .. .. .. .. .. .. 34 .. .. .. 
.. .. .. .. .. .. .. .. .. .. .. .. 34 .. .. .. .. .. .. .. .. .. .. .. .. .. .. .. 31 .. 
.. .. .. .. .. .. .. .. .. .. .. .. .. .. 39 .. .. .. .. .. .. .. .. .. .. .. .. .. .. .. 
39 .. .. .. .. .. .. .. .. .. .. .. .. .. .. .. 39 .. .. .. .. .. .. .. .. .. .. .. .. .. 
.. .. 39 .. .. .. .. .. .. .. .. .. .. .. .. .. .. 34 .. .. .. .. .. .. .. .. .. .. .. .. 
.. .. .. 33 .. .. .. .. .. .. .. .. .. .. .. .. .. .. .. 41 .. .. .. .. .. .. .. .. .. .. 
.. .. .. .. .. 41 .. .. .. .. .. .. .. .. .. .. .. .. .. .. .. 41 .. .. .. .. .. .. .. .. 
.. .. .. .. .. .. .. 41 .. .. .. .. .. .. .. .. .. .. .. .. .. .. .. .. .. .. .. .. .. .. 
.. .. .. .. .. .. .. .. 31 .. .. .. .. .. .. .. .. .. .. .. .. .. .. .. 36 .. .. .. .. .. 
.. .. .. .. .. .. .. .. .. .. 36 .. .. .. .. .. .. .. .. .. .. .. .. .. .. .. 36 .. .. .. 
.. .. .. .. .. .. .. .. .. .. .. .. 36 .. .. .. .. .. .. .. .. .. .. .. .. .. .. .. 36 .. 
.. .. .. .. .. .. .. .. .. .. .. .. .. .. 29 .. .. .. .. .. .. .. .. .. .. .. .. .. .. 34 
.. .. .. .. .. .. .. .. .. .. .. .. .. .. .. 34 .. .. .. .. .. .. .. .. .. .. .. .. .. .. 
.. 34 .. .. .. .. .. .. .. .. .. .. .. .. .. .. .. 34 .. .. .. .. .. .. .. .. .. .. .. .. 
.. .. .. 34 .. .. .. .. .. .. .. .. .. .. .. .. .. .. .. 29 .. .. .. .. .. .. .. .. .. .. 
.. .. .. .. .. 34 .. .. .. .. .. .. .. .. .. .. .. .. .. .. .. 34 .. .. .. .. .. .. .. .. 
.. .. .. .. .. .. 34 .. .. .. .. .. .. .. .. .. .. .. .. .. .. .. 34 .. .. .. .. .. .. .. 
.. .. .. .. .. .. .. .. 31 .. .. .. .. .. .. .. .. .. .. .. .. .. .. .. 29 .. .. .. .. .. 
.. .. .. .. .. .. .. .. .. .. 36 .. .. .. .. .. .. .. .. .. .. .. .. .. .. .. 36 .. .. .. 
.. .. .. .. .. .. .. .. .. .. .. .. 36 .. .. .. .. .. .. .. .. .. .. .. .. .. .. 36 .. .. 
.. .. .. .. .. .. .. .. .. .. .. .. .. .. .. .. .. .. .. .. .. .. .. .. .. .. .. .. .. 29 
.. .. .. .. .. .. .. .. .. .. .. .. .. .. .. 34 .. .. .. .. .. .. .. .. .. .. .. .. .. .. 
.. 34 .. .. .. .. .. .. .. .. .. .. .. .. .. .. .. 34 .. .. .. .. .. .. .. .. .. .. .. .. 
.. .. .. 34 .. .. .. .. .. .. .. .. .. .. .. .. .. .. .. 34 .. .. .. .. .. .. .. .. .. .. 
.. .. .. .. 29 .. .. .. .. .. .. .. .. .. .. .. .. .. .. .. 34 .. .. .. .. .. .. .. .. .. 
.. .. .. .. .. .. 34 .. .. .. .. .. .. .. .. .. .. .. .. .. .. .. 34 .. .. .. .. .. .. .. 
.. .. .. .. .. .. .. .. 34 .. .. .. .. .. .. .. .. .. .. .. .. .. .. .. 34 .. .. .. .. .. 
.. .. .. .. .. .. .. .. .. .. 31 .. .. .. .. .. .. .. .. .. .. .. .. .. .. 39 .. .. .. .. 
.. .. .. .. .. .. .. .. .. .. .. 39 .. .. .. .. .. .. .. .. .. .. .. .. .. .. .. 39 .. .. 
.. .. .. .. .. .. .. .. .. .. .. .. .. 39 .. .. .. .. .. .. .. .. .. .. .. .. .. .. .. 34 
.. .. .. .. .. .. .. .. .. .. .. .. .. .. .. 33 .. .. .. .. .. .. .. .. .. .. .. .. .. .. 
.. 41 .. .. .. .. .. .. .. .. .. .. .. .. .. .. 41 .. .. .. .. .. .. .. .. .. .. .. .. .. 
.. .. 41 .. .. .. .. .. .. .. .. .. .. .. .. .. .. .. 41 .. .. .. .. .. .. .. .. .. .. .. 
.. .. .. .. .. .. .. .. .. .. .. .. .. .. .. .. .. .. .. .. 31 .. .. .. .. .. .. .. .. .. 
.. .. .. .. .. .. 36 .. .. .. .. .. .. .. .. .. .. .. .. .. .. .. 36 .. .. .. .. .. .. .. 
.. .. .. .. .. .. .. .. 36 .. .. .. .. .. .. .. .. .. .. .. .. .. .. 36 .. .. .. .. .. .. 
.. .. .. .. .. .. .. .. .. 36 .. .. .. .. .. .. .. .. .. .. .. .. .. .. .. 29 .. .. .. .. 
.. .. .. .. .. .. .. .. .. .. .. 34 .. .. .. .. .. .. .. .. .. .. .. .. .. .. .. 34 .. .. 
.. .. .. .. .. .. .. .. .. .. .. .. .. 34 .. .. .. .. .. .. .. .. .. .. .. .. .. .. .. 34 
.. .. .. .. .. .. .. .. .. .. .. .. .. .. 34 .. .. .. .. .. .. .. .. .. .. .. .. .. .. .. 
29 .. .. .. .. .. .. .. .. .. .. .. .. .. .. .. 34 .. .. .. .. .. .. .. .. .. .. .. .. .. 
.. .. 34 .. .. .. .. .. .. .. .. .. .. .. .. .. .. .. 34 .. .. .. .. .. .. .. .. .. .. .. 
.. .. .. .. 34 .. .. .. .. .. .. .. .. .. .. .. .. .. .. .. 31 .. .. .. .. .. .. .. .. .. 
.. .. .. .. .. .. 29 .. .. .. .. .. .. .. .. .. .. .. .. .. .. 36 .. .. .. .. .. .. .. .. 
.. .. .. .. .. .. .. 36 .. .. .. .. .. .. .. .. .. .. .. .. .. .. .. 36 .. .. .. .. .. .. 
.. .. .. .. .. .. .. .. .. 36 .. .. .. .. .. .. .. .. .. .. .. .. .. .. .. .. .. .. .. .. 
.. .. .. .. .. .. .. .. .. .. .. 29 .. .. .. .. .. .. .. .. .. .. .. .. .. .. .. 34 .. .. 
.. .. .. .. .. .. .. .. .. .. .. .. 34 .. .. .. .. .. .. .. .. .. .. .. .. .. .. .. 34 .. 
.. .. .. .. .. .. .. .. .. .. .. .. .. .. 34 .. .. .. .. .. .. .. .. .. .. .. .. .. .. .. 
34 .. .. .. .. .. .. .. .. .. .. .. .. .. .. .. 29 .. .. .. .. .. .. .. .. .. .. .. .. .. 
.. .. 34 .. .. .. .. .. .. .. .. .. .. .. .. .. .. .. 34 .. .. .. .. .. .. .. .. .. .. .. 
.. .. .. 34 .. .. .. .. .. .. .. .. .. .. .. .. .. .. .. 34 .. .. .. .. .. .. .. .. .. .. 
.. .. .. .. .. 34 .. .. .. .. .. .. .. .. .. .. .. .. .. .. .. 31 .. .. .. .. .. .. .. .. 
.. .. .. .. .. .. .. 39 .. .. .. .. .. .. .. .. .. .. .. .. .. .. .. 39 .. .. .. .. .. .. 
.. .. .. .. .. .. .. .. .. 39 .. .. .. .. .. .. .. .. .. .. .. .. .. .. .. 39 .. .. .. .. 
.. .. .. .. .. .. .. .. .. .. 34 .. .. .. .. .. .. .. .. .. .. .. .. .. .. .. 33 .. .. .. 
.. .. .. .. .. .. .. .. .. .. .. .. 41 .. .. .. .. .. .. .. .. .. .. .. .. .. .. .. 41 .. 
.. .. .. .. .. .. .. .. .. .. .. .. .. .. 41 .. .. .. .. .. .. .. .. .. .. .. .. .. .. .. 
41 .. .. .. .. .. .. .. .. .. .. .. .. .. .. .. .. .. .. .. .. .. .. .. .. .. .. .. .. .. 
.. 31 .. .. .. .. .. .. .. .. .. .. .. .. .. .. .. 36 .. .. .. .. .. .. .. .. .. .. .. .. 
.. .. .. 36 .. .. .. .. .. .. .. .. .. .. .. .. .. .. .. 36 .. .. .. .. .. .. .. .. .. .. 
.. .. .. .. .. 36 .. .. .. .. .. .. .. .. .. .. .. .. .. .. .. 36 .. .. .. .. .. .. .. .. 
.. .. .. .. .. .. .. 29 .. .. .. .. .. .. .. .. .. .. .. .. .. .. .. 34 .. .. .. .. .. .. 
.. .. .. .. .. .. .. .. 34 .. .. .. .. .. .. .. .. .. .. .. .. .. .. .. 34 .. .. .. .. .. 
.. .. .. .. .. .. .. .. .. .. 34 .. .. .. .. .. .. .. .. .. .. .. .. .. .. .. 34 .. .. .. 
.. .. .. .. .. .. .. .. .. .. .. .. 29 .. .. .. .. .. .. .. .. .. .. .. .. .. .. .. 34 .. 
.. .. .. .. .. .. .. .. .. .. .. .. .. .. 34 .. .. .. .. .. .. .. .. .. .. .. .. .. .. 34 
.. .. .. .. .. .. .. .. .. .. .. .. .. .. .. 34 .. .. .. .. .. .. .. .. .. .. .. .. .. .. 
.. 31 .. .. .. .. .. .. .. .. .. .. .. .. .. .. .. 29 .. .. .. .. .. .. .. .. .. .. .. .. 
.. .. .. 36 .. .. .. .. .. .. .. .. .. .. .. .. .. .. .. 36 .. .. .. .. .. .. .. .. .. .. 
.. .. .. .. .. 36 .. .. .. .. .. .. .. .. .. .. .. .. .. .. .. 36 .. .. .. .. .. .. .. .. 
.. .. .. .. .. .. .. .. .. .. .. .. .. .. .. .. .. .. .. .. .. .. 29 .. .. .. .. .. .. .. 
.. .. .. .. .. .. .. .. 34 .. .. .. .. .. .. .. .. .. .. .. .. .. .. .. 34 .. .. .. .. .. 
.. .. .. .. .. .. .. .. .. .. 34 .. .. .. .. .. .. .. .. .. .. .. .. .. .. .. 34 .. .. .. 
.. .. .. .. .. .. .. .. .. .. .. .. 34 .. .. .. .. .. .. .. .. .. .. .. .. .. .. 29 .. .. 
.. .. .. .. .. .. .. .. .. .. .. .. .. 34 .. .. .. .. .. .. .. .. .. .. .. .. .. .. .. 34 
.. .. .. .. .. .. .. .. .. .. .. .. .. .. .. 34 .. .. .. .. .. .. .. .. .. .. .. .. .. .. 
.. 34 .. .. .. .. .. .. .. .. .. .. .. .. .. .. .. 34 .. .. .. .. .. .. .. .. .. .. .. .. 
.. .. .. 31 .. .. .. .. .. .. .. .. .. .. .. .. .. .. 39 .. .. .. .. .. .. .. .. .. .. .. 
.. .. .. .. 39 .. .. .. .. .. .. .. .. .. .. .. .. .. .. .. 39 .. .. .. .. .. .. .. .. .. 
.. .. .. .. .. .. 39 .. .. .. .. .. .. .. .. .. .. .. .. .. .. .. 34 .. .. .. .. .. .. .. 
.. .. .. .. .. .. .. .. 33 .. .. .. .. .. .. .. .. .. .. .. .. .. .. .. 41 .. .. .. .. .. 
.. .. .. .. .. .. .. .. .. .. 41 .. .. .. .. .. .. .. .. .. .. .. .. .. .. 41 .. .. .. .. 
.. .. .. .. .. .. .. .. .. .. .. 41 .. .. .. .. .. .. .. .. .. .. .. .. .. .. .. .. .. .. 
.. .. .. .. .. .. .. .. .. .. .. .. .. 31 .. .. .. .. .. .. .. .. .. .. .. .. .. .. .. 36 
.. .. .. .. .. .. .. .. .. .. .. .. .. .. .. 36 .. .. .. .. .. .. .. .. .. .. .. .. .. .. 
.. 36 .. .. .. .. .. .. .. .. .. .. .. .. .. .. 36 .. .. .. .. .. .. .. .. .. .. .. .. .. 
.. .. 36 .. .. .. .. .. .. .. .. .. .. .. .. .. .. .. 29 .. .. .. .. .. .. .. .. .. .. .. 
.. .. .. .. 34 .. .. .. .. .. .. .. .. .. .. .. .. .. .. .. 34 .. .. .. .. .. .. .. .. .. 
.. .. .. .. .. .. 34 .. .. .. .. .. .. .. .. .. .. .. .. .. .. .. 34 .. .. .. .. .. .. .. 
.. .. .. .. .. .. .. .. 34 .. .. .. .. .. .. .. .. .. .. .. .. .. .. 29 .. .. .. .. .. .. 
.. .. .. .. .. .. .. .. .. 34 .. .. .. .. .. .. .. .. .. .. .. .. .. .. .. 34 .. .. .. .. 
.. .. .. .. .. .. .. .. .. .. .. 34 .. .. .. .. .. .. .. .. .. .. .. .. .. .. .. 34 .. .. 
.. .. .. .. .. .. .. .. .. .. .. .. .. 31 .. .. .. .. .. .. .. .. .. .. .. .. .. .. .. 29 
.. .. .. .. .. .. .. .. .. .. .. .. .. .. 36 .. .. .. .. .. .. .. .. .. .. .. .. .. .. .. 
36 .. .. .. .. .. .. .. .. .. .. .. .. .. .. .. 36 .. .. .. .. .. .. .. .. .. .. .. .. .. 
.. .. 36 .. .. .. .. .. .. .. .. .. .. .. .. .. .. .. .. .. .. .. .. .. .. .. .. .. .. .. 
.. .. .. .. 29 .. .. .. .. .. .. .. .. .. .. .. .. .. .. .. 34 .. .. .. .. .. .. .. .. .. 
.. .. .. .. .. 34 .. .. .. .. .. .. .. .. .. .. .. .. .. .. .. 34 .. .. .. .. .. .. .. .. 
.. .. .. .. .. .. .. 34 .. .. .. .. .. .. .. .. .. .. .. .. .. .. .. 34 .. .. .. .. .. .. 
.. .. .. .. .. .. .. .. .. 29 .. .. .. .. .. .. .. .. .. .. .. .. .. .. .. 34 .. .. .. .. 
.. .. .. .. .. .. .. .. .. .. .. 34 .. .. .. .. .. .. .. .. .. .. .. .. .. .. .. 34 .. .. 
.. .. .. .. .. .. .. .. .. .. .. .. 34 .. .. .. .. .. .. .. .. .. .. .. .. .. .. .. 34 .. 
.. .. .. .. .. .. .. .. .. .. .. .. .. .. 31 .. .. .. .. .. .. .. .. .. .. .. .. .. .. .. 
39 .. .. .. .. .. .. .. .. .. .. .. .. .. .. .. 39 .. .. .. .. .. .. .. .. .. .. .. .. .. 
.. .. 39 .. .. .. .. .. .. .. .. .. .. .. .. .. .. .. 39 .. .. .. .. .. .. .. .. .. .. .. 
.. .. .. 34 .. .. .. .. .. .. .. .. .. .. .. .. .. .. .. 33 .. .. .. .. .. .. .. .. .. .. 
.. .. .. .. .. 41 .. .. .. .. .. .. .. .. .. .. .. .. .. .. .. 41 .. .. .. .. .. .. .. .. 
.. .. .. .. .. .. .. 41 .. .. .. .. .. .. .. .. .. .. .. .. .. .. .. 41 .. .. .. .. .. .. 
.. .. .. .. .. .. .. .. .. .. .. .. .. .. .. .. .. .. .. .. .. .. .. .. .. 31 .. .. .. .. 
.. .. .. .. .. .. .. .. .. .. 36 .. .. .. .. .. .. .. .. .. .. .. .. .. .. .. 36 .. .. .. 
.. .. .. .. .. .. .. .. .. .. .. .. 36 .. .. .. .. .. .. .. .. .. .. .. .. .. .. .. 36 .. 
.. .. .. .. .. .. .. .. .. .. .. .. .. .. 36 .. .. .. .. .. .. .. .. .. .. .. .. .. .. .. 
29 .. .. .. .. .. .. .. .. .. .. .. .. .. .. .. 34 .. .. .. .. .. .. .. .. .. .. .. .. .. 
.. 34 .. .. .. .. .. .. .. .. .. .. .. .. .. .. .. 34 .. .. .. .. .. .. .. .. .. .. .. .. 
.. .. .. 34 .. .. .. .. .. .. .. .. .. .. .. .. .. .. .. 34 .. .. .. .. .. .. .. .. .. .. 
.. .. .. .. .. 29 .. .. .. .. .. .. .. .. .. .. .. .. .. .. .. 34 .. .. .. .. .. .. .. .. 
.. .. .. .. .. .. .. 34 .. .. .. .. .. .. .. .. .. .. .. .. .. .. .. 34 .. .. .. .. .. .. 
.. .. .. .. .. .. .. .. 34 .. .. .. .. .. .. .. .. .. .. .. .. .. .. .. 31 .. .. .. .. .. 
.. .. .. .. .. .. .. .. .. .. 29 .. .. .. .. .. .. .. .. .. .. .. .. .. .. .. 36 .. .. .. 
.. .. .. .. .. .. .. .. .. .. .. .. 36 .. .. .. .. .. .. .. .. .. .. .. .. .. .. .. 36 .. 
.. .. .. .. .. .. .. .. .. .. .. .. .. .. 36 .. .. .. .. .. .. .. .. .. .. .. .. .. .. .. 
.. .. .. .. .. .. .. .. .. .. .. .. .. .. .. 29 .. .. .. .. .. .. .. .. .. .. .. .. .. .. 
.. 34 .. .. .. .. .. .. .. .. .. .. .. .. .. .. .. 34 .. .. .. .. .. .. .. .. .. .. .. .. 
.. .. .. 34 .. .. .. .. .. .. .. .. .. .. .. .. .. .. .. 34 .. .. .. .. .. .. .. .. .. .. 
.. .. .. .. .. 34 .. .. .. .. .. .. .. .. .. .. .. .. .. .. 29 .. .. .. .. .. .. .. .. .. 
.. .. .. .. .. .. 34 .. .. .. .. .. .. .. .. .. .. .. .. .. .. .. 34 .. .. .. .. .. .. .. 
.. .. .. .. .. .. .. .. 34 .. .. .. .. .. .. .. .. .. .. .. .. .. .. .. 34 .. .. .. .. .. 
.. .. .. .. .. .. .. .. .. .. 34 .. .. .. .. .. .. .. .. .. .. .. .. .. .. .. 31 .. .. .. 
.. .. .. .. .. .. .. .. .. .. .. .. 39 .. .. .. .. .. .. .. .. .. .. .. .. .. .. 39 .. .. 
.. .. .. .. .. .. .. .. .. .. .. .. .. 39 .. .. .. .. .. .. .. .. .. .. .. .. .. .. .. 39 
.. .. .. .. .. .. .. .. .. .. .. .. .. .. .. 34 .. .. .. .. .. .. .. .. .. .. .. .. .. .. 
.. 33 .. .. .. .. .. .. .. .. .. .. .. .. .. .. .. 41 .. .. .. .. .. .. .. .. .. .. .. .. 
.. .. .. 41 .. .. .. .. .. .. .. .. .. .. .. .. .. .. 41 .. .. .. .. .. .. .. .. .. .. .. 
.. .. .. .. 41 .. .. .. .. .. .. .. .. .. .. .. .. .. .. .. .. .. .. .. .. .. .. .. .. .. 
.. .. .. .. .. .. 31 .. .. .. .. .. .. .. .. .. .. .. .. .. .. .. 36 .. .. .. .. .. .. .. 
.. .. .. .. .. .. .. .. 36 .. .. .. .. .. .. .. .. .. .. .. .. .. .. .. 36 .. .. .. .. .. 
.. .. .. .. .. .. .. .. .. .. 36 .. .. .. .. .. .. .. .. .. .. .. .. .. .. 36 .. .. .. .. 
.. .. .. .. .. .. .. .. .. .. .. 29 .. .. .. .. .. .. .. .. .. .. .. .. .. .. .. 34 .. .. 
.. .. .. .. .. .. .. .. .. .. .. .. .. 34 .. .. .. .. .. .. .. .. .. .. .. .. .. .. .. 34 
.. .. .. .. .. .. .. .. .. .. .. .. .. .. .. 34 .. .. .. .. .. .. .. .. .. .. .. .. .. .. 
.. 34 .. .. .. .. .. .. .. .. .. .. .. .. .. .. 29 .. .. .. .. .. .. .. .. .. .. .. .. .. 
.. .. 34 .. .. .. .. .. .. .. .. .. .. .. .. .. .. .. 34 .. .. .. .. .. .. .. .. .. .. .. 
.. .. .. .. 34 .. .. .. .. .. .. .. .. .. .. .. .. .. .. .. 34 .. .. .. .. .. .. .. .. .. 
.. .. .. .. .. .. 31 .. .. .. .. .. .. .. .. .. .. .. .. .. .. .. 29 .. .. .. .. .. .. .. 
.. .. .. .. .. .. .. 36 .. .. .. .. .. .. .. .. .. .. .. .. .. .. .. 36 .. .. .. .. .. .. 
.. .. .. .. .. .. .. .. .. 36 .. .. .. .. .. .. .. .. .. .. .. .. .. .. .. 36 .. .. .. .. 
.. .. .. .. .. .. .. .. .. .. .. .. .. .. .. .. .. .. .. .. .. .. .. .. .. .. .. 29 .. .. 
.. .. .. .. .. .. .. .. .. .. .. .. .. 34 .. .. .. .. .. .. .. .. .. .. .. .. .. .. .. 34 
.. .. .. .. .. .. .. .. .. .. .. .. .. .. 34 .. .. .. .. .. .. .. .. .. .. .. .. .. .. .. 
34 .. .. .. .. .. .. .. .. .. .. .. .. .. .. .. 34 .. .. .. .. .. .. .. .. .. .. .. .. .. 
.. .. 29 .. .. .. .. .. .. .. .. .. .. .. .. .. .. .. 34 .. .. .. .. .. .. .. .. .. .. .. 
.. .. .. .. 34 .. .. .. .. .. .. .. .. .. .. .. .. .. .. .. 34 .. .. .. .. .. .. .. .. .. 
.. .. .. .. .. 34 .. .. .. .. .. .. .. .. .. .. .. .. .. .. .. 34 .. .. .. .. .. .. .. .. 
.. .. .. .. .. .. .. 31 .. .. .. .. .. .. .. .. .. .. .. .. .. .. .. 39 .. .. .. .. .. .. 
.. .. .. .. .. .. .. .. .. 39 .. .. .. .. .. .. .. .. .. .. .. .. .. .. .. 39 .. .. .. .. 
.. .. .. .. .. .. .. .. .. .. .. 39 .. .. .. .. .. .. .. .. .. .. .. .. .. .. .. 34 .. .. 
.. .. .. .. .. .. .. .. .. .. .. .. 33 .. .. .. .. .. .. .. .. .. .. .. .. .. .. .. 41 .. 
.. .. .. .. .. .. .. .. .. .. .. .. .. .. 41 .. .. .. .. .. .. .. .. .. .. .. .. .. .. .. 
41 .. .. .. .. .. .. .. .. .. .. .. .. .. .. .. 41 .. .. .. .. .. .. .. .. .. .. .. .. .. 
.. .. .. .. .. .. .. .. .. .. .. .. .. .. .. .. .. .. 31 .. .. .. .. .. .. .. .. .. .. .. 
.. .. .. 36 .. .. .. .. .. .. .. .. .. .. .. .. .. .. .. 36 .. .. .. .. .. .. .. .. .. .. 
.. .. .. .. .. 36 .. .. .. .. .. .. .. .. .. .. .. .. .. .. .. 36 .. .. .. .. .. .. .. .. 
.. .. .. .. .. .. .. 36 .. .. .. .. .. .. .. .. .. .. .. .. .. .. .. 29 .. .. .. .. .. .. 
.. .. .. .. .. .. .. .. .. 34 .. .. .. .. .. .. .. .. .. .. .. .. .. .. 34 .. .. .. .. .. 
.. .. .. .. .. .. .. .. .. .. 34 .. .. .. .. .. .. .. .. .. .. .. .. .. .. .. 34 .. .. .. 
.. .. .. .. .. .. .. .. .. .. .. .. 34 .. .. .. .. .. .. .. .. .. .. .. .. .. .. .. 29 .. 
.. .. .. .. .. .. .. .. .. .. .. .. .. .. 34 .. .. .. .. .. .. .. .. .. .. .. .. .. .. .. 
34 .. .. .. .. .. .. .. .. .. .. .. .. .. .. .. 34 .. .. .. .. .. .. .. .. .. .. .. .. .. 
.. 34 .. .. .. .. .. .. .. .. .. .. .. .. .. .. .. 31 .. .. .. .. .. .. .. .. .. .. .. .. 
.. .. .. 29 .. .. .. .. .. .. .. .. .. .. .. .. .. .. .. 36 .. .. .. .. .. .. .. .. .. .. 
.. .. .. .. .. 36 .. .. .. .. .. .. .. .. .. .. .. .. .. .. .. 36 .. .. .. .. .. .. .. .. 
.. .. .. .. .. .. .. 36 .. .. .. .. .. .. .. .. .. .. .. .. .. .. .. .. .. .. .. .. .. .. 
.. .. .. .. .. .. .. .. 29 .. .. .. .. .. .. .. .. .. .. .. .. .. .. .. 34 .. .. .. .. .. 
.. .. .. .. .. .. .. .. .. .. 34 .. .. .. .. .. .. .. .. .. .. .. .. .. .. .. 34 .. .. .. 
.. .. .. .. .. .. .. .. .. .. .. .. 34 .. .. .. .. .. .. .. .. .. .. .. .. .. .. .. 34 .. 
.. .. .. .. .. .. .. .. .. .. .. .. .. .. 29 .. .. .. .. .. .. .. .. .. .. .. .. .. .. 34 
.. .. .. .. .. .. .. .. .. .. .. .. .. .. .. 34 .. .. .. .. .. .. .. .. .. .. .. .. .. .. 
.. 34 .. .. .. .. .. .. .. .. .. .. .. .. .. .. .. 34 .. .. .. .. .. .. .. .. .. .. .. .. 
.. .. .. 34 .. .. .. .. .. .. .. .. .. .. .. .. .. .. .. 31 .. .. .. .. .. .. .. .. .. .. 
.. .. .. .. .. 39 .. .. .. .. .. .. .. .. .. .. .. .. .. .. 39 .. .. .. .. .. .. .. .. .. 
.. .. .. .. .. .. 39 .. .. .. .. .. .. .. .. .. .. .. .. .. .. .. 39 .. .. .. .. .. .. .. 
.. .. .. .. .. .. .. .. 34 .. .. .. .. .. .. .. .. .. .. .. .. .. .. .. 33 .. .. .. .. .. 
.. .. .. .. .. .. .. .. .. .. 41 .. .. .. .. .. .. .. .. .. .. .. .. .. .. .. 41 .. .. .. 
.. .. .. .. .. .. .. .. .. .. .. .. 41 .. .. .. .. .. .. .. .. .. .. .. .. .. .. 41 .. .. 
.. .. .. .. .. .. .. .. .. .. .. .. .. .. .. .. .. .. .. .. .. .. .. .. .. .. .. .. .. 31 
.. .. .. .. .. .. .. .. .. .. .. .. .. .. .. 36 .. .. .. .. .. .. .. .. .. .. .. .. .. .. 
.. 36 .. .. .. .. .. .. .. .. .. .. .. .. .. .. .. 36 .. .. .. .. .. .. .. .. .. .. .. .. 
.. .. .. 36 .. .. .. .. .. .. .. .. .. .. .. .. .. .. 36 .. .. .. .. .. .. .. .. .. .. .. 
.. .. .. .. 29 .. .. .. .. .. .. .. .. .. .. .. .. .. .. .. 34 .. .. .. .. .. .. .. .. .. 
.. .. .. .. .. .. 34 .. .. .. .. .. .. .. .. .. .. .. .. .. .. .. 34 .. .. .. .. .. .. .. 
.. .. .. .. .. .. .. .. 34 .. .. .. .. .. .. .. .. .. .. .. .. .. .. .. 34 .. .. .. .. .. 
.. .. .. .. .. .. .. .. .. 29 .. .. .. .. .. .. .. .. .. .. .. .. .. .. .. 34 .. .. .. .. 
.. .. .. .. .. .. .. .. .. .. .. 34 .. .. .. .. .. .. .. .. .. .. .. .. .. .. .. 34 .. .. 
.. .. .. .. .. .. .. .. .. .. .. .. .. 34 .. .. .. .. .. .. .. .. .. .. .. .. .. .. .. 31 
.. .. .. .. .. .. .. .. .. .. .. .. .. .. .. 29 .. .. .. .. .. .. .. .. .. .. .. .. .. .. 
.. 36 .. .. .. .. .. .. .. .. .. .. .. .. .. .. 36 .. .. .. .. .. .. .. .. .. .. .. .. .. 
.. .. 36 .. .. .. .. .. .. .. .. .. .. .. .. .. .. .. 36 .. .. .. .. .. .. .. .. .. .. .. 
.. .. .. .. .. .. .. .. .. .. .. .. .. .. .. .. .. .. .. .. 29 .. .. .. .. .. .. .. .. .. 
.. .. .. .. .. .. 34 .. .. .. .. .. .. .. .. .. .. .. .. .. .. .. 34 .. .. .. .. .. .. .. 
.. .. .. .. .. .. .. 34 .. .. .. .. .. .. .. .. .. .. .. .. .. .. .. 34 .. .. .. .. .. .. 
.. .. .. .. .. .. .. .. .. 34 .. .. .. .. .. .. .. .. .. .. .. .. .. .. .. 29 .. .. .. .. 
.. .. .. .. .. .. .. .. .. .. .. 34 .. .. .. .. .. .. .. .. .. .. .. .. .. .. .. 34 .. .. 
.. .. .. .. .. .. .. .. .. .. .. .. .. 34 .. .. .. .. .. .. .. .. .. .. .. .. .. .. .. 34 
.. .. .. .. .. .. .. .. .. .. .. .. .. .. 34 .. .. .. .. .. .. .. .. .. .. .. .. .. .. .. 
31 .. .. .. .. .. .. .. .. .. .. .. .. .. .. .. 39 .. .. .. .. .. .. .. .. .. .. .. .. .. 
.. .. 39 .. .. .. .. .. .. .. .. .. .. .. .. .. .. .. 39 .. .. .. .. .. .. .. .. .. .. .. 
.. .. .. .. 39 .. .. .. .. .. .. .. .. .. .. .. .. .. .. .. 34 .. .. .. .. .. .. .. .. .. 
.. .. .. .. .. 33 .. .. .. .. .. .. .. .. .. .. .. .. .. .. .. 41 .. .. .. .. .. .. 
! Song 5
50 .. .. .. .. .. 22 .. .. .. .. .. .. .. .. .. 27 .. .. .. .. .. .. .. .. .. .. 22 .. .. 
.. .. .. .. .. .. .. .. 27 .. .. .. .. .. .. .. .. .. .. 22 .. .. .. .. .. .. .. .. .. .. 
27 .. .. .. .. .. .. .. .. .. .. 22 .. .. .. .. .. .. .. .. .. .. 27 .. .. .. .. .. .. .. 
.. .. .. 22 .. .. .. .. .. .. .. .. .. .. 26 .. .. .. .. .. .. .. .. .. .. 22 .. .. .. .. 
.. .. .. .. .. .. 26 .. .. .. .. .. .. .. .. .. .. 22 .. .. .. .. .. .. .. .. .. .. 26 .. 
.. .. .. .. .. .. .. .. .. 22 .. .. .. .. .. .. .. .. .. .. 26 .. .. .. .. .. .. .. .. .. 
.. 20 .. .. .. .. .. .. .. .. .. .. 27 .. .. .. .. .. .. .. .. .. .. 20 .. .. .. .. .. .. 
.. .. .. .. 27 .. .. .. .. .. .. .. .. .. .. 20 .. .. .. .. .. .. .. .. .. .. 27 .. .. .. 
.. .. .. .. .. .. .. 20 .. .. .. .. .. .. .. .. .. .. 27 .. .. .. .. .. .. .. .. .. .. 22 
.. .. .. .. .. .. .. .. .. .. 26 .. .. .. .. .. .. .. .. .. .. 22 .. .. .. .. .. .. .. .. 
.. .. 26 .. .. .. .. .. .. .. .. .. .. 22 .. .. .. .. .. .. .. .. .. .. 26 .. .. .. .. .. 
.. .. .. .. 22 .. .. .. .. .. .. .. .. .. .. 26 .. .. .. .. .. .. .. .. .. .. 22 .. .. .. 
.. .. .. .. .. .. .. 27 .. .. .. .. .. .. .. .. .. .. 22 .. .. .. .. .. .. .. .. .. .. 27 
.. .. .. .. .. .. .. .. .. .. 22 .. .. .. .. .. .. .. .. .. .. 27 .. .. .. .. .. .. .. .. 
.. .. 22 .. .. .. .. .. .. .. .. .. .. 27 .. .. .. .. .. .. .. .. .. .. 22 .. .. .. .. .. 
.. .. .. .. .. 26 .. .. .. .. .. .. .. .. .. .. 22 .. .. .. .. .. .. .. .. .. .. 26 .. .. 
.. .. .. .. .. .. .. .. 22 .. .. .. .. .. .. .. .. .. .. 26 .. .. .. .. .. .. .. .. .. .. 
22 .. .. .. .. .. .. .. .. .. .. 26 .. .. .. .. .. .. .. .. .. .. 20 .. .. .. .. .. .. .. 
.. .. .. 27 .. .. .. .. .. .. .. .. .. .. 20 .. .. .. .. .. .. .. .. .. .. 27 .. .. .. .. 
.. .. .. .. .. .. 20 .. .. .. .. .. .. .. .. .. .. 27 .. .. .. .. .. .. .. .. .. .. 20 .. 
.. .. .. .. .. .. .. .. .. 27 .. .. .. .. .. .. .. .. .. .. 22 .. .. .. .. .. .. .. .. .. 
.. 29 .. .. .. .. .. .. .. .. .. .. 22 .. .. .. .. .. .. .. .. .. 29 .. .. .. .. .. .. .. 
.. .. .. 22 .. .. .. .. .. .. .. .. .. .. 29 .. .. .. .. .. .. .. .. .. .. 22 .. .. .. .. 
.. .. .. .. .. .. 29 .. .. .. .. .. .. .. .. .. .. 27 .. .. .. .. .. .. .. .. .. .. 34 .. 
.. .. .. .. .. .. .. .. .. 34 .. .. .. .. .. .. .. .. .. .. 27 .. .. .. .. .. .. .. .. .. 
.. 27 .. .. .. .. .. .. .. .. .. .. 34 .. .. .. .. .. .. .. .. .. .. 27 .. .. .. .. .. .. 
.. .. .. .. 34 .. .. .. .. .. .. .. .. .. .. 25 .. .. .. .. .. .. .. .. .. .. 32 .. .. .. 
.. .. .. .. .. .. .. 32 .. .. .. .. .. .. .. .. .. .. 25 .. .. .. .. .. .. .. .. .. .. 25 
.. .. .. .. .. .. .. .. .. .. 32 .. .. .. .. .. .. .. .. .. .. 25 .. .. .. .. .. .. .. .. 
.. .. 32 .. .. .. .. .. .. .. .. .. .. 23 .. .. .. .. .. .. .. .. .. .. 30 .. .. .. .. .. 
.. .. .. .. .. 30 .. .. .. .. .. .. .. .. .. .. 23 .. .. .. .. .. .. .. .. .. .. 23 .. .. 
.. .. .. .. .. .. .. .. 30 .. .. .. .. .. .. .. .. .. .. 23 .. .. .. .. .. .. .. .. .. .. 
30 .. .. .. .. .. .. .. .. .. 22 .. .. .. .. .. .. .. .. .. .. 29 .. .. .. .. .. .. .. .. 
.. .. 29 .. .. .. .. .. .. .. .. .. .. 22 .. .. .. .. .. .. .. .. .. .. 29 .. .. .. .. .. 
.. .. .. .. .. 34 .. .. .. .. .. .. .. .. .. .. 22 .. .. .. .. .. .. .. .. .. .. 34 .. .. 
.. .. .. .. .. .. .. .. 27 .. .. .. .. .. .. .. .. .. .. 34 .. .. .. .. .. .. .. .. .. .. 
27 .. .. .. .. .. .. .. .. .. .. 34 .. .. .. .. .. .. .. .. .. .. 27 .. .. .. .. .. .. .. 
.. .. .. 34 .. .. .. .. .. .. .. .. .. .. 27 .. .. .. .. .. .. .. .. .. .. 34 .. .. .. .. 
.. .. .. .. .. .. 25 .. .. .. .. .. .. .. .. .. .. 32 .. .. .. .. .. .. .. .. .. .. 25 .. 
.. .. .. .. .. .. .. .. .. 32 .. .. .. .. .. .. .. .. .. .. 25 .. .. .. .. .. .. .. .. .. 
.. 32 .. .. .. .. 32 .. .. .. .. .. 25 .. .. .. .. .. .. .. .. .. .. 32 .. .. .. .. 32 .. 
.. .. .. .. 23 .. .. .. .. .. .. .. .. .. .. 30 .. .. .. .. .. .. .. .. .. .. 23 .. .. .. 
.. .. .. .. .. .. .. 30 .. .. .. .. .. .. .. .. .. .. 23 .. .. .. .. .. .. .. .. .. 30 .. 
.. .. .. .. .. .. .. .. .. 23 .. .. .. .. .. .. .. .. .. .. 30 .. .. .. .. .. .. .. .. .. 
.. 22 .. .. .. .. .. .. .. .. .. .. 29 .. .. .. .. .. .. .. .. .. .. 22 .. .. .. .. .. .. 
.. .. .. .. 29 .. .. .. .. .. .. .. .. .. .. 22 .. .. .. .. .. 22 .. .. .. .. 34 .. .. .. 
.. .. 34 .. .. .. .. 22 .. .. .. .. .. 22 .. .. .. .. 34 .. .. .. .. .. .. .. .. .. .. 22 
.. .. .. .. .. .. .. .. .. .. 27 .. .. .. .. .. 27 .. .. .. .. 22 .. .. .. .. .. .. .. .. 
.. .. 27 .. .. .. .. 27 .. .. .. .. .. 22 .. .. .. .. .. .. .. .. .. .. 27 .. .. .. .. 27 
.. .. .. .. .. 22 .. .. .. .. .. .. .. .. .. .. 27 .. .. .. .. 27 .. .. .. .. .. 25 .. .. 
.. .. .. .. .. .. .. .. 29 .. .. .. .. 29 .. .. .. .. .. 25 .. .. .. .. .. .. .. .. .. .. 
29 .. .. .. .. 29 .. .. .. .. .. 25 .. .. .. .. .. .. .. .. .. .. 29 .. .. .. .. 29 .. .. 
.. .. .. 25 .. .. .. .. 25 .. .. .. .. .. 29 .. .. .. .. 32 .. .. .. .. .. 20 .. .. .. .. 
.. .. .. .. .. .. 23 .. .. .. .. 23 .. .. .. .. 20 .. .. .. .. .. .. .. .. .. .. 23 .. .. 
.. .. .. 23 .. .. .. .. 20 .. .. .. .. .. .. .. .. .. .. 23 .. .. .. .. .. 23 .. .. .. .. 
20 .. .. .. .. .. .. .. .. .. .. 23 .. .. .. .. .. 23 .. .. .. .. 22 .. .. .. .. .. .. .. 
.. .. .. 26 .. .. .. .. .. 26 .. .. .. .. 22 .. .. .. .. .. .. .. .. .. .. 26 .. .. .. .. 
.. 26 .. .. .. .. 22 .. .. .. .. .. .. .. .. .. .. 26 .. .. .. .. .. 26 .. .. .. .. 46 .. 
.. .. .. .. 46 .. .. .. .. 46 .. .. .. .. .. 46 .. .. .. .. 27 .. .. .. .. .. .. .. .. .. 
.. 27 .. .. .. .. .. .. .. .. .. .. 51 .. .. .. .. .. .. .. .. .. .. 22 .. .. .. .. .. .. 
.. .. .. .. 27 .. .. .. .. .. .. .. .. .. .. 27 .. .. .. .. .. .. .. .. .. .. 51 .. .. .. 
.. .. .. .. .. .. .. 51 .. .. .. .. .. .. .. .. .. .. 25 .. .. .. .. .. .. .. .. .. .. 25 
.. .. .. .. .. .. .. .. .. .. 53 .. .. .. .. .. .. .. .. .. .. 20 .. .. .. .. .. .. .. .. 
.. .. 25 .. .. .. .. .. .. .. .. .. .. 25 .. .. .. .. .. .. .. .. .. .. 49 .. .. .. .. .. 
.. .. .. .. 49 .. .. .. .. .. .. .. .. .. .. 23 .. .. .. .. .. 23 .. .. .. .. .. .. .. .. 
.. .. 51 .. .. .. .. 23 .. .. .. .. .. .. .. .. .. .. 51 .. .. .. .. .. .. .. .. .. .. .. 
.. .. .. .. .. .. .. .. .. .. 23 .. .. .. .. .. .. .. .. .. .. 51 .. .. .. .. .. .. .. .. 
.. .. 51 .. .. .. .. .. .. .. .. .. .. 22 .. .. .. .. .. .. .. .. .. .. 22 .. .. .. .. .. 
.. .. .. .. .. 53 .. .. .. .. .. .. .. .. .. .. 22 .. .. .. .. .. .. .. .. .. .. .. .. .. 
.. .. .. .. .. .. .. .. .. .. .. .. .. .. .. .. .. .. .. 46 .. .. .. .. 46 .. .. .. .. .. 
.. .. .. .. .. .. .. .. .. .. .. 22 .. .. .. .. .. .. .. .. .. .. 27 .. .. .. .. .. .. .. 
.. .. .. 22 .. .. .. .. .. .. .. .. .. .. 27 .. .. .. .. .. .. .. .. .. .. 22 .. .. .. .. 
.. .. .. .. .. .. 27 .. .. .. .. .. .. .. .. .. .. 22 .. .. .. .. .. .. .. .. .. .. 27 .. 
.. .. .. .. .. .. .. .. .. 22 .. .. .. .. .. .. .. .. .. .. 26 .. .. .. .. .. .. .. .. .. 
.. 22 .. .. .. .. .. .. .. .. .. .. 26 .. .. .. .. .. .. .. .. .. .. 22 .. .. .. .. .. .. 
.. .. .. 26 .. .. .. .. .. .. .. .. .. .. 22 .. .. .. .. .. .. .. .. .. .. 26 .. .. .. .. 
.. .. .. .. .. .. 20 .. .. .. .. .. .. .. .. .. .. 27 .. .. .. .. .. .. .. .. .. .. 20 .. 
.. .. .. .. .. .. .. .. .. 27 .. .. .. .. .. .. .. .. .. .. 20 .. .. .. .. .. .. .. .. .. 
.. 27 .. .. .. .. .. .. .. .. .. .. 20 .. .. .. .. .. .. .. .. .. .. 27 .. .. .. .. .. .. 
.. .. .. .. 22 .. .. .. .. .. .. .. .. .. .. 26 .. .. .. .. .. .. .. .. .. .. 22 .. .. .. 
.. .. .. .. .. .. .. 26 .. .. .. .. .. .. .. .. .. .. 22 .. .. .. .. .. .. .. .. .. .. 26 
.. .. .. .. .. .. .. .. .. .. 22 .. .. .. .. .. .. .. .. .. .. 26 .. .. .. .. .. .. .. .. 
.. .. 22 .. .. .. .. .. .. .. .. .. .. 27 .. .. .. .. .. .. .. .. .. .. 22 .. .. .. .. .. 
.. .. .. .. .. 27 .. .. .. .. .. .. .. .. .. .. 22 .. .. .. .. .. .. .. .. .. .. 27 .. .. 
.. .. .. .. .. .. .. .. 22 .. .. .. .. .. .. .. .. .. .. 27 .. .. .. .. .. .. .. .. .. .. 
22 .. .. .. .. .. .. .. .. .. .. 26 .. .. .. .. .. .. .. .. .. 22 .. .. .. .. .. .. .. .. 
.. .. 26 .. .. .. .. .. .. .. .. .. .. 22 .. .. .. .. .. .. .. .. .. .. 26 .. .. .. .. .. 
.. .. .. .. .. 22 .. .. .. .. .. .. .. .. .. .. 26 .. .. .. .. .. .. .. .. .. .. 20 .. .. 
.. .. .. .. .. .. .. .. 27 .. .. .. .. .. .. .. .. .. .. 20 .. .. .. .. .. .. .. .. .. .. 
27 .. .. .. .. .. .. .. .. .. .. 20 .. .. .. .. .. .. .. .. .. .. 27 .. .. .. .. .. .. .. 
.. .. .. 20 .. .. .. .. .. .. .. .. .. .. 27 .. .. .. .. .. .. .. .. .. .. 22 .. .. .. .. 
.. .. .. .. .. .. 29 .. .. .. .. .. .. .. .. .. .. 22 .. .. .. .. .. .. .. .. .. .. 29 .. 
.. .. .. .. .. .. .. .. .. 22 .. .. .. .. .. .. .. .. .. .. 29 .. .. .. .. .. .. .. .. .. 
.. 22 .. .. .. .. .. .. .. .. .. .. 29 .. .. .. .. .. .. .. .. .. .. 27 .. .. .. .. .. .. 
.. .. .. .. 34 .. .. .. .. .. .. .. .. .. .. 34 .. .. .. .. .. .. .. .. .. .. 27 .. .. .. 
.. .. .. .. .. .. .. 27 .. .. .. .. .. .. .. .. .. .. 34 .. .. .. .. .. .. .. .. .. .. 27 
.. .. .. .. .. .. .. .. .. 34 .. .. .. .. .. .. .. .. .. .. 25 .. .. .. .. .. .. .. .. .. 
.. 32 .. .. .. .. .. .. .. .. .. .. 32 .. .. .. .. .. .. .. .. .. .. 25 .. .. .. .. .. .. 
.. .. .. .. 25 .. .. .. .. .. .. .. .. .. .. 32 .. .. .. .. .. .. .. .. .. .. 25 .. .. .. 
.. .. .. .. .. .. .. 32 .. .. .. .. .. .. .. .. .. .. 23 .. .. .. .. .. .. .. .. .. .. 30 
.. .. .. .. .. .. .. .. .. .. 30 .. .. .. .. .. .. .. .. .. .. 23 .. .. .. .. .. .. .. .. 
.. .. 23 .. .. .. .. .. .. .. .. .. .. 30 .. .. .. .. .. .. .. .. .. .. 23 .. .. .. .. .. 
.. .. .. .. .. 30 .. .. .. .. .. .. .. .. .. .. 22 .. .. .. .. .. .. .. .. .. .. 29 .. .. 
.. .. .. .. .. .. .. .. 29 .. .. .. .. .. .. .. .. .. .. 22 .. .. .. .. .. .. .. .. .. .. 
29 .. .. .. .. .. .. .. .. .. .. 34 .. .. .. .. .. .. .. .. .. .. 22 .. .. .. .. .. .. .. 
.. .. .. 34 .. .. .. .. .. .. .. .. .. .. 27 .. .. .. .. .. .. .. .. .. .. 34 .. .. .. .. 
.. .. .. .. .. .. 27 .. .. .. .. .. .. .. .. .. .. 34 .. .. .. .. .. .. .. .. .. 27 .. .. 
.. .. .. .. .. .. .. .. 34 .. .. .. .. .. .. .. .. .. .. 27 .. .. .. .. .. .. .. .. .. .. 
34 .. .. .. .. .. .. .. .. .. .. 25 .. .. .. .. .. .. .. .. .. .. 32 .. .. .. .. .. .. .. 
.. .. .. 25 .. .. .. .. .. .. .. .. .. .. 32 .. .. .. .. .. .. .. .. .. .. 25 .. .. .. .. 
.. .. .. .. .. .. 32 .. .. .. .. .. 32 .. .. .. .. 25 .. .. .. .. .. .. .. .. .. .. 32 .. 
.. .. .. .. 32 .. .. .. .. 23 .. .. .. .. .. .. .. .. .. .. 30 .. .. .. .. .. .. .. .. .. 
.. 23 .. .. .. .. .. .. .. .. .. .. 30 .. .. .. .. .. .. .. .. .. .. 23 .. .. .. .. .. .. 
.. .. .. .. 30 .. .. .. .. .. .. .. .. .. .. 23 .. .. .. .. .. .. .. .. .. .. 30 .. .. .. 
.. .. .. .. .. .. .. 22 .. .. .. .. .. .. .. .. .. .. 29 .. .. .. .. .. .. .. .. .. .. 22 
.. .. .. .. .. .. .. .. .. .. 29 .. .. .. .. .. .. .. .. .. .. 22 .. .. .. .. 22 .. .. .. 
.. .. 34 .. .. .. .. 34 .. .. .. .. .. 22 .. .. .. .. 22 .. .. .. .. .. 34 .. .. .. .. .. 
.. .. .. .. .. 22 .. .. .. .. .. .. .. .. .. 27 .. .. .. .. .. 27 .. .. .. .. 22 .. .. .. 
.. .. .. .. .. .. .. 27 .. .. .. .. .. 27 .. .. .. .. 22 .. .. .. .. .. .. .. .. .. .. 27 
.. .. .. .. .. 27 .. .. .. .. 22 .. .. .. .. .. .. .. .. .. .. 27 .. .. .. .. .. 27 .. .. 
.. .. 25 .. .. .. .. .. .. .. .. .. .. 29 .. .. .. .. .. 29 .. .. .. .. 25 .. .. .. .. .. 
.. .. .. .. .. 29 .. .. .. .. .. 29 .. .. .. .. 25 .. .. .. .. .. .. .. .. .. .. 29 .. .. 
.. .. .. 29 .. .. .. .. 25 .. .. .. .. .. 25 .. .. .. .. 29 .. .. .. .. 32 .. .. .. .. .. 
20 .. .. .. .. .. .. .. .. .. .. 23 .. .. .. .. 23 .. .. .. .. .. 20 .. .. .. .. .. .. .. 
.. .. .. 23 .. .. .. .. 23 .. .. .. .. .. 20 .. .. .. .. .. .. .. .. .. .. 23 .. .. .. .. 
23 .. .. .. .. .. 20 .. .. .. .. .. .. .. .. .. .. 23 .. .. .. .. 23 .. .. .. .. .. 22 .. 
.. .. .. .. .. .. .. .. .. 26 .. .. .. .. 26 .. .. .. .. .. 22 .. .. .. .. .. .. .. .. .. 
.. 26 .. .. .. .. 26 .. .. .. .. .. 22 .. .. .. .. .. .. .. .. .. .. 26 .. .. .. .. 26 .. 
.. .. .. 46 .. .. .. .. .. 46 .. .. .. .. 46 .. .. .. .. .. 46 .. .. .. .. 27 .. .. .. .. 
.. .. .. .. .. .. 27 .. .. .. .. .. .. .. .. .. .. 51 .. .. .. .. .. .. .. .. .. .. 22 .. 
.. .. .. .. .. .. .. .. .. 27 .. .. .. .. .. .. .. .. .. .. 27 .. .. .. .. .. .. .. .. .. 
.. 51 .. .. .. .. .. .. .. .. .. .. 51 .. .. .. .. .. .. .. .. .. .. 25 .. .. .. .. .. .. 
.. .. .. .. 25 .. .. .. .. .. .. .. .. .. .. 53 .. .. .. .. .. .. .. .. .. .. 20 .. .. .. 
.. .. .. .. .. .. .. 25 .. .. .. .. .. .. .. .. .. .. 25 .. .. .. .. .. .. .. .. .. .. 49 
.. .. .. .. .. .. .. .. .. .. 49 .. .. .. .. .. .. .. .. .. .. 23 .. .. .. .. 23 .. .. .. 
.. .. .. .. .. .. .. 51 .. .. .. .. .. 23 .. .. .. .. .. .. .. .. .. .. 51 .. .. .. .. .. 
.. .. .. .. .. .. .. .. .. .. .. .. .. .. .. .. 23 .. .. .. .. .. .. .. .. .. .. 51 .. .. 
.. .. .. .. .. .. .. .. 51 .. .. .. .. .. .. .. .. .. .. 22 .. .. .. .. .. .. .. .. .. .. 
22 .. .. .. .. .. .. .. .. .. .. 53 .. .. .. .. .. .. .. .. .. 22 .. .. .. .. .. .. .. .. 
.. .. .. .. .. .. .. .. .. .. .. .. .. .. .. .. .. .. .. .. .. .. .. .. 46 .. .. .. .. .. 
46 .. .. .. .. .. .. .. .. .. .. .. .. .. .. .. 22 .. .. .. .. .. .. .. .. .. .. 27 .. .. 
.. .. .. .. .. .. .. .. 22 .. .. .. .. .. .. .. .. .. .. 27 .. .. .. .. .. .. .. .. .. .. 
22 .. .. .. .. .. .. .. .. .. .. 27 .. .. .. .. .. .. .. .. .. .. 22 .. .. .. .. .. .. .. 
.. .. .. 27 .. .. .. .. .. .. .. .. .. .. 22 .. .. .. .. .. .. .. .. .. .. 26 .. .. .. .. 
.. .. .. .. .. .. 22 .. .. .. .. .. .. .. .. .. .. 26 .. .. .. .. .. .. .. .. .. .. 22 .. 
.. .. .. .. .. .. .. .. .. 26 .. .. .. .. .. .. .. .. .. .. 22 .. .. .. .. .. .. .. .. .. 
.. 26 .. .. .. .. .. .. .. .. .. .. 20 .. .. .. .. .. .. .. .. .. .. 27 .. .. .. .. .. .. 
.. .. .. .. 20 .. .. .. .. .. .. .. .. .. .. 27 .. .. .. .. .. .. .. .. .. .. 20 .. .. .. 
.. .. .. .. .. .. .. 27 .. .. .. .. .. .. .. .. .. .. 20 .. .. .. .. .. .. .. .. .. .. 27 
.. .. .. .. .. .. .. .. .. 22 .. .. .. .. .. .. .. .. .. .. 26 .. .. .. .. .. .. .. .. .. 
.. 22 .. .. .. .. .. .. .. .. .. .. 26 .. .. .. .. .. .. .. .. .. .. 22 .. .. .. .. .. .. 
.. .. .. .. 26 .. .. .. .. .. .. .. .. .. .. 22 .. .. .. .. .. .. .. .. .. .. 26 .. .. .. 
.. .. .. .. .. .. .. 22 .. .. .. .. .. .. .. .. .. .. 27 .. .. .. .. .. .. .. .. .. .. 22 
.. .. .. .. .. .. .. .. .. .. 27 .. .. .. .. .. .. .. .. .. .. 22 .. .. .. .. .. .. .. .. 
.. .. 27 .. .. .. .. .. .. .. .. .. .. 22 .. .. .. .. .. .. .. .. .. .. 27 .. .. .. .. .. 
.. .. .. .. .. 22 .. .. .. .. .. .. .. .. .. .. 26 .. .. .. .. .. .. .. .. .. .. 22 .. .. 
.. .. .. .. .. .. .. .. 26 .. .. .. .. .. .. .. .. .. .. 22 .. .. .. .. .. .. .. .. .. .. 
26 .. .. .. .. .. .. .. .. .. .. 22 .. .. .. .. .. .. .. .. .. .. 26 .. .. .. .. .. .. .. 
.. .. .. 20 .. .. .. .. .. .. .. .. .. .. 27 .. .. .. .. .. .. .. .. .. .. 20 .. .. .. .. 
.. .. .. .. .. .. 27 .. .. .. .. .. .. .. .. .. .. 20 .. .. .. .. .. .. .. .. .. 27 .. .. 
.. .. .. .. .. .. .. .. 20 .. .. .. .. .. .. .. .. .. .. 27 .. .. .. .. .. .. .. .. .. .. 
22 .. .. .. .. .. .. .. .. .. .. 29 .. .. .. .. .. .. .. .. .. .. 22 .. .. .. .. .. .. .. 
.. .. .. 29 .. .. .. .. .. .. .. .. .. .. 22 .. .. .. .. .. .. .. .. .. .. 29 .. .. .. .. 
.. .. .. .. .. .. 22 .. .. .. .. .. .. .. .. .. .. 29 .. .. .. .. .. .. .. .. .. .. 27 .. 
.. .. .. .. .. .. .. .. .. 34 .. .. .. .. .. .. .. .. .. .. 34 .. .. .. .. .. .. .. .. .. 
.. 27 .. .. .. .. .. .. .. .. .. .. 27 .. .. .. .. .. .. .. .. .. .. 34 .. .. .. .. .. .. 
.. .. .. .. 27 .. .. .. .. .. .. .. .. .. .. 34 .. .. .. .. .. .. .. .. .. .. 25 .. .. .. 
.. .. .. .. .. .. .. 32 .. .. .. .. .. .. .. .. .. .. 32 .. .. .. .. .. .. .. .. .. .. 25 
.. .. .. .. .. .. .. .. .. .. 25 .. .. .. .. .. .. .. .. .. .. 32 .. .. .. .. .. .. .. .. 
.. .. 25 .. .. .. .. .. .. .. .. .. .. 32 .. .. .. .. .. .. .. .. .. .. 23 .. .. .. .. .. 
.. .. .. .. .. 30 .. .. .. .. .. .. .. .. .. 30 .. .. .. .. .. .. .. .. .. .. 23 .. .. .. 
.. .. .. .. .. .. .. 23 .. .. .. .. .. .. .. .. .. .. 30 .. .. .. .. .. .. .. .. .. .. 23 
.. .. .. .. .. .. .. .. .. .. 30 .. .. .. .. .. .. .. .. .. .. 22 .. .. .. .. .. .. .. .. 
.. .. 29 .. .. .. .. .. .. .. .. .. .. 29 .. .. .. .. .. .. .. .. .. .. 22 .. .. .. .. .. 
.. .. .. .. .. 29 .. .. .. .. .. .. .. .. .. .. 34 .. .. .. .. .. .. .. .. .. .. 22 .. .. 
.. .. .. .. .. .. .. .. 34 .. .. .. .. .. .. .. .. .. .. 27 .. .. .. .. .. .. .. .. .. .. 
34 .. .. .. .. .. .. .. .. .. .. 27 .. .. .. .. .. .. .. .. .. .. 34 .. .. .. .. .. .. .. 
.. .. .. 27 .. .. .. .. .. .. .. .. .. .. 34 .. .. .. .. .. .. .. .. .. .. 27 .. .. .. .. 
.. .. .. .. .. .. 34 .. .. .. .. .. .. .. .. .. .. 25 .. .. .. .. .. .. .. .. .. .. 32 .. 
.. .. .. .. .. .. .. .. .. 25 .. .. .. .. .. .. .. .. .. .. 32 .. .. .. .. .. .. .. .. .. 
.. 25 .. .. .. .. .. .. .. .. .. .. 32 .. .. .. .. 32 .. .. .. .. .. 25 .. .. .. .. .. .. 
.. .. .. 32 .. .. .. .. .. 32 .. .. .. .. 23 .. .. .. .. .. .. .. .. .. .. 30 .. .. .. .. 
.. .. .. .. .. .. 23 .. .. .. .. .. .. .. .. .. .. 30 .. .. .. .. .. .. .. .. .. .. 23 .. 
.. .. .. .. .. .. .. .. .. 30 .. .. .. .. .. .. .. .. .. .. 23 .. .. .. .. .. .. .. .. .. 
.. 30 .. .. .. .. .. .. .. .. .. .. 22 .. .. .. .. .. .. .. .. .. .. 29 .. .. .. .. .. .. 
.. .. .. .. 22 .. .. .. .. .. .. .. .. .. .. 29 .. .. .. .. .. .. .. .. .. .. 22 .. .. .. 
.. .. 22 .. .. .. .. 34 .. .. .. .. 34 .. .. .. .. .. 22 .. .. .. .. 22 .. .. .. .. .. 34 
.. .. .. .. .. .. .. .. .. .. 22 .. .. .. .. .. .. .. .. .. .. 27 .. .. .. .. 27 .. .. .. 
.. .. 22 .. .. .. .. .. .. .. .. .. .. 27 .. .. .. .. 27 .. .. .. .. .. 22 .. .. .. .. .. 
.. .. .. .. .. 27 .. .. .. .. 27 .. .. .. .. .. 22 .. .. .. .. .. .. .. .. .. .. 27 .. .. 
.. .. 27 .. .. .. .. .. 25 .. .. .. .. .. .. .. .. .. .. 29 .. .. .. .. 29 .. .. .. .. .. 
25 .. .. .. .. .. .. .. .. .. .. 29 .. .. .. .. 29 .. .. .. .. 25 .. .. .. .. .. .. .. .. 
.. .. 29 .. .. .. .. .. 29 .. .. .. .. 25 .. .. .. .. .. 25 .. .. .. .. 29 .. .. .. .. .. 
32 .. .. .. .. 20 .. .. .. .. .. .. .. .. .. .. 23 .. .. .. .. .. 23 .. .. .. .. 20 .. .. 
.. .. .. .. .. .. .. .. 23 .. .. .. .. .. 23 .. .. .. .. 20 .. .. .. .. .. .. .. .. .. .. 
23 .. .. .. .. .. 23 .. .. .. .. 20 .. .. .. .. .. .. .. .. .. .. 23 .. .. .. .. .. 23 .. 
.. .. .. 22 .. .. .. .. .. .. .. .. .. .. 26 .. .. .. .. .. 26 .. .. .. .. 22 .. .. .. .. 
.. .. .. .. .. .. 26 .. .. .. .. 26 .. .. .. .. .. 22 .. .. .. .. .. .. .. .. .. .. 26 .. 
.. .. .. 26 .. .. .. .. .. 46 .. .. .. .. 46 .. .. .. .. .. 46 .. .. .. .. 46 .. .. .. .. 
.. 27 .. .. .. .. .. .. .. .. .. .. 27 .. .. .. .. .. .. .. .. .. .. 51 .. .. .. .. .. .. 
.. .. .. .. 22 .. .. .. .. .. .. .. .. .. .. 27 .. .. .. .. .. .. .. .. .. .. 27 .. .. .. 
.. .. .. .. .. .. .. 51 .. .. .. .. .. .. .. .. .. .. 51 .. .. .. .. .. .. .. .. .. .. 25 
.. .. .. .. .. .. .. .. .. 25 .. .. .. .. .. .. .. .. .. .. 53 .. .. .. .. .. .. .. .. .. 
.. 20 .. .. .. .. .. .. .. .. .. .. 25 .. .. .. .. .. .. .. .. .. .. 25 .. .. .. .. .. .. 
.. .. .. .. 49 .. .. .. .. .. .. .. .. .. .. 49 .. .. .. .. .. .. .. .. .. .. 23 .. .. .. 
.. .. 23 .. .. .. .. .. .. .. .. .. .. 51 .. .. .. .. 23 .. .. .. .. .. .. .. .. .. .. 51 
.. .. .. .. .. .. .. .. .. .. .. .. .. .. .. .. .. .. .. .. .. 23 .. .. .. .. .. .. .. .. 
.. .. 51 .. .. .. .. .. .. .. .. .. .. 51 .. .. .. .. .. .. .. .. .. .. 22 .. .. .. .. .. 
.. .. .. .. .. 22 .. .. .. .. .. .. .. .. .. .. 53 .. .. .. .. .. .. .. .. .. .. 22 .. .. 
.. .. .. .. .. .. .. .. .. .. .. .. .. .. .. .. .. .. .. .. .. .. .. .. .. .. .. .. .. .. 
46 .. .. .. .. 46 .. .. .. .. .. .. .. .. .. .. .. .. .. .. .. .. 22 .. .. .. .. .. .. .. 
.. .. .. 27 .. .. .. .. .. .. .. .. .. .. 22 .. .. .. .. .. .. .. .. .. .. 27 .. .. .. .. 
.. .. .. .. .. .. 22 .. .. .. .. .. .. .. .. .. .. 27 .. .. .. .. .. .. .. .. .. 22 .. .. 
.. .. .. .. .. .. .. .. 27 .. .. .. .. .. .. .. .. .. .. 22 .. .. .. .. .. .. .. .. .. .. 
26 .. .. .. .. .. .. .. .. .. .. 22 .. .. .. .. .. .. .. .. .. .. 26 .. .. .. .. .. .. .. 
.. .. .. 22 .. .. .. .. .. .. .. .. .. .. 26 .. .. .. .. .. .. .. .. .. .. 22 .. .. .. .. 
.. .. .. .. .. .. 26 .. .. .. .. .. .. .. .. .. .. 20 .. .. .. .. .. .. .. .. .. .. 27 .. 
.. .. .. .. .. .. .. .. .. 20 .. .. .. .. .. .. .. .. .. .. 27 .. .. .. .. .. .. .. .. .. 
.. 20 .. .. .. .. .. .. .. .. .. .. 27 .. .. .. .. .. .. .. .. .. .. 20 .. .. .. .. .. .. 
.. .. .. .. 27 .. .. .. .. .. .. .. .. .. .. 22 .. .. .. .. .. .. .. .. .. .. 26 .. .. .. 
.. .. .. .. .. .. .. 22 .. .. .. .. .. .. .. .. .. .. 26 .. .. .. .. .. .. .. .. .. .. 22 
.. .. .. .. .. .. .. .. .. .. 26 .. .. .. .. .. .. .. .. .. .. 22 .. .. .. .. .. .. .. .. 
.. .. 26 .. .. .. .. .. .. .. .. .. .. 22 .. .. .. .. .. .. .. .. .. .. 27 .. .. .. .. .. 
.. .. .. .. .. 22 .. .. .. .. .. .. .. .. .. 27 .. .. .. .. .. .. .. .. .. .. 22 .. .. .. 
.. .. .. .. .. .. .. 27 .. .. .. .. .. .. .. .. .. .. 22 .. .. .. .. .. .. .. .. .. .. 27 
.. .. .. .. .. .. .. .. .. .. 22 .. .. .. .. .. .. .. .. .. .. 26 .. .. .. .. .. .. .. .. 
.. .. 22 .. .. .. .. .. .. .. .. .. .. 26 .. .. .. .. .. .. .. .. .. .. 22 .. .. .. .. .. 
.. .. .. .. .. 26 .. .. .. .. .. .. .. .. .. .. 22 .. .. .. .. .. .. .. .. .. .. 26 .. .. 
.. .. .. .. .. .. .. .. 20 .. .. .. .. .. .. .. .. .. .. 27 .. .. .. .. .. .. .. .. .. .. 
20 .. .. .. .. .. .. .. .. .. .. 27 .. .. .. .. .. .. .. .. .. .. 20 .. .. .. .. .. .. .. 
.. .. .. 27 .. .. .. .. .. .. .. .. .. .. 20 .. .. .. .. .. .. .. .. .. .. 27 .. .. .. .. 
.. .. .. .. .. .. 22 .. .. .. .. .. .. .. .. .. .. 29 .. .. .. .. .. .. .. .. .. .. 22 .. 
.. .. .. .. .. .. .. .. .. 29 .. .. .. .. .. .. .. .. .. .. 22 .. .. .. .. .. .. .. .. .. 
.. 29 .. .. .. .. .. .. .. .. .. .. 22 .. .. .. .. .. .. .. .. .. .. 29 .. .. .. .. .. .. 
.. .. .. .. 27 .. .. .. .. .. .. .. .. .. 34 .. .. .. .. .. .. .. .. .. .. 34 .. .. .. .. 
.. .. .. .. .. .. 27 .. .. .. .. .. .. .. .. .. .. 27 .. .. .. .. .. .. .. .. .. .. 34 .. 
.. .. .. .. .. .. .. .. .. 27 .. .. .. .. .. .. .. .. .. .. 34 .. .. .. .. .. .. .. .. .. 
.. 25 .. .. .. .. .. .. .. .. .. .. 32 .. .. .. .. .. .. .. .. .. .. 32 .. .. .. .. .. .. 
.. .. .. .. 25 .. .. .. .. .. .. .. .. .. .. 25 .. .. .. .. .. .. .. .. .. .. 32 .. 
! Song 6
50 .. .. .. .. .. 19 .. .. .. .. .. .. .. .. .. .. .. 24 .. .. .. .. .. .. .. .. .. .. 19 
.. .. .. .. .. .. .. .. .. .. .. 24 .. .. .. .. .. .. .. .. .. .. .. 20 .. .. .. .. .. 20 
.. .. .. .. .. 27 .. .. .. .. .. .. .. .. .. .. .. 19 .. .. .. .. .. 19 .. .. .. .. .. 26 
.. .. .. .. .. .. .. .. .. .. .. 19 .. .. .. .. .. .. .. .. .. .. .. 24 .. .. .. .. .. .. 
.. .. .. .. .. 19 .. .. .. .. .. .. .. .. .. .. .. 24 .. .. .. .. .. .. .. .. .. .. 17 .. 
.. .. .. .. 17 .. .. .. .. .. 22 .. .. .. .. .. .. .. .. .. .. .. 17 .. .. .. .. .. 17 .. 
.. .. .. .. 22 .. .. 24 .. .. .. .. .. .. .. .. 19 .. .. .. .. .. .. .. .. .. .. .. 24 .. 
.. .. .. .. .. .. .. .. .. .. 19 .. .. .. .. .. .. .. .. .. .. .. 24 .. .. .. .. .. .. .. 
.. .. .. .. 20 .. .. .. .. .. 20 .. .. .. .. .. 27 .. .. .. .. .. .. .. .. .. .. 19 .. .. 
.. .. .. 19 .. .. .. .. .. 26 .. .. .. .. .. .. .. .. .. .. .. 19 .. .. .. .. .. .. .. .. 
.. .. .. 24 .. .. .. .. .. .. .. .. .. .. .. 19 .. .. .. .. .. .. .. .. .. .. .. 24 .. .. 
.. .. .. .. .. .. .. .. .. 20 .. .. .. .. .. 20 .. .. .. .. .. 26 .. .. 27 .. .. .. .. .. 
.. .. .. 19 .. .. .. .. .. 19 .. .. .. .. .. 23 .. 24 .. .. .. .. .. .. .. .. 19 .. .. .. 
.. .. .. .. .. .. .. .. 24 .. .. .. .. .. .. .. .. .. .. .. 19 .. .. .. .. .. .. .. .. .. 
.. .. 24 .. .. .. .. .. .. .. .. .. .. .. 20 .. .. .. .. .. 20 .. .. .. .. .. 27 .. .. .. 
.. .. .. .. .. .. .. .. 19 .. .. .. .. .. 19 .. .. .. .. .. 26 .. .. .. .. .. .. .. .. .. 
.. .. 19 .. .. .. .. .. .. .. .. .. .. 24 .. .. .. .. .. .. .. .. .. .. .. 19 .. .. .. .. 
.. .. .. .. .. .. .. 24 .. .. .. .. .. .. .. .. .. .. .. 17 .. .. .. .. .. 17 .. .. .. .. 
.. 22 .. .. .. .. .. .. .. .. .. .. .. 17 .. .. .. .. .. 17 .. .. .. .. .. 22 .. .. 24 .. 
.. .. .. .. .. .. .. 19 .. .. .. .. .. .. .. .. .. .. .. 24 .. .. .. .. .. .. .. .. .. .. 
.. 19 .. .. .. .. .. .. .. .. .. .. 24 .. .. .. .. .. .. .. .. .. .. .. 20 .. .. .. .. .. 
20 .. .. .. .. .. 27 .. .. .. .. .. .. .. .. .. .. .. 19 .. .. .. .. .. 19 .. .. .. .. .. 
26 .. .. .. .. .. .. .. .. .. .. .. 19 .. .. .. .. .. .. .. .. .. .. .. 24 .. .. .. .. .. 
.. .. .. .. .. .. 19 .. .. .. .. .. .. .. .. .. .. .. 27 .. .. .. .. .. .. .. .. .. .. .. 
22 .. .. .. .. .. 22 .. .. .. .. 27 .. .. 29 .. .. .. .. .. .. .. .. 24 .. .. .. .. .. 24 
.. .. .. .. .. 32 .. .. 31 .. .. .. .. .. .. .. .. 19 .. .. .. .. .. .. .. .. .. .. .. 22 
.. .. .. .. .. .. .. .. .. .. .. 19 .. .. .. .. .. .. .. .. .. .. .. 24 .. .. .. .. .. .. 
.. .. .. .. .. 19 .. .. .. .. .. .. .. .. .. .. .. 27 .. .. .. .. .. .. .. .. .. .. .. 19 
.. .. .. .. .. .. .. .. .. .. 24 .. .. .. .. .. .. .. .. .. .. .. 19 .. .. .. .. .. .. .. 
.. .. .. .. 22 .. .. .. .. .. .. .. .. .. .. .. 19 .. .. .. .. .. .. .. .. .. .. .. 24 .. 
.. .. .. .. .. .. .. .. .. .. 21 .. .. .. .. .. .. .. .. .. .. .. 26 .. .. 27 .. .. .. .. 
.. .. .. .. 21 .. .. .. .. .. .. .. .. .. .. .. 27 .. .. 24 .. .. .. .. .. .. .. .. 20 .. 
.. .. .. .. .. .. .. .. .. 24 .. .. .. .. .. .. .. .. .. .. .. 20 .. .. .. .. .. .. .. .. 
.. .. .. 27 .. .. .. .. .. .. .. .. .. .. .. 20 .. .. .. .. .. .. .. .. .. .. .. 27 .. .. 
29 .. .. .. .. .. .. .. .. 20 .. .. .. .. .. .. .. .. .. .. .. 29 .. .. 27 .. .. .. .. .. 
.. .. .. 25 .. .. .. .. .. .. .. .. .. .. .. 20 .. .. .. .. .. .. .. .. .. .. .. 21 .. .. 
.. .. .. .. .. .. .. .. 27 .. .. .. .. .. .. .. .. .. .. .. 22 .. .. .. .. .. 22 .. .. .. 
.. .. 27 .. .. 29 .. .. .. .. .. .. .. .. 21 .. .. .. .. .. 21 .. .. .. .. .. 29 .. .. 27 
.. .. .. .. .. .. .. .. 17 .. .. .. .. .. 17 .. .. .. .. .. 21 .. .. .. .. .. .. .. .. .. 
.. .. 17 .. .. .. .. .. 17 .. .. .. .. .. 27 .. .. .. .. .. .. .. .. .. .. .. 21 .. .. .. 
.. 21 .. .. .. .. .. 29 .. .. .. .. .. .. .. .. .. .. .. 17 .. .. .. .. .. 17 .. .. .. .. 
.. 27 .. .. .. .. .. .. .. .. .. .. .. 17 .. .. .. .. .. 17 .. .. .. .. .. 21 .. .. .. .. 
.. .. .. .. .. .. .. 17 .. .. .. .. .. 17 .. .. .. .. .. 27 .. .. .. .. .. .. .. .. .. .. 
.. 21 .. .. .. .. .. 21 .. .. .. .. .. 29 .. .. .. .. .. .. .. .. .. .. .. 21 .. .. .. .. 
21 .. .. .. .. .. 29 .. .. 31 .. .. .. .. .. .. .. .. 27 .. .. .. .. .. .. .. .. .. .. .. 
24 .. .. .. .. .. .. .. .. .. .. .. 53 .. .. .. .. .. .. .. .. .. .. .. 29 .. .. .. .. .. 
.. .. .. .. .. .. .. .. .. .. .. .. .. .. .. .. .. .. 33 .. .. .. .. .. .. .. .. .. .. .. 
24 .. .. .. .. .. 24 .. .. .. .. .. 27 .. .. .. .. .. .. .. .. .. .. .. 24 .. .. .. .. .. 
.. .. .. .. .. 24 .. .. .. .. .. 24 .. .. .. .. .. 22 .. .. .. .. .. 22 .. .. .. .. .. 25 
.. .. .. .. .. .. .. .. .. .. .. 19 .. .. .. .. .. 19 .. .. .. .. .. 24 .. .. .. .. .. .. 
.. .. .. .. .. 19 .. .. .. .. .. 19 .. .. .. .. .. 24 .. .. .. .. .. .. .. .. .. .. .. 19 
.. .. .. .. .. .. .. .. .. .. .. 24 .. .. .. .. .. .. .. .. .. .. 19 .. .. .. .. .. .. .. 
.. .. .. .. 24 .. .. .. .. .. .. .. .. .. .. .. 20 .. .. .. .. .. 20 .. .. .. .. .. 27 .. 
.. .. .. .. .. .. .. .. .. .. 19 .. .. .. .. .. 19 .. .. .. .. .. 26 .. .. .. .. .. .. .. 
.. .. .. .. 19 .. .. .. .. .. .. .. .. .. .. .. 24 .. .. .. .. .. .. .. .. .. .. .. 19 .. 
.. .. .. .. .. .. .. .. .. .. 24 .. .. .. .. .. .. .. .. .. .. 17 .. .. .. .. .. 17 .. .. 
.. .. .. 22 .. .. .. .. .. .. .. .. .. .. .. 17 .. .. .. .. .. 17 .. .. .. .. .. 22 .. .. 
24 .. .. .. .. .. .. .. .. 19 .. .. .. .. .. .. .. .. .. .. .. 24 .. .. .. .. .. .. .. .. 
.. .. .. 19 .. .. .. .. .. .. .. .. .. .. .. 24 .. .. .. .. .. .. .. .. .. .. .. 20 .. .. 
.. .. .. 20 .. .. .. .. .. 27 .. .. .. .. .. .. .. .. .. .. 19 .. .. .. .. .. 19 .. .. .. 
.. .. 26 .. .. .. .. .. .. .. .. .. .. .. 19 .. .. .. .. .. .. .. .. .. .. .. 24 .. .. .. 
.. .. .. .. .. .. .. .. 19 .. .. .. .. .. .. .. .. .. .. .. 24 .. .. .. .. .. .. .. .. .. 
.. .. 20 .. .. .. .. .. 20 .. .. .. .. .. 26 .. .. 27 .. .. .. .. .. .. .. .. 19 .. .. .. 
.. .. 19 .. .. .. .. .. 23 .. .. 24 .. .. .. .. .. .. .. 19 .. .. .. .. .. .. .. .. .. .. 
.. 24 .. .. .. .. .. .. .. .. .. .. .. 19 .. .. .. .. .. .. .. .. .. .. .. 24 .. .. .. .. 
.. .. .. .. .. .. .. 20 .. .. .. .. .. 20 .. .. .. .. .. 27 .. .. .. .. .. .. .. .. .. .. 
.. 19 .. .. .. .. .. 19 .. .. .. .. .. 26 .. .. .. .. .. .. .. .. .. .. .. 19 .. .. .. .. 
.. .. .. .. .. .. .. 24 .. .. .. .. .. .. .. .. .. .. 19 .. .. .. .. .. .. .. .. .. .. .. 
24 .. .. .. .. .. .. .. .. .. .. .. 17 .. .. .. .. .. 17 .. .. .. .. .. 22 .. .. .. .. .. 
.. .. .. .. .. .. 17 .. .. .. .. .. 17 .. .. .. .. .. 22 .. .. 24 .. .. .. .. .. .. .. .. 
19 .. .. .. .. .. .. .. .. .. .. .. 24 .. .. .. .. .. .. .. .. .. .. .. 19 .. .. .. .. .. 
.. .. .. .. .. .. 24 .. .. .. .. .. .. .. .. .. .. 20 .. .. .. .. .. 20 .. .. .. .. .. 27 
.. .. .. .. .. .. .. .. .. .. .. 19 .. .. .. .. .. 19 .. .. .. .. .. 26 .. .. .. .. .. .. 
.. .. .. .. .. 19 .. .. .. .. .. .. .. .. .. .. .. 24 .. .. .. .. .. .. .. .. .. .. .. 19 
.. .. .. .. .. .. .. .. .. .. .. 27 .. .. .. .. .. .. .. .. .. .. .. 22 .. .. .. .. .. 22 
.. .. .. .. .. 27 .. 29 .. .. .. .. .. .. .. .. 24 .. .. .. .. .. 24 .. .. .. .. .. 32 .. 
.. 31 .. .. .. .. .. .. .. .. 19 .. .. .. .. .. .. .. .. .. .. .. 22 .. .. .. .. .. .. .. 
.. .. .. .. 19 .. .. .. .. .. .. .. .. .. .. .. 24 .. .. .. .. .. .. .. .. .. .. .. 19 .. 
.. .. .. .. .. .. .. .. .. .. 27 .. .. .. .. .. .. .. .. .. .. .. 19 .. .. .. .. .. .. .. 
.. .. .. .. 24 .. .. .. .. .. .. .. .. .. .. 19 .. .. .. .. .. .. .. .. .. .. .. 22 .. .. 
.. .. .. .. .. .. .. .. .. 19 .. .. .. .. .. .. .. .. .. .. .. 24 .. .. .. .. .. .. .. .. 
.. .. .. 21 .. .. .. .. .. .. .. .. .. .. .. 26 .. .. 27 .. .. .. .. .. .. .. .. 21 .. .. 
.. .. .. .. .. .. .. .. .. 27 .. .. 24 .. .. .. .. .. .. .. .. 20 .. .. .. .. .. .. .. .. 
.. .. 24 .. .. .. .. .. .. .. .. .. .. .. 20 .. .. .. .. .. .. .. .. .. .. .. 27 .. .. .. 
.. .. .. .. .. .. .. .. 20 .. .. .. .. .. .. .. .. .. .. .. 27 .. .. 29 .. .. .. .. .. .. 
.. .. 20 .. .. .. .. .. .. .. .. .. .. .. 29 .. .. 27 .. .. .. .. .. .. .. .. 25 .. .. .. 
.. .. .. .. .. .. .. .. 20 .. .. .. .. .. .. .. .. .. .. .. 21 .. .. .. .. .. .. .. .. .. 
.. 27 .. .. .. .. .. .. .. .. .. .. .. 22 .. .. .. .. .. 22 .. .. .. .. .. 27 .. .. 29 .. 
.. .. .. .. .. .. .. 21 .. .. .. .. .. 21 .. .. .. .. .. 29 .. .. 27 .. .. .. .. .. .. .. 
.. 17 .. .. .. .. .. 17 .. .. .. .. .. 21 .. .. .. .. .. .. .. .. .. .. .. 17 .. .. .. .. 
.. 17 .. .. .. .. .. 27 .. .. .. .. .. .. .. .. .. .. .. 21 .. .. .. .. .. 21 .. .. .. .. 
29 .. .. .. .. .. .. .. .. .. .. .. 17 .. .. .. .. .. 17 .. .. .. .. .. 27 .. .. .. .. .. 
.. .. .. .. .. .. 17 .. .. .. .. .. 17 .. .. .. .. .. 21 .. .. .. .. .. .. .. .. .. .. .. 
17 .. .. .. .. .. 17 .. .. .. .. .. 27 .. .. .. .. .. .. .. .. .. .. .. 21 .. .. .. .. .. 
21 .. .. .. .. .. 29 .. .. .. .. .. .. .. .. .. .. .. 21 .. .. .. .. .. 21 .. .. .. .. 29 
.. .. 31 .. .. .. .. .. .. .. .. 27 .. .. .. .. .. .. .. .. .. .. .. 24 .. .. .. .. .. .. 
.. .. .. .. .. 53 .. .. .. .. .. .. .. .. .. .. .. 29 .. .. .. .. .. .. .. .. .. .. .. .. 
.. .. .. .. .. .. .. .. .. .. .. 33 .. .. .. .. .. .. .. .. .. .. .. 24 .. .. .. .. .. 24 
.. .. .. .. .. 27 .. .. .. .. .. .. .. .. .. .. .. 24 .. .. .. .. .. .. .. .. .. .. 24 .. 
.. .. .. .. 24 .. .. .. .. .. 22 .. .. .. .. .. 22 .. .. .. .. .. 25 .. .. .. .. .. .. .. 
.. .. .. .. 19 .. .. .. .. .. 19 .. .. .. .. .. 24 .. .. .. .. .. .. .. .. .. .. .. 19 .. 
.. .. .. .. 19 .. .. .. .. .. 24 .. .. .. .. .. .. .. .. .. .. .. 19 .. .. .. .. .. .. .. 
.. .. .. .. 24 .. .. .. .. .. .. .. .. .. .. .. 19 .. .. .. .. .. .. .. .. .. .. 24 .. .. 
.. .. .. .. .. .. .. .. .. 20 .. .. .. .. .. 20 .. .. .. .. .. 27 .. .. .. .. .. .. .. .. 
.. .. .. 19 .. .. .. .. .. 19 .. .. .. .. .. 26 .. .. .. .. .. .. .. .. .. .. .. 19 .. .. 
.. .. .. .. .. .. .. .. .. 24 .. .. .. .. .. .. .. .. .. .. .. 19 .. .. .. .. .. .. .. .. 
.. .. .. 24 .. .. .. .. .. .. .. .. .. .. .. 17 .. .. .. .. 17 .. .. .. .. .. 22 .. .. .. 
.. .. .. .. .. .. .. .. 17 .. .. .. .. .. 17 .. .. .. .. .. 22 .. .. 24 .. .. .. .. .. .. 
.. .. 19 .. .. .. .. .. .. .. .. .. .. .. 24 .. .. .. .. .. .. .. .. .. .. .. 19 .. .. .. 
.. .. .. .. .. .. .. .. 24 .. .. .. .. .. .. .. .. .. .. .. 20 .. .. .. .. .. 20 .. .. .. 
.. .. 27 .. .. .. .. .. .. .. .. .. .. .. 19 .. .. .. .. 19 .. .. .. .. .. 26 .. .. .. .. 
.. .. .. .. .. .. .. 19 .. .. .. .. .. .. .. .. .. .. .. 24 .. .. .. .. .. .. .. .. .. .. 
.. 19 .. .. .. .. .. .. .. .. .. .. .. 24 .. .. .. .. .. .. .. .. .. .. .. 20 .. .. .. .. 
.. 20 .. .. .. .. .. 26 .. .. 27 .. .. .. .. .. .. .. .. 19 .. .. .. .. .. 19 .. .. .. .. 
.. 23 .. .. 24 .. .. .. .. .. .. .. .. 19 .. .. .. .. .. .. .. .. .. .. 24 .. .. .. .. .. 
.. .. .. .. .. .. 19 .. .. .. .. .. .. .. .. .. .. .. 24 .. .. .. .. .. .. .. .. .. .. .. 
20 .. .. .. .. .. 20 .. .. .. .. .. 27 .. .. .. .. .. .. .. .. .. .. .. 19 .. .. .. .. .. 
19 .. .. .. .. .. 26 .. .. .. .. .. .. .. .. .. .. .. 19 .. .. .. .. .. .. .. .. .. .. .. 
24 .. .. .. .. .. .. .. .. .. .. 19 .. .. .. .. .. .. .. .. .. .. .. 24 .. .. .. .. .. .. 
.. .. .. .. .. 17 .. .. .. .. .. 17 .. .. .. .. .. 22 .. .. .. .. .. .. .. .. .. .. .. 17 
.. .. .. .. .. 17 .. .. .. .. .. 22 .. .. 24 .. .. .. .. .. .. .. .. 19 .. .. .. .. .. .. 
.. .. .. .. .. 24 .. .. .. .. .. .. .. .. .. .. .. 19 .. .. .. .. .. .. .. .. .. .. .. 24 
.. .. .. .. .. .. .. .. .. .. 20 .. .. .. .. .. 20 .. .. .. .. .. 27 .. .. .. .. .. .. .. 
.. .. .. .. 19 .. .. .. .. .. 19 .. .. .. .. .. 26 .. .. .. .. .. .. .. .. .. .. .. 19 .. 
.. .. .. .. .. .. .. .. .. .. 24 .. .. .. .. .. .. .. .. .. .. .. 19 .. .. .. .. .. .. .. 
.. .. .. .. 27 .. .. .. .. .. .. .. .. .. .. .. 22 .. .. .. .. .. 22 .. .. .. .. .. 27 .. 
.. 29 .. .. .. .. .. .. .. 24 .. .. .. .. .. 24 .. .. .. .. .. 32 .. .. 31 .. .. .. .. .. 
.. .. .. 19 .. .. .. .. .. .. .. .. .. .. .. 22 .. .. .. .. .. .. .. .. .. .. .. 19 .. .. 
.. .. .. .. .. .. .. .. .. 24 .. .. .. .. .. .. .. .. .. .. .. 19 .. .. .. .. .. .. .. .. 
.. .. .. 27 .. .. .. .. .. .. .. .. .. .. .. 19 .. .. .. .. .. .. .. .. .. .. .. 24 .. .. 
.. .. .. .. .. .. .. .. 19 .. .. .. .. .. .. .. .. .. .. .. 22 .. .. .. .. .. .. .. .. .. 
.. .. 19 .. .. .. .. .. .. .. .. .. .. .. 24 .. .. .. .. .. .. .. .. .. .. .. 21 .. .. .. 
.. .. .. .. .. .. .. .. 26 .. .. 27 .. .. .. .. .. .. .. .. 21 .. .. .. .. .. .. .. .. .. 
.. .. 27 .. .. 24 .. .. .. .. .. .. .. .. 20 .. .. .. .. .. .. .. .. .. .. .. 24 .. .. .. 
.. .. .. .. .. .. .. 20 .. .. .. .. .. .. .. .. .. .. .. 27 .. .. .. .. .. .. .. .. .. .. 
.. 20 .. .. .. .. .. .. .. .. .. .. .. 27 .. .. 29 .. .. .. .. .. .. .. .. 20 .. .. .. .. 
.. .. .. .. .. .. .. 29 .. .. 27 .. .. .. .. .. .. .. .. 25 .. .. .. .. .. .. .. .. .. .. 
.. 20 .. .. .. .. .. .. .. .. .. .. .. 21 .. .. .. .. .. .. .. .. .. .. .. 27 .. .. .. .. 
.. .. .. .. .. .. 22 .. .. .. .. .. 22 .. .. .. .. .. 27 .. .. 29 .. .. .. .. .. .. .. .. 
21 .. .. .. .. .. 21 .. .. .. .. .. 29 .. .. 27 .. .. .. .. .. .. .. .. 17 .. .. .. .. .. 
17 .. .. .. .. .. 21 .. .. .. .. .. .. .. .. .. .. .. 17 .. .. .. .. .. 17 .. .. .. .. .. 
27 .. .. .. .. .. .. .. .. .. .. .. 21 .. .. .. .. .. 21 .. .. .. .. .. 29 .. .. .. .. .. 
.. .. .. .. .. 17 .. .. .. .. .. 17 .. .. .. .. .. 27 .. .. .. .. .. .. .. .. .. .. .. 17 
.. .. .. .. .. 17 .. .. .. .. .. 21 .. .. .. .. .. .. .. .. .. .. .. 17 .. .. .. .. .. 17 
.. .. .. .. .. 27 .. .. .. .. .. .. .. .. .. .. .. 21 .. .. .. .. .. 21 .. .. .. .. .. 29 
.. .. .. .. .. .. .. .. .. .. .. 21 .. .. .. .. .. 21 .. .. .. .. .. 29 .. 31 .. .. .. .. 
.. .. .. .. 27 .. .. .. .. .. .. .. .. .. .. .. 24 .. .. .. .. .. .. .. .. .. .. .. 53 .. 
.. .. .. .. .. .. .. .. .. .. 29 .. .. .. .. .. .. .. .. .. .. .. .. .. .. .. .. .. .. .. 
.. .. .. .. 33 .. .. .. .. .. .. .. .. .. .. .. 24 .. .. .. .. .. 24 .. .. .. .. .. 27 .. 
.. .. .. .. .. .. .. .. .. .. 24 .. .. .. .. .. .. .. .. .. .. 24 .. .. .. .. .. 24 .. .. 
.. .. .. 22 .. .. .. .. .. 22 .. .. .. .. .. 25 .. .. .. .. .. .. .. .. .. .. .. 19 .. .. 
.. .. .. 19 .. .. .. .. .. 24 .. .. .. .. .. .. .. .. .. .. .. 19 .. .. .. .. .. 19 .. .. 
.. .. .. 24 .. .. .. .. .. .. .. .. .. .. .. 19 .. .. .. .. .. .. .. .. .. .. .. 24 .. .. 
.. .. .. .. .. .. .. .. .. 19 .. .. .. .. .. .. .. .. .. .. 24 .. .. .. .. .. .. .. .. .. 
.. .. 20 .. .. .. .. .. 20 .. .. .. .. .. 27 .. .. .. .. .. .. .. .. .. .. .. 19 .. .. .. 
.. .. 19 .. .. .. .. .. 26 .. .. .. .. .. .. .. .. .. .. .. 19 .. .. .. .. .. .. .. .. .. 
.. .. 24 .. .. .. .. .. .. .. .. .. .. .. 19 .. .. .. .. .. .. .. .. .. .. .. 24 .. .. .. 
.. .. .. .. .. .. .. .. 17 .. .. .. .. .. 17 .. .. .. .. 22 .. .. .. .. .. .. .. .. .. .. 
.. 17 .. .. .. .. .. 17 .. .. .. .. .. 22 .. .. 24 .. .. .. .. .. .. .. .. 19 .. .. .. .. 
.. .. .. .. .. .. .. 24 .. .. .. .. .. .. .. .. .. .. .. 19 .. .. .. .. .. .. .. .. .. .. 
.. 24 .. .. .. .. .. .. .. .. .. .. .. 20 .. .. .. .. .. 20 .. .. .. .. .. 27 .. .. .. .. 
.. .. .. .. .. .. .. 19 .. .. .. .. .. 19 .. .. .. .. 26 .. .. .. .. .. .. .. .. .. .. .. 
19 .. .. .. .. .. .. .. .. .. .. .. 24 .. .. .. .. .. .. .. .. .. .. .. 19 .. .. .. .. .. 
.. .. .. .. .. .. 24 .. .. .. .. .. .. .. .. .. .. .. 20 .. .. .. .. .. 20 .. .. .. .. .. 
26 .. .. 27 .. .. .. .. .. .. .. .. 19 .. .. .. .. .. 19 .. .. .. .. .. 23 .. .. 24 .. .. 
.. .. .. .. .. .. 19 .. .. .. .. .. .. .. .. .. .. 24 .. .. .. .. .. .. .. .. .. .. .. 19 
.. .. .. .. .. .. .. .. .. .. .. 24 .. .. .. .. .. .. .. .. .. .. .. 20 .. .. .. .. .. 20 
.. .. .. .. .. 27 .. .. .. .. .. .. .. .. .. .. .. 19 .. .. .. .. .. 19 .. .. .. .. .. 26 
.. .. .. .. .. .. .. .. .. .. .. 19 .. .. .. .. .. .. .. .. .. .. .. 24 .. .. .. .. .. .. 
.. .. .. .. .. 19 .. .. .. .. .. .. .. .. .. .. 24 .. .. .. .. .. .. .. .. .. .. .. 17 .. 
.. .. .. .. 17 .. .. .. .. .. 22 .. .. .. .. .. .. .. .. .. .. .. 17 .. .. .. .. .. 17 .. 
.. .. .. .. 22 .. .. 24 .. .. .. .. .. .. .. .. 19 .. .. .. .. .. .. .. .. .. .. .. 24 .. 
.. .. .. .. .. .. .. .. .. .. 19 .. .. .. .. .. .. .. .. .. .. .. 24 .. .. .. .. .. .. .. 
.. .. .. .. 20 .. .. .. .. 20 .. .. .. .. .. 27 .. .. .. .. .. .. .. .. .. .. .. 19 .. .. 
.. .. .. 19 .. .. .. .. .. 26 .. .. .. .. .. .. .. .. .. .. .. 19 .. .. .. .. .. .. .. .. 
.. .. .. 24 .. .. .. .. .. .. .. .. .. .. .. 19 .. .. .. .. .. .. .. .. .. .. .. 27 .. .. 
.. .. .. .. .. .. .. .. .. 22 .. .. .. .. .. 22 .. .. .. .. .. 27 .. .. 29 .. .. .. .. .. 
.. .. .. 24 .. .. .. .. 24 .. .. .. .. .. 32 .. .. 31 .. .. .. .. .. .. .. .. 19 .. .. .. 
.. .. .. .. .. .. .. .. 22 .. .. .. .. .. .. .. .. .. .. .. 19 .. .. .. .. .. .. .. .. .. 
.. .. 24 .. .. .. .. .. .. .. .. .. .. .. 19 .. .. .. .. .. .. .. .. .. .. .. 27 .. .. .. 
.. .. .. .. .. .. .. .. 19 .. .. .. .. .. .. .. .. .. .. .. 24 .. .. .. .. .. .. .. .. .. 
.. .. 19 .. .. .. .. .. .. .. .. .. .. 22 .. .. .. .. .. .. .. .. .. .. .. 19 .. .. .. .. 
.. .. .. .. .. .. .. 24 .. .. .. .. .. .. .. .. .. .. .. 21 .. .. .. .. .. .. .. .. .. .. 
.. 26 .. .. 27 .. .. .. .. .. .. .. .. 21 .. .. .. .. .. .. .. .. .. .. .. 27 .. .. 24 .. 
.. .. .. .. .. .. .. 20 .. .. .. .. .. .. .. .. .. .. .. 24 .. .. .. .. .. .. .. .. .. .. 
20 .. .. .. .. .. .. .. .. .. .. .. 27 .. .. .. .. .. .. .. .. .. .. .. 20 .. .. .. .. .. 
.. .. .. .. .. .. 27 .. .. 29 .. .. .. .. .. .. .. .. 20 .. .. .. .. .. .. .. .. .. .. .. 
29 .. .. 27 .. .. .. .. .. .. .. .. 25 .. .. .. .. .. .. .. .. .. .. .. 20 .. .. .. .. .. 
.. .. .. .. .. .. 21 .. .. .. .. .. .. .. .. .. .. .. 27 .. .. .. .. .. .. .. .. .. .. 22 
.. .. .. .. .. 22 .. .. .. .. .. 27 .. .. 29 .. .. .. .. .. .. .. .. 21 .. .. .. .. .. 21 
.. .. .. .. .. 29 .. .. 27 .. .. .. .. .. .. .. .. 17 .. .. .. .. .. 17 .. .. .. .. .. 21 
.. .. .. .. .. .. .. .. .. .. .. 17 .. .. .. .. .. 17 .. .. .. .. .. 27 .. .. .. .. .. .. 
.. .. .. .. .. 21 .. .. .. .. .. 21 .. .. .. .. .. 29 .. .. .. .. .. .. .. .. .. .. 17 .. 
.. .. .. .. 17 .. .. .. .. .. 27 .. .. .. .. .. .. .. .. .. .. .. 17 .. .. .. .. .. 17 .. 
.. .. .. .. 21 .. .. .. .. .. .. .. .. .. .. .. 17 .. .. .. .. .. 17 .. .. .. .. .. 27 .. 
.. .. .. .. .. .. .. .. .. .. 21 .. .. .. .. .. 21 .. .. .. .. .. 29 .. .. .. .. .. .. .. 
.. .. .. .. 21 .. .. .. .. .. 21 .. .. .. .. .. 29 .. .. 31 .. .. .. .. .. .. .. 27 .. .. 
.. .. .. .. .. .. .. .. .. 24 .. .. .. .. .. .. .. .. .. .. .. 53 .. .. .. .. .. .. .. .. 
.. .. .. 29 .. .. .. .. .. .. .. .. .. .. .. .. .. .. .. .. .. .. .. .. .. .. .. 33 .. .. 
.. .. .. .. .. .. .. .. .. 24 .. .. .. .. .. 24 .. .. .. .. .. 27 .. .. .. .. .. .. .. .. 
.. .. .. 24 .. .. .. .. .. .. .. .. .. .. .. 24 .. .. .. .. 24 .. .. .. .. .. 22 .. .. .. 
.. .. 22 .. .. .. .. .. 25 .. .. .. .. .. .. .. .. .. .. .. 19 .. .. .. .. .. 19 .. .. .. 
.. .. 24 .. .. .. .. .. .. .. .. .. .. .. 19 .. .. .. .. .. 19 .. .. .. .. .. 24 .. .. .. 
.. .. .. .. .. .. .. .. 19 .. .. .. .. .. .. .. .. .. .. .. 24 .. .. .. .. .. .. .. .. .. 
.. .. 19 .. .. .. .. .. .. .. .. .. .. .. 24 .. .. .. .. .. .. .. .. .. .. 20 .. .. .. .. 
.. 20 .. .. .. .. .. 27 .. .. .. .. .. .. .. .. .. .. .. 19 .. .. .. .. .. 19 .. .. .. .. 
.. 26 .. .. .. .. .. .. .. .. .. .. .. 19 .. .. .. .. .. .. .. .. .. .. .. 24 .. .. .. .. 
.. .. .. .. .. .. .. 19 .. .. .. .. .. .. .. .. .. .. .. 24 .. .. .. .. .. .. .. .. .. .. 
.. 17 .. .. .. .. .. 17 .. .. .. .. .. 22 .. .. .. .. .. .. .. .. .. .. 17 .. .. .. .. .. 
17 .. .. .. .. .. 22 .. .. 24 .. .. .. .. .. .. .. .. 19 .. .. .. .. .. .. .. .. .. .. .. 
24 .. .. .. .. .. .. .. .. .. .. .. 19 .. .. .. .. .. .. .. .. .. .. .. 24 .. .. .. .. .. 
.. .. .. .. .. .. 20 .. .. .. .. .. 20 .. .. .. .. .. 27 .. .. .. .. .. .. .. .. .. .. .. 
19 .. .. .. .. .. 19 .. .. .. .. .. 26 .. .. .. .. .. .. .. .. .. .. 19 .. .. .. .. .. .. 
.. .. .. .. .. 24 .. .. .. .. .. .. .. .. .. .. .. 19 .. .. .. .. .. .. .. .. .. .. .. 24 
.. .. .. .. .. .. .. .. .. .. .. 20 .. .. .. .. .. 20 .. .. .. .. .. 26 .. .. 27 .. .. .. 
.. .. .. .. .. 19 .. .. .. .. .. 19 .. .. .. .. .. 23 .. .. 24 .. .. .. .. .. .. .. .. 19 
.. .. .. .. .. .. .. .. .. .. .. 24 .. .. .. .. .. .. .. .. .. .. 19 .. .. .. .. .. .. .. 
.. .. .. .. 24 .. .. .. .. .. .. .. .. .. .. .. 20 .. .. .. .. .. 20 .. .. .. .. .. 27 .. 
.. .. .. .. .. .. .. .. .. .. 19 .. .. .. .. .. 19 .. .. .. .. .. 26 .. .. .. .. .. .. .. 
.. .. .. .. 19 .. .. .. .. .. .. .. .. .. .. .. 24 .. .. .. .. .. .. .. .. .. .. .. 19 .. 
.. .. .. .. .. .. .. .. .. 24 .. .. .. .. .. .. .. .. .. .. .. 17 .. .. .. .. .. 17 .. .. 
.. .. .. 22 .. .. .. .. .. .. .. .. .. .. .. 17 .. .. .. .. .. 17 .. .. .. .. .. 22 .. .. 
24 .. .. .. .. .. .. .. .. 19 .. .. .. .. .. .. .. .. .. .. .. 24 .. .. .. .. .. .. .. .. 
.. .. .. 19 .. .. .. .. .. .. .. .. .. .. .. 24 .. .. .. .. .. .. .. .. .. .. .. 20 .. .. 
.. .. .. 20 .. .. .. .. 27 .. .. .. .. .. .. .. .. .. .. .. 19 .. .. .. .. .. 19 .. .. .. 
.. .. 26 .. .. .. .. .. .. .. .. .. .. .. 19 .. .. .. .. .. .. .. .. .. .. .. 24 .. .. .. 
.. .. .. .. .. .. .. .. 19 .. .. .. .. .. .. .. .. .. .. .. 27 .. .. .. .. .. .. .. .. .. 
.. .. 22 .. .. .. .. .. 22 .. .. .. .. .. 27 .. .. 29 .. .. .. .. .. .. .. .. 24 .. .. .. 
.. .. 24 .. .. .. .. 32 .. .. 31 .. .. .. .. .. .. .. .. 19 .. .. .. .. .. .. .. .. .. .. 
.. 22 .. .. .. .. .. .. .. .. .. .. .. 19 .. .. .. .. .. .. .. .. .. .. .. 24 .. .. .. .. 
.. .. .. .. .. .. .. 19 .. .. .. .. .. .. .. .. .. .. .. 27 .. .. .. .. .. .. .. .. .. .. 
.. 19 .. .. .. .. .. .. .. .. .. .. .. 24 .. .. .. .. .. .. .. .. .. .. .. 19 .. .. .. .. 
.. .. .. .. .. .. 22 .. .. .. .. .. .. .. .. .. .. .. 19 .. .. .. .. .. .. .. .. .. .. .. 
24 .. .. .. .. .. .. .. .. .. .. .. 21 .. .. .. .. .. .. .. .. .. .. .. 26 .. .. 27 .. .. 
.. .. .. .. .. .. 21 .. .. .. .. .. .. .. .. .. .. .. 27 .. .. 24 .. .. .. .. .. .. .. .. 
20 .. .. .. .. .. .. .. .. .. .. .. 24 .. .. .. .. .. .. .. .. .. .. .. 20 .. .. .. .. .. 
.. .. .. .. .. 27 .. .. .. .. .. .. .. .. .. .. .. 20 .. .. .. .. .. .. .. .. .. .. .. 27 
.. .. 29 .. .. .. .. .. .. .. .. 20 .. .. .. .. .. .. .. .. .. .. .. 29 .. .. 27 .. .. .. 
.. .. .. .. .. 25 .. .. .. .. .. .. .. .. .. .. .. 20 .. .. .. .. .. .. .. .. .. .. 
! End
