! Simple
! Song 0
14 .. .. .. .. .. 63 51 .. .. .. .. 63 51 .. .. .. .. 55 43 .. .. .. .. 55 43 .. .. .. .. 
62 50 .. .. .. .. 62 50 .. .. .. .. 55 43 .. .. .. .. 55 43 .. .. .. .. 63 51 .. .. .. .. 
63 51 .. .. .. .. 55 43 .. .. .. .. 55 43 .. .. .. .. 62 50 .. .. .. .. 62 50 .. .. .. .. 
55 43 .. .. .. .. 55 43 .. .. .. .. 63 51 .. .. .. .. 63 51 .. .. .. .. 55 43 .. .. .. .. 
55 43 .. .. .. .. 62 50 .. .. .. .. 62 50 .. .. .. .. 55 43 .. .. .. .. 55 43 .. .. .. .. 
63 51 .. .. .. .. 63 51 .. .. .. .. 55 43 .. .. .. .. 55 43 .. .. .. .. 62 50 .. .. .. .. 
62 50 .. .. .. .. 55 43 .. .. .. .. 55 43 .. .. .. .. 62 50 .. .. .. .. 62 50 .. .. .. .. 
55 43 .. .. .. .. 55 43 .. .. .. .. 60 48 .. .. .. .. 60 48 .. .. .. .. 55 43 .. .. .. .. 
55 43 .. .. .. .. 62 50 .. .. .. .. 62 50 .. .. .. .. 55 43 .. .. .. .. 55 43 .. .. .. .. 
60 48 .. .. .. .. 60 48 .. .. .. .. 55 43 .. .. .. .. 55 43 .. .. .. .. 62 50 .. .. .. .. 
62 50 .. .. .. .. 55 43 .. .. .. .. 55 43 .. .. .. .. 60 48 .. .. .. .. 60 48 .. .. .. .. 
55 43 .. .. .. .. 55 43 .. .. .. .. 62 50 .. .. .. .. 62 50 .. .. .. .. 55 43 .. .. .. .. 
55 43 .. .. .. .. 60 48 .. .. .. .. 60 48 .. .. .. .. 60 48 .. .. .. .. 63 51 .. .. .. .. 
63 51 .. .. .. .. 55 43 .. .. .. .. 55 43 .. .. .. .. 62 50 .. .. .. .. 62 50 .. .. .. .. 
55 43 .. .. .. .. 55 43 .. .. .. .. 63 51 .. .. .. .. 63 51 .. .. .. .. 55 43 .. .. .. .. 
55 43 .. .. .. .. 62 50 .. .. .. .. 62 50 .. .. .. .. 55 43 .. .. .. .. 55 43 .. .. .. .. 
63 51 .. .. .. .. 63 51 .. .. .. .. 55 43 .. .. .. .. 55 43 .. .. .. .. 62 50 .. .. .. .. 
62 50 .. .. .. .. 55 43 .. .. .. .. 55 43 .. .. .. .. 63 51 .. .. .. .. 63 51 .. .. .. .. 
55 43 .. .. .. .. 55 43 .. .. .. .. 62 50 .. .. .. .. 62 50 .. .. .. .. 55 43 .. .. .. .. 
55 43 .. .. .. .. 62 50 .. .. .. .. 62 50 .. .. .. .. 55 43 .. .. .. .. 55 43 .. .. .. .. 
60 48 .. .. .. .. 60 48 .. .. .. .. 55 43 .. .. .. .. 55 43 .. .. .. .. 62 50 .. .. .. .. 
62 50 .. .. .. .. 55 43 .. .. .. .. 55 43 .. .. .. .. 60 48 .. .. .. .. 60 48 .. .. .. .. 
55 43 .. .. .. .. 55 43 .. .. .. .. 62 50 .. .. .. .. 62 50 .. .. .. .. 55 43 .. .. .. .. 
55 43 .. .. .. .. 60 48 .. .. .. .. 60 48 .. .. .. .. 55 43 .. .. .. .. 55 43 .. .. .. .. 
62 50 .. .. .. .. 62 50 .. .. .. .. 55 43 .. .. .. .. 55 43 .. .. .. .. 60 48 .. .. .. .. 
60 48 .. .. .. .. 55 43 .. .. .. .. 55 43 .. .. .. .. 63 51 .. .. .. .. 63 51 .. .. .. .. 
55 43 .. .. .. .. 55 43 .. .. .. .. 62 50 .. .. .. .. 62 50 .. .. .. .. 55 43 .. .. .. .. 
55 43 .. .. .. .. 63 51 .. .. .. .. 63 51 .. .. .. .. 55 43 .. .. .. .. 55 43 .. .. .. .. 
62 50 .. .. .. .. 62 50 .. .. .. .. 55 43 .. .. .. .. 55 43 .. .. .. .. 63 51 .. .. .. .. 
63 51 .. .. .. .. 55 43 .. .. .. .. 55 43 .. .. .. .. 62 50 .. .. .. .. 62 50 .. .. .. .. 
55 43 .. .. .. .. 55 43 .. .. .. .. 63 51 .. .. .. .. 63 51 .. .. .. .. 55 43 .. .. .. .. 
55 43 .. .. .. .. 62 50 .. .. .. .. 62 50 .. .. .. .. 55 43 .. .. .. .. 55 43 .. .. .. .. 
62 50 .. .. .. .. 62 50 .. .. .. .. 55 43 .. .. .. .. 55 43 .. .. .. .. 60 48 .. .. .. .. 
60 48 .. .. .. .. 55 43 .. .. .. .. 55 43 .. .. .. .. 62 50 .. .. .. .. 62 50 .. .. .. .. 
55 43 .. .. .. .. 55 43 .. .. .. .. 60 48 .. .. .. .. 60 48 .. .. .. .. 55 43 .. .. .. .. 
55 43 .. .. .. .. 62 50 .. .. .. .. 62 50 .. .. .. .. 55 43 .. .. .. .. 55 43 .. .. .. .. 
60 48 .. .. .. .. 60 48 .. .. .. .. 55 43 .. .. .. .. 55 43 .. .. .. .. 62 50 .. .. .. .. 
62 50 .. .. .. .. 55 43 .. .. .. .. 55 43 .. .. .. .. 60 48 .. .. .. .. 60 48 .. .. .. .. 
55 43 .. .. .. .. 55 43 .. .. .. .. 63 51 .. .. .. .. 63 51 .. .. .. .. 55 43 .. .. .. .. 
55 43 .. .. .. .. 62 50 .. .. .. .. 62 50 .. .. .. .. 55 43 .. .. .. .. 55 43 .. .. .. .. 
63 51 .. .. .. .. 63 51 .. .. .. .. 55 43 .. .. .. .. 55 43 .. .. .. .. 62 50 .. .. .. .. 
62 50 .. .. .. .. 55 43 .. .. .. .. 55 43 .. .. .. .. 63 51 .. .. .. .. 63 51 .. .. .. .. 
55 43 .. .. .. .. 55 43 .. .. .. .. 62 50 .. .. .. .. 62 50 .. .. .. .. 55 43 .. .. .. .. 
55 43 .. .. .. .. 63 51 .. .. .. .. 63 51 .. .. .. .. 55 43 .. .. .. .. 55 43 .. .. .. .. 
62 50 .. .. .. .. 62 50 .. .. .. .. 55 43 .. .. .. .. 55 43 .. .. .. .. 62 50 .. .. .. .. 
62 50 .. .. .. .. 55 43 .. .. .. .. 55 43 .. .. .. .. 60 48 .. .. .. .. 60 48 .. .. .. .. 
55 43 .. .. .. .. 55 43 .. .. .. .. 62 50 .. .. .. .. 62 50 .. .. .. .. 55 43 .. .. .. .. 
55 43 .. .. .. .. 60 48 .. .. .. .. 60 48 .. .. .. .. 55 43 .. .. .. .. 55 43 .. .. .. .. 
62 50 .. .. .. .. 62 50 .. .. .. .. 55 43 .. .. .. .. 55 43 .. .. .. .. 60 48 .. .. .. .. 
60 48 .. .. .. .. 55 43 .. .. .. .. 55 43 .. .. .. .. 62 50 .. .. .. .. 62 50 .. .. .. .. 
55 43 .. .. .. .. 55 43 .. .. .. .. 60 48 .. .. .. .. 60 48 .. .. .. .. 55 43 .. .. .. .. 
60 48 .. .. .. .. 63 51 .. .. .. .. 60 48 .. .. .. .. 55 43 .. .. .. .. 60 48 .. .. .. .. 
62 50 .. .. .. .. 60 48 .. .. .. .. 55 43 .. .. .. .. 60 48 .. .. .. .. 63 51 .. .. .. .. 
60 48 .. .. .. .. 55 43 .. .. .. .. 60 48 .. .. .. .. 62 50 .. .. .. .. 60 48 .. .. .. .. 
55 43 .. .. .. .. 60 48 .. .. .. .. 63 51 .. .. .. .. 60 48 .. .. .. .. 55 43 .. .. .. .. 
60 48 .. .. .. .. 62 50 .. .. .. .. 60 48 .. .. .. .. 55 43 .. .. .. .. 60 48 .. .. .. .. 
63 51 .. .. .. .. 60 48 .. .. .. .. 55 43 .. .. .. .. 60 48 .. .. .. .. 62 50 .. .. .. .. 
60 48 .. .. .. .. 55 43 .. .. .. .. 60 48 .. .. .. .. 62 50 .. .. .. .. 55 43 .. .. .. .. 
55 43 .. .. .. .. 62 50 .. .. .. .. 60 48 .. .. .. .. 62 50 .. .. .. .. 55 43 .. .. .. .. 
60 48 .. .. .. .. 62 50 .. .. .. .. 55 43 .. .. .. .. 55 43 .. .. .. .. 62 50 .. .. .. .. 
60 48 .. .. .. .. 62 50 .. .. .. .. 55 43 .. .. .. .. 60 48 .. .. .. .. 62 50 .. .. .. .. 
55 43 .. .. .. .. 55 43 .. .. .. .. 62 50 .. .. .. .. 60 48 .. .. .. .. 62 50 .. .. .. .. 
55 43 .. .. .. .. 60 48 .. .. .. .. 62 50 .. .. .. .. 55 43 .. .. .. .. 55 43 .. .. .. .. 
62 50 .. .. .. .. 60 48 .. .. .. .. 62 50 .. .. .. .. 55 43 .. .. .. .. 60 48 .. .. .. .. 
63 51 .. .. .. .. 60 48 .. .. .. .. 55 43 .. .. .. .. 60 48 .. .. .. .. 62 50 .. .. .. .. 
60 48 .. .. .. .. 55 43 .. .. .. .. 60 48 .. .. .. .. 63 51 .. .. .. .. 60 48 .. .. .. .. 
55 43 .. .. .. .. 60 48 .. .. .. .. 62 50 .. .. .. .. 60 48 .. .. .. .. 55 43 .. .. .. .. 
60 48 .. .. .. .. 63 51 .. .. .. .. 60 48 .. .. .. .. 55 43 .. .. .. .. 60 48 .. .. .. .. 
62 50 .. .. .. .. 60 48 .. .. .. .. 55 43 .. .. .. .. 60 48 .. .. .. .. 63 51 .. .. .. .. 
60 48 .. .. .. .. 55 43 .. .. .. .. 60 48 .. .. .. .. 62 50 .. .. .. .. 60 48 .. .. .. .. 
55 43 .. .. .. .. 60 48 .. .. .. .. 62 50 .. .. .. .. 55 43 .. .. .. .. 55 43 .. .. .. .. 
62 50 .. .. .. .. 60 48 .. .. .. .. 62 50 .. .. .. .. 55 43 .. .. .. .. 60 48 .. .. .. .. 
62 50 .. .. .. .. 55 43 .. .. .. .. 55 43 .. .. .. .. 62 50 .. .. .. .. 60 48 .. .. .. .. 
62 50 .. .. .. .. 55 43 .. .. .. .. 60 48 .. .. .. .. 62 50 .. .. .. .. 55 43 .. .. .. .. 
55 43 .. .. .. .. 62 50 .. .. .. .. 60 48 .. .. .. .. 62 50 .. .. .. .. 55 43 .. .. .. .. 
60 48 .. .. .. .. 62 50 .. .. .. .. 55 43 .. .. .. .. 55 43 .. .. .. .. 62 50 .. .. .. .. 
60 48 .. .. .. .. 62 50 .. .. .. .. 14 70 51 .. .. .. 14 67 48 .. .. .. 14 69 50 .. .. .. 
14 67 48 .. .. .. 14 70 51 .. .. .. 14 67 48 .. .. .. 14 67 48 .. .. .. 14 67 48 .. .. .. 
14 70 51 .. .. .. 14 67 48 .. .. .. 14 69 50 .. .. .. 14 67 48 .. .. .. 14 70 51 .. .. .. 
14 69 50 .. .. .. 14 67 48 .. .. .. 14 70 51 .. .. .. 14 70 51 .. .. .. 14 70 51 .. .. .. 
14 69 50 .. .. .. 14 70 51 .. .. .. 14 70 51 .. .. .. 14 70 51 .. .. .. 14 67 48 .. .. .. 
14 72 53 .. .. .. 14 72 53 .. .. .. 14 72 53 .. .. .. 14 70 51 .. .. .. 14 72 53 .. .. .. 
14 72 53 .. .. .. 14 72 53 .. .. .. 14 69 50 .. .. .. 14 74 55 .. .. .. 14 77 58 .. .. .. 
14 74 55 .. .. .. 14 75 57 .. .. .. 14 74 55 .. .. .. 14 77 58 .. .. .. 14 74 55 .. .. .. 
14 74 55 .. .. .. 14 74 55 .. .. .. 14 77 58 .. .. .. 14 74 55 .. .. .. 14 75 57 .. .. .. 
14 74 55 .. .. .. 14 77 58 .. .. .. 14 74 55 .. .. .. 14 74 55 .. .. .. 14 77 58 .. .. .. 
14 75 57 .. .. .. 14 77 58 .. .. .. 14 74 55 .. .. .. 14 77 58 .. .. .. 14 75 57 .. .. .. 
14 77 58 .. .. .. 14 72 53 .. .. .. 14 75 57 .. .. .. 14 75 57 .. .. .. 14 75 57 .. .. .. 
14 74 55 .. .. .. 14 74 55 .. .. .. 14 75 57 .. .. .. 14 74 55 .. .. .. 14 72 53 .. .. .. 
14 74 55 .. .. .. 14 70 51 .. .. .. 14 67 48 .. .. .. 14 69 50 .. .. .. 14 67 48 .. .. .. 
14 70 51 .. .. .. 14 67 48 .. .. .. 14 67 48 .. .. .. 14 67 48 .. .. .. 14 70 51 .. .. .. 
14 67 48 .. .. .. 14 69 50 .. .. .. 14 67 48 .. .. .. 14 70 51 .. .. .. 14 69 50 .. .. .. 
14 67 48 .. .. .. 14 70 51 .. .. .. 14 70 51 .. .. .. 14 70 51 .. .. .. 14 69 50 .. .. .. 
14 70 51 .. .. .. 14 70 51 .. .. .. 14 70 51 .. .. .. 14 67 48 .. .. .. 14 72 53 .. .. .. 
14 72 53 .. .. .. 14 72 53 .. .. .. 14 70 51 .. .. .. 14 72 53 .. .. .. 14 72 53 .. .. .. 
14 72 53 .. .. .. 14 69 50 .. .. .. 14 74 55 .. .. .. 14 77 58 .. .. .. 14 74 55 .. .. .. 
14 75 57 .. .. .. 14 74 55 .. .. .. 14 77 58 .. .. .. 14 74 55 .. .. .. 14 74 55 .. .. .. 
14 74 55 .. .. .. 14 77 58 .. .. .. 14 74 55 .. .. .. 14 75 57 .. .. .. 14 74 55 .. .. .. 
14 77 58 .. .. .. 14 74 55 .. .. .. 14 74 55 .. .. .. 14 77 58 .. .. .. 14 75 57 .. .. .. 
14 77 58 .. .. .. 14 74 55 .. .. .. 14 77 58 .. .. .. 14 75 57 .. .. .. 14 77 58 .. .. .. 
14 72 53 .. .. .. 14 75 57 .. .. .. 14 75 57 .. .. .. 14 75 57 .. .. .. 14 74 55 .. .. .. 
14 74 55 .. .. .. 14 75 57 .. .. .. 14 74 55 .. .. .. 14 72 53 .. .. .. 14 74 55 .. .. .. 
.. .. .. .. .. .. .. .. .. .. .. .. 14 31 34 14 .. 31 34 14 .. 31 34 14 .. .. .. .. .. .. 
.. .. .. .. .. .. 14 31 34 14 .. 31 34 14 .. 31 34 14 .. .. .. .. .. .. .. .. .. .. .. .. 
14 31 34 14 .. 31 34 14 .. 31 34 14 .. .. .. .. .. .. .. .. .. .. .. .. 14 31 34 14 .. 31 
34 14 .. 31 34 14 .. .. .. .. .. .. .. .. .. .. .. .. 14 31 34 14 .. 31 34 14 .. 31 34 14 
.. .. .. .. .. .. .. .. .. .. .. .. 14 31 34 14 .. 31 34 14 .. 31 34 14 .. .. .. .. .. .. 
.. .. .. .. .. .. 14 31 34 14 .. 31 34 14 .. 31 34 14 .. .. .. .. .. .. .. .. .. .. .. .. 
14 31 34 14 .. 31 34 14 .. 31 34 14 .. .. .. .. .. .. .. .. .. .. .. .. 14 31 34 14 .. 31 
34 14 .. 31 34 14 .. 43 46 14 .. 43 46 14 .. 43 46 14 .. 43 46 14 .. 43 14 43 46 14 .. 43 
46 14 .. 43 46 14 .. 43 46 14 .. 43 38 41 45 38 .. 41 45 38 .. 41 45 38 .. 41 45 38 .. 41 
45 38 .. 41 45 38 .. 41 45 38 .. 41 45 38 .. 41 45 38 .. 41 45 38 .. 41 45 38 .. 41 45 38 
14 31 34 14 .. 31 34 14 .. 31 34 14 .. .. .. .. .. .. .. .. .. .. .. .. 14 31 34 14 .. 31 
34 14 .. 31 34 14 .. .. .. .. .. .. .. .. .. .. .. .. 14 31 34 14 .. 31 34 14 .. 31 34 14 
.. .. .. .. .. .. .. .. .. .. .. .. 14 31 34 14 .. 31 34 14 .. 31 34 14 .. .. .. .. .. .. 
.. .. .. .. .. .. 14 31 34 14 .. 31 34 14 .. 31 34 14 .. .. .. .. .. .. .. .. .. .. .. .. 
14 31 34 14 .. 31 34 14 .. 31 34 14 .. .. .. .. .. .. .. .. .. .. .. .. 14 31 34 14 .. 31 
34 14 .. 31 34 14 38 41 45 38 .. 41 45 38 .. 41 45 38 14 43 46 14 .. 43 46 14 .. 43 46 14 
.. .. .. .. .. .. .. .. .. .. .. .. 14 31 34 14 .. 31 34 14 .. 31 34 14 .. .. .. .. .. .. 
.. .. .. .. .. .. 14 31 34 14 .. 31 34 14 .. 31 34 14 .. .. .. .. .. .. .. .. .. .. .. .. 
14 31 34 14 .. 31 34 14 .. 31 34 14 .. 43 46 14 .. 43 46 14 .. 43 46 14 38 41 45 38 .. 41 
45 38 .. 41 45 38 .. .. .. .. .. .. .. .. .. .. .. .. 14 31 34 14 .. 31 34 14 .. 31 34 14 
.. .. .. .. .. .. .. .. .. .. .. .. 14 31 34 14 .. 31 34 14 .. 31 34 14 .. .. .. .. .. .. 
.. .. .. .. .. .. 14 31 34 14 .. 31 34 14 .. 31 34 14 .. 43 46 14 .. 43 46 14 .. 43 46 14 
.. 43 46 14 .. 43 46 14 .. 43 46 14 .. .. .. .. .. .. .. .. .. .. .. .. 14 31 34 14 .. 31 
34 14 .. 31 34 14 .. 43 46 14 .. 43 46 14 .. 43 46 14 .. 43 46 14 .. 43 46 14 .. 43 46 14 
.. 43 46 14 .. 43 46 14 .. 43 46 14 .. 43 46 14 .. 43 38 41 45 38 .. 41 45 38 .. 41 45 38 
.. 41 45 38 .. 41 .. .. .. .. .. .. .. .. .. .. .. .. 43 .. .. .. .. .. .. .. .. .. .. .. 
43 .. .. .. .. .. .. .. .. .. .. .. 43 .. .. .. .. .. .. .. .. .. .. .. .. .. .. .. .. .. 
.. .. .. .. .. .. 67 .. .. .. .. .. .. .. .. .. .. .. 53 .. .. .. .. .. .. .. .. .. .. .. 
53 .. .. .. .. .. .. .. .. .. .. .. 55 .. .. .. .. .. .. .. .. .. .. .. 55 .. .. .. .. .. 
.. .. .. .. .. .. .. .. .. .. .. .. 55 .. .. .. .. .. .. .. .. .. .. .. .. .. .. .. .. .. 
55 .. .. .. .. .. .. .. .. .. .. .. 55 .. .. .. .. .. .. .. .. .. .. .. .. .. .. .. .. .. 
55 .. .. .. .. .. .. .. .. .. .. .. .. .. .. .. .. .. 55 .. .. .. .. .. .. .. .. .. .. .. 
43 .. .. .. .. .. .. .. .. .. .. .. .. .. .. .. .. .. .. .. .. .. .. .. 43 .. .. .. .. .. 
.. .. .. .. .. .. 43 .. .. .. .. .. .. .. .. .. .. .. 67 .. .. .. .. .. .. .. .. .. .. .. 
53 .. .. .. .. .. .. .. .. .. .. .. 53 .. .. .. .. .. .. .. .. .. .. .. 55 .. .. .. .. .. 
.. .. .. .. .. .. 55 .. .. .. .. .. .. .. .. .. .. .. 55 .. .. .. .. .. .. .. .. .. .. .. 
55 .. .. .. .. .. .. .. .. .. .. .. 55 .. .. .. .. .. .. .. .. .. .. .. 55 .. .. .. .. .. 
.. .. .. .. .. .. 55 .. .. .. .. .. .. .. .. .. .. .. 55 .. .. .. .. .. .. .. .. .. .. .. 
55 .. .. .. .. .. .. .. .. .. .. .. 53 .. .. .. .. .. 55 .. .. .. .. .. .. .. .. .. .. .. 
53 .. .. .. .. .. 55 .. .. .. .. .. 53 .. .. .. .. .. 43 .. .. .. .. .. .. .. .. .. .. .. 
67 .. .. .. .. .. .. .. .. .. .. .. 53 .. .. .. .. .. .. .. .. .. .. .. 53 .. .. .. .. .. 
.. .. .. .. .. .. 55 .. .. .. .. .. .. .. .. .. .. .. 55 .. .. .. .. .. .. .. .. .. .. .. 
.. .. .. .. .. .. 55 .. .. .. .. .. .. .. .. .. .. .. .. .. .. .. .. .. 55 .. .. .. .. .. 
.. .. .. .. .. .. 55 .. .. .. .. .. .. .. .. .. .. .. .. .. .. .. .. .. 55 .. .. .. .. .. 
.. .. .. .. .. .. .. .. .. .. .. .. 55 .. .. .. .. .. .. .. .. .. .. .. 43 .. .. .. .. .. 
.. .. .. .. .. .. .. .. .. .. .. .. .. .. .. .. .. .. 43 .. .. .. .. .. .. .. .. .. .. .. 
43 .. .. .. .. .. .. .. .. .. .. .. 67 .. .. .. .. .. .. .. .. .. .. .. 53 .. .. .. .. .. 
.. .. .. .. .. .. 53 .. .. .. .. .. .. .. .. .. .. .. 55 .. .. .. .. .. .. .. .. .. .. .. 
55 .. .. .. .. .. .. .. .. .. .. .. 55 .. .. .. .. .. .. .. .. .. .. .. 55 .. .. .. .. .. 
.. .. .. .. .. .. 55 .. .. .. .. .. .. .. .. .. .. .. 55 .. .. .. .. .. .. .. .. .. .. .. 
55 .. .. .. .. .. .. .. .. .. .. .. 55 .. .. .. .. .. .. .. .. .. .. .. 55 .. .. .. .. .. 
.. .. .. .. .. .. 43 46 50 43 .. 46 50 43 .. 46 50 43 .. 46 50 43 .. 46 50 43 .. 46 50 43 
.. 46 50 43 .. 46 50 43 .. 46 50 43 .. 46 50 43 .. 46 50 43 .. 46 50 43 14 46 51 14 .. 46 
51 14 .. 46 51 14 .. 46 51 14 .. 46 51 14 .. 46 51 14 .. 46 51 14 .. 46 51 14 .. 46 51 14 
.. 46 51 14 .. 46 51 14 .. 46 51 14 .. 46 50 14 .. 46 50 14 .. 46 50 14 .. 46 50 14 .. 46 
50 14 .. 46 50 14 .. 46 50 14 .. 46 50 14 .. 46 50 14 .. 46 50 14 .. 46 50 14 .. 46 50 14 
.. 46 50 14 .. 46 50 14 .. 46 50 14 .. 46 50 14 .. 46 50 14 .. 46 50 14 41 45 48 41 .. 45 
48 41 .. 45 48 41 .. 45 48 41 .. 45 48 41 .. 45 48 41 43 46 50 43 .. 46 50 43 .. 46 50 43 
.. 46 50 43 .. 46 50 43 .. 46 50 43 .. 46 50 43 .. 46 50 43 .. 46 50 43 .. 46 50 43 .. 46 
50 43 .. 46 50 43 14 46 51 14 .. 46 51 14 .. 46 51 14 .. 46 51 14 .. 46 51 14 .. 46 51 14 
.. 46 51 14 .. 46 51 14 .. 46 51 14 .. 46 51 14 .. 46 51 14 .. 46 51 14 41 46 48 41 .. 46 
48 41 .. 46 48 41 .. 46 48 41 .. 46 48 41 .. 46 48 41 .. 46 48 41 .. 46 48 41 .. 46 48 41 
.. 46 48 41 .. 46 48 41 .. 46 48 41 14 45 50 14 .. 45 50 14 .. 45 50 14 .. 45 50 14 .. 45 
50 14 .. 45 50 14 41 45 48 41 .. 45 48 41 .. 45 48 41 .. 45 48 41 .. 45 48 41 .. 45 48 41 
43 46 50 43 .. 46 50 43 .. 46 50 43 .. 46 50 43 .. 46 50 43 .. 46 50 43 .. 46 50 43 .. 46 
50 43 .. 46 50 43 .. 46 50 43 .. 46 50 43 .. 46 50 43 14 46 51 14 .. 46 51 14 .. 46 51 14 
.. 46 51 14 .. 46 51 14 .. 46 51 14 .. 46 51 14 .. 46 51 14 .. 46 51 14 .. 46 51 14 .. 46 
51 14 .. 46 51 14 .. 46 50 14 .. 46 50 14 .. 46 50 14 .. 46 50 14 .. 46 50 14 .. 46 50 14 
.. 46 50 14 .. 46 50 14 .. 46 50 14 .. 46 50 14 .. 46 50 14 .. 46 50 14 .. 46 50 14 .. 46 
50 14 .. 46 50 14 .. 46 50 14 .. 46 50 14 .. 46 50 14 41 45 48 41 .. 45 48 41 .. 45 48 41 
.. 45 48 41 .. 45 48 41 .. 45 48 41 43 46 50 43 .. 46 50 43 .. 46 50 43 .. 46 50 43 .. 46 
50 43 .. 46 50 43 .. 46 50 43 .. 46 50 43 .. 46 50 43 .. 46 50 43 .. 46 50 43 .. 46 50 43 
14 46 51 14 .. 46 51 14 .. 46 51 14 .. 46 51 14 .. 46 51 14 .. 46 51 14 .. 46 51 14 .. 46 
51 14 .. 46 51 14 .. 46 51 14 .. 46 51 14 .. 46 51 14 41 46 48 41 .. 46 48 41 .. 46 48 41 
.. 46 48 41 .. 46 48 41 .. 46 48 41 .. 46 48 41 .. 46 48 41 .. 46 48 41 .. 46 48 41 .. 46 
48 41 .. 46 48 41 14 45 50 14 .. 45 50 14 .. 45 50 14 .. 45 50 14 .. 45 50 14 .. 45 50 14 
41 45 48 41 .. 45 48 41 .. 45 48 41 .. 45 48 41 .. 45 48 41 .. 45 48 41 43 .. .. .. .. .. 
.. .. .. .. .. .. 50 .. .. .. .. .. .. .. .. .. .. .. .. .. .. .. .. .. .. .. .. .. .. .. 
.. .. .. .. .. .. .. .. .. .. .. .. .. .. .. .. .. .. .. .. .. .. .. .. 51 .. .. .. .. .. 
.. .. .. .. .. .. .. .. .. .. .. .. .. .. .. .. .. .. 53 .. .. .. .. .. .. .. .. .. .. .. 
.. .. .. .. .. .. .. .. .. .. .. .. 51 .. .. .. .. .. .. .. .. .. .. .. 50 .. .. .. .. .. 
.. .. .. .. .. .. 48 .. .. .. .. .. .. .. .. .. .. .. 46 .. .. .. .. .. .. .. .. .. .. .. 
48 .. .. .. .. .. .. .. .. .. .. .. .. .. .. .. .. .. .. .. .. .. .. .. 50 .. .. .. .. .. 
.. .. .. .. .. .. .. .. .. .. .. .. .. .. .. .. .. .. .. .. .. .. .. .. .. .. .. .. .. .. 
43 .. .. .. .. .. .. .. .. .. .. .. 41 .. .. .. .. .. .. .. .. .. .. .. 43 .. .. .. .. .. 
.. .. .. .. .. .. 46 .. .. .. .. .. .. .. .. .. .. .. .. .. .. .. .. .. .. .. .. .. .. .. 
43 .. .. .. .. .. .. .. .. .. .. .. .. .. .. .. .. .. .. .. .. .. .. .. .. .. .. .. .. .. 
.. .. .. .. .. .. 41 .. .. .. .. .. .. .. .. .. .. .. .. .. .. .. .. .. .. .. .. .. .. .. 
38 .. .. .. .. .. .. .. .. .. .. .. .. .. .. .. .. .. .. .. .. .. .. .. .. .. .. .. .. .. 
.. .. .. .. .. .. 50 .. .. .. .. .. .. .. .. .. .. .. .. .. .. .. .. .. .. .. .. .. .. .. 
.. .. .. .. .. .. .. .. .. .. .. .. .. .. .. .. .. .. .. .. .. .. .. .. 51 .. .. .. .. .. 
.. .. .. .. .. .. .. .. .. .. .. .. .. .. .. .. .. .. 53 .. .. .. .. .. .. .. .. .. .. .. 
.. .. .. .. .. .. .. .. .. .. .. .. 51 .. .. .. .. .. .. .. .. .. .. .. 50 .. .. .. .. .. 
.. .. .. .. .. .. 48 .. .. .. .. .. .. .. .. .. .. .. 46 .. .. .. .. .. .. .. .. .. .. .. 
48 .. .. .. .. .. .. .. .. .. .. .. .. .. .. .. .. .. .. .. .. .. .. .. 50 .. .. .. .. .. 
.. .. .. .. .. .. .. .. .. .. .. .. .. .. .. .. .. .. .. .. .. .. .. .. .. .. .. .. .. .. 
43 .. .. .. .. .. .. .. .. .. .. .. 41 .. .. .. .. .. .. .. .. .. .. .. 43 .. .. .. .. .. 
.. .. .. .. .. .. 46 .. .. .. .. .. .. .. .. .. .. .. .. .. .. .. .. .. .. .. .. .. .. .. 
43 .. .. .. .. .. .. .. .. .. .. .. .. .. .. .. .. .. .. .. .. .. .. .. .. .. .. .. .. .. 
.. .. .. .. .. .. 41 .. .. .. .. .. .. .. .. .. .. .. .. .. .. .. .. .. .. .. .. .. .. .. 
38 .. .. .. .. .. .. .. .. .. .. .. .. .. .. .. .. .. .. .. .. .. .. .. .. .. .. .. .. .. 
.. .. .. .. .. .. 52 .. .. .. .. .. .. .. .. .. .. .. .. .. .. .. .. .. .. .. .. .. .. .. 
.. .. .. .. .. .. .. .. .. .. .. .. .. .. .. .. .. .. .. .. .. .. .. .. 53 .. .. .. .. .. 
.. .. .. .. .. .. .. .. .. .. .. .. .. .. .. .. .. .. .. .. .. .. .. .. .. .. .. .. .. .. 
52 .. .. .. .. .. .. .. .. .. .. .. 50 .. .. .. .. .. .. .. .. .. .. .. 48 .. .. .. .. .. 
.. .. .. .. .. .. 50 .. .. .. .. .. .. .. .. .. .. .. .. .. .. .. .. .. .. .. .. .. .. .. 
52 .. .. .. .. .. .. .. .. .. .. .. .. .. .. .. .. .. .. .. .. .. .. .. .. .. .. .. .. .. 
.. .. .. .. .. .. 45 .. .. .. .. .. .. .. .. .. .. .. 43 .. .. .. .. .. .. .. .. .. .. .. 
45 .. .. .. .. .. .. .. .. .. .. .. 48 .. .. .. .. .. .. .. .. .. .. .. .. .. .. .. .. .. 
44 .. .. .. .. .. 43 .. .. .. .. .. .. .. .. .. .. .. .. .. .. .. .. .. .. .. .. .. .. .. 
40 .. .. .. .. .. .. .. .. .. .. .. .. .. .. .. .. .. .. .. .. .. .. .. .. .. .. .. .. .. 
.. .. .. .. .. .. 52 .. .. .. .. .. .. .. .. .. .. .. .. .. .. .. .. .. .. .. .. .. .. .. 
.. .. .. .. .. .. .. .. .. .. .. .. .. .. .. .. .. .. .. .. .. .. .. .. 53 .. .. .. .. .. 
.. .. .. .. .. .. .. .. .. .. .. .. .. .. .. .. .. .. 55 .. .. .. .. .. .. .. .. .. .. .. 
.. .. .. .. .. .. .. .. .. .. .. .. 53 .. .. .. .. .. .. .. .. .. .. .. 52 .. .. .. .. .. 
.. .. .. .. .. .. 50 .. .. .. .. .. .. .. .. .. .. .. 48 .. .. .. .. .. .. .. .. .. .. .. 
50 .. .. .. .. .. .. .. .. .. .. .. .. .. .. .. .. .. .. .. .. .. .. .. 52 .. .. .. .. .. 
.. .. .. .. .. .. .. .. .. .. .. .. .. .. .. .. .. .. .. .. .. .. .. .. .. .. .. .. .. .. 
45 .. .. .. .. .. .. .. .. .. .. .. 43 .. .. .. .. .. .. .. .. .. .. .. 45 .. .. .. .. .. 
.. .. .. .. .. .. 48 .. .. .. .. .. .. .. .. .. .. .. .. .. .. .. .. .. .. .. .. .. .. .. 
45 .. .. .. .. .. .. .. .. .. .. .. .. .. .. .. .. .. .. .. .. .. .. .. .. .. .. .. .. .. 
.. .. .. .. .. .. 43 .. .. .. .. .. 46 .. .. .. .. .. .. .. .. .. .. .. 42 .. .. .. .. .. 
.. .. .. .. .. .. 44 .. .. .. .. .. 43 44 .. .. .. .. .. .. 43 44 .. .. .. .. .. .. 43 44 
.. .. .. .. .. .. 43 44 .. .. .. .. .. .. 43 44 .. .. .. .. .. .. 43 44 .. .. .. .. .. .. 
43 44 .. .. .. .. .. .. .. .. 43 44 .. .. .. .. .. .. 43 44 .. .. .. .. .. .. 43 44 .. .. 
.. .. .. .. 43 44 .. .. .. .. .. .. 43 44 .. .. .. .. .. .. .. .. 43 44 .. .. .. .. .. .. 
43 44 .. .. .. .. .. .. 43 44 .. .. .. .. .. .. 43 44 .. .. .. .. .. .. 43 44 .. .. .. .. 
.. .. .. .. 43 44 .. .. .. .. .. .. 43 44 .. .. .. .. .. .. 43 44 .. .. .. .. .. .. 43 44 
.. .. .. .. .. .. 43 44 .. .. .. .. .. .. .. .. 43 44 .. .. .. .. .. .. 43 44 .. .. .. .. 
.. .. 43 44 .. .. .. .. .. .. 43 44 .. .. .. .. .. .. 43 44 .. .. .. .. .. .. .. .. 43 44 
.. .. .. .. .. .. 43 44 .. .. .. .. .. .. 43 44 .. .. .. .. .. .. 43 44 .. .. .. .. .. .. 
43 44 .. .. .. .. .. .. .. .. 43 44 .. .. .. .. .. .. 43 44 .. .. .. .. .. .. 43 44 .. .. 
.. .. .. .. 43 44 .. .. .. .. .. .. 43 44 .. .. .. .. .. .. .. .. 43 44 .. .. .. .. .. .. 
43 44 .. .. .. .. .. .. 43 44 .. .. .. .. .. .. 43 44 49 .. .. .. .. .. 51 .. .. .. .. .. 
.. .. .. .. .. .. 47 .. .. .. .. .. .. .. .. .. .. .. 44 .. .. .. .. .. 43 44 .. .. .. .. 
.. .. 43 44 .. .. .. .. .. .. 43 44 .. .. .. .. .. .. 43 44 .. .. .. .. .. .. 43 44 .. .. 
.. .. .. .. 43 44 .. .. .. .. .. .. 43 44 .. .. .. .. .. .. .. .. 43 44 .. .. .. .. 
! End
