! Simple
! Song 0
50 .. 34 .. .. .. .. .. .. .. .. .. .. 39 .. .. .. .. .. .. .. .. .. .. .. .. .. .. .. .. 
.. .. .. .. .. 46 .. .. .. .. .. .. .. .. .. .. 45 42 40 44 41 39 37 35 34 32 .. 43 .. .. 
.. .. .. .. .. .. .. .. 39 .. .. .. .. .. .. .. .. .. .. 46 .. .. .. .. .. .. .. .. .. .. 
.. .. .. .. .. .. .. .. .. .. .. 39 .. .. .. .. .. .. .. .. .. .. 43 .. .. .. .. .. .. .. 
.. .. .. 46 .. .. .. .. .. .. .. .. .. .. 45 42 40 44 41 39 37 35 34 32 .. 43 .. .. .. .. 
.. .. .. .. .. .. 46 .. .. .. .. .. .. .. .. .. .. 44 .. .. .. .. .. .. .. .. .. .. 36 .. 
.. .. .. .. .. .. .. .. .. 39 .. .. .. .. .. .. .. .. .. .. 44 .. .. .. .. .. .. .. .. .. 
.. 48 .. .. .. .. .. .. .. .. .. .. 45 42 40 44 41 39 37 35 34 32 .. 44 .. .. .. .. .. .. 
.. .. .. .. 39 .. .. .. .. .. .. .. .. .. .. 48 .. .. .. .. .. .. .. .. .. .. .. .. .. .. 
.. .. .. .. .. .. .. 39 .. .. .. .. .. .. .. .. .. .. 44 .. .. .. .. .. .. .. .. .. .. 48 
.. .. .. .. .. .. .. .. .. .. 45 42 40 44 41 39 37 35 34 32 31 30 28 27 26 25 24 23 .. 22 
21 20 .. 19 18 .. 17 16 .. 15 .. 14 75 63 56 51 48 44 42 39 37 36 34 .. 36 .. .. .. .. .. 
.. .. .. .. .. 39 .. .. .. .. .. .. .. .. .. .. 44 .. .. .. .. .. .. .. .. .. .. 48 .. .. 
.. .. .. .. .. .. .. .. 45 42 40 44 41 39 37 35 34 32 .. 44 .. .. .. .. .. .. .. .. .. .. 
39 .. .. .. .. .. .. .. .. .. .. 44 .. .. .. .. .. .. .. .. .. .. .. .. .. .. .. .. .. .. 
.. .. .. 39 .. .. .. .. .. .. .. .. .. .. 44 .. .. .. .. .. .. .. .. .. .. 48 .. .. .. .. 
.. .. .. .. .. .. 45 42 40 44 41 39 37 35 34 32 31 30 28 27 26 25 24 23 .. 22 21 .. 48 .. 
51 .. 56 .. 48 .. 51 .. 56 .. 48 .. 51 .. 56 .. 48 .. 51 .. 37 .. .. .. .. .. .. .. .. .. 
.. 41 .. .. .. .. .. .. .. .. .. .. 44 .. .. .. .. .. .. .. .. .. .. 49 .. .. .. .. .. .. 
.. .. .. .. 45 42 40 44 41 39 37 35 34 32 .. 44 .. .. .. .. .. .. .. .. .. .. 41 .. .. .. 
.. .. .. .. .. .. .. 49 .. .. .. .. .. .. .. .. .. .. .. .. .. .. .. .. .. .. .. .. .. 41 
.. .. .. .. .. .. .. .. .. .. 44 .. .. .. .. .. .. .. .. .. .. 49 .. .. .. .. .. .. .. .. 
.. .. 45 42 40 44 41 39 37 35 34 32 .. 44 .. .. .. .. .. .. .. .. .. .. 41 .. .. .. .. .. 
.. .. .. .. .. .. .. .. .. .. .. .. .. .. .. .. 36 .. .. .. .. .. .. .. .. .. .. 39 .. .. 
.. .. .. .. .. .. .. .. 44 .. .. .. .. .. .. .. .. .. .. 48 .. .. .. .. .. .. .. .. .. .. 
45 42 40 44 41 39 37 35 34 32 .. 44 .. .. .. .. .. .. .. .. .. .. 39 .. .. .. .. .. .. .. 
.. .. .. .. .. .. .. .. .. .. .. .. .. .. 43 .. .. .. .. .. .. .. .. .. .. 39 .. .. .. .. 
.. .. .. .. .. .. 43 .. .. .. .. .. .. .. .. .. .. 46 .. .. .. .. .. .. .. .. .. .. 45 42 
40 44 41 39 37 35 34 32 .. 43 .. .. .. .. .. .. .. .. .. .. 39 .. .. .. .. .. .. .. .. .. 
.. .. .. .. .. .. .. .. .. .. .. .. 46 .. .. .. .. .. .. .. .. .. .. .. .. .. .. .. .. .. 
.. .. .. .. .. .. .. .. .. .. .. .. .. .. .. .. .. .. .. .. .. .. .. .. .. .. 36 .. .. .. 
.. .. .. .. .. .. .. 39 .. .. .. .. .. .. .. .. .. .. 44 .. .. .. .. .. .. .. .. .. .. 48 
.. .. .. .. .. .. .. .. .. .. 45 42 40 44 41 39 37 35 34 32 .. 44 .. .. .. .. .. .. .. .. 
.. .. 39 .. .. .. .. .. .. .. .. .. .. 48 .. .. .. .. .. .. .. .. .. .. .. .. .. .. .. .. 
.. .. .. .. .. 39 .. .. .. .. .. .. .. .. .. .. 44 .. .. .. .. .. .. .. .. .. .. 48 .. .. 
.. .. .. .. .. .. .. .. 45 42 40 44 41 39 37 35 34 32 31 30 28 27 26 25 24 23 .. 22 21 20 
.. 19 18 .. 17 16 .. 15 .. 14 75 63 56 51 48 44 42 39 37 36 34 .. 36 .. .. .. .. .. .. .. 
.. .. .. 39 .. .. .. .. .. .. .. .. .. .. 44 .. .. .. .. .. .. .. .. .. .. 48 .. .. .. .. 
.. .. .. .. .. .. 45 42 40 44 41 39 37 35 34 32 .. 44 .. .. .. .. .. .. .. .. .. .. 39 .. 
.. .. .. .. .. .. .. .. .. 44 .. .. .. .. .. .. .. .. .. .. .. .. .. .. .. .. .. .. .. .. 
.. 39 .. .. .. .. .. .. .. .. .. .. 44 .. .. .. .. .. .. .. .. .. .. 48 .. .. .. .. .. .. 
.. .. .. .. 45 42 40 44 41 39 37 35 34 32 31 30 28 27 26 25 24 23 .. 22 21 .. 48 .. 51 .. 
56 .. 48 .. 51 .. 56 .. 48 .. 51 .. 56 .. 48 .. 51 .. 37 .. .. .. .. .. .. .. .. .. .. 41 
.. .. .. .. .. .. .. .. .. .. 44 .. .. .. .. .. .. .. .. .. .. 49 .. .. .. .. .. .. .. .. 
.. .. 45 42 40 44 41 39 37 35 34 32 .. 44 .. .. .. .. .. .. .. .. .. .. 41 .. .. .. .. .. 
.. .. .. .. .. 49 .. .. .. .. .. .. .. .. .. .. .. .. .. .. .. .. .. .. .. .. .. 41 .. .. 
.. .. .. .. .. .. .. .. 44 .. .. .. .. .. .. .. .. .. .. 49 .. .. .. .. .. .. .. .. .. .. 
45 42 40 44 41 39 37 35 34 32 .. 44 .. .. .. .. .. .. .. .. .. .. 41 .. .. .. .. .. .. .. 
.. .. .. .. .. .. .. .. .. .. .. .. .. .. 36 .. .. .. .. .. .. .. .. .. .. 39 .. .. .. .. 
.. .. .. .. .. .. 44 .. .. .. .. .. .. .. .. .. .. 48 .. .. .. .. .. .. .. .. .. .. 45 42 
40 44 41 39 37 35 34 32 .. 44 .. .. .. .. .. .. .. .. .. .. 39 .. .. .. .. .. .. .. .. .. 
.. .. .. .. .. .. .. .. .. .. .. .. 43 .. .. .. .. .. .. .. .. .. .. 39 .. .. .. .. .. .. 
.. .. .. .. 43 .. .. .. .. .. .. .. .. .. .. 46 .. .. .. .. .. .. .. .. .. .. 45 42 40 44 
41 39 37 35 34 32 .. 43 .. .. .. .. .. .. .. .. .. .. 39 .. .. .. .. .. .. .. .. .. .. .. 
.. .. .. .. .. .. .. .. .. .. 36 .. .. .. .. .. .. .. .. .. .. 39 .. .. .. .. .. .. .. .. 
.. .. 44 .. .. .. .. .. .. .. .. .. .. 48 .. .. .. .. .. .. .. .. .. .. 45 42 40 44 41 39 
37 35 34 32 .. 44 .. .. .. .. .. .. .. .. .. .. 39 .. .. .. .. .. .. .. .. .. .. .. .. .. 
.. .. .. .. .. .. .. .. 36 .. .. .. .. .. .. .. .. .. .. 39 .. .. .. .. .. .. .. .. .. .. 
44 .. .. .. .. .. .. .. .. .. .. 48 .. .. .. .. .. .. .. .. .. .. 45 42 40 44 41 39 37 35 
34 32 .. 44 .. .. .. .. .. .. .. .. .. .. 39 .. .. .. .. .. .. .. .. .. .. .. .. .. .. .. 
.. .. .. .. .. .. .. .. .. .. .. .. .. .. .. .. .. 36 .. .. .. .. .. .. .. .. .. .. 37 .. 
.. .. .. .. .. .. .. .. .. .. .. .. .. .. .. .. .. .. .. .. 45 42 40 44 41 39 37 35 34 32 
.. 43 .. .. .. .. .. .. .. .. .. .. 39 .. .. .. .. .. .. .. .. .. .. 46 .. .. .. .. .. .. 
.. .. .. .. .. .. .. .. .. .. .. .. .. .. .. 43 .. .. .. .. .. .. .. .. .. .. 39 .. .. .. 
.. .. .. .. .. .. .. 46 .. .. .. .. .. .. .. .. .. .. 45 42 40 44 41 39 37 35 34 32 .. 43 
.. .. .. .. .. .. .. .. .. .. 39 .. .. .. .. .. .. .. .. .. .. .. .. .. .. .. .. .. .. .. 
.. .. .. .. .. .. .. .. .. .. .. .. .. 36 .. .. .. .. .. .. .. .. .. .. 37 .. .. .. .. .. 
.. .. .. .. .. .. .. .. .. .. .. .. .. .. .. .. 45 42 40 44 41 39 37 35 34 32 .. 43 .. .. 
.. .. .. .. .. .. .. .. 39 .. .. .. .. .. .. .. .. .. .. 46 .. .. .. .. .. .. .. .. .. .. 
.. .. .. .. .. .. .. .. .. .. .. 43 .. .. .. .. .. .. .. .. .. .. 39 .. .. .. .. .. .. .. 
.. .. .. 46 .. .. .. .. .. .. .. .. .. .. 45 42 40 44 41 39 37 35 34 32 .. 43 .. .. .. .. 
.. .. .. .. .. .. 39 .. .. .. .. .. .. .. .. .. .. .. .. .. .. .. .. .. .. .. .. .. .. .. 
.. .. .. .. .. .. .. .. .. 36 .. .. .. .. .. .. .. .. .. .. 37 .. .. .. .. .. .. .. .. .. 
.. .. .. .. .. .. .. .. .. .. .. .. 45 42 40 44 41 39 37 35 34 32 .. 43 .. .. .. .. .. .. 
.. .. .. .. 39 .. .. .. .. .. .. .. .. .. .. 46 .. .. .. .. .. .. .. .. .. .. .. .. .. .. 
.. .. .. .. .. .. .. 43 .. .. .. .. .. .. .. .. .. .. 39 .. .. .. .. .. .. .. .. .. .. 46 
.. .. .. .. .. .. .. .. .. .. 45 42 40 44 41 39 37 35 34 32 .. 43 .. .. .. .. .. .. .. .. 
.. .. 39 .. .. .. .. .. .. .. .. .. .. .. .. .. .. .. .. .. .. .. .. .. 36 .. .. .. .. .. 
.. .. .. .. .. 39 .. .. .. .. .. .. .. .. .. .. 44 .. .. .. .. .. .. .. .. .. .. 48 .. .. 
.. .. .. .. .. .. .. .. 45 42 40 44 41 39 37 35 34 32 .. 44 .. .. .. .. .. .. .. .. .. .. 
39 .. .. .. .. .. .. .. .. .. .. 48 .. .. .. .. .. .. .. .. .. .. .. .. .. .. .. .. .. .. 
.. .. .. 39 .. .. .. .. .. .. .. .. .. .. 44 .. .. .. .. .. .. .. .. .. .. 48 .. .. .. .. 
.. .. .. .. .. .. 45 42 40 44 41 39 37 35 34 32 31 30 28 27 26 25 24 23 .. 22 21 20 .. 19 
18 .. 17 16 .. 15 .. 14 75 63 56 51 48 44 42 39 37 36 34 .. 34 .. .. .. .. .. .. .. .. .. 
.. 39 .. .. .. .. .. .. .. .. .. .. .. .. .. .. .. .. .. .. .. .. .. 46 .. .. .. .. .. .. 
.. .. .. .. 45 42 40 44 41 39 37 35 34 32 .. 43 .. .. .. .. .. .. .. .. .. .. 39 .. .. .. 
.. .. .. .. .. .. .. 46 .. .. .. .. .. .. .. .. .. .. .. .. .. .. .. .. .. .. .. .. .. 39 
.. .. .. .. .. .. .. .. .. .. 43 .. .. .. .. .. .. .. .. .. .. 46 .. .. .. .. .. .. .. .. 
.. .. 45 42 40 44 41 39 37 35 34 32 .. 43 .. .. .. .. .. .. .. .. .. .. 46 .. .. .. .. .. 
.. .. .. .. .. 44 .. .. .. .. .. .. .. .. .. .. 36 .. .. .. .. .. .. .. .. .. .. 39 .. .. 
.. .. .. .. .. .. .. .. 44 .. .. .. .. .. .. .. .. .. .. 48 .. .. .. .. .. .. .. .. .. .. 
45 42 40 44 41 39 37 35 34 32 .. 44 .. .. .. .. .. .. .. .. .. .. 39 .. .. .. .. .. .. .. 
.. .. .. 48 .. .. .. .. .. .. .. .. .. .. .. .. .. .. .. .. .. .. .. .. .. 39 .. .. .. .. 
.. .. .. .. .. .. 44 .. .. .. .. .. .. .. .. .. .. 48 .. .. .. .. .. .. .. .. .. .. 45 42 
40 44 41 39 37 35 34 32 31 30 28 27 26 25 24 23 .. 22 21 20 .. 19 18 .. 17 16 .. 15 .. 14 
75 63 56 51 48 44 42 39 37 36 34 .. 36 .. .. .. .. .. .. .. .. .. .. 39 .. .. .. .. .. .. 
.. .. .. .. 44 .. .. .. .. .. .. .. .. .. .. 48 .. .. .. .. .. .. .. .. .. .. 45 42 40 44 
41 39 37 35 34 32 .. 44 .. .. .. .. .. .. .. .. .. .. 39 .. .. .. .. .. .. .. .. .. .. 44 
.. .. .. .. .. .. .. .. .. .. .. .. .. .. .. .. .. .. .. .. .. 39 .. .. .. .. .. .. .. .. 
.. .. 44 .. .. .. .. .. .. .. .. .. .. 48 .. .. .. .. .. .. .. .. .. .. 45 42 40 44 41 39 
37 35 34 32 31 30 28 27 26 25 24 23 .. 22 21 .. 48 .. 51 .. 56 .. 48 .. 51 .. 56 .. 48 .. 
51 .. 56 .. 48 .. 51 .. 37 .. .. .. .. .. .. .. .. .. .. 41 .. .. .. .. .. .. .. .. .. .. 
44 .. .. .. .. .. .. .. .. .. .. 49 .. .. .. .. .. .. .. .. .. .. 45 42 40 44 41 39 37 35 
34 32 .. 44 .. .. .. .. .. .. .. .. .. .. 41 .. .. .. .. .. .. .. .. .. .. 49 .. .. .. .. 
.. .. .. .. .. .. .. .. .. .. .. .. .. .. .. .. .. 41 .. .. .. .. .. .. .. .. .. .. 44 .. 
.. .. .. .. .. .. .. .. .. 49 .. .. .. .. .. .. .. .. .. .. 45 42 40 44 41 39 37 35 34 32 
.. 44 .. .. .. .. .. .. .. .. .. .. 41 .. .. .. .. .. .. .. .. .. .. .. .. .. .. .. .. .. 
.. .. .. .. 36 .. .. .. .. .. .. .. .. .. .. 39 .. .. .. .. .. .. .. .. .. .. 44 .. .. .. 
.. .. .. .. .. .. .. 48 .. .. .. .. .. .. .. .. .. .. 45 42 40 44 41 39 37 35 34 32 .. 44 
.. .. .. .. .. .. .. .. .. .. 39 .. .. .. .. .. .. .. .. .. .. .. .. .. .. .. .. .. .. .. 
.. .. 43 .. .. .. .. .. .. .. .. .. .. 39 .. .. .. .. .. .. .. .. .. .. 43 .. .. .. .. .. 
.. .. .. .. .. 46 .. .. .. .. .. .. .. .. .. .. 45 42 40 44 41 39 37 35 34 32 .. 43 .. .. 
.. .. .. .. .. .. .. .. 39 .. .. .. .. .. .. .. .. .. .. .. .. .. .. .. .. .. .. .. .. .. 
46 .. .. .. .. .. .. .. .. .. .. .. .. .. .. .. .. .. .. .. .. .. .. .. .. .. .. .. .. .. 
.. .. .. .. .. .. .. .. .. .. .. .. .. .. 36 .. .. .. .. .. .. .. .. .. .. 39 .. .. .. .. 
.. .. .. .. .. .. 44 .. .. .. .. .. .. .. .. .. .. 48 .. .. .. .. .. .. .. .. .. .. 45 42 
40 44 41 39 37 35 34 32 .. 44 .. .. .. .. .. .. .. .. .. .. 39 .. .. .. .. .. .. .. .. .. 
.. 48 .. .. .. .. .. .. .. .. .. .. .. .. .. .. .. .. .. .. .. .. .. 39 .. .. .. .. .. .. 
.. .. .. .. 44 .. .. .. .. .. .. .. .. .. .. 48 .. .. .. .. .. .. .. .. .. .. 45 42 40 44 
41 39 37 35 34 32 31 30 28 27 26 25 24 23 .. 22 21 20 .. 19 18 .. 17 16 .. 15 .. 14 75 63 
56 51 48 44 42 39 37 36 34 .. 36 .. .. .. .. .. .. .. .. .. .. 39 .. .. .. .. .. .. .. .. 
.. .. 44 .. .. .. .. .. .. .. .. .. .. 48 .. .. .. .. .. .. .. .. .. .. 45 42 40 44 41 39 
37 35 34 32 .. 44 .. .. .. .. .. .. .. .. .. .. 39 .. .. .. .. .. .. .. .. .. .. 44 .. .. 
.. .. .. .. .. .. .. .. .. .. .. .. .. .. .. .. .. .. .. 39 .. .. .. .. .. .. .. .. .. .. 
44 .. .. .. .. .. .. .. .. .. .. 48 .. .. .. .. .. .. .. .. .. .. 45 42 40 44 41 39 37 35 
34 32 31 30 28 27 26 25 24 23 .. 22 21 .. 48 .. 51 .. 56 .. 48 .. 51 .. 56 .. 48 .. 51 .. 
56 .. 48 .. 51 .. 37 .. .. .. .. .. .. .. .. .. .. 41 .. .. .. .. .. .. .. .. .. .. 44 .. 
.. .. .. .. .. .. .. .. .. 49 .. .. .. .. .. .. .. .. .. .. 45 42 40 44 41 39 37 35 34 32 
.. 44 .. .. .. .. .. .. .. .. .. .. 41 .. .. .. .. .. .. .. .. .. .. 49 .. .. .. .. .. .. 
.. .. .. .. .. .. .. .. .. .. .. .. .. .. .. 41 .. .. .. .. .. .. .. .. .. .. 44 .. .. .. 
.. .. .. .. .. .. .. 49 .. .. .. .. .. .. .. .. .. .. 45 42 40 44 41 39 37 35 34 32 .. 44 
.. .. .. .. .. .. .. .. .. .. 41 .. .. .. .. .. .. .. .. .. .. .. .. .. .. .. .. .. .. .. 
.. .. 36 .. .. .. .. .. .. .. .. .. .. 39 .. .. .. .. .. .. .. .. .. .. 44 .. .. .. .. .. 
.. .. .. .. .. 48 .. .. .. .. .. .. .. .. .. .. 45 42 40 44 41 39 37 35 34 32 .. 44 .. .. 
.. .. .. .. .. .. .. .. 39 .. .. .. .. .. .. .. .. .. .. .. .. .. .. .. .. .. .. .. .. .. 
43 .. .. .. .. .. .. .. .. .. .. 39 .. .. .. .. .. .. .. .. .. .. 43 .. .. .. .. .. .. .. 
.. .. .. 46 .. .. .. .. .. .. .. .. .. .. 45 42 40 44 41 39 37 35 34 32 .. 43 .. .. .. .. 
.. .. .. .. .. .. 39 .. .. .. .. .. .. .. .. .. .. .. .. .. .. .. .. .. .. .. .. .. 36 .. 
.. .. .. .. .. .. .. .. .. 39 .. .. .. .. .. .. .. .. .. .. 44 .. .. .. .. .. .. .. .. .. 
.. 48 .. .. .. .. .. .. .. .. .. .. 45 42 40 44 41 39 37 35 34 32 .. 44 .. .. .. .. .. .. 
.. .. .. .. 39 .. .. .. .. .. .. .. .. .. .. .. .. .. .. .. .. .. .. .. .. .. 36 .. .. .. 
.. .. .. .. .. .. .. 39 .. .. .. .. .. .. .. .. .. .. 44 .. .. .. .. .. .. .. .. .. .. 48 
.. .. .. .. .. .. .. .. .. .. 45 42 40 44 41 39 37 35 34 32 .. 44 .. .. .. .. .. .. .. .. 
.. .. 39 .. .. .. .. .. .. .. .. .. .. .. .. .. .. .. .. .. .. .. .. .. .. .. .. .. .. .. 
.. .. .. .. .. 36 .. .. .. .. .. .. .. .. .. .. 37 .. .. .. .. .. .. .. .. .. .. .. .. .. 
.. .. .. .. .. .. .. .. 45 42 40 44 41 39 37 35 34 32 .. 43 .. .. .. .. .. .. .. .. .. .. 
39 .. .. .. .. .. .. .. .. .. .. 46 .. .. .. .. .. .. .. .. .. .. .. .. .. .. .. .. .. .. 
.. .. .. 43 .. .. .. .. .. .. .. .. .. .. 39 .. .. .. .. .. .. .. .. .. .. 46 .. .. .. .. 
.. .. .. .. .. .. 45 42 40 44 41 39 37 35 34 32 .. 43 .. .. .. .. .. .. .. .. .. .. 39 .. 
.. .. .. .. .. .. .. .. .. .. .. .. .. .. .. .. .. .. .. .. .. .. .. .. .. .. .. .. .. .. 
.. 36 .. .. .. .. .. .. .. .. .. .. 37 .. .. .. .. .. .. .. .. .. .. .. .. .. .. .. .. .. 
.. .. .. .. 45 42 40 44 41 39 37 35 34 32 .. 43 .. .. .. .. .. .. .. .. .. .. 39 .. .. .. 
.. .. .. .. .. .. .. 46 .. .. .. .. .. .. .. .. .. .. .. .. .. .. .. .. .. .. .. .. .. 43 
.. .. .. .. .. .. .. .. .. .. 39 .. .. .. .. .. .. .. .. .. .. 46 .. .. .. .. .. .. .. .. 
.. .. 45 42 40 44 41 39 37 35 34 32 .. 43 .. .. .. .. .. .. .. .. .. .. 39 .. .. .. .. .. 
.. .. .. .. .. .. .. .. .. .. .. .. .. .. .. .. .. .. .. .. .. .. .. .. .. .. .. 36 .. .. 
.. .. .. .. .. .. .. .. 37 .. .. .. .. .. .. .. .. .. .. .. .. .. .. .. .. .. .. .. .. .. 
45 42 40 44 41 39 37 35 34 32 .. 43 .. .. .. .. .. .. .. .. .. .. 39 .. .. .. .. .. .. .. 
.. .. .. 46 .. .. .. .. .. .. .. .. .. .. .. .. .. .. .. .. .. .. .. .. .. 43 .. .. .. .. 
.. .. .. .. .. .. 39 .. .. .. .. .. .. .. .. .. .. 46 .. .. .. .. .. .. .. .. .. .. 45 42 
40 44 41 39 37 35 34 32 .. 43 .. .. .. .. .. .. .. .. .. .. 39 .. .. .. .. .. .. .. .. .. 
.. .. .. .. .. .. .. .. .. .. .. .. 36 .. .. .. .. .. .. .. .. .. .. 39 .. .. .. .. .. .. 
.. .. .. .. 44 .. .. .. .. .. .. .. .. .. .. 48 .. .. .. .. .. .. .. .. .. .. 45 42 40 44 
41 39 37 35 34 32 .. 44 .. .. .. .. .. .. .. .. .. .. 39 .. .. .. .. .. .. .. .. .. .. 48 
.. .. .. .. .. .. .. .. .. .. .. .. .. .. .. .. .. .. .. .. .. 39 .. .. .. .. .. .. .. .. 
.. .. 44 .. .. .. .. .. .. .. .. .. .. 48 .. .. .. .. .. .. .. .. .. .. 45 42 40 44 41 39 
37 35 34 32 31 30 28 27 26 25 24 23 .. 22 21 20 .. 19 18 .. 17 16 .. 15 .. 14 75 63 56 51 
48 44 42 39 37 36 34 .. 34 .. .. .. .. .. .. .. .. .. .. 39 .. .. .. .. .. .. .. .. .. .. 
.. .. .. .. .. .. .. .. .. .. .. 46 .. .. .. .. .. .. .. .. .. .. 45 42 40 44 41 39 37 35 
34 32 .. 43 .. .. .. .. .. .. .. .. .. .. 39 .. .. .. .. .. .. .. .. .. .. 46 .. .. .. .. 
.. .. .. .. .. .. .. .. .. .. .. .. .. .. .. .. .. 39 .. .. .. .. .. .. .. .. .. .. 43 .. 
.. .. .. .. .. .. .. .. .. 46 .. .. .. .. .. .. .. .. .. .. 45 42 40 44 41 39 37 35 34 32 
.. 43 .. .. .. .. .. .. .. .. .. .. 46 .. .. .. .. .. .. .. .. .. .. 44 .. .. .. .. .. .. 
.. .. .. .. 36 .. .. .. .. .. .. .. .. .. .. 39 .. .. .. .. .. .. .. .. .. .. 44 .. .. .. 
.. .. .. .. .. .. .. 48 .. .. .. .. .. .. .. .. .. .. 45 42 40 44 41 39 37 35 34 32 .. 44 
.. .. .. .. .. .. .. .. .. .. 39 .. .. .. .. .. .. .. .. .. .. 48 .. .. .. .. .. .. .. .. 
.. .. .. .. .. .. .. .. .. .. .. .. .. 39 .. .. .. .. .. .. .. .. .. .. 44 .. .. .. .. .. 
.. .. .. .. .. 48 .. .. .. .. .. .. .. .. .. .. 45 42 40 44 41 39 37 35 34 32 31 30 28 27 
26 25 24 23 .. 22 21 20 .. 19 18 .. 17 16 .. 15 .. 14 75 63 56 51 48 44 42 39 37 36 34 .. 
36 .. .. .. .. .. .. .. .. .. .. 39 .. .. .. .. .. .. .. .. .. .. 44 .. .. .. .. .. .. .. 
.. .. .. 48 .. .. .. .. .. .. .. .. .. .. 45 42 40 44 41 39 37 35 34 32 .. 44 .. .. .. .. 
.. .. .. .. .. .. 39 .. .. .. .. .. .. .. .. .. .. 44 .. .. .. .. .. .. .. .. .. .. .. .. 
.. .. .. .. .. .. .. .. .. 39 .. .. .. .. .. .. .. .. .. .. 44 .. .. .. .. .. .. .. .. .. 
.. 48 .. .. .. .. .. .. .. .. .. .. 45 42 40 44 41 39 37 35 34 32 31 30 28 27 26 25 24 23 
.. 22 21 .. 48 .. 51 .. 56 .. 48 .. 51 .. 56 .. 48 .. 51 .. 56 .. 48 .. 51 .. 37 .. .. .. 
.. .. .. .. .. .. .. 41 .. .. .. .. .. .. .. .. .. .. 44 .. .. .. .. .. .. .. .. .. .. 49 
.. .. .. .. .. .. .. .. .. .. 45 42 40 44 41 39 37 35 34 32 .. 44 .. .. .. .. .. .. .. .. 
.. .. 41 .. .. .. .. .. .. .. .. .. .. 49 .. .. .. .. .. .. .. .. .. .. .. .. .. .. .. .. 
.. .. .. .. .. 41 .. .. .. .. .. .. .. .. .. .. 44 .. .. .. .. .. .. .. .. .. .. 49 .. .. 
.. .. .. .. .. .. .. .. 45 42 40 44 41 39 37 35 34 32 .. 44 .. .. .. .. .. .. .. .. .. .. 
41 .. .. .. .. .. .. .. .. .. .. .. .. .. .. .. .. .. .. .. .. .. 36 .. .. .. .. .. .. .. 
.. .. .. 39 .. .. .. .. .. .. .. .. .. .. 44 .. .. .. .. .. .. .. .. .. .. 48 .. .. .. .. 
.. .. .. .. .. .. 45 42 40 44 41 39 37 35 34 32 .. 44 .. .. .. .. .. .. .. .. .. .. 39 .. 
.. .. .. .. .. .. .. .. .. .. .. .. .. .. .. .. .. .. .. .. 43 .. .. .. .. .. .. .. .. .. 
.. 39 .. .. .. .. .. .. .. .. .. .. 43 .. .. .. .. .. .. .. .. .. .. 46 .. .. .. .. .. .. 
.. .. .. .. 45 42 40 44 41 39 37 35 34 32 .. 43 .. .. .. .. .. .. .. .. .. .. 39 .. .. .. 
.. .. .. .. .. .. .. .. .. .. .. .. .. .. .. .. .. .. 46 .. .. .. .. .. .. .. .. .. .. .. 
.. .. .. .. .. .. .. .. .. .. .. .. .. .. .. .. .. .. .. .. .. .. .. .. .. .. .. .. .. .. 
.. .. 36 .. .. .. .. .. .. .. .. .. .. 39 .. .. .. .. .. .. .. .. .. .. 44 .. .. .. .. .. 
.. .. .. .. .. 48 .. .. .. .. .. .. .. .. .. .. 45 42 40 44 41 39 37 35 34 32 .. 44 .. .. 
.. .. .. .. .. .. .. .. 39 .. .. .. .. .. .. .. .. .. .. 48 .. .. .. .. .. .. .. .. .. .. 
.. .. .. .. .. .. .. .. .. .. .. 39 .. .. .. .. .. .. .. .. .. .. 44 .. .. .. .. .. .. .. 
.. .. .. 48 .. .. .. .. .. .. .. .. .. .. 45 42 40 44 41 39 37 35 34 32 31 30 28 27 26 25 
24 23 .. 22 21 20 .. 19 18 .. 17 16 .. 15 .. 14 75 63 56 51 48 44 42 39 37 36 34 .. 36 .. 
.. .. .. .. .. .. .. .. .. 39 .. .. .. .. .. .. .. .. .. .. 44 .. .. .. .. .. .. .. .. .. 
.. 48 .. .. .. .. .. .. .. .. .. .. 45 42 40 44 41 39 37 35 34 32 .. 44 .. .. .. .. .. .. 
.. .. .. .. 39 .. .. .. .. .. .. .. .. .. .. 44 .. .. .. .. .. .. .. .. .. .. .. .. .. .. 
.. .. .. .. .. .. .. 39 .. .. .. .. .. .. .. .. .. .. 44 .. .. .. .. .. .. .. .. .. .. 48 
.. .. .. .. .. .. .. .. .. .. 45 42 40 44 41 39 37 35 34 32 31 30 28 27 26 25 24 23 .. 22 
21 .. 48 .. 51 .. 56 .. 48 .. 51 .. 56 .. 48 .. 51 .. 56 .. 48 .. 51 .. 37 .. .. .. .. .. 
.. .. .. .. .. 41 .. .. .. .. .. .. .. .. .. .. 44 .. .. .. .. .. .. .. .. .. .. 49 .. .. 
.. .. .. .. .. .. .. .. 45 42 40 44 41 39 37 35 34 32 .. 44 .. .. .. .. .. .. .. .. .. .. 
41 .. .. .. .. .. .. .. .. .. .. 49 .. .. .. .. .. .. .. .. .. .. .. .. .. .. .. .. .. .. 
.. .. .. 41 .. .. .. .. .. .. .. .. .. .. 44 .. .. .. .. .. .. .. .. .. .. 49 .. .. .. .. 
.. .. .. .. .. .. 45 42 40 44 41 39 37 35 34 32 .. 44 .. .. .. .. .. .. .. .. .. .. 41 .. 
.. .. .. .. .. .. .. .. .. .. .. .. .. .. .. .. .. .. .. .. 36 .. .. .. .. .. .. .. .. .. 
.. 39 .. .. .. .. .. .. .. .. .. .. 44 .. .. .. .. .. .. .. .. .. .. 48 .. .. .. .. .. .. 
.. .. .. .. 45 42 40 44 41 39 37 35 34 32 .. 44 .. .. .. .. .. .. .. .. .. .. 39 .. .. .. 
.. .. .. .. .. .. .. .. .. .. .. .. .. .. .. .. .. .. 43 .. .. .. .. .. .. .. .. .. .. 39 
.. .. .. .. .. .. .. .. .. .. 43 .. .. .. .. .. .. .. .. .. .. 46 .. .. .. .. .. .. .. .. 
.. .. 45 42 40 44 41 39 37 35 34 32 .. 43 .. .. .. .. .. .. .. .. .. .. 39 .. .. .. .. .. 
.. .. .. .. .. .. .. .. .. .. .. .. .. .. .. .. 36 .. .. .. .. .. .. .. .. .. .. 39 .. .. 
.. .. .. .. .. .. .. .. 44 .. .. .. .. .. .. .. .. .. .. 48 .. .. .. .. .. .. .. .. .. .. 
45 42 40 44 41 39 37 35 34 32 .. 44 .. .. .. .. .. .. .. .. .. .. 39 .. .. .. .. .. .. .. 
.. .. .. .. .. .. .. .. .. .. .. .. .. .. 36 .. .. .. .. .. .. .. .. .. .. 39 .. .. .. .. 
.. .. .. .. .. .. 44 .. .. .. .. .. .. .. .. .. .. 48 .. .. .. .. .. .. .. .. .. .. 45 42 
40 44 41 39 37 35 34 32 .. 44 .. .. .. .. .. .. .. .. .. .. 39 .. .. .. .. .. .. .. .. .. 
.. .. .. .. .. .. .. .. .. .. .. .. .. .. .. .. .. .. .. .. .. .. .. 36 .. .. .. .. .. .. 
.. .. .. .. 37 .. .. .. .. .. .. .. .. .. .. .. .. .. .. .. .. .. .. .. .. .. 45 42 40 44 
41 39 37 35 34 32 .. 43 .. .. .. .. .. .. .. .. .. .. 39 .. .. .. .. .. .. .. .. .. .. 46 
.. .. .. .. .. .. .. .. .. .. .. .. .. .. .. .. .. .. .. .. .. 43 .. .. .. .. .. .. .. .. 
.. .. 39 .. .. .. .. .. .. .. .. .. .. 46 .. .. .. .. .. .. .. .. .. .. 45 42 40 44 41 39 
37 35 34 32 .. 43 .. .. .. .. .. .. .. .. .. .. 39 .. .. .. .. .. .. .. .. .. .. .. .. .. 
.. .. .. .. .. .. .. .. .. .. .. .. .. .. .. .. .. .. .. 36 .. .. .. .. .. .. .. .. .. .. 
37 .. .. .. .. .. .. .. .. .. .. .. .. .. .. .. .. .. .. .. .. .. 45 42 40 44 41 39 37 35 
34 32 .. 43 .. .. .. .. .. .. .. .. .. .. 39 .. .. .. .. .. .. .. .. .. .. 46 .. .. .. .. 
.. .. .. .. .. .. .. .. .. .. .. .. .. .. .. .. .. 43 .. .. .. .. .. .. .. .. .. .. 39 .. 
.. .. .. .. .. .. .. .. .. 46 .. .. .. .. .. .. .. .. .. .. 45 42 40 44 41 39 37 35 34 32 
.. 43 .. .. .. .. .. .. .. .. .. .. 39 .. .. .. .. .. .. .. .. .. .. .. .. .. .. .. 
! Song 1
50 .. 36 .. .. .. .. .. .. .. .. .. .. .. .. .. 48 .. .. .. .. .. .. .. .. .. .. .. .. .. 
47 .. .. .. .. 48 .. .. .. .. .. .. .. .. .. .. .. .. .. .. .. .. .. .. .. .. .. .. 47 .. 
.. .. .. 48 .. .. .. .. .. .. .. .. 47 .. .. 48 .. .. .. 46 .. .. .. .. .. .. 43 .. .. .. 
.. .. .. 41 .. .. .. .. .. .. 39 .. .. .. .. .. .. .. .. .. .. .. .. .. 36 .. .. .. .. .. 
.. .. .. .. .. .. .. .. 48 .. .. .. .. .. .. .. .. .. .. .. .. .. 47 .. .. .. .. 48 .. .. 
.. .. .. .. .. .. .. .. .. .. .. .. .. .. .. .. .. .. .. .. 47 .. .. .. .. 48 .. .. .. .. 
.. .. .. .. 47 .. .. 48 .. .. .. 46 .. .. .. .. .. .. 43 .. .. .. .. .. .. 41 .. .. .. .. 
.. .. 39 .. .. .. .. .. .. .. .. .. .. .. .. .. 41 .. .. .. .. .. .. .. .. .. .. .. .. .. 
48 .. .. .. .. .. .. .. .. .. .. .. .. .. 47 .. .. .. .. 48 .. .. .. .. .. .. .. .. .. .. 
.. .. .. .. .. .. .. .. .. .. .. .. 47 .. .. .. .. 48 .. .. .. .. .. .. .. .. 47 .. .. 48 
.. .. .. 46 .. .. .. .. .. .. 43 .. .. .. .. .. .. 41 .. .. .. .. .. .. 39 .. .. .. .. .. 
.. .. .. .. .. .. .. .. 36 .. .. .. .. .. .. .. .. .. .. .. .. .. 48 .. .. .. .. .. .. .. 
.. .. .. .. .. .. 47 .. .. .. .. 48 .. .. .. .. .. .. .. .. .. .. .. .. .. .. .. .. .. .. 
.. .. .. .. 47 .. .. .. .. 48 .. .. .. .. .. .. .. .. 47 .. .. 48 .. .. .. 46 .. .. .. .. 
.. .. 43 .. .. .. .. .. .. 41 .. .. .. .. .. .. 39 .. .. .. .. .. .. .. .. .. .. .. .. .. 
43 .. .. .. .. .. .. .. .. .. .. .. .. .. .. .. .. .. .. .. .. .. .. .. .. .. .. .. .. .. 
.. .. .. .. .. .. .. .. .. .. .. .. .. .. .. .. .. .. .. .. .. .. .. .. .. .. 42 .. .. .. 
43 .. .. .. .. .. .. .. .. .. 47 .. .. 48 .. .. .. 46 .. .. .. .. .. .. 43 .. .. .. .. .. 
.. 41 .. .. .. .. .. .. 39 .. .. .. .. .. .. .. .. .. .. .. .. .. 36 .. .. .. .. .. .. .. 
.. .. .. .. .. .. 48 .. .. .. .. .. .. .. .. .. .. .. .. .. 47 .. .. .. .. 48 .. .. .. .. 
.. .. .. .. .. .. .. .. .. .. .. .. .. .. .. .. .. .. 47 .. .. .. .. 48 .. .. .. .. .. .. 
.. .. 47 .. .. 48 .. .. .. 46 .. .. .. .. .. .. 43 .. .. .. .. .. .. 41 .. .. .. .. .. .. 
39 .. .. .. .. .. .. .. .. .. .. .. .. .. 36 .. .. .. .. .. .. .. .. .. .. .. .. .. 48 .. 
.. .. .. .. .. .. .. .. .. .. .. .. 47 .. .. .. .. 48 .. .. .. .. .. .. .. .. .. .. .. .. 
.. .. .. .. .. .. .. .. .. .. 47 .. .. .. .. 48 .. .. .. .. .. .. .. .. 47 .. .. 48 .. .. 
.. 46 .. .. .. .. .. .. 43 .. .. .. .. .. .. 41 .. .. .. .. .. .. 39 .. .. .. .. .. .. .. 
.. .. .. .. .. .. 36 .. .. .. .. .. .. .. .. .. .. .. .. .. 48 .. .. .. .. .. .. .. .. .. 
.. .. .. .. 47 .. .. .. .. 48 .. .. .. .. .. .. .. .. .. .. .. .. .. .. .. .. .. .. .. .. 
.. .. 47 .. .. .. .. 48 .. .. .. .. .. .. .. .. 47 .. .. 48 .. .. .. 46 .. .. .. .. .. .. 
43 .. .. .. .. .. .. 41 .. .. .. .. .. .. 39 .. .. .. .. .. .. .. .. .. .. .. .. .. 41 .. 
.. .. .. .. .. .. .. .. .. .. .. .. 48 .. .. .. .. .. .. .. .. .. .. .. .. .. 47 .. .. .. 
.. 48 .. .. .. .. .. .. .. .. .. .. .. .. .. .. .. .. .. .. .. .. .. .. 47 .. .. .. .. 48 
.. .. .. .. .. .. .. .. 47 .. .. 48 .. .. .. 46 .. .. .. .. .. .. 43 .. .. .. .. .. .. 41 
.. .. .. .. .. .. 39 .. .. .. .. .. .. .. .. .. .. .. .. .. 36 .. .. .. .. .. .. .. .. .. 
.. .. .. .. 48 .. .. .. .. .. .. .. .. .. .. .. .. .. 47 .. .. .. .. 48 .. .. .. .. .. .. 
.. .. .. .. .. .. .. .. .. .. .. .. .. .. .. .. 47 .. .. .. .. 48 .. .. .. .. .. .. .. .. 
47 .. .. 48 .. .. .. 46 .. .. .. .. .. .. 43 .. .. .. .. .. .. 41 .. .. .. .. .. .. 39 .. 
.. .. .. .. .. .. .. .. .. .. .. .. 43 .. .. .. .. .. .. .. .. .. .. .. .. .. .. .. .. .. 
.. .. .. .. .. .. .. .. .. .. .. .. .. .. .. .. .. .. .. .. .. .. .. .. .. .. .. .. .. .. 
.. .. .. .. .. .. .. .. 42 .. .. .. 43 .. .. .. .. .. .. .. .. .. 47 .. .. 48 .. .. .. 46 
.. .. .. .. .. .. 43 .. .. .. .. .. .. 41 .. .. .. .. .. .. 39 .. .. .. .. .. .. .. .. .. 
.. .. .. .. .. .. .. .. .. .. .. .. .. .. .. .. .. .. .. .. .. .. .. .. .. .. .. .. .. .. 
.. .. .. .. .. .. .. .. .. .. .. .. .. .. .. .. .. .. .. .. .. .. .. .. .. .. .. .. .. .. 
.. .. .. .. .. .. .. .. .. .. .. .. .. .. .. .. .. .. .. .. .. .. .. .. .. .. .. .. .. .. 
.. .. .. .. .. .. .. .. .. .. .. .. .. .. .. .. .. .. .. .. .. .. .. .. .. .. .. .. .. .. 
.. .. .. .. .. .. .. .. .. .. 43 .. .. .. .. .. .. .. .. .. .. .. .. .. .. .. .. .. .. .. 
.. .. .. .. .. .. .. .. .. .. .. .. .. .. .. .. .. .. .. .. .. .. .. .. .. .. .. .. .. .. 
.. .. .. .. .. .. .. .. .. .. .. .. .. .. .. .. .. .. .. .. .. .. .. .. .. .. .. .. .. .. 
.. .. .. .. .. .. .. .. .. .. .. .. .. .. .. .. .. .. .. .. .. .. .. .. .. .. .. .. .. .. 
.. .. 45 .. .. .. .. .. .. .. .. .. .. .. .. .. .. .. .. .. .. .. .. .. .. .. .. .. .. .. 
.. .. .. .. .. .. .. .. .. .. .. .. .. .. .. .. .. .. .. .. .. .. .. .. .. .. .. .. .. .. 
.. .. .. .. .. .. .. .. .. .. .. .. .. .. .. .. .. .. .. .. .. .. .. .. .. .. .. .. .. .. 
.. .. .. .. .. .. .. .. .. .. .. .. .. .. .. .. .. .. .. .. .. .. .. .. 44 .. .. .. .. .. 
.. .. .. .. .. .. .. .. .. .. .. .. .. .. .. .. .. .. .. .. .. .. 42 .. .. .. .. .. .. .. 
.. .. .. .. .. .. .. .. .. .. .. .. .. .. .. .. .. .. .. .. 39 .. .. .. .. .. .. .. .. .. 
.. .. .. .. .. .. .. .. .. .. .. .. .. .. .. .. .. .. 51 .. .. .. .. .. .. .. .. .. .. .. 
.. .. .. .. .. .. .. .. .. .. .. .. .. .. .. .. 53 .. .. .. .. .. .. .. .. .. .. .. .. .. 
.. .. .. .. .. .. .. .. .. .. .. .. .. .. 51 .. .. .. .. .. .. .. .. .. .. .. .. .. 50 .. 
.. .. .. .. .. .. .. .. .. .. .. .. .. .. .. .. .. .. .. .. .. .. .. .. .. .. .. .. .. .. 
.. .. .. .. .. .. .. .. .. .. .. .. .. .. .. .. .. .. .. .. .. .. .. .. 36 .. .. .. .. .. 
.. .. .. .. .. .. .. .. 48 .. .. .. .. .. .. .. .. .. .. .. .. .. 47 .. .. .. .. 48 .. .. 
.. .. .. .. .. .. .. .. .. .. .. .. .. .. .. .. .. .. .. .. 47 .. .. .. .. 48 .. .. .. .. 
.. .. .. .. 47 .. .. 48 .. .. .. 46 .. .. .. .. .. .. 43 .. .. .. .. .. .. 41 .. .. .. .. 
.. .. 39 .. .. .. .. .. .. .. .. .. .. .. .. .. 36 .. .. .. .. .. .. .. .. .. .. .. .. .. 
48 .. .. .. .. .. .. .. .. .. .. .. .. .. 47 .. .. .. .. 48 .. .. .. .. .. .. .. .. .. .. 
.. .. .. .. .. .. .. .. .. .. .. .. 47 .. .. .. .. 48 .. .. .. .. .. .. .. .. 47 .. .. 48 
.. .. .. 46 .. .. .. .. .. .. 43 .. .. .. .. .. .. 41 .. .. .. .. .. .. 39 .. .. .. .. .. 
.. .. .. .. .. .. .. .. 41 .. .. .. .. .. .. .. .. .. .. .. .. .. 48 .. .. .. .. .. .. .. 
.. .. .. .. .. .. 47 .. .. .. .. 48 .. .. .. .. .. .. .. .. .. .. .. .. .. .. .. .. .. .. 
.. .. .. .. 47 .. .. .. .. 48 .. .. .. .. .. .. .. .. 47 .. .. 48 .. .. .. 46 .. .. .. .. 
.. .. 43 .. .. .. .. .. .. 41 .. .. .. .. .. .. 39 .. .. .. .. .. .. .. .. .. .. .. .. .. 
36 .. .. .. .. .. .. .. .. .. .. .. .. .. 48 .. .. .. .. .. .. .. .. .. .. .. .. .. 47 .. 
.. .. .. 48 .. .. .. .. .. .. .. .. .. .. .. .. .. .. .. .. .. .. .. .. .. .. 47 .. .. .. 
.. 48 .. .. .. .. .. .. .. .. 47 .. .. 48 .. .. .. 46 .. .. .. .. .. .. 43 .. .. .. .. .. 
.. 41 .. .. .. .. .. .. 39 .. .. .. .. .. .. .. .. .. .. .. .. .. 43 .. .. .. .. .. .. .. 
.. .. .. .. .. .. .. .. .. .. .. .. .. .. .. .. .. .. .. .. .. .. .. .. .. .. .. .. .. .. 
.. .. .. .. .. .. .. .. .. .. .. .. .. .. .. .. .. .. 42 .. .. .. 43 .. .. .. .. .. .. .. 
.. .. 47 .. .. 48 .. .. .. 46 .. .. .. .. .. .. 43 .. .. .. .. .. .. 41 .. .. .. .. .. .. 
39 .. .. .. .. .. .. .. .. .. .. .. .. .. 36 .. .. .. .. .. .. .. .. .. .. .. .. .. 48 .. 
.. .. .. .. .. .. .. .. .. .. .. .. 47 .. .. .. .. 48 .. .. .. .. .. .. .. .. .. .. .. .. 
.. .. .. .. .. .. .. .. .. .. 47 .. .. .. .. 48 .. .. .. .. .. .. .. .. 47 .. .. 48 .. .. 
.. 46 .. .. .. .. .. .. 43 .. .. .. .. .. .. 41 .. .. .. .. .. .. 39 .. .. .. .. .. .. .. 
.. .. .. .. .. .. 36 .. .. .. .. .. .. .. .. .. .. .. .. .. 48 .. .. .. .. .. .. .. .. .. 
.. .. .. .. 47 .. .. .. .. 48 .. .. .. .. .. .. .. .. .. .. .. .. .. .. .. .. .. .. .. .. 
.. .. 47 .. .. .. .. 48 .. .. .. .. .. .. .. .. 47 .. .. 48 .. .. .. 46 .. .. .. .. .. .. 
43 .. .. .. .. .. .. 41 .. .. .. .. .. .. 39 .. .. .. .. .. .. .. .. .. .. .. .. .. 36 .. 
.. .. .. .. .. .. .. .. .. .. .. .. 48 .. .. .. .. .. .. .. .. .. .. .. .. .. 47 .. .. .. 
.. 48 .. .. .. .. .. .. .. .. .. .. .. .. .. .. .. .. .. .. .. .. .. .. 47 .. .. .. .. 48 
.. .. .. .. .. .. .. .. 47 .. .. 48 .. .. .. 46 .. .. .. .. .. .. 43 .. .. .. .. .. .. 41 
.. .. .. .. .. .. 39 .. .. .. .. .. .. .. .. .. .. .. .. .. 41 .. .. .. .. .. .. .. .. .. 
.. .. .. .. 48 .. .. .. .. .. .. .. .. .. .. .. .. .. 47 .. .. .. .. 48 .. .. .. .. .. .. 
.. .. .. .. .. .. .. .. .. .. .. .. .. .. .. .. 47 .. .. .. .. 48 .. .. .. .. .. .. .. .. 
47 .. .. 48 .. .. .. 46 .. .. .. .. .. .. 43 .. .. .. .. .. .. 41 .. .. .. .. .. .. 39 .. 
.. .. .. .. .. .. .. .. .. .. .. .. 36 .. .. .. .. .. .. .. .. .. .. .. .. .. 48 .. .. .. 
.. .. .. .. .. .. .. .. .. .. 47 .. .. .. .. 48 .. .. .. .. .. .. .. .. .. .. .. .. .. .. 
.. .. .. .. .. .. .. .. 47 .. .. .. .. 48 .. .. .. .. .. .. .. .. 47 .. .. 48 .. .. .. 46 
.. .. .. .. .. .. 43 .. .. .. .. .. .. 41 .. .. .. .. .. .. 39 .. .. .. .. .. .. .. .. .. 
.. .. .. .. 43 .. .. .. .. .. .. .. .. .. .. .. .. .. .. .. .. .. .. .. .. .. .. .. .. .. 
.. .. .. .. .. .. .. .. .. .. .. .. .. .. .. .. .. .. .. .. .. .. .. .. .. .. .. .. .. .. 
42 .. .. .. 43 .. .. .. .. .. .. .. .. .. 47 .. .. 48 .. .. .. 46 .. .. .. .. .. .. 43 .. 
.. .. .. .. .. 41 .. .. .. .. .. .. 39 .. .. .. .. .. .. .. .. .. .. .. .. .. .. .. .. .. 
.. .. .. .. .. .. .. .. .. .. .. .. .. .. .. .. .. .. .. .. .. .. .. .. .. .. .. .. .. .. 
.. .. .. .. .. .. .. .. .. .. .. .. .. .. .. .. .. .. .. .. .. .. .. .. .. .. .. .. .. .. 
.. .. .. .. .. .. .. .. .. .. .. .. .. .. .. .. .. .. .. .. .. .. .. .. .. .. .. .. .. .. 
.. .. .. .. .. .. .. .. .. .. .. .. .. .. .. .. .. .. .. .. .. .. .. .. .. .. .. .. .. .. 
.. .. 43 .. .. .. .. .. .. .. .. .. .. .. .. .. .. .. .. .. .. .. .. .. .. .. .. .. .. .. 
.. .. .. .. .. .. .. .. .. .. .. .. .. .. .. .. .. .. .. .. .. .. .. .. .. .. .. .. .. .. 
.. .. .. .. .. .. .. .. .. .. .. .. .. .. .. .. .. .. .. .. .. .. .. .. .. .. .. .. .. .. 
.. .. .. .. .. .. .. .. .. .. .. .. .. .. .. .. .. .. .. .. .. .. .. .. 45 .. .. .. .. .. 
.. .. .. .. .. .. .. .. .. .. .. .. .. .. .. .. .. .. .. .. .. .. .. .. .. .. .. .. .. .. 
.. .. .. .. .. .. .. .. .. .. .. .. .. .. .. .. .. .. .. .. .. .. .. .. .. .. .. .. .. .. 
.. .. .. .. .. .. .. .. .. .. .. .. .. .. .. .. .. .. .. .. .. .. .. .. .. .. .. .. .. .. 
.. .. .. .. .. .. .. .. .. .. .. .. .. .. .. .. 44 .. .. .. .. .. .. .. .. .. .. .. .. .. 
.. .. .. .. .. .. .. .. .. .. .. .. .. .. 42 .. .. .. .. .. .. .. .. .. .. .. .. .. .. .. 
.. .. .. .. .. .. .. .. .. .. .. .. 39 .. .. .. .. .. .. .. .. .. .. .. .. .. .. .. .. .. 
.. .. .. .. .. .. .. .. .. .. 51 .. .. .. .. .. .. .. .. .. .. .. .. .. .. .. .. .. .. .. 
.. .. .. .. .. .. .. .. 53 .. .. .. .. .. .. .. .. .. .. .. .. .. .. .. .. .. .. .. .. .. 
.. .. .. .. .. .. 51 .. .. .. .. .. .. .. .. .. .. .. .. .. 50 .. .. .. .. .. .. .. .. .. 
.. .. .. .. .. .. .. .. .. .. .. .. .. .. .. .. .. .. .. .. .. .. .. .. .. .. .. .. .. .. 
.. .. .. .. .. .. .. .. .. .. .. .. .. .. .. .. 36 .. .. .. .. .. .. .. .. .. .. .. .. .. 
48 .. .. .. .. .. .. .. .. .. .. .. .. .. 47 .. .. .. .. 48 .. .. .. .. .. .. .. .. .. .. 
.. .. .. .. .. .. .. .. .. .. .. .. 47 .. .. .. .. 48 .. .. .. .. .. .. .. .. 47 .. .. 48 
.. .. .. 46 .. .. .. .. .. .. 43 .. .. .. .. .. .. 41 .. .. .. .. .. .. 39 .. .. .. .. .. 
.. .. .. .. .. .. .. .. 36 .. .. .. .. .. .. .. .. .. .. .. .. .. 48 .. .. .. .. .. .. .. 
.. .. .. .. .. .. 47 .. .. .. .. 48 .. .. .. .. .. .. .. .. .. .. .. .. .. .. .. .. .. .. 
.. .. .. .. 47 .. .. .. .. 48 .. .. .. .. .. .. .. .. 47 .. .. 48 .. .. .. 46 .. .. .. .. 
.. .. 43 .. .. .. .. .. .. 41 .. .. .. .. .. .. 39 .. .. .. .. .. .. .. .. .. .. .. .. .. 
41 .. .. .. .. .. .. .. .. .. .. .. .. .. 48 .. .. .. .. .. .. .. .. .. .. .. .. .. 47 .. 
.. .. .. 48 .. .. .. .. .. .. .. .. .. .. .. .. .. .. .. .. .. .. .. .. .. .. 47 .. .. .. 
.. 48 .. .. .. .. .. .. .. .. 47 .. .. 48 .. .. .. 46 .. .. .. .. .. .. 43 .. .. .. .. .. 
.. 41 .. .. .. .. .. .. 39 .. .. .. .. .. .. .. .. .. .. .. .. .. 36 .. .. .. .. .. .. .. 
.. .. .. .. .. .. 48 .. .. .. .. .. .. .. .. .. .. .. .. .. 47 .. .. .. .. 48 .. .. .. .. 
.. .. .. .. .. .. .. .. .. .. .. .. .. .. .. .. .. .. 47 .. .. .. .. 48 .. .. .. .. .. .. 
.. .. 47 .. .. 48 .. .. .. 46 .. .. .. .. .. .. 43 .. .. .. .. .. .. 41 .. .. .. .. .. .. 
39 .. .. .. .. .. .. .. .. .. .. .. .. .. 43 .. .. .. .. .. .. .. .. .. .. .. .. .. .. .. 
.. .. .. .. .. .. .. .. .. .. .. .. .. .. .. .. .. .. .. .. .. .. .. .. .. .. .. .. .. .. 
.. .. .. .. .. .. .. .. .. .. 42 .. .. .. 43 .. .. .. .. .. .. .. .. .. 47 .. .. 48 .. .. 
.. 46 .. .. .. .. .. .. 43 .. .. .. .. .. .. 41 .. .. .. .. .. .. 39 .. .. .. .. .. .. .. 
.. .. .. .. .. .. 36 .. .. .. .. .. .. .. .. .. .. .. .. .. 48 .. .. .. .. .. .. .. .. .. 
.. .. .. .. 47 .. .. .. .. 48 .. .. .. .. .. .. .. .. .. .. .. .. .. .. .. .. .. .. .. .. 
.. .. 47 .. .. .. .. 48 .. .. .. .. .. .. .. .. 47 .. .. 48 .. .. .. 46 .. .. .. .. .. .. 
43 .. .. .. .. .. .. 41 .. .. .. .. .. .. 39 .. .. .. .. .. .. .. .. .. .. .. .. .. 36 .. 
.. .. .. .. .. .. .. .. .. .. .. .. 48 .. .. .. .. .. .. .. .. .. .. .. .. .. 47 .. .. .. 
.. 48 .. .. .. .. .. .. .. .. .. .. .. .. .. .. .. .. .. .. .. .. .. .. 47 .. .. .. .. 48 
.. .. .. .. .. .. .. .. 47 .. .. 48 .. .. .. 46 .. .. .. .. .. .. 43 .. .. .. .. .. .. 41 
.. .. .. .. .. .. 39 .. .. .. .. .. .. .. .. .. .. .. .. .. 36 .. .. .. .. .. .. .. .. .. 
.. .. .. .. 48 .. .. .. .. .. .. .. .. .. .. .. .. .. 47 .. .. .. .. 48 .. .. .. .. .. .. 
.. .. .. .. .. .. .. .. .. .. .. .. .. .. .. .. 47 .. .. .. .. 48 .. .. .. .. .. .. .. .. 
47 .. .. 48 .. .. .. 46 .. .. .. .. .. .. 43 .. .. .. .. .. .. 41 .. .. .. .. .. .. 39 .. 
.. .. .. .. .. .. .. .. .. .. .. .. 41 .. .. .. .. .. .. .. .. .. .. .. .. .. 48 .. .. .. 
.. .. .. .. .. .. .. .. .. .. 47 .. .. .. .. 48 .. .. .. .. .. .. .. .. .. .. .. .. .. .. 
.. .. .. .. .. .. .. .. 47 .. .. .. .. 48 .. .. .. .. .. .. .. .. 47 .. .. 48 .. .. .. 46 
.. .. .. .. .. .. 43 .. .. .. .. .. .. 41 .. .. .. .. .. .. 39 .. .. .. .. .. .. .. .. .. 
.. .. .. .. 36 .. .. .. .. .. .. .. .. .. .. .. .. .. 48 .. .. .. .. .. .. .. .. .. .. .. 
.. .. 47 .. .. .. .. 48 .. .. .. .. .. .. .. .. .. .. .. .. .. .. .. .. .. .. .. .. .. .. 
47 .. .. .. .. 48 .. .. .. .. .. .. .. .. 47 .. .. 48 .. .. .. 46 .. .. .. .. .. .. 43 .. 
.. .. .. .. .. 41 .. .. .. .. .. .. 39 .. .. .. .. .. .. .. .. .. .. .. .. .. 43 .. .. .. 
.. .. .. .. .. .. .. .. .. .. .. .. .. .. .. .. .. .. .. .. .. .. .. .. .. .. .. .. .. .. 
.. .. .. .. .. .. .. .. .. .. .. .. .. .. .. .. .. .. .. .. .. .. 42 .. .. .. 43 .. .. .. 
.. .. .. .. .. .. 47 .. .. 48 .. .. .. 46 .. .. .. .. .. .. 43 .. .. .. .. .. .. 41 .. .. 
.. .. .. .. 39 .. .. .. .. .. .. .. .. .. .. .. .. .. .. .. .. .. .. .. .. .. .. .. .. .. 
.. .. .. .. .. .. .. .. .. .. .. .. .. .. .. .. .. .. .. .. .. .. .. .. .. .. .. .. .. .. 
.. .. .. .. .. .. .. .. .. .. .. .. .. .. .. .. .. .. .. .. .. .. .. .. .. .. .. .. .. .. 
.. .. .. .. .. .. .. .. .. .. .. .. .. .. .. .. .. .. .. .. .. .. .. .. .. .. .. .. .. .. 
.. .. .. .. .. .. .. .. .. .. .. .. .. .. .. .. .. .. .. .. .. .. .. .. 43 .. .. .. .. .. 
.. .. .. .. .. .. .. .. .. .. .. .. .. .. .. .. .. .. .. .. .. .. .. .. .. .. .. .. .. .. 
.. .. .. .. .. .. .. .. .. .. .. .. .. .. .. .. .. .. .. .. .. .. .. .. .. .. .. .. .. .. 
.. .. .. .. .. .. .. .. .. .. .. .. .. .. .. .. .. .. .. .. .. .. .. .. .. .. .. .. .. .. 
.. .. .. .. .. .. .. .. .. .. .. .. .. .. .. .. 45 .. .. .. .. .. .. .. .. .. .. .. .. .. 
.. .. .. .. .. .. .. .. .. .. .. .. .. .. .. .. .. .. .. .. .. .. .. .. .. .. .. .. .. .. 
.. .. .. .. .. .. .. .. .. .. .. .. .. .. .. .. .. .. .. .. .. .. .. .. .. .. .. .. .. .. 
.. .. .. .. .. .. .. .. .. .. .. .. .. .. .. .. .. .. .. .. .. .. .. .. .. .. .. .. .. .. 
.. .. .. .. .. .. .. .. 44 .. .. .. .. .. .. .. .. .. .. .. .. .. .. .. .. .. .. .. .. .. 
.. .. .. .. .. .. 42 .. .. .. .. .. .. .. .. .. .. .. .. .. .. .. .. .. .. .. .. .. .. .. 
.. .. .. .. 39 .. .. .. .. .. .. .. .. .. .. .. .. .. .. .. .. .. .. .. .. .. .. .. .. .. 
.. .. 51 .. .. .. .. .. .. .. .. .. .. .. .. .. .. .. .. .. .. .. .. .. .. .. .. .. .. .. 
53 .. .. .. .. .. .. .. .. .. .. .. .. .. .. .. .. .. .. .. .. .. .. .. .. .. .. .. 51 .. 
.. .. .. .. .. .. .. .. .. .. .. .. 50 .. .. .. .. .. .. .. .. .. .. .. .. .. .. .. .. .. 
.. .. .. .. .. .. .. .. .. .. .. .. .. .. .. .. .. .. .. .. .. .. .. .. .. .. .. .. .. .. 
.. .. .. .. .. .. .. .. 36 .. .. .. .. .. .. .. .. .. .. .. .. .. 48 .. .. .. .. .. .. .. 
.. .. .. .. .. .. 47 .. .. .. .. 48 .. .. .. .. .. .. .. .. .. .. .. .. .. .. .. .. .. .. 
.. .. .. .. 47 .. .. .. .. 48 .. .. .. .. .. .. .. .. 47 .. .. 48 .. .. .. 46 .. .. .. .. 
.. .. 43 .. .. .. .. .. .. 41 .. .. .. .. .. .. 39 .. .. .. .. .. .. .. .. .. .. .. .. .. 
36 .. .. .. .. .. .. .. .. .. .. .. .. .. 48 .. .. .. .. .. .. .. .. .. .. .. .. .. 47 .. 
.. .. .. 48 .. .. .. .. .. .. .. .. .. .. .. .. .. .. .. .. .. .. .. .. .. .. 47 .. .. .. 
.. 48 .. .. .. .. .. .. .. .. 47 .. .. 48 .. .. .. 46 .. .. .. .. .. .. 43 .. .. .. .. .. 
.. 41 .. .. .. .. .. .. 39 .. .. .. .. .. .. .. .. .. .. .. .. .. 41 .. .. .. .. .. .. .. 
.. .. .. .. .. .. 48 .. .. .. .. .. .. .. .. .. .. .. .. .. 47 .. .. .. .. 48 .. .. .. .. 
.. .. .. .. .. .. .. .. .. .. .. .. .. .. .. .. .. .. 47 .. .. .. .. 48 .. .. .. .. .. .. 
.. .. 47 .. .. 48 .. .. .. 46 .. .. .. .. .. .. 43 .. .. .. .. .. .. 41 .. .. .. .. .. .. 
39 .. .. .. .. .. .. .. .. .. .. .. .. .. 36 .. .. .. .. .. .. .. .. .. .. .. .. .. 48 .. 
.. .. .. .. .. .. .. .. .. .. .. .. 47 .. .. .. .. 48 .. .. .. .. .. .. .. .. .. .. .. .. 
.. .. .. .. .. .. .. .. .. .. 47 .. .. .. .. 48 .. .. .. .. .. .. .. .. 47 .. .. 48 .. .. 
.. 46 .. .. .. .. .. .. 43 .. .. .. .. .. .. 41 .. .. .. .. .. .. 39 .. .. .. .. .. .. .. 
.. .. .. .. .. .. 43 .. .. .. .. .. .. .. .. .. .. .. .. .. .. .. .. .. .. .. .. .. .. .. 
.. .. .. .. .. .. .. .. .. .. .. .. .. .. .. .. .. .. .. .. .. .. .. .. .. .. .. .. .. .. 
.. .. 42 .. .. .. 43 .. .. .. .. .. .. .. .. .. 47 .. .. 48 .. .. .. 46 .. .. .. .. .. .. 
43 .. .. .. .. .. .. 41 .. .. .. .. .. .. 39 .. .. .. .. .. .. .. .. .. .. .. .. .. 36 .. 
.. .. .. .. .. .. .. .. .. .. .. .. 48 .. .. .. .. .. .. .. .. .. .. .. .. .. 47 .. .. .. 
.. 48 .. .. .. .. .. .. .. .. .. .. .. .. .. .. .. .. .. .. .. .. .. .. 47 .. .. .. .. 48 
.. .. .. .. .. .. .. .. 47 .. .. 48 .. .. .. 46 .. .. .. .. .. .. 43 .. .. .. .. .. .. 41 
.. .. .. .. .. .. 39 .. .. .. .. .. .. .. .. .. .. .. .. .. 36 .. .. .. .. .. .. .. .. .. 
.. .. .. .. 48 .. .. .. .. .. .. .. .. .. .. .. .. .. 47 .. .. .. .. 48 .. .. .. .. .. .. 
.. .. .. .. .. .. .. .. .. .. .. .. .. .. .. .. 47 .. .. .. .. 48 .. .. .. .. .. .. .. .. 
47 .. .. 48 .. .. .. 46 .. .. .. .. .. .. 43 .. .. .. .. .. .. 41 .. .. .. .. .. .. 39 .. 
.. .. .. .. .. .. .. .. .. .. .. .. 36 .. .. .. .. .. .. .. .. .. .. .. .. .. 48 .. .. .. 
.. .. .. .. .. .. .. .. .. .. 47 .. .. .. .. 48 .. .. .. .. .. .. .. .. .. .. .. .. .. .. 
.. .. .. .. .. .. .. .. 47 .. .. .. .. 48 .. .. .. .. .. .. .. .. 47 .. .. 48 .. .. .. 46 
.. .. .. .. .. .. 43 .. .. .. .. .. .. 41 .. .. .. .. .. .. 39 .. .. .. .. .. .. .. .. .. 
.. .. .. .. 41 .. .. .. .. .. .. .. .. .. .. .. .. .. 48 .. .. .. .. .. .. .. .. .. .. .. 
.. .. 47 .. .. .. .. 48 .. .. .. .. .. .. .. .. .. .. .. .. .. .. .. .. .. .. .. .. .. .. 
47 .. .. .. .. 48 .. .. .. .. .. .. .. .. 47 .. .. 48 .. .. .. 46 .. .. .. .. .. .. 43 .. 
.. .. .. .. .. 41 .. .. .. .. .. .. 39 .. .. .. .. .. .. .. .. .. .. .. .. .. 36 .. .. .. 
.. .. .. .. .. .. .. .. .. .. 48 .. .. .. .. .. .. .. .. .. .. .. .. .. 47 .. .. .. .. 48 
.. .. .. .. .. .. .. .. .. .. .. .. .. .. .. .. .. .. .. .. .. .. 47 .. .. .. .. 48 .. .. 
.. .. .. .. .. .. 47 .. .. 48 .. .. .. 46 .. .. .. .. .. .. 43 .. .. .. .. .. .. 41 .. .. 
.. .. .. .. 39 .. .. .. .. .. .. .. .. .. .. .. .. .. 43 .. .. .. .. .. .. .. .. .. .. .. 
.. .. .. .. .. .. .. .. .. .. .. .. .. .. .. .. .. .. .. .. .. .. .. .. .. .. .. .. .. .. 
.. .. .. .. .. .. .. .. .. .. .. .. .. .. 42 .. .. .. 43 .. .. .. .. .. .. .. .. .. 47 .. 
.. 48 .. .. .. 46 .. .. .. .. .. .. 43 .. .. .. .. .. .. 41 .. .. .. .. .. .. 39 .. .. .. 
.. .. .. .. .. .. .. .. .. .. .. .. .. .. .. .. .. .. .. .. .. .. .. .. .. .. .. .. .. .. 
.. .. .. .. .. .. .. .. .. .. .. .. .. .. .. .. .. .. .. .. .. .. .. .. .. .. .. .. .. .. 
.. .. .. .. .. .. .. .. .. .. .. .. .. .. .. .. .. .. .. .. .. .. .. .. .. .. .. .. .. .. 
.. .. .. .. .. .. .. .. .. .. .. .. .. .. .. .. .. .. .. .. .. .. .. .. .. .. .. .. .. .. 
.. .. .. .. .. .. .. .. .. .. .. .. .. .. .. .. 43 .. .. .. .. .. .. .. .. .. .. .. .. .. 
.. .. .. .. .. .. .. .. .. .. .. .. .. .. .. .. .. .. .. .. .. .. .. .. .. .. .. .. .. .. 
.. .. .. .. .. .. .. .. .. .. .. .. .. .. .. .. .. .. .. .. .. .. .. .. .. .. .. .. .. .. 
.. .. .. .. .. .. .. .. .. .. .. .. .. .. .. .. .. .. .. .. .. .. .. .. .. .. .. .. .. .. 
.. .. .. .. .. .. .. .. 45 .. .. .. .. .. .. .. .. .. .. .. .. .. .. .. .. .. .. .. .. .. 
.. .. .. .. .. .. .. .. .. .. .. .. .. .. .. .. .. .. .. .. .. .. .. .. .. .. .. .. .. .. 
.. .. .. .. .. .. .. .. .. .. .. .. .. .. .. .. .. .. .. .. .. .. .. .. .. .. .. .. .. .. 
.. .. .. .. .. .. .. .. .. .. .. .. .. .. .. .. .. .. .. .. .. .. .. .. .. .. .. .. .. .. 
44 .. .. .. .. .. .. .. .. .. .. .. .. .. .. .. .. .. .. .. .. .. .. .. .. .. .. .. 42 .. 
.. .. .. .. .. .. .. .. .. .. .. .. .. .. .. .. .. .. .. .. .. .. .. .. .. .. 39 .. .. .. 
.. .. .. .. .. .. .. .. .. .. .. .. .. .. .. .. .. .. .. .. .. .. .. .. 51 .. .. .. .. .. 
.. .. .. .. .. .. .. .. .. .. .. .. .. .. .. .. .. .. .. .. .. .. 53 .. .. .. .. .. .. .. 
.. .. .. .. .. .. .. .. .. .. .. .. .. .. .. .. .. .. .. .. 51 .. .. .. .. .. .. .. .. .. 
.. .. .. .. 50 .. .. .. .. .. .. .. .. .. .. .. .. .. .. .. .. .. .. .. .. .. .. .. .. .. 
.. .. .. .. .. .. .. .. .. .. .. .. .. .. .. .. .. .. .. .. .. .. .. .. .. .. .. .. 
! Song 2
.. .. .. 58 .. .. .. .. .. .. .. 55 .. .. .. .. .. .. .. 51 .. .. .. .. .. .. .. .. .. .. 
.. .. .. .. 51 .. .. .. .. .. .. .. .. .. .. .. .. .. .. 51 .. .. .. .. .. .. .. 53 .. .. 
.. .. .. .. .. 55 .. .. .. .. .. .. .. 56 .. .. .. .. .. .. .. 58 .. .. .. .. .. .. .. .. 
.. .. .. .. .. .. .. 58 .. .. .. .. .. .. .. .. .. .. .. .. .. .. .. 58 .. .. .. .. .. .. 
.. .. .. .. .. .. .. .. .. 55 .. .. .. .. .. .. .. .. .. .. .. .. .. .. .. .. .. .. .. .. 
.. .. .. .. .. .. .. .. .. .. .. .. .. .. .. .. .. .. .. .. .. .. .. .. .. .. .. .. .. .. 
.. .. .. .. .. .. .. .. .. .. .. .. .. .. .. .. .. .. .. .. .. .. .. .. .. .. .. .. .. .. 
.. .. .. .. .. .. .. .. .. .. .. .. .. .. .. .. .. .. .. .. .. .. .. .. .. .. .. .. .. .. 
.. .. .. .. .. .. .. .. .. .. .. .. .. .. .. .. .. .. .. .. .. .. .. .. .. .. .. .. .. .. 
.. .. .. 
! End
