! Simple
! Song 0
50 14 .. .. .. .. .. .. .. .. .. .. .. .. .. .. .. .. .. .. .. .. .. .. .. .. .. .. .. .. 
.. .. .. .. .. .. .. .. .. .. .. .. .. .. .. .. .. .. .. .. .. .. .. .. .. .. .. .. .. .. 
.. .. .. .. .. .. .. .. .. .. .. .. .. .. .. .. .. .. .. .. .. .. .. .. .. .. .. .. .. .. 
.. .. .. .. .. .. .. .. .. .. .. .. .. .. .. .. .. .. .. .. .. .. .. .. .. .. .. .. .. .. 
.. .. .. .. .. .. .. .. .. .. .. .. .. .. .. .. .. .. .. .. .. .. .. .. .. .. .. .. .. .. 
.. .. .. .. .. .. .. .. .. .. .. .. .. .. .. .. .. .. .. .. .. .. .. .. .. .. .. .. .. .. 
.. .. .. .. .. .. .. .. .. .. .. .. .. .. .. .. .. .. .. .. .. .. .. .. .. .. .. .. .. .. 
.. .. .. .. .. .. .. .. .. .. .. .. .. .. .. .. .. .. .. .. .. .. .. .. .. .. .. .. .. .. 
.. .. .. .. .. .. .. .. .. .. .. .. .. .. .. .. .. .. .. .. .. .. .. .. .. .. .. .. .. .. 
.. .. .. .. .. .. .. .. .. .. .. .. .. .. .. .. .. .. .. .. .. .. .. .. .. .. .. .. .. .. 
.. .. .. .. .. .. .. .. .. .. .. .. .. .. .. .. .. .. .. .. .. .. .. .. .. .. .. .. .. .. 
.. .. .. .. .. .. .. .. .. .. .. .. .. .. .. .. .. .. .. .. .. .. .. .. .. .. .. .. .. .. 
.. .. .. .. .. .. .. .. .. .. .. .. .. .. .. .. .. .. .. .. .. .. .. .. .. .. .. .. .. .. 
.. .. .. .. .. .. .. .. .. .. .. .. .. .. .. .. .. .. .. .. .. .. .. .. .. .. .. .. .. .. 
.. .. .. .. .. .. .. .. .. .. .. .. .. .. .. .. .. .. .. .. .. .. .. .. .. .. .. .. .. .. 
.. .. .. .. .. .. .. .. .. .. .. .. .. .. .. .. .. .. .. .. .. .. .. .. .. .. .. .. .. .. 
.. .. .. .. .. .. .. .. .. .. .. .. .. .. .. .. .. .. .. .. .. .. .. .. .. .. .. .. .. .. 
.. .. .. .. .. .. .. .. .. .. .. .. .. .. .. .. .. .. .. .. .. .. .. .. .. .. .. .. .. .. 
.. .. .. .. .. .. .. .. .. .. .. .. .. .. .. .. .. .. .. .. .. .. .. .. .. .. .. .. .. .. 
.. .. .. .. .. .. .. .. .. .. .. .. .. .. .. .. .. .. .. .. .. .. .. .. .. .. .. .. .. .. 
.. .. .. .. .. .. .. .. .. .. .. .. .. .. .. .. .. .. .. .. .. .. .. .. .. .. .. .. .. .. 
.. .. .. .. .. .. .. .. .. .. .. 39 .. .. .. .. .. .. .. .. .. 42 .. .. .. .. .. .. .. .. 
.. .. .. .. .. .. 43 .. .. 42 .. 39 .. .. .. .. .. .. .. .. .. .. 44 .. .. .. .. .. .. .. 
.. .. .. .. .. .. .. 45 .. .. 44 .. 39 .. .. .. .. .. .. .. .. .. .. .. .. .. .. 40 .. .. 
39 .. 42 .. .. .. .. .. .. .. .. .. .. .. .. .. .. 43 .. .. 42 .. 39 .. .. .. .. .. .. .. 
.. .. 44 .. .. .. .. .. .. .. .. .. .. .. .. .. .. 45 .. .. 44 39 .. .. .. .. .. .. .. .. 
.. .. 42 .. .. .. .. .. .. .. .. .. 44 .. .. .. .. .. .. .. .. 39 .. .. .. .. .. .. .. .. 
.. 42 .. .. .. .. .. .. .. .. .. .. .. .. .. .. 43 .. .. 42 .. 39 .. .. .. .. .. .. .. .. 
.. 44 .. .. .. .. .. .. .. .. .. .. .. .. .. .. 45 .. .. 44 .. .. 39 .. .. .. .. .. .. .. 
.. .. .. .. .. .. .. 40 .. .. 39 .. 42 .. .. .. .. .. .. .. .. .. .. .. .. .. .. 43 .. .. 
42 .. 39 .. .. .. .. .. .. .. .. .. 44 .. .. .. .. .. .. .. .. .. .. .. .. .. .. 45 .. .. 
44 .. 39 .. .. .. .. .. .. .. .. 42 .. .. .. .. .. .. .. .. .. .. 44 .. .. .. .. .. .. .. 
.. .. 39 .. .. .. .. .. .. .. .. 42 .. .. .. .. .. .. .. .. .. .. .. .. .. .. 43 .. .. 42 
.. 39 .. .. .. .. .. .. .. .. .. 44 .. .. .. .. .. .. .. .. .. .. .. .. .. .. 45 .. .. 44 
.. .. 39 .. .. .. .. .. .. .. .. .. .. .. .. .. .. 40 .. .. 39 .. 42 .. .. .. .. .. .. .. 
.. .. .. .. .. .. .. 43 .. .. 42 39 .. .. .. .. .. .. .. .. .. .. 44 .. .. .. .. .. .. .. 
.. .. .. .. .. .. .. 45 .. .. 44 .. 39 .. .. .. .. .. .. .. .. 42 .. .. .. .. .. .. .. .. 
.. 44 .. .. .. .. .. .. .. .. .. 39 .. .. .. .. .. .. .. .. .. .. 42 .. .. .. .. .. .. .. 
.. .. .. .. .. .. .. 43 .. .. 42 39 .. .. .. .. .. .. .. .. .. 44 .. .. .. .. .. .. .. .. 
.. .. .. .. .. .. 45 .. .. 44 .. .. 39 .. .. .. .. .. .. .. .. .. .. .. .. .. .. 40 .. .. 
39 .. 42 .. .. .. .. .. .. .. .. .. .. .. .. .. .. 43 .. .. 42 .. 39 .. .. .. .. .. .. .. 
.. .. 44 .. .. .. .. .. .. .. .. .. .. .. .. .. .. 45 .. .. 44 .. 39 .. .. .. .. .. .. .. 
.. 42 .. .. .. .. .. .. .. .. .. .. 44 .. .. .. .. .. .. .. .. 49 .. .. .. .. .. .. .. .. 
.. .. .. .. .. .. .. 50 49 .. .. .. .. .. .. .. .. 50 .. 49 .. .. .. .. .. .. .. .. 50 .. 
49 .. .. .. .. .. .. .. .. 50 49 .. .. .. .. .. .. .. .. 50 .. 49 .. .. .. .. .. .. .. .. 
50 .. 49 .. .. .. .. .. .. .. .. 49 .. .. .. .. .. .. .. .. .. .. .. .. .. .. .. 50 49 .. 
.. .. .. .. .. .. .. 50 .. 49 .. .. .. .. .. .. .. .. .. .. .. .. .. .. .. .. .. 50 49 .. 
.. .. .. .. .. .. .. 50 .. 49 .. .. .. .. .. .. .. .. .. .. .. .. .. .. .. .. .. 50 49 .. 
.. 48 .. .. .. .. .. .. .. .. .. .. .. .. .. .. 49 .. .. 48 .. .. .. .. .. .. 49 .. .. .. 
48 .. .. .. .. .. .. 49 .. .. .. 48 .. .. .. .. .. .. 49 .. .. 48 .. .. .. .. .. .. 49 .. 
.. .. 48 .. .. .. .. .. .. 49 .. .. .. 48 .. .. .. .. .. .. 49 48 .. .. .. .. .. .. .. .. 
.. .. .. .. .. .. 49 .. .. 48 .. .. .. .. .. .. 49 .. .. .. 48 .. .. .. .. .. .. .. .. .. 
.. .. .. .. .. .. 49 .. .. 48 .. .. .. .. .. .. 49 .. .. .. 48 .. .. .. .. .. .. .. .. .. 
.. .. .. .. .. .. 49 .. .. 48 .. 49 .. .. .. .. .. .. .. .. .. .. .. .. .. .. .. 50 49 .. 
.. .. .. .. .. .. .. 50 .. 49 .. .. .. .. .. .. .. .. 50 .. 49 .. .. .. .. .. .. .. .. 50 
49 .. .. .. .. .. .. .. .. 50 .. 49 .. .. .. .. .. .. .. .. 50 .. 49 .. .. .. .. .. .. .. 
.. 49 .. .. .. .. .. .. .. .. .. .. .. .. .. .. .. 50 49 .. .. .. .. .. .. .. .. 50 .. 49 
.. .. .. .. .. .. .. .. .. .. .. .. .. .. .. .. .. 50 49 .. .. .. .. .. .. .. .. 50 .. 49 
.. 51 .. .. .. .. .. .. .. .. .. .. .. .. .. .. .. 52 51 .. .. .. 48 .. .. .. .. .. .. .. 
.. .. .. .. .. .. .. 49 .. .. 48 .. .. .. .. .. .. 49 .. .. .. 48 .. .. .. .. .. .. 49 .. 
.. .. 48 .. .. .. .. .. .. 49 .. .. 48 .. .. .. .. .. .. 49 .. .. .. 48 .. .. .. .. .. .. 
49 .. .. .. 48 .. .. .. .. .. .. 48 .. .. .. .. .. .. .. .. .. .. .. .. .. .. 49 .. .. 48 
.. .. .. .. .. .. 49 .. .. .. 48 .. .. .. .. .. .. .. .. .. .. .. .. .. .. .. 49 .. .. 48 
.. .. .. .. .. .. 49 .. .. .. 48 .. .. .. .. .. .. .. .. .. .. .. .. .. .. .. 49 .. .. 48 
.. .. 61 .. .. .. .. .. .. .. .. .. .. .. .. .. .. .. 62 61 .. .. .. .. .. .. .. .. .. .. 
.. .. .. .. .. .. .. .. .. .. .. .. .. .. .. .. .. .. .. .. 62 61 .. .. .. .. .. .. .. .. 
.. .. .. .. .. .. .. .. .. .. .. .. .. .. .. .. .. .. .. .. .. .. 61 .. .. .. .. .. .. .. 
.. .. .. .. .. .. .. .. 62 61 .. .. .. .. .. .. .. .. .. .. .. .. .. .. .. .. .. .. .. .. 
.. .. .. .. .. .. .. .. 62 61 .. .. .. .. .. .. .. .. .. .. .. .. .. .. .. .. .. .. .. .. 
.. .. .. .. .. .. .. .. 62 61 .. .. .. 60 .. .. .. .. .. .. .. .. .. .. .. .. .. .. 61 .. 
.. 60 .. .. .. .. .. .. .. 61 .. .. 60 .. .. .. .. .. .. 61 .. .. 60 .. .. .. .. .. .. .. 
61 .. .. 60 .. .. .. .. .. .. .. 61 .. .. 60 .. .. .. .. .. .. 61 .. .. 60 .. .. .. .. .. 
.. .. 60 .. .. .. .. .. .. .. .. .. .. .. .. .. .. 61 .. .. 60 .. .. .. .. .. .. .. 61 .. 
.. 60 .. .. .. .. .. .. .. .. .. .. .. .. .. .. .. 61 .. .. 60 .. .. .. .. .. .. .. 61 .. 
.. 60 .. .. .. .. .. .. .. .. .. .. .. .. .. .. .. 61 .. .. 60 .. 61 .. .. .. .. .. .. .. 
.. .. .. .. .. .. .. .. 62 61 .. .. .. .. .. .. .. .. .. .. .. .. .. .. .. .. .. .. .. .. 
.. .. .. .. .. .. .. .. .. .. 62 61 .. .. .. .. .. .. .. .. .. .. .. .. .. .. .. .. .. .. 
.. .. .. .. .. .. .. .. .. .. .. .. 61 .. .. .. .. .. .. .. .. .. .. .. .. .. .. .. 62 61 
.. .. .. .. .. .. .. .. .. .. .. .. .. .. .. .. .. .. .. .. .. .. .. .. .. .. .. .. 62 61 
.. .. .. .. .. .. .. .. .. .. .. .. .. 63 .. .. .. .. .. .. .. .. .. .. .. .. .. .. .. 64 
63 .. .. 60 .. .. .. .. .. .. .. .. .. .. .. .. .. .. 61 .. .. 60 .. .. .. .. .. .. .. 61 
.. .. 60 .. .. .. .. .. .. 61 .. .. 60 .. .. .. .. .. .. .. 61 .. .. 60 .. .. .. .. .. .. 
.. 61 .. .. 60 .. .. .. .. .. .. 61 .. .. 60 .. .. .. .. .. .. .. 60 .. .. .. .. .. .. .. 
.. .. .. .. .. .. .. 61 .. .. 60 .. .. .. .. .. .. .. 61 .. .. 60 .. .. .. .. .. .. .. .. 
.. .. .. .. .. .. .. 61 .. .. 60 .. .. .. .. .. .. .. 61 .. .. 60 .. .. .. .. .. .. .. .. 
.. .. .. .. .. .. .. 61 .. .. 60 .. 61 .. .. .. .. .. .. .. .. .. .. .. .. .. .. .. 62 61 
.. .. .. .. .. .. .. .. .. .. .. .. .. .. .. .. .. .. .. .. .. .. .. .. .. .. .. .. .. .. 
62 61 .. .. .. .. .. .. .. .. .. .. .. .. .. .. .. .. .. .. .. .. .. .. .. .. .. .. .. .. 
.. .. 61 .. .. .. .. .. .. .. .. .. .. .. .. .. .. .. 62 61 .. .. .. .. .. .. .. .. .. .. 
.. .. .. .. .. .. .. .. .. .. .. .. .. .. .. .. .. .. 62 61 .. .. .. .. .. .. .. .. .. .. 
.. .. .. .. .. .. .. .. .. .. .. .. .. .. .. .. .. .. 62 61 .. .. .. 60 .. .. .. .. .. .. 
.. .. .. .. .. .. .. .. 61 .. .. 60 .. .. .. .. .. .. .. 61 .. .. 60 .. .. .. .. .. .. 61 
.. .. 60 .. .. .. .. .. .. .. 61 .. .. 60 .. .. .. .. .. .. .. 61 .. .. 60 .. .. .. .. .. 
.. 61 .. .. 60 .. .. .. .. .. .. .. 60 .. .. .. .. .. .. .. .. .. .. .. .. .. .. 61 .. .. 
60 .. .. .. .. .. .. .. 61 .. .. 60 .. .. .. .. .. .. .. .. .. .. .. .. .. .. .. 61 .. .. 
60 .. .. .. .. .. .. .. 61 .. .. 60 .. .. .. .. .. .. .. .. .. .. .. .. .. .. .. 61 .. .. 
60 .. 61 .. .. .. .. .. .. .. .. .. .. .. .. .. .. .. 62 61 .. .. .. .. .. .. .. .. .. .. 
.. .. .. .. .. .. .. .. .. .. .. .. .. .. .. .. .. .. .. .. 62 61 .. .. .. .. .. .. .. .. 
.. .. .. .. .. .. .. .. .. .. .. .. .. .. .. .. .. .. .. .. .. .. 61 .. .. .. .. .. .. .. 
.. .. .. .. .. .. .. .. 62 61 .. .. .. .. .. .. .. .. .. .. .. .. .. .. .. .. .. .. .. .. 
.. .. .. .. .. .. .. .. 62 61 .. .. .. .. .. .. .. .. .. .. .. .. .. 63 .. .. .. .. .. .. 
.. .. .. .. .. .. .. .. .. 64 63 .. .. 60 .. .. .. .. .. .. .. .. .. .. .. .. .. .. 61 .. 
.. 60 .. .. .. .. .. .. .. 61 .. .. 60 .. .. .. .. .. .. 61 .. .. 60 .. .. .. .. .. .. .. 
61 .. .. 60 .. .. .. .. .. .. .. 61 .. .. 60 .. .. .. .. .. .. 61 .. .. 60 .. .. .. .. .. 
.. .. 60 .. .. .. .. .. .. .. .. .. .. .. .. .. .. 61 .. .. 60 .. .. .. .. .. .. .. 61 .. 
.. 60 .. .. .. .. .. .. .. .. .. .. .. .. .. .. .. 61 .. .. 60 .. .. .. .. .. .. .. 61 .. 
.. 60 .. .. .. .. .. .. .. .. .. .. .. .. .. .. .. 61 .. .. 60 .. 61 .. .. .. .. .. .. .. 
.. .. .. .. .. .. .. .. 62 61 .. .. .. .. .. .. .. .. .. .. .. .. .. .. .. .. .. .. .. .. 
.. .. .. .. .. .. .. .. .. .. 62 61 .. .. .. .. .. .. .. .. .. .. .. .. .. .. .. .. .. .. 
.. .. .. .. .. .. .. .. .. .. .. .. 61 .. .. .. .. .. .. .. .. .. .. .. .. .. .. .. 62 61 
.. .. .. .. .. .. .. .. .. .. .. .. .. .. .. .. .. .. .. .. .. .. .. .. .. .. .. .. 62 61 
.. .. .. .. .. .. .. .. .. .. .. .. .. .. .. .. .. .. .. .. .. .. .. .. .. .. .. .. 62 61 
.. .. .. 60 .. .. .. .. .. .. .. .. .. .. .. .. .. .. 61 .. .. 60 .. .. .. .. .. .. .. 61 
.. .. 60 .. .. .. .. .. .. 61 .. .. 60 .. .. .. .. .. .. .. 61 .. .. 60 .. .. .. .. .. .. 
.. 61 .. .. 60 .. .. .. .. .. .. 61 .. .. 60 .. .. .. .. .. .. .. 60 .. .. .. .. .. .. .. 
.. .. .. .. .. .. .. 61 .. .. 60 .. .. .. .. .. .. .. 61 .. .. 60 .. .. .. .. .. .. .. .. 
.. .. .. .. .. .. .. 61 .. .. 60 .. .. .. .. .. .. .. 61 .. .. 60 .. .. .. .. .. .. .. .. 
.. .. .. .. .. .. .. 61 .. .. 60 .. 61 .. .. .. .. .. .. .. .. .. .. .. .. .. .. .. 62 61 
.. .. .. .. .. .. .. .. .. .. .. .. .. .. .. .. .. .. .. .. .. .. .. .. .. .. .. .. .. .. 
62 61 .. .. .. .. .. .. .. .. .. .. .. .. .. .. .. .. .. .. .. .. .. .. .. .. .. .. .. .. 
.. .. 61 .. .. .. .. .. .. .. .. .. .. .. .. .. .. .. 62 61 .. .. .. .. .. .. .. .. .. .. 
.. .. .. .. .. .. .. .. .. .. .. .. .. .. .. .. .. .. 62 61 .. .. .. .. .. .. .. .. .. .. 
.. .. .. 63 .. .. .. .. .. .. .. .. .. .. .. .. .. .. .. 64 63 .. .. 60 .. .. .. .. .. .. 
.. .. .. .. .. .. .. .. 61 .. .. 60 .. .. .. .. .. .. .. 61 .. .. 60 .. .. .. .. .. .. 61 
.. .. 60 .. .. .. .. .. .. .. 61 .. .. 60 .. .. .. .. .. .. .. 61 .. .. 60 .. .. .. .. .. 
.. 61 .. .. 60 .. .. .. .. .. .. .. 60 .. .. .. .. .. .. .. .. .. .. .. .. .. .. 61 .. .. 
60 .. .. .. .. .. .. .. 61 .. .. 60 .. .. .. .. .. .. .. .. .. .. .. .. .. .. .. 61 .. .. 
60 .. .. .. .. .. .. .. 61 .. .. 60 .. .. .. .. .. .. .. .. .. .. .. .. .. .. .. 61 .. .. 
60 14 .. .. .. .. .. .. .. .. .. .. .. .. .. .. .. .. .. .. .. .. .. .. .. .. .. .. .. .. 
.. .. .. .. .. .. .. .. .. .. .. .. .. .. .. .. .. .. .. .. .. .. .. .. .. .. .. .. .. .. 
.. .. .. .. .. .. .. .. .. .. .. .. .. .. .. .. .. .. .. .. .. .. .. .. .. .. .. .. .. .. 
.. .. .. .. .. .. .. .. .. .. .. .. .. .. .. .. .. .. .. .. .. .. .. .. .. .. .. .. .. .. 
.. .. .. .. .. .. .. .. .. .. .. .. .. .. .. .. .. .. .. .. .. .. .. .. .. .. .. .. .. .. 
.. .. .. .. .. .. .. .. .. .. .. .. .. .. .. .. .. .. .. .. .. .. .. .. .. .. .. .. .. .. 
.. .. .. .. .. .. .. .. .. .. .. .. .. .. .. .. .. .. .. .. .. .. .. .. .. .. .. .. .. .. 
.. .. .. .. .. .. .. .. .. .. .. .. .. .. .. .. .. .. .. .. .. .. .. .. .. .. .. .. .. .. 
.. .. .. .. .. .. .. .. .. .. .. .. .. .. .. .. .. .. .. .. .. .. .. .. .. .. .. .. .. .. 
.. .. .. .. .. .. .. .. .. .. .. .. .. .. .. .. .. .. .. .. .. .. .. .. .. .. .. .. .. .. 
.. .. .. .. .. .. .. .. .. .. .. .. .. .. .. .. .. .. .. .. .. .. .. .. .. .. .. .. .. .. 
.. .. .. .. .. .. .. .. .. .. .. .. .. .. .. .. .. .. .. .. .. .. .. .. .. .. .. .. .. .. 
.. .. .. .. .. .. .. .. .. .. .. .. .. .. .. .. .. .. .. .. .. .. .. .. .. .. .. .. .. .. 
.. .. .. .. .. .. .. .. .. .. .. .. .. .. .. .. .. .. .. .. .. .. .. .. .. .. .. .. .. .. 
.. .. .. .. .. .. .. .. .. .. .. .. .. .. .. .. .. .. .. .. .. .. .. .. .. .. .. .. .. .. 
.. .. .. .. .. .. .. .. .. .. .. .. .. .. .. .. .. .. .. .. .. .. .. .. .. .. .. .. .. .. 
.. .. .. .. .. .. .. .. .. .. .. .. .. .. .. .. .. .. .. .. .. .. .. .. .. .. .. .. .. .. 
.. .. .. .. .. .. .. .. .. .. .. .. .. .. .. .. .. .. .. .. .. .. .. .. .. .. .. .. .. .. 
.. .. .. .. .. .. .. .. .. .. .. .. .. .. .. .. .. .. .. .. .. .. .. .. .. .. .. .. .. .. 
.. .. .. .. .. .. .. .. .. .. .. .. .. .. .. .. .. .. .. .. .. .. .. .. .. .. .. .. .. .. 
.. .. .. .. .. .. .. .. .. .. .. .. .. .. .. .. .. .. .. .. .. .. .. .. .. .. .. .. .. .. 
.. .. .. .. .. .. .. .. .. .. .. 39 .. .. .. .. .. .. .. .. .. 42 .. .. .. .. .. .. .. .. 
.. .. .. .. .. .. 43 .. .. 42 .. 39 .. .. .. .. .. .. .. .. .. .. 44 .. .. .. .. .. .. .. 
.. .. .. .. .. .. .. 45 .. .. 44 .. 39 .. .. .. .. .. .. .. .. .. .. .. .. .. .. 40 .. .. 
39 .. 42 .. .. .. .. .. .. .. .. .. .. .. .. .. .. 43 .. .. 42 .. 39 .. .. .. .. .. .. .. 
.. .. 44 .. .. .. .. .. .. .. .. .. .. .. .. .. .. 45 .. .. 44 39 .. .. .. .. .. .. .. .. 
.. .. 42 .. .. .. .. .. .. .. .. .. 44 .. .. .. .. .. .. .. .. 39 .. .. .. .. .. .. .. .. 
.. 42 .. .. .. .. .. .. .. .. .. .. .. .. .. .. 43 .. .. 42 .. 39 .. .. .. .. .. .. .. .. 
.. 44 .. .. .. .. .. .. .. .. .. .. .. .. .. .. 45 .. .. 44 .. .. 39 .. .. .. .. .. .. .. 
.. .. .. .. .. .. .. 40 .. .. 39 .. 42 .. .. .. .. .. .. .. .. .. .. .. .. .. .. 43 .. .. 
42 .. 39 .. .. .. .. .. .. .. .. .. 44 .. .. .. .. .. .. .. .. .. .. .. .. .. .. 45 .. .. 
44 .. 39 .. .. .. .. .. .. .. .. 42 .. .. .. .. .. .. .. .. .. .. 44 .. .. .. .. .. .. .. 
.. .. 39 .. .. .. .. .. .. .. .. 42 .. .. .. .. .. .. .. .. .. .. .. .. .. .. 43 .. .. 42 
.. 39 .. .. .. .. .. .. .. .. .. 44 .. .. .. .. .. .. .. .. .. .. .. .. .. .. 45 .. .. 44 
.. .. 39 .. .. .. .. .. .. .. .. .. .. .. .. .. .. 40 .. .. 39 .. 42 .. .. .. .. .. .. .. 
.. .. .. .. .. .. .. 43 .. .. 42 39 .. .. .. .. .. .. .. .. .. .. 44 .. .. .. .. .. .. .. 
.. .. .. .. .. .. .. 45 .. .. 44 .. 39 .. .. .. .. .. .. .. .. 42 .. .. .. .. .. .. .. .. 
.. 44 .. .. .. .. .. .. .. .. .. 39 .. .. .. .. .. .. .. .. .. .. 42 .. .. .. .. .. .. .. 
.. .. .. .. .. .. .. 43 .. .. 42 39 .. .. .. .. .. .. .. .. .. 44 .. .. .. .. .. .. .. .. 
.. .. .. .. .. .. 45 .. .. 44 .. .. 39 .. .. .. .. .. .. .. .. .. .. .. .. .. .. 40 .. .. 
39 .. 42 .. .. .. .. .. .. .. .. .. .. .. .. .. .. 43 .. .. 42 .. 39 .. .. .. .. .. .. .. 
.. .. 44 .. .. .. .. .. .. .. .. .. .. .. .. .. .. 45 .. .. 44 .. 39 .. .. .. .. .. .. .. 
.. 42 .. .. .. .. .. .. .. .. .. .. 44 .. .. .. .. .. .. .. .. 49 .. .. .. .. .. .. .. .. 
.. .. .. .. .. .. .. 50 49 .. .. .. .. .. .. .. .. 50 .. 49 .. .. .. .. .. .. .. .. 50 .. 
49 .. .. .. .. .. .. .. .. 50 49 .. .. .. .. .. .. .. .. 50 .. 49 .. .. .. .. .. .. .. .. 
50 .. 49 .. .. .. .. .. .. .. .. 49 .. .. .. .. .. .. .. .. .. .. .. .. .. .. .. 50 49 .. 
.. .. .. .. .. .. .. 50 .. 49 .. .. .. .. .. .. .. .. .. .. .. .. .. .. .. .. .. 50 49 .. 
.. .. .. .. .. .. .. 50 .. 49 .. .. .. .. .. .. .. .. .. .. .. .. .. .. .. .. .. 50 49 .. 
.. 48 .. .. .. .. .. .. .. .. .. .. .. .. .. .. 49 .. .. 48 .. .. .. .. .. .. 49 .. .. .. 
48 .. .. .. .. .. .. 49 .. .. .. 48 .. .. .. .. .. .. 49 .. .. 48 .. .. .. .. .. .. 49 .. 
.. .. 48 .. .. .. .. .. .. 49 .. .. .. 48 .. .. .. .. .. .. 49 48 .. .. .. .. .. .. .. .. 
.. .. .. .. .. .. 49 .. .. 48 .. .. .. .. .. .. 49 .. .. .. 48 .. .. .. .. .. .. .. .. .. 
.. .. .. .. .. .. 49 .. .. 48 .. .. .. .. .. .. 49 .. .. .. 48 .. .. .. .. .. .. .. .. .. 
.. .. .. .. .. .. 49 .. .. 48 .. 49 .. .. .. .. .. .. .. .. .. .. .. .. .. .. .. 50 49 .. 
.. .. .. .. .. .. .. 50 .. 49 .. .. .. .. .. .. .. .. 50 .. 49 .. .. .. .. .. .. .. .. 50 
49 .. .. .. .. .. .. .. .. 50 .. 49 .. .. .. .. .. .. .. .. 50 .. 49 .. .. .. .. .. .. .. 
.. 49 .. .. .. .. .. .. .. .. .. .. .. .. .. .. .. 50 49 .. .. .. .. .. .. .. .. 50 .. 49 
.. .. .. .. .. .. .. .. .. .. .. .. .. .. .. .. .. 50 49 .. .. .. .. .. .. .. .. 50 .. 49 
.. 51 .. .. .. .. .. .. .. .. .. .. .. .. .. .. .. 52 51 .. .. .. 48 .. .. .. .. .. .. .. 
.. .. .. .. .. .. .. 49 .. .. 48 .. .. .. .. .. .. 49 .. .. .. 48 .. .. .. .. .. .. 49 .. 
.. .. 48 .. .. .. .. .. .. 49 .. .. 48 .. .. .. .. .. .. 49 .. .. .. 48 .. .. .. .. .. .. 
49 .. .. .. 48 .. .. .. .. .. .. 48 .. .. .. .. .. .. .. .. .. .. .. .. .. .. 49 .. .. 48 
.. .. .. .. .. .. 49 .. .. .. 48 .. .. .. .. .. .. .. .. .. .. .. .. .. .. .. 49 .. .. 48 
.. .. .. .. .. .. 49 .. .. .. 48 .. .. .. .. .. .. .. .. .. .. .. .. .. .. .. 49 .. .. 48 
.. .. 61 .. .. .. .. .. .. .. .. .. .. .. .. .. .. .. 62 61 .. .. .. .. .. .. .. .. .. .. 
.. .. .. .. .. .. .. .. .. .. .. .. .. .. .. .. .. .. .. .. 62 61 .. .. .. .. .. .. .. .. 
.. .. .. .. .. .. .. .. .. .. .. .. .. .. .. .. .. .. .. .. .. .. 61 .. .. .. .. .. .. .. 
.. .. .. .. .. .. .. .. 62 61 .. .. .. .. .. .. .. .. .. .. .. .. .. .. .. .. .. .. .. .. 
.. .. .. .. .. .. .. .. 62 61 .. .. .. .. .. .. .. .. .. .. .. .. .. .. .. .. .. .. .. .. 
.. .. .. .. .. .. .. .. 62 61 .. .. .. 60 .. .. .. .. .. .. .. .. .. .. .. .. .. .. 61 .. 
.. 60 .. .. .. .. .. .. .. 61 .. .. 60 .. .. .. .. .. .. 61 .. .. 60 .. .. .. .. .. .. .. 
61 .. .. 60 .. .. .. .. .. .. .. 61 .. .. 60 .. .. .. .. .. .. 61 .. .. 60 .. .. .. .. .. 
.. .. 60 .. .. .. .. .. .. .. .. .. .. .. .. .. .. 61 .. .. 60 .. .. .. .. .. .. .. 61 .. 
.. 60 .. .. .. .. .. .. .. .. .. .. .. .. .. .. .. 61 .. .. 60 .. .. .. .. .. .. .. 61 .. 
.. 60 .. .. .. .. .. .. .. .. .. .. .. .. .. .. .. 61 .. .. 60 .. 61 .. .. .. .. .. .. .. 
.. .. .. .. .. .. .. .. 62 61 .. .. .. .. .. .. .. .. .. .. .. .. .. .. .. .. .. .. .. .. 
.. .. .. .. .. .. .. .. .. .. 62 61 .. .. .. .. .. .. .. .. .. .. .. .. .. .. .. .. .. .. 
.. .. .. .. .. .. .. .. .. .. .. .. 61 .. .. .. .. .. .. .. .. .. .. .. .. .. .. .. 62 61 
.. .. .. .. .. .. .. .. .. .. .. .. .. .. .. .. .. .. .. .. .. .. .. .. .. .. .. .. 62 61 
.. .. .. .. .. .. .. .. .. .. .. .. .. 63 .. .. .. .. .. .. .. .. .. .. .. .. .. .. .. 64 
63 .. .. 60 .. .. .. .. .. .. .. .. .. .. .. .. .. .. 61 .. .. 60 .. .. .. .. .. .. .. 61 
.. .. 60 .. .. .. .. .. .. 61 .. .. 60 .. .. .. .. .. .. .. 61 .. .. 60 .. .. .. .. .. .. 
.. 61 .. .. 60 .. .. .. .. .. .. 61 .. .. 60 .. .. .. .. .. .. .. 60 .. .. .. .. .. .. .. 
.. .. .. .. .. .. .. 61 .. .. 60 .. .. .. .. .. .. .. 61 .. .. 60 .. .. .. .. .. .. .. .. 
.. .. .. .. .. .. .. 61 .. .. 60 .. .. .. .. .. .. .. 61 .. .. 60 .. .. .. .. .. .. .. .. 
.. .. .. .. .. .. .. 61 .. .. 60 .. 61 .. .. .. .. .. .. .. .. .. .. .. .. .. .. .. 62 61 
.. .. .. .. .. .. .. .. .. .. .. .. .. .. .. .. .. .. .. .. .. .. .. .. .. .. .. .. .. .. 
62 61 .. .. .. .. .. .. .. .. .. .. .. .. .. .. .. .. .. .. .. .. .. .. .. .. .. .. .. .. 
.. .. 61 .. .. .. .. .. .. .. .. .. .. .. .. .. .. .. 62 61 .. .. .. .. .. .. .. .. .. .. 
.. .. .. .. .. .. .. .. .. .. .. .. .. .. .. .. .. .. 62 61 .. .. .. .. .. .. .. .. .. .. 
.. .. .. .. .. .. .. .. .. .. .. .. .. .. .. .. .. .. 62 61 .. .. .. 60 .. .. .. .. .. .. 
.. .. .. .. .. .. .. .. 61 .. .. 60 .. .. .. .. .. .. .. 61 .. .. 60 .. .. .. .. .. .. 61 
.. .. 60 .. .. .. .. .. .. .. 61 .. .. 60 .. .. .. .. .. .. .. 61 .. .. 60 .. .. .. .. .. 
.. 61 .. .. 60 .. .. .. .. .. .. .. 60 .. .. .. .. .. .. .. .. .. .. .. .. .. .. 61 .. .. 
60 .. .. .. .. .. .. .. 61 .. .. 60 .. .. .. .. .. .. .. .. .. .. .. .. .. .. .. 61 .. .. 
60 .. .. .. .. .. .. .. 61 .. .. 60 .. .. .. .. .. .. .. .. .. .. .. .. .. .. .. 61 .. .. 
60 .. 61 .. .. .. .. .. .. .. .. .. .. .. .. .. .. .. 62 61 .. .. .. .. .. .. .. .. .. .. 
.. .. .. .. .. .. .. .. .. .. .. .. .. .. .. .. .. .. .. .. 62 61 .. .. .. .. .. .. .. .. 
.. .. .. .. .. .. .. .. .. .. .. .. .. .. .. .. .. .. .. .. .. .. 61 .. .. .. .. .. .. .. 
.. .. .. .. .. .. .. .. 62 61 .. .. .. .. .. .. .. .. .. .. .. .. .. .. .. .. .. .. .. .. 
.. .. .. .. .. .. .. .. 62 61 .. .. .. .. .. .. .. .. .. .. .. .. .. 63 .. .. .. .. .. .. 
.. .. .. .. .. .. .. .. .. 64 63 .. .. 60 .. .. .. .. .. .. .. .. .. .. .. .. .. .. 61 .. 
.. 60 .. .. .. .. .. .. .. 61 .. .. 60 .. .. .. .. .. .. 61 .. .. 60 .. .. .. .. .. .. .. 
61 .. .. 60 .. .. .. .. .. .. .. 61 .. .. 60 .. .. .. .. .. .. 61 .. .. 60 .. .. .. .. .. 
.. .. 60 .. .. .. .. .. .. .. .. .. .. .. .. .. .. 61 .. .. 60 .. .. .. .. .. .. .. 61 .. 
.. 60 .. .. .. .. .. .. .. .. .. .. .. .. .. .. .. 61 .. .. 60 .. .. .. .. .. .. .. 61 .. 
.. 60 .. .. .. .. .. .. .. .. .. .. .. .. .. .. .. 61 .. .. 60 .. 61 .. .. .. .. .. .. .. 
.. .. .. .. .. .. .. .. 62 61 .. .. .. .. .. .. .. .. .. .. .. .. .. .. .. .. .. .. .. .. 
.. .. .. .. .. .. .. .. .. .. 62 61 .. .. .. .. .. .. .. .. .. .. .. .. .. .. .. .. .. .. 
.. .. .. .. .. .. .. .. .. .. .. .. 61 .. .. .. .. .. .. .. .. .. .. .. .. .. .. .. 62 61 
.. .. .. .. .. .. .. .. .. .. .. .. .. .. .. .. .. .. .. .. .. .. .. .. .. .. .. .. 
! Song 1
50 51 .. .. .. .. .. .. .. .. .. .. .. .. .. .. .. 52 51 .. .. .. .. .. .. .. .. 52 .. 51 
.. .. .. .. .. .. .. .. 52 .. 51 .. .. .. .. .. .. .. .. 52 51 .. .. .. .. .. .. .. .. 52 
.. 51 .. .. .. .. .. .. .. .. 52 .. 51 .. .. .. .. 49 .. .. .. .. .. .. .. .. .. .. .. .. 
.. .. .. 50 49 .. .. .. .. .. .. .. .. 50 .. 49 .. .. .. .. .. .. .. .. 50 .. 49 .. .. .. 
.. .. .. .. .. 50 49 .. .. .. .. .. .. .. .. 50 .. 49 .. .. .. .. .. .. .. .. 50 .. 49 .. 
.. .. .. .. .. .. .. 50 49 .. .. .. .. .. .. .. .. 50 .. 49 .. .. .. .. .. 46 .. .. .. .. 
.. .. .. .. .. .. .. .. .. .. 47 .. .. 46 .. .. .. .. .. .. .. 47 .. 46 .. .. .. .. .. .. 
.. .. 47 .. 46 .. .. .. .. .. .. .. 47 .. .. 46 .. .. .. .. .. .. .. 47 .. 46 .. .. .. .. 
44 .. .. .. .. .. .. .. .. .. .. 46 .. .. .. .. .. .. .. .. .. .. .. .. .. .. 47 .. .. 46 
.. .. .. .. .. .. .. 47 .. 46 .. .. .. .. 45 .. .. .. .. .. .. .. .. .. .. .. .. .. .. 46 
.. .. 45 .. .. .. 44 .. .. .. .. .. .. .. .. .. .. .. .. .. .. 45 .. .. 44 .. .. .. 42 .. 
.. .. .. .. .. .. .. .. .. .. .. .. .. 43 .. .. 42 .. .. 51 .. .. .. .. .. .. .. .. .. .. 
.. .. .. .. .. 52 51 .. .. .. .. .. .. .. .. 52 .. 51 .. .. .. .. .. .. .. .. 52 .. 51 .. 
.. .. .. .. .. .. .. 52 51 .. .. .. .. .. .. .. .. 52 .. 51 .. .. .. .. .. .. .. .. 52 .. 
51 .. .. .. .. .. 49 .. .. .. .. .. .. .. .. .. .. .. .. .. .. .. 50 49 .. .. .. .. .. .. 
.. .. 50 .. 49 .. .. .. .. .. .. .. .. 50 .. 49 .. .. .. .. .. .. .. .. 50 49 .. .. .. .. 
.. .. .. .. 50 .. 49 .. .. .. .. .. .. .. .. 50 .. 49 .. .. .. .. .. .. .. .. 50 49 .. .. 
.. .. .. .. .. .. 50 .. 49 .. .. .. .. .. 46 .. .. .. .. .. .. .. .. .. .. .. .. .. .. 47 
.. .. 46 .. .. .. .. .. .. .. 47 .. 46 .. .. .. .. .. .. .. .. 47 .. 46 .. .. .. .. .. .. 
.. 47 .. .. 46 .. .. .. .. .. .. .. 47 .. 46 .. .. .. .. 44 .. .. .. .. .. .. .. .. .. .. 
46 .. .. .. .. .. .. .. .. .. .. .. .. .. .. 47 .. .. 46 .. .. .. .. .. .. .. 47 .. 46 .. 
.. .. .. 45 .. .. .. .. .. .. .. .. .. .. .. .. .. .. 46 .. .. 45 .. .. .. 44 .. .. .. .. 
.. .. .. .. .. .. .. .. .. .. 45 .. .. 44 .. .. .. 42 .. .. .. .. .. .. .. .. .. .. .. .. 
.. .. 43 .. .. 42 .. .. .. 51 .. .. .. .. .. .. .. .. .. .. .. .. .. .. .. 52 51 .. .. .. 
.. .. .. .. .. 52 .. 51 .. .. .. .. .. .. .. .. 52 .. 51 .. .. .. .. .. .. .. .. 52 51 .. 
.. .. .. .. .. .. .. 52 .. 51 .. .. .. .. .. .. .. .. 52 .. 51 .. .. .. .. 49 .. .. .. .. 
.. .. .. .. .. .. .. .. .. .. .. 50 49 .. .. .. .. .. .. .. .. 50 .. 49 .. .. .. .. .. .. 
.. .. 50 .. 49 .. .. .. .. .. .. .. .. 50 49 .. .. .. .. .. .. .. .. 50 .. 49 .. .. .. .. 
.. .. .. .. 50 .. 49 .. .. .. .. .. .. .. .. 50 49 .. .. .. .. .. .. .. .. 50 .. 49 .. .. 
.. .. .. 46 .. .. .. .. .. .. .. .. .. .. .. .. .. .. 47 .. .. 46 .. .. .. .. .. .. .. 47 
.. 46 .. .. .. .. .. .. .. .. 47 .. 46 .. .. .. .. .. .. .. 47 .. .. 46 .. .. .. .. .. .. 
.. 47 .. 46 .. .. .. .. .. 44 .. .. .. .. .. .. .. .. .. 46 .. .. .. .. .. .. .. .. .. .. 
.. .. .. .. 47 .. .. 46 .. .. .. .. .. .. .. 47 .. 46 .. .. .. .. 48 .. .. .. .. .. .. .. 
.. .. .. .. .. .. .. 49 .. .. 48 .. .. .. 49 .. .. .. .. .. .. .. .. .. .. .. .. .. .. .. 
50 49 .. .. .. .. 46 .. .. .. .. .. .. .. .. .. .. .. .. .. .. 47 .. .. 46 .. .. .. 51 .. 
.. .. .. .. .. .. .. .. .. .. .. .. .. .. 52 51 .. .. .. .. .. .. .. .. 52 .. 51 .. .. .. 
.. .. .. .. .. 52 .. 51 .. .. .. .. .. .. .. .. 52 51 .. .. .. .. .. .. .. .. 52 .. 51 .. 
.. .. .. .. .. .. .. 52 .. 51 .. .. .. .. 49 .. .. .. .. .. .. .. .. .. .. .. .. .. .. .. 
50 49 .. .. .. .. .. .. .. .. 50 .. 49 .. .. .. .. .. .. .. .. 50 .. 49 .. .. .. .. .. .. 
.. .. 50 49 .. .. .. .. .. .. .. .. 50 .. 49 .. .. .. .. .. .. .. .. 50 .. 49 .. .. .. .. 
.. .. .. .. 50 49 .. .. .. .. .. .. .. .. 50 .. 49 .. .. .. .. .. 46 .. .. .. .. .. .. .. 
.. .. .. .. .. .. .. 47 .. .. 46 .. .. .. .. .. .. .. 47 .. 46 .. .. .. .. .. .. .. .. 47 
.. 46 .. .. .. .. .. .. .. 47 .. .. 46 .. .. .. .. .. .. .. 47 .. 46 .. .. .. .. .. 44 .. 
.. .. .. .. .. .. .. .. .. 46 .. .. .. .. .. .. .. .. .. .. .. .. .. .. 47 .. .. 46 .. .. 
.. .. .. .. .. 47 .. 46 .. .. .. 44 .. .. .. .. .. .. .. .. .. .. 46 .. .. .. .. .. .. .. 
.. .. .. .. .. .. .. 47 .. .. 46 .. .. .. .. .. .. .. 47 .. 46 .. .. .. .. 48 .. .. .. .. 
.. .. .. .. .. .. .. .. .. .. 49 .. .. 48 .. .. .. .. 51 .. .. .. .. .. .. .. .. .. .. .. 
.. .. .. .. 52 51 .. .. .. .. .. .. .. .. 52 .. 51 .. .. .. .. .. .. .. .. 52 .. 51 .. .. 
.. .. .. .. .. .. 52 51 .. .. .. .. .. .. .. .. 52 .. 51 .. .. .. .. .. .. .. .. 52 .. 51 
.. .. .. .. 49 .. .. .. .. .. .. .. .. .. .. .. .. .. .. .. 50 49 .. .. .. .. .. .. .. .. 
50 .. 49 .. .. .. .. .. .. .. .. 50 .. 49 .. .. .. .. .. .. .. .. 50 49 .. .. .. .. .. .. 
.. .. 50 .. 49 .. .. .. .. .. .. .. .. 50 .. 49 .. .. .. .. .. .. .. .. 50 49 .. .. .. .. 
.. .. .. .. 50 .. 49 .. .. .. .. .. 46 .. .. .. .. .. .. .. .. .. .. .. .. .. .. 47 .. .. 
46 .. .. .. .. .. .. .. 47 .. 46 .. .. .. .. .. .. .. .. 47 .. 46 .. .. .. .. .. .. .. 47 
.. .. 46 .. .. .. .. .. .. .. 47 .. 46 .. .. .. .. 44 .. .. .. .. .. .. .. .. .. .. 46 .. 
.. .. .. .. .. .. .. .. .. .. .. .. .. 47 .. .. 46 .. .. .. .. .. .. .. 47 .. 46 .. .. .. 
.. 45 .. .. .. .. .. .. .. .. .. .. .. .. .. .. 46 .. .. 45 .. .. .. 44 .. .. .. .. .. .. 
.. .. .. .. .. .. .. .. 45 .. .. 44 .. .. .. 42 .. .. .. .. .. .. .. .. .. .. .. .. .. .. 
43 .. .. 42 .. .. 51 .. .. .. .. .. .. .. .. .. .. .. .. .. .. .. 52 51 .. .. .. .. .. .. 
.. .. 52 .. 51 .. .. .. .. .. .. .. .. 52 .. 51 .. .. .. .. .. .. .. .. 52 51 .. .. .. .. 
.. .. .. .. 52 .. 51 .. .. .. .. .. .. .. .. 52 .. 51 .. .. .. .. .. 49 .. .. .. .. .. .. 
.. .. .. .. .. .. .. .. .. 50 49 .. .. .. .. .. .. .. .. 50 .. 49 .. .. .. .. .. .. .. .. 
50 .. 49 .. .. .. .. .. .. .. .. 50 49 .. .. .. .. .. .. .. .. 50 .. 49 .. .. .. .. .. .. 
.. .. 50 .. 49 .. .. .. .. .. .. .. .. 50 49 .. .. .. .. .. .. .. .. 50 .. 49 .. .. .. .. 
.. 46 .. .. .. .. .. .. .. .. .. .. .. .. .. .. 47 .. .. 46 .. .. .. .. .. .. .. 47 .. 46 
.. .. .. .. .. .. .. .. 47 .. 46 .. .. .. .. .. .. .. 47 .. .. 46 .. .. .. .. .. .. .. 47 
.. 46 .. .. .. .. 44 .. .. .. .. .. .. .. .. .. .. 46 .. .. .. .. .. .. .. .. .. .. .. .. 
.. .. 47 .. .. 46 .. .. .. .. .. .. .. 47 .. 46 .. .. .. .. 45 .. .. .. .. .. .. .. .. .. 
.. .. .. .. .. 46 .. .. 45 .. .. .. 44 .. .. .. .. .. .. .. .. .. .. .. .. .. .. 45 .. .. 
44 .. .. .. 42 .. .. .. .. .. .. .. .. .. .. .. .. .. .. 43 .. .. 42 .. .. .. 51 .. .. .. 
.. .. .. .. .. .. .. .. .. .. .. .. 52 51 .. .. .. .. .. .. .. .. 52 .. 51 .. .. .. .. .. 
.. .. .. 52 .. 51 .. .. .. .. .. .. .. .. 52 51 .. .. .. .. .. .. .. .. 52 .. 51 .. .. .. 
.. .. .. .. .. 52 .. 51 .. .. .. .. 49 .. .. .. .. .. .. .. .. .. .. .. .. .. .. .. 50 49 
.. .. .. .. .. .. .. .. 50 .. 49 .. .. .. .. .. .. .. .. 50 .. 49 .. .. .. .. .. .. .. .. 
50 49 .. .. .. .. .. .. .. .. 50 .. 49 .. .. .. .. .. .. .. .. 50 .. 49 .. .. .. .. .. .. 
.. .. 50 49 .. .. .. .. .. .. .. .. 50 .. 49 .. .. .. .. .. 46 .. .. .. .. .. .. .. .. .. 
.. .. .. .. .. 47 .. .. 46 .. .. .. .. .. .. .. 47 .. 46 .. .. .. .. .. .. .. .. 47 .. 46 
.. .. .. .. .. .. .. 47 .. .. 46 .. .. .. .. .. .. .. 47 .. 46 .. .. .. .. .. 44 .. .. .. 
.. .. .. .. .. .. 46 .. .. .. .. .. .. .. .. .. .. .. .. .. .. 47 .. .. 46 .. .. .. .. .. 
.. .. 47 .. 46 .. .. .. .. 48 .. .. .. .. .. .. .. .. .. .. .. .. .. .. 49 .. .. 48 .. .. 
.. 49 .. .. .. .. .. .. .. .. .. .. .. .. .. .. .. 50 49 .. .. .. .. 46 .. .. .. .. .. .. 
.. .. .. .. .. .. .. .. 47 .. .. 46 .. .. .. 51 .. .. .. .. .. .. .. .. .. .. .. .. .. .. 
.. 52 51 .. .. .. .. .. .. .. .. 52 .. 51 .. .. .. .. .. .. .. .. 52 .. 51 .. .. .. .. .. 
.. .. .. 52 51 .. .. .. .. .. .. .. .. 52 .. 51 .. .. .. .. .. .. .. .. 52 .. 51 .. .. .. 
.. 49 .. .. .. .. .. .. .. .. .. .. .. .. .. .. .. 50 49 .. .. .. .. .. .. .. .. 50 .. 49 
.. .. .. .. .. .. .. .. 50 .. 49 .. .. .. .. .. .. .. .. 50 49 .. .. .. .. .. .. .. .. 50 
.. 49 .. .. .. .. .. .. .. .. 50 .. 49 .. .. .. .. .. .. .. .. 50 49 .. .. .. .. .. .. .. 
.. 50 .. 49 .. .. .. .. .. 46 .. .. .. .. .. .. .. .. .. .. .. .. .. .. 47 .. .. 46 .. .. 
.. .. .. .. .. 47 .. 46 .. .. .. .. .. .. .. .. 47 .. 46 .. .. .. .. .. .. .. 47 .. .. 46 
.. .. .. .. .. .. .. 47 .. 46 .. .. .. .. .. 44 .. .. .. .. .. .. .. .. .. .. 46 .. .. .. 
.. .. .. .. .. .. .. .. .. .. .. 47 .. .. 46 .. .. .. .. .. .. .. 47 .. 46 .. .. .. 44 .. 
.. .. .. .. .. .. .. .. .. 46 .. .. .. .. .. .. .. .. .. .. .. .. .. .. 47 .. .. 46 .. .. 
.. .. .. .. .. 47 .. 46 .. .. .. .. 48 .. .. .. .. .. .. .. .. .. .. .. .. .. .. 49 .. .. 
48 .. .. .. .. 51 .. .. .. .. .. .. .. .. .. .. .. .. .. .. .. 52 51 .. .. .. .. .. .. .. 
.. 52 .. 51 .. .. .. .. .. .. .. .. 52 .. 51 .. .. .. .. .. .. .. .. 52 51 .. .. .. .. .. 
.. .. .. 52 .. 51 .. .. .. .. .. .. .. .. 52 .. 51 .. .. .. .. 49 .. .. .. .. .. .. .. .. 
.. .. .. .. .. .. .. 50 49 .. .. .. .. .. .. .. .. 50 .. 49 .. .. .. .. .. .. .. .. 50 .. 
49 .. .. .. .. .. .. .. .. 50 49 .. .. .. .. .. .. .. .. 50 .. 49 .. .. .. .. .. .. .. .. 
50 .. 49 .. .. .. .. .. .. .. .. 50 49 .. .. .. .. .. .. .. .. 50 .. 49 .. .. .. .. .. 46 
.. .. .. .. .. .. .. .. .. .. .. .. .. .. 47 .. .. 46 .. .. .. .. .. .. .. 47 .. 46 .. .. 
.. .. .. .. .. .. 47 .. 46 .. .. .. .. .. .. .. 47 .. .. 46 .. .. .. .. .. .. .. 47 .. 46 
.. .. .. .. 44 .. .. .. .. .. .. .. .. .. .. 46 .. .. .. .. .. .. .. .. .. .. .. .. .. .. 
47 .. .. 46 .. .. .. .. .. .. .. 47 .. 46 .. .. .. .. 45 .. .. .. .. .. .. .. .. .. .. .. 
.. .. .. 46 .. .. 45 .. .. .. 44 .. .. .. .. .. .. .. .. .. .. .. .. .. .. 45 .. .. 44 .. 
.. .. 42 .. .. .. .. .. .. .. .. .. .. .. .. .. .. 43 .. .. 42 .. .. 51 .. .. .. .. .. .. 
.. .. .. .. .. .. .. .. .. 52 51 .. .. .. .. .. .. .. .. 52 .. 51 .. .. .. .. .. .. .. .. 
52 .. 51 .. .. .. .. .. .. .. .. 52 51 .. .. .. .. .. .. .. .. 52 .. 51 .. .. .. .. .. .. 
.. .. 52 .. 51 .. .. .. .. .. 49 .. .. .. .. .. .. .. .. .. .. .. .. .. .. .. 50 49 .. .. 
.. .. .. .. .. .. 50 .. 49 .. .. .. .. .. .. .. .. 50 .. 49 .. .. .. .. .. .. .. .. 50 49 
.. .. .. .. .. .. .. .. 50 .. 49 .. .. .. .. .. .. .. .. 50 .. 49 .. .. .. .. .. .. .. .. 
50 49 .. .. .. .. .. .. .. .. 50 .. 49 .. .. .. .. .. 46 .. .. .. .. .. .. .. .. .. .. .. 
.. .. .. 47 .. .. 46 .. .. .. .. .. .. .. 47 .. 46 .. .. .. .. .. .. .. .. 47 .. 46 .. .. 
.. .. .. .. .. 47 .. .. 46 .. .. .. .. .. .. .. 47 .. 46 .. .. .. .. 44 .. .. .. .. .. .. 
.. .. .. .. 46 .. .. .. .. .. .. .. .. .. .. .. .. .. .. 47 .. .. 46 .. .. .. .. .. .. .. 
47 .. 46 .. .. .. .. 45 .. .. .. .. .. .. .. .. .. .. .. .. .. .. 46 .. .. 45 .. .. .. 44 
.. .. .. .. .. .. .. .. .. .. .. .. .. .. 45 .. .. 44 .. .. .. 42 .. .. .. .. .. .. .. .. 
.. .. .. .. .. .. 43 .. .. 42 .. .. .. 51 .. .. .. .. .. .. .. .. .. .. .. .. .. .. .. 52 
51 .. .. .. .. .. .. .. .. 52 .. 51 .. .. .. .. .. .. .. .. 52 .. 51 .. .. .. .. .. .. .. 
.. 52 51 .. .. .. .. .. .. .. .. 52 .. 51 .. .. .. .. .. .. .. .. 52 .. 51 .. .. .. .. 49 
.. .. .. .. .. .. .. .. .. .. .. .. .. .. .. 50 49 .. .. .. .. .. .. .. .. 50 .. 49 .. .. 
.. .. .. .. .. .. 50 .. 49 .. .. .. .. .. .. .. .. 50 49 .. .. .. .. .. .. .. .. 50 .. 49 
.. .. .. .. .. .. .. .. 50 .. 49 .. .. .. .. .. .. .. .. 50 49 .. .. .. .. .. .. .. .. 50 
.. 49 .. .. .. .. .. 46 .. .. .. .. .. .. .. .. .. .. .. .. .. .. 47 .. .. 46 .. .. .. .. 
.. .. .. 47 .. 46 .. .. .. .. .. .. .. .. 47 .. 46 .. .. .. .. .. .. .. 47 .. .. 46 .. .. 
.. .. .. .. .. 47 .. 46 .. .. .. .. .. 44 .. .. .. .. .. .. .. .. .. 46 .. .. .. .. .. .. 
.. .. .. .. .. .. .. .. 47 .. .. 46 .. .. .. .. .. .. .. 47 .. 46 .. .. .. .. 48 .. .. .. 
.. .. .. .. .. .. .. .. .. .. .. 49 .. .. 48 .. .. .. 49 .. .. .. .. .. .. .. .. .. .. .. 
.. .. .. .. 50 49 .. .. .. .. 46 .. .. .. .. .. .. .. .. .. .. .. .. .. .. 47 .. .. 46 .. 
.. .. 51 .. .. .. .. .. .. .. .. .. .. .. .. .. .. .. 52 51 .. .. .. .. .. .. .. .. 52 .. 
51 .. .. .. .. .. .. .. .. 52 .. 51 .. .. .. .. .. .. .. .. 52 51 .. .. .. .. .. .. .. .. 
52 .. 51 .. .. .. .. .. .. .. .. 52 .. 51 .. .. .. .. 49 .. .. .. .. .. .. .. .. .. .. .. 
.. .. .. .. 50 49 .. .. .. .. .. .. .. .. 50 .. 49 .. .. .. .. .. .. .. .. 50 .. 49 .. .. 
.. .. .. .. .. .. 50 49 .. .. .. .. .. .. .. .. 50 .. 49 .. .. .. .. .. .. .. .. 50 .. 49 
.. .. .. .. .. .. .. .. 50 49 .. .. .. .. .. .. .. .. 50 .. 49 .. .. .. .. .. 46 .. .. .. 
.. .. .. .. .. .. .. .. .. .. .. 47 .. .. 46 .. .. .. .. .. .. .. 47 .. 46 .. .. .. .. .. 
.. .. .. 47 .. 46 .. .. .. .. .. .. .. 47 .. .. 46 .. .. .. .. .. .. .. 47 .. 46 .. .. .. 
.. .. 44 .. .. .. .. .. .. .. .. .. .. 46 .. .. .. .. .. .. .. .. .. .. .. .. .. .. 47 .. 
.. 46 .. .. .. .. .. .. .. 47 .. 46 .. .. .. 44 .. .. .. .. .. .. .. .. .. .. 46 .. .. .. 
.. .. .. .. .. .. .. .. .. .. .. 47 .. .. 46 .. .. .. .. .. .. .. 47 .. 46 .. .. .. .. 48 
.. .. .. .. .. .. .. .. .. .. .. .. .. .. 49 .. .. 48 .. .. .. .. 51 .. .. .. .. .. .. .. 
.. .. .. .. .. .. .. .. 52 51 .. .. .. .. .. .. .. .. 52 .. 51 .. .. .. .. .. .. .. .. 52 
.. 51 .. .. .. .. .. .. .. .. 52 51 .. .. .. .. .. .. .. .. 52 .. 51 .. .. .. .. .. .. .. 
.. 52 .. 51 .. .. .. .. 49 .. .. .. .. .. .. .. .. .. .. .. .. .. .. .. 50 49 .. .. .. .. 
.. .. .. .. 50 .. 49 .. .. .. .. .. .. .. .. 50 .. 49 .. .. .. .. .. .. .. .. 50 49 .. .. 
.. .. .. .. .. .. 50 .. 49 .. .. .. .. .. .. .. .. 50 .. 49 .. .. .. .. .. .. .. .. 50 49 
.. .. .. .. .. .. .. .. 50 .. 49 .. .. .. .. .. 46 .. .. .. .. .. .. .. .. .. .. .. .. .. 
.. 47 .. .. 46 .. .. .. .. .. .. .. 47 .. 46 .. .. .. .. .. .. .. .. 47 .. 46 .. .. .. .. 
.. .. .. 47 .. .. 46 .. .. .. .. .. .. .. 47 .. 46 .. .. .. .. 44 .. .. .. .. .. .. .. .. 
.. .. 46 .. .. .. .. .. .. .. .. .. .. .. .. .. .. 47 .. .. 46 .. .. .. .. .. .. .. 47 .. 
46 .. .. .. .. 45 .. .. .. .. .. .. .. .. .. .. .. .. .. .. 46 .. .. 45 .. .. .. 44 .. .. 
.. .. .. .. .. .. .. .. .. .. .. .. 45 .. .. 44 .. .. .. 42 .. .. .. .. .. .. .. .. .. .. 
.. .. .. .. 43 .. .. 42 .. .. 51 .. .. .. .. .. .. .. .. .. .. .. .. .. .. .. 52 51 .. .. 
.. .. .. .. .. .. 52 .. 51 .. .. .. .. .. .. .. .. 52 .. 51 .. .. .. .. .. .. .. .. 52 51 
.. .. .. .. .. .. .. .. 52 .. 51 .. .. .. .. .. .. .. .. 52 .. 51 .. .. .. .. .. 49 .. .. 
.. .. .. .. .. .. .. .. .. .. .. .. .. 50 49 .. .. .. .. .. .. .. .. 50 .. 49 .. .. .. .. 
.. .. .. .. 50 .. 49 .. .. .. .. .. .. .. .. 50 49 .. .. .. .. .. .. .. .. 50 .. 49 .. .. 
.. .. .. .. .. .. 50 .. 49 .. .. .. .. .. .. .. .. 50 49 .. .. .. .. .. .. .. .. 50 .. 49 
.. .. .. .. .. 46 .. .. .. .. .. .. .. .. .. .. .. .. .. .. 47 .. .. 46 .. .. .. .. .. .. 
.. 47 .. 46 .. .. .. .. .. .. .. .. 47 .. 46 .. .. .. .. .. .. .. 47 .. .. 46 .. .. .. .. 
.. .. .. 47 .. 46 .. .. .. .. 44 .. .. .. .. .. .. .. .. .. .. 46 .. .. .. .. .. .. .. .. 
.. .. .. .. .. .. 47 .. .. 46 .. .. .. .. .. .. .. 47 .. 46 .. .. .. .. 45 .. .. .. .. .. 
.. .. .. .. .. .. .. .. .. 46 .. .. 45 .. .. .. 44 .. .. .. .. .. .. .. .. .. .. .. .. .. 
.. 45 .. .. 44 .. .. .. 42 .. .. .. .. .. .. .. .. .. .. .. .. .. .. 43 .. .. 42 .. .. .. 
51 .. .. .. .. .. .. .. .. .. .. .. .. .. .. .. 52 51 .. .. .. .. .. .. .. .. 52 .. 51 .. 
.. .. .. .. .. .. .. 52 .. 51 .. .. .. .. .. .. .. .. 52 51 .. .. .. .. .. .. .. .. 52 .. 
51 .. .. .. .. .. .. .. .. 52 .. 51 .. .. .. .. 49 .. .. .. .. .. .. .. .. .. .. .. .. .. 
.. .. 50 49 .. .. .. .. .. .. .. .. 50 .. 49 .. .. .. .. .. .. .. .. 50 .. 49 .. .. .. .. 
.. .. .. .. 50 49 .. .. .. .. .. .. .. .. 50 .. 49 .. .. .. .. .. .. .. .. 50 .. 49 .. .. 
.. .. .. .. .. .. 50 49 .. .. .. .. .. .. .. .. 50 .. 49 .. .. .. .. .. 46 .. .. .. .. .. 
.. .. .. .. .. .. .. .. .. 47 .. .. 46 .. .. .. .. .. .. .. 47 .. 46 .. .. .. .. .. .. .. 
.. 47 .. 46 .. .. .. .. .. .. .. 47 .. .. 46 .. .. .. .. .. .. .. 47 .. 46 .. .. .. .. .. 
44 .. .. .. .. .. .. .. .. .. 46 .. .. .. .. .. .. .. .. .. .. .. .. .. .. 47 .. .. 46 .. 
.. .. .. .. .. .. 47 .. 46 .. .. .. .. 48 .. .. .. .. .. .. .. .. .. .. .. .. .. .. 49 .. 
.. 48 .. .. .. 49 .. .. .. .. .. .. .. .. .. .. .. .. .. .. .. 50 49 .. .. .. .. 46 .. .. 
.. .. .. .. .. .. .. .. .. .. .. .. 47 .. .. 46 .. .. .. 51 .. .. .. .. .. .. .. .. .. .. 
.. .. .. .. .. 52 51 .. .. .. .. .. .. .. .. 52 .. 51 .. .. .. .. .. .. .. .. 52 .. 51 .. 
.. .. .. .. .. .. .. 52 51 .. .. .. .. .. .. .. .. 52 .. 51 .. .. .. .. .. .. .. .. 52 .. 
51 .. .. .. .. 49 .. .. .. .. .. .. .. .. .. .. .. .. .. .. .. 50 49 .. .. .. .. .. .. .. 
.. 50 .. 49 .. .. .. .. .. .. .. .. 50 .. 49 .. .. .. .. .. .. .. .. 50 49 .. .. .. .. .. 
.. .. .. 50 .. 49 .. .. .. .. .. .. .. .. 50 .. 49 .. .. .. .. .. .. .. .. 50 49 .. .. .. 
.. .. .. .. .. 50 .. 49 .. .. .. .. .. 46 .. .. .. .. .. .. .. .. .. .. .. .. .. .. 47 .. 
.. 46 .. .. .. .. .. .. .. 47 .. 46 .. .. .. .. .. .. .. .. 47 .. 46 .. .. .. .. .. .. .. 
47 .. .. 46 .. .. .. .. .. .. .. 47 .. 46 .. .. .. .. .. 44 .. .. .. .. .. .. .. .. .. .. 
46 .. .. .. .. .. .. .. .. .. .. .. .. .. .. 47 .. .. 46 .. .. .. .. .. .. .. 47 .. 46 .. 
.. .. 44 .. .. .. .. .. .. .. .. .. .. 46 .. .. .. .. .. .. .. .. .. .. .. .. .. .. 47 .. 
.. 46 .. .. .. .. .. .. .. 47 .. 46 .. .. .. .. 48 .. .. .. .. .. .. .. .. .. .. .. .. .. 
.. 49 .. .. 48 .. .. .. .. 51 .. .. .. .. .. .. .. .. .. .. .. .. .. .. .. 52 51 .. .. .. 
.. .. .. .. .. 52 .. 51 .. .. .. .. .. .. .. .. 52 .. 51 .. .. .. .. .. .. .. .. 52 51 .. 
.. .. .. .. .. .. .. 52 .. 51 .. .. .. .. .. .. .. .. 52 .. 51 .. .. .. .. 49 .. .. .. .. 
.. .. .. .. .. .. .. .. .. .. .. 50 49 .. .. .. .. .. .. .. .. 50 .. 49 .. .. .. .. .. .. 
.. .. 50 .. 49 .. .. .. .. .. .. .. .. 50 49 .. .. .. .. .. .. .. .. 50 .. 49 .. .. .. .. 
.. .. .. .. 50 .. 49 .. .. .. .. .. .. .. .. 50 49 .. .. .. .. .. .. .. .. 50 .. 49 .. .. 
.. .. .. 46 .. .. .. .. .. .. .. .. .. .. .. .. .. .. 47 .. .. 46 .. .. .. .. .. .. .. 47 
.. 46 .. .. .. .. .. .. .. .. 47 .. 46 .. .. .. .. .. .. .. 47 .. .. 46 .. .. .. .. .. .. 
.. 47 .. 46 .. .. .. .. 44 .. .. .. .. .. .. .. .. .. .. 46 .. .. .. .. .. .. .. .. .. .. 
.. .. .. .. 47 .. .. 46 .. .. .. .. .. .. .. 47 .. 46 .. .. .. .. 45 .. .. .. .. .. .. .. 
.. .. .. .. .. .. .. 46 .. .. 45 .. .. .. 44 .. .. .. .. .. .. .. .. .. .. .. .. .. .. 45 
.. .. 44 .. .. .. 42 .. .. .. .. .. .. .. .. .. .. .. .. .. .. 43 .. .. 42 .. .. 51 .. .. 
.. .. .. .. .. .. .. .. .. .. .. .. .. 52 51 .. .. .. .. .. .. .. .. 52 .. 51 .. .. .. .. 
.. .. .. .. 52 .. 51 .. .. .. .. .. .. .. .. 52 51 .. .. .. .. .. .. .. .. 52 .. 51 .. .. 
.. .. .. .. .. .. 52 .. 51 .. .. .. .. .. 49 .. .. .. .. .. .. .. .. .. .. .. .. .. .. .. 
50 49 .. .. .. .. .. .. .. .. 50 .. 49 .. .. .. .. .. .. .. .. 50 .. 49 .. .. .. .. .. .. 
.. .. 50 49 .. .. .. .. .. .. .. .. 50 .. 49 .. .. .. .. .. .. .. .. 50 .. 49 .. .. .. .. 
.. .. .. .. 50 49 .. .. .. .. .. .. .. .. 50 .. 49 .. .. .. .. .. 46 .. .. .. .. .. .. .. 
.. .. .. .. .. .. .. 47 .. .. 46 .. .. .. .. .. .. .. 47 .. 46 .. .. .. .. .. .. .. .. 47 
.. 46 .. .. .. .. .. .. .. 47 .. .. 46 .. .. .. .. .. .. .. 47 .. 46 .. .. .. .. 44 .. .. 
.. .. .. .. .. .. .. .. 46 .. .. .. .. .. .. .. .. .. .. .. .. .. .. 47 .. .. 46 .. .. .. 
.. .. .. .. 47 .. 46 .. .. .. .. 45 .. .. .. .. .. .. .. .. .. .. .. .. .. .. 46 .. .. 45 
.. .. .. 44 .. .. .. .. .. .. .. .. .. .. .. .. .. .. 45 .. .. 44 .. .. .. 42 .. .. .. .. 
.. .. .. .. .. .. .. .. .. .. 43 .. .. 42 .. .. .. 51 .. .. .. .. .. .. .. .. .. .. .. .. 
.. .. .. 52 51 .. .. .. .. .. .. .. .. 52 .. 51 .. .. .. .. .. .. .. .. 52 .. 51 .. .. .. 
.. .. .. .. .. 52 51 .. .. .. .. .. .. .. .. 52 .. 51 .. .. .. .. .. .. .. .. 52 .. 51 .. 
.. .. .. 49 .. .. .. .. .. .. .. .. .. .. .. .. .. .. .. 50 49 .. .. .. .. .. .. .. .. 50 
.. 49 .. .. .. .. .. .. .. .. 50 .. 49 .. .. .. .. .. .. .. .. 50 49 .. .. .. .. .. .. .. 
.. 50 .. 49 .. .. .. .. .. .. .. .. 50 .. 49 .. .. .. .. .. .. .. .. 50 49 .. .. .. .. .. 
.. .. .. 50 .. 49 .. .. .. .. .. 46 .. .. .. .. .. .. .. .. .. .. .. .. .. .. 47 .. .. 46 
.. .. .. .. .. .. .. 47 .. 46 .. .. .. .. .. .. .. .. 47 .. 46 .. .. .. .. .. .. .. 47 .. 
.. 46 .. .. .. .. .. .. .. 47 .. 46 .. .. .. .. .. 44 .. .. .. .. .. .. .. .. .. 46 .. .. 
.. .. .. .. .. .. .. .. .. .. .. .. 47 .. .. 46 .. .. .. .. .. .. .. 47 .. 46 .. .. .. .. 
48 .. .. .. .. .. .. .. .. .. .. .. .. .. .. 49 .. .. 48 .. .. .. 49 .. .. .. .. .. .. .. 
.. .. .. .. .. .. .. .. 50 49 .. .. .. .. 46 .. .. .. .. .. .. .. .. .. .. .. .. .. .. 47 
.. .. 46 .. .. .. 51 .. .. .. .. .. .. .. .. .. .. .. .. .. .. .. 52 51 .. .. .. .. .. .. 
.. .. 52 .. 51 .. .. .. .. .. .. .. .. 52 .. 51 .. .. .. .. .. .. .. .. 52 51 .. .. .. .. 
.. .. .. .. 52 .. 51 .. .. .. .. .. .. .. .. 52 .. 51 .. .. .. .. 49 .. .. .. .. .. .. .. 
.. .. .. .. .. .. .. .. 50 49 .. .. .. .. .. .. .. .. 50 .. 49 .. .. .. .. .. .. .. .. 50 
.. 49 .. .. .. .. .. .. .. .. 50 49 .. .. .. .. .. .. .. .. 50 .. 49 .. .. .. .. .. .. .. 
.. 50 .. 49 .. .. .. .. .. .. .. .. 50 49 .. .. .. .. .. .. .. .. 50 .. 49 .. .. .. .. .. 
46 .. .. .. .. .. .. .. .. .. .. .. .. .. .. 47 .. .. 46 .. .. .. .. .. .. .. 47 .. 46 .. 
.. .. .. .. .. .. .. 47 .. 46 .. .. .. .. .. .. .. 47 .. .. 46 .. .. .. .. .. .. .. 47 .. 
46 .. .. .. .. .. 44 .. .. .. .. .. .. .. .. .. .. 46 .. .. .. .. .. .. .. .. .. .. .. .. 
.. .. 47 .. .. 46 .. .. .. .. .. .. .. 47 .. 46 .. .. .. 44 .. .. .. .. .. .. .. .. .. .. 
46 .. .. .. .. .. .. .. .. .. .. .. .. .. .. 47 .. .. 46 .. .. .. .. .. .. .. 47 .. 46 .. 
.. .. .. 48 .. .. .. .. .. .. .. .. .. .. .. .. .. .. 49 .. .. 48 .. .. .. .. 51 .. .. .. 
.. .. .. .. .. .. .. .. .. .. .. .. 52 51 .. .. .. .. .. .. .. .. 52 .. 51 .. .. .. .. .. 
.. .. .. 52 .. 51 .. .. .. .. .. .. .. .. 52 51 .. .. .. .. .. .. .. .. 52 .. 51 .. .. .. 
.. .. .. .. .. 52 .. 51 .. .. .. .. 49 .. .. .. .. .. .. .. .. .. .. .. .. .. .. .. 50 49 
.. .. .. .. .. .. .. .. 50 .. 49 .. .. .. .. .. .. .. .. 50 .. 49 .. .. .. .. .. .. .. .. 
50 49 .. .. .. .. .. .. .. .. 50 .. 49 .. .. .. .. .. .. .. .. 50 .. 49 .. .. .. .. .. .. 
.. .. 50 49 .. .. .. .. .. .. .. .. 50 .. 49 .. .. .. .. .. 46 .. .. .. .. .. .. .. 
! Song 2
50 14 51 .. .. .. .. .. .. .. .. .. .. .. .. .. .. .. 52 51 .. .. .. .. .. .. .. .. .. .. 
.. .. .. .. .. .. 52 51 .. .. .. .. .. .. .. .. .. .. .. .. .. .. .. .. .. .. .. .. .. .. 
.. .. .. .. .. .. 52 51 .. .. 49 .. .. .. .. .. .. .. .. .. .. .. .. .. .. .. 50 49 .. .. 
.. .. .. .. .. .. 50 .. 49 .. .. .. .. .. .. .. .. .. .. .. .. .. .. .. .. .. 50 49 .. .. 
.. .. .. .. .. .. .. .. .. .. .. .. .. .. .. .. .. .. .. .. .. .. .. .. .. .. 50 49 .. .. 
48 .. .. .. .. .. .. .. .. .. .. .. .. .. .. 49 .. .. 48 .. .. .. .. .. .. 49 .. .. .. 48 
.. .. .. .. .. .. .. .. .. .. .. .. .. .. .. 49 .. .. 48 .. 46 .. .. .. .. .. .. .. .. .. 
44 .. .. .. .. .. .. .. .. .. .. .. .. .. .. 45 .. .. 44 .. 46 .. .. .. .. .. .. .. .. .. 
.. .. .. .. .. 47 .. .. 46 .. .. .. .. .. .. .. 47 .. 46 .. .. .. .. .. .. .. .. .. .. .. 
.. .. .. .. .. .. .. .. .. .. .. .. .. .. .. .. .. .. .. .. .. .. .. .. .. .. .. .. .. .. 
.. .. .. .. .. .. .. .. .. .. .. .. .. .. .. .. .. .. .. .. .. .. .. .. .. .. .. .. .. .. 
.. .. .. .. .. .. .. .. .. .. .. .. .. .. .. .. .. .. .. .. .. .. .. .. .. .. .. .. .. .. 
.. .. .. .. .. .. .. .. .. .. .. .. .. .. .. .. .. .. .. .. .. .. .. .. .. .. .. .. .. .. 
.. .. .. .. .. .. .. .. .. .. .. .. .. .. .. .. .. .. .. .. .. .. .. .. .. .. .. .. .. .. 
.. .. .. .. .. .. .. .. .. .. .. .. .. .. .. .. .. .. .. .. .. .. .. .. .. .. .. .. .. .. 
.. .. .. .. .. .. .. .. .. .. .. .. .. 
! Song 3
50 14 .. .. .. .. .. .. .. .. .. .. .. .. .. .. .. .. .. .. .. .. .. .. .. .. .. .. .. .. 
.. .. .. .. .. .. .. .. .. .. 50 .. 51 .. .. .. .. .. .. .. .. .. .. .. .. .. .. .. 52 51 
.. .. .. .. .. .. .. .. .. .. 50 .. 51 .. .. .. .. .. .. .. .. .. .. .. .. .. .. .. 52 51 
.. .. .. .. .. .. .. .. .. .. 50 .. 51 .. .. .. .. .. .. .. .. .. .. .. .. .. .. .. 52 51 
.. .. .. .. .. .. .. .. .. .. 50 .. 51 .. .. .. .. .. .. .. .. .. .. .. .. .. .. .. 52 51 
.. .. .. .. .. .. .. .. .. .. 44 .. .. .. .. .. .. .. .. .. 45 .. .. .. .. .. .. .. .. .. 
46 .. .. .. .. .. .. .. .. .. .. 49 .. .. .. .. .. .. .. 50 .. 51 .. .. .. .. .. .. .. .. 
.. .. .. .. .. .. .. 52 51 .. .. .. .. .. .. .. .. .. .. .. 50 .. 51 .. .. .. .. .. .. .. 
.. .. .. .. .. .. .. .. 52 51 .. .. .. .. .. .. .. .. .. .. 50 .. 51 .. .. .. .. .. .. .. 
.. .. .. .. .. .. .. .. 52 51 .. .. .. .. .. .. .. .. .. .. 50 .. 51 .. .. .. .. .. .. .. 
.. .. .. .. .. .. .. .. 52 51 .. .. .. .. .. .. .. .. .. .. 58 .. .. .. .. .. .. .. .. .. 
57 .. .. .. .. .. .. .. .. .. .. 56 .. .. .. .. .. .. .. .. 54 .. .. .. .. .. .. .. .. .. 
50 .. 51 .. .. .. .. .. .. .. .. .. .. .. .. .. .. .. 52 51 .. .. .. .. .. .. .. .. .. .. 
50 .. 51 .. .. .. .. .. .. .. .. .. .. .. .. .. .. .. 52 51 .. .. .. .. .. .. .. .. .. 50 
.. 51 .. .. .. .. .. .. .. .. .. .. .. .. .. .. .. 52 51 .. .. .. .. .. .. .. .. .. .. 50 
.. 51 .. .. .. .. .. .. .. .. .. .. .. .. .. .. .. 52 51 .. .. .. .. .. .. .. .. .. .. .. 
44 .. .. .. .. .. .. .. .. .. 45 .. .. .. .. .. .. .. .. .. 46 .. .. .. .. .. .. .. .. .. 
49 .. .. .. .. .. .. .. .. .. .. .. 51 .. .. .. .. .. .. .. .. .. .. .. .. .. .. .. 52 51 
49 .. .. .. .. .. .. .. .. .. 46 .. .. .. .. .. .. .. .. .. 49 .. .. .. .. .. .. .. .. 46 
.. .. .. .. .. .. .. .. .. 44 .. .. .. .. .. .. .. .. .. 46 .. .. .. .. .. .. .. .. .. .. 
44 .. .. .. .. .. .. .. .. .. 42 .. .. .. .. .. .. .. .. .. 44 .. .. .. .. .. .. .. .. 42 
.. .. .. .. .. .. .. .. .. 39 .. .. .. .. .. .. .. .. .. .. 42 .. .. .. .. .. .. .. .. .. 
39 .. .. .. .. .. .. .. .. 37 .. .. .. .. .. .. .. .. .. .. 39 .. .. .. .. .. .. .. .. .. 
.. .. .. .. .. 40 .. .. 39 .. .. .. .. .. .. .. 40 .. 39 .. .. .. .. .. .. .. .. 40 .. 39 
.. .. .. .. .. .. .. 40 .. .. 39 .. .. .. .. .. .. .. 40 .. 39 .. .. .. .. .. .. .. .. 40 
.. 39 .. .. .. .. .. .. .. 40 .. .. 39 .. .. .. .. .. .. .. 40 .. 39 .. .. .. .. .. .. .. 
.. .. .. .. .. .. .. .. .. .. .. .. .. .. .. .. .. .. .. .. .. .. .. .. .. .. .. .. .. .. 
.. .. .. .. .. .. .. .. .. .. .. .. .. .. .. .. .. .. .. .. .. .. .. .. .. .. .. .. .. .. 
.. .. .. .. .. .. .. .. .. .. .. .. .. .. .. .. .. .. .. .. .. .. .. .. .. .. .. .. .. .. 
.. .. .. .. .. .. .. .. .. .. .. .. .. .. .. .. .. .. .. .. .. .. .. .. .. .. .. .. .. .. 
.. .. .. .. .. .. .. .. .. .. .. .. .. .. .. .. .. .. .. .. .. .. .. .. .. .. .. .. .. .. 
.. .. .. .. 
! Song 4
50 14 .. .. .. .. .. .. .. .. .. .. .. .. .. .. .. .. .. .. .. .. .. .. .. .. .. .. .. .. 
.. .. .. .. .. .. .. .. .. .. .. .. .. .. .. .. .. .. .. .. .. .. .. .. .. .. .. .. .. .. 
.. .. .. .. .. .. .. .. .. .. .. .. .. .. .. .. .. .. .. .. .. .. .. .. .. .. .. .. .. .. 
.. .. .. .. .. .. .. .. .. .. .. .. .. .. .. .. .. .. .. .. .. .. .. .. .. .. .. .. .. .. 
.. .. .. .. .. .. .. .. .. .. .. .. .. .. .. .. .. .. .. .. .. .. .. .. .. .. .. .. .. .. 
.. .. .. .. .. .. .. .. .. .. .. .. .. .. .. .. .. .. .. .. .. .. .. .. .. .. .. .. .. .. 
.. .. .. .. .. .. .. .. .. .. .. .. .. .. .. .. .. .. .. .. .. .. .. .. .. .. .. .. .. .. 
.. .. .. .. .. .. .. .. .. .. .. .. .. .. .. .. .. .. .. .. .. .. .. .. .. .. .. .. .. .. 
.. .. .. .. .. .. .. .. .. .. .. .. .. .. .. .. .. .. .. .. .. .. .. .. .. .. .. .. .. .. 
.. .. .. .. .. .. .. .. .. .. .. .. .. .. .. .. .. .. .. .. .. .. .. .. .. .. .. .. .. .. 
.. .. .. .. .. .. .. .. .. .. .. .. .. .. .. .. .. .. .. .. .. .. .. .. .. .. .. .. .. .. 
.. .. .. .. .. .. .. .. .. .. .. .. .. .. .. .. .. .. .. .. .. .. .. .. .. .. .. .. .. .. 
.. .. .. .. .. .. .. .. .. .. .. .. .. .. .. .. .. .. .. .. .. .. .. .. .. .. .. .. .. .. 
.. .. .. .. .. .. .. .. .. .. .. .. .. .. .. .. .. .. .. .. .. .. .. .. .. .. .. .. .. .. 
.. .. .. .. .. .. .. .. .. .. .. .. .. .. .. .. .. .. .. .. .. .. .. .. .. .. .. .. .. .. 
.. .. .. .. .. .. .. .. .. .. .. .. .. .. .. .. .. .. .. .. .. .. .. .. .. .. .. .. .. .. 
.. .. .. .. .. .. .. .. .. .. .. .. .. .. .. .. .. .. .. .. .. .. .. .. .. .. .. .. .. .. 
.. .. .. .. .. .. .. .. .. .. .. .. .. .. .. .. .. .. .. .. .. .. .. .. .. .. .. .. .. .. 
.. .. .. .. .. .. .. .. .. .. .. .. .. .. .. .. .. .. .. .. .. .. .. .. .. .. .. .. .. .. 
.. .. .. .. .. .. .. .. .. .. .. .. .. .. .. .. .. .. .. .. .. .. .. .. .. .. .. .. .. .. 
.. .. .. .. .. .. .. .. .. .. .. .. .. .. .. .. .. .. .. .. .. .. .. .. .. .. .. .. .. .. 
.. .. .. .. .. .. .. .. .. .. .. .. 55 .. .. 56 .. .. .. .. .. .. .. .. .. .. .. .. .. .. 
57 .. 56 .. .. .. .. .. .. .. .. .. 55 .. .. 56 .. .. .. .. .. .. .. .. .. .. .. .. .. .. 
.. .. .. .. .. .. .. .. .. .. .. 55 .. .. 56 .. .. .. .. .. .. .. .. .. .. .. .. .. .. 57 
56 .. .. .. .. .. .. .. .. .. .. 55 .. .. 56 .. .. .. .. .. .. .. .. .. .. .. .. .. .. 57 
.. 56 .. .. .. .. .. .. .. .. .. .. .. .. .. .. .. .. .. .. .. .. 54 .. .. .. .. .. .. .. 
.. .. 49 .. .. .. .. .. .. .. .. 47 .. .. .. .. .. .. .. .. 55 .. .. 56 .. .. .. .. .. .. 
.. .. .. .. .. .. .. .. 57 .. 56 .. .. .. .. .. .. .. .. .. .. 55 .. 56 .. .. .. .. .. .. 
.. .. .. .. .. .. .. .. 57 .. .. 56 .. .. .. .. .. .. .. .. .. .. 55 .. 56 .. .. .. .. .. 
.. .. .. .. .. .. .. .. .. 57 56 .. .. .. .. .. .. .. .. .. .. .. 55 .. 56 .. .. .. .. .. 
.. .. .. .. .. .. .. .. .. 57 56 .. .. .. .. .. .. .. .. .. .. .. .. .. .. .. .. .. .. .. 
.. 54 .. .. .. .. .. .. .. .. .. 49 .. .. .. .. .. .. .. .. .. .. 47 .. .. .. .. .. .. .. 
55 .. .. 56 .. .. .. .. .. .. .. .. .. .. .. .. .. .. 57 56 .. .. .. .. .. .. .. .. .. .. 
.. 55 .. .. 56 .. .. .. .. .. .. .. .. .. .. .. .. .. .. 57 56 .. .. .. .. .. .. .. .. .. 
.. 55 .. 56 .. .. .. .. .. .. .. .. .. .. .. .. .. .. 57 .. .. 56 .. .. .. .. .. .. .. .. 
.. .. .. 55 .. 56 .. .. .. .. .. .. .. .. .. .. .. .. .. .. 57 56 .. .. .. .. .. .. .. .. 
.. .. 55 .. 56 .. .. .. .. .. .. .. .. .. .. .. .. .. .. 57 .. 59 .. .. .. .. .. .. .. .. 
.. .. 55 .. .. 56 .. .. .. .. .. .. .. .. .. .. .. .. .. .. 57 .. 59 .. .. .. .. .. .. .. 
55 .. .. .. 56 .. .. .. .. .. .. .. .. .. .. .. .. .. .. 57 .. 59 .. .. .. .. .. .. .. .. 
55 .. .. .. 56 .. .. .. .. .. .. .. .. .. .. .. .. .. .. 57 .. .. 59 .. .. .. .. .. .. .. 
.. 55 .. .. .. 56 .. .. .. .. .. .. .. .. .. .. .. .. .. .. 57 59 .. .. .. .. .. .. .. .. 
.. .. .. .. .. .. .. .. .. .. .. .. .. .. .. .. .. .. .. .. .. 56 .. .. .. .. .. .. .. .. 
.. 59 .. .. .. .. .. .. .. .. .. .. 61 .. .. .. .. .. .. .. .. .. 55 .. .. 56 .. .. .. .. 
.. .. .. .. .. .. .. .. .. .. 57 .. 56 .. .. .. .. .. .. .. .. .. 55 .. .. 56 .. .. .. .. 
.. .. .. .. .. .. .. .. .. .. .. .. .. .. .. .. .. .. .. .. .. 55 .. .. 56 .. .. .. .. .. 
.. .. .. .. .. .. .. .. .. 57 56 .. .. .. .. .. .. .. .. .. .. 55 .. .. 56 .. .. .. .. .. 
.. .. .. .. .. .. .. .. .. 57 .. 56 .. .. .. .. .. .. .. .. .. .. .. .. .. .. .. .. .. .. 
.. .. 54 .. .. .. .. .. .. .. .. .. 49 .. .. .. .. .. .. .. .. 47 .. .. .. .. .. .. .. .. 
55 .. .. 56 .. .. .. .. .. .. .. .. .. .. .. .. .. .. 57 .. 56 .. .. .. .. .. .. .. .. .. 
.. 55 .. 56 .. .. .. .. .. .. .. .. .. .. .. .. .. .. 57 .. .. 56 .. .. .. .. .. .. .. .. 
.. .. 55 .. 56 .. .. .. .. .. .. .. .. .. .. .. .. .. .. 57 56 .. .. .. .. .. .. .. .. .. 
.. .. 55 .. 56 .. .. .. .. .. .. .. .. .. .. .. .. .. .. 57 56 .. .. .. .. .. .. .. .. .. 
.. .. .. .. .. .. .. .. .. .. .. 54 .. .. .. .. .. .. .. .. .. 49 .. .. .. .. .. .. .. .. 
.. .. 47 .. .. .. .. .. .. .. 55 .. .. 56 .. .. .. .. .. .. .. .. .. .. .. .. .. .. 57 56 
.. .. .. .. .. .. .. .. .. .. .. 55 .. .. 56 .. .. .. .. .. .. .. .. .. .. .. .. .. .. 57 
56 .. .. .. .. .. .. .. .. .. .. 55 .. 56 .. .. .. .. .. .. .. .. .. .. .. .. .. .. 57 .. 
.. 56 .. .. .. .. .. .. .. .. .. .. .. 55 .. 56 .. .. .. .. .. .. .. .. .. .. .. .. .. .. 
57 56 .. .. .. .. .. .. .. .. .. .. 55 .. 56 .. .. .. .. .. .. .. .. .. .. .. .. .. .. 57 
.. 59 .. .. .. .. .. .. .. .. .. .. 55 .. .. 56 .. .. .. .. .. .. .. .. .. .. .. .. .. .. 
57 .. 59 .. .. .. .. .. .. .. 55 .. .. .. 56 .. .. .. .. .. .. .. .. .. .. .. .. .. .. 57 
.. 59 .. .. .. .. .. .. .. .. 55 .. .. .. 56 .. .. .. .. .. .. .. .. .. .. .. .. .. .. 57 
.. .. 59 .. .. .. .. .. .. .. .. 55 .. .. .. 56 .. .. .. .. .. .. .. .. .. .. .. .. .. .. 
57 59 .. .. .. .. .. .. .. .. .. .. .. .. .. .. .. .. .. .. .. .. .. .. .. .. .. .. .. .. 
.. 56 .. .. .. .. .. .. .. .. .. 59 .. .. .. .. .. .. .. .. .. .. 61 .. .. .. .. .. .. .. 
.. .. .. .. .. .. .. .. 62 61 .. .. .. .. .. .. .. .. .. .. .. .. .. .. .. .. .. .. .. .. 
.. .. .. .. .. .. .. .. .. .. 62 61 .. .. .. .. .. .. .. .. .. .. .. .. .. .. .. .. .. .. 
.. .. .. .. .. .. .. .. .. .. .. .. 62 61 .. .. .. .. .. .. .. .. .. .. .. .. .. .. .. .. 
.. .. .. .. .. .. .. .. .. .. .. .. .. .. 62 61 .. .. .. .. .. .. .. .. .. .. .. .. .. .. 
.. .. .. .. .. .. .. .. .. .. .. .. .. .. .. .. 62 61 .. .. .. .. .. .. .. .. .. .. .. .. 
.. .. .. .. .. .. .. .. .. .. .. .. .. .. .. .. .. .. 62 61 .. .. .. .. .. .. .. .. .. .. 
.. .. .. .. .. .. .. .. .. .. .. .. .. .. .. .. .. .. .. .. 62 61 .. .. .. .. .. .. .. .. 
.. .. .. .. .. .. .. .. .. .. .. .. .. .. .. .. .. .. .. .. .. .. 62 61 .. .. .. .. .. .. 
.. .. .. .. .. .. .. .. .. .. .. .. .. .. .. .. .. .. .. .. .. .. .. .. 62 61 .. .. .. .. 
.. .. .. .. .. .. .. .. .. .. .. .. .. .. .. .. .. .. .. .. .. .. .. .. .. .. 62 61 .. .. 
.. .. .. .. .. .. .. .. .. .. .. .. .. .. .. .. .. .. .. .. .. .. .. .. .. .. .. .. 62 61 
.. .. .. .. .. .. .. .. .. .. .. .. .. .. .. .. .. .. .. .. .. .. .. .. .. .. .. .. .. .. 
62 61 .. .. .. .. .. .. .. .. .. .. .. .. .. .. .. .. .. .. .. .. .. .. .. .. .. .. .. .. 
.. .. 62 61 .. .. .. .. .. .. .. .. .. .. .. .. .. .. .. .. .. .. .. .. .. .. .. .. .. .. 
.. .. .. .. 62 61 .. .. .. .. .. .. .. .. .. .. .. .. .. .. .. .. .. .. .. .. .. .. .. .. 
.. .. .. .. .. .. 62 61 .. .. .. .. .. .. .. .. .. .. .. .. .. .. .. .. .. .. .. .. .. .. 
.. .. .. .. .. .. .. .. 62 61 .. .. .. .. .. .. .. .. .. .. .. .. .. .. .. .. .. .. .. .. 
.. .. .. .. .. .. .. .. .. .. 62 61 .. .. .. .. .. .. .. .. .. .. .. .. .. .. .. .. .. .. 
.. .. .. .. .. .. .. .. .. .. .. .. 62 61 .. .. .. .. .. .. .. .. .. .. .. .. .. .. .. .. 
.. .. .. .. .. .. .. .. .. .. .. .. .. .. 62 61 .. .. .. .. .. .. .. .. .. .. .. .. .. .. 
.. .. .. .. .. .. .. .. .. .. .. .. .. .. .. .. 62 61 .. .. .. .. .. .. .. .. .. .. .. .. 
.. .. .. .. .. .. .. .. .. .. .. 39 .. .. .. .. .. .. .. .. .. .. .. .. .. .. 40 .. .. 39 
.. .. .. .. .. .. .. 40 .. 39 .. .. .. .. .. .. .. .. 40 .. 39 .. .. .. .. .. .. .. 40 .. 
.. 39 .. .. .. .. .. .. .. 40 .. 39 .. .. .. .. .. .. .. .. 40 .. 39 .. .. .. .. .. .. .. 
40 .. .. 39 .. .. .. .. .. .. .. 40 .. 39 .. .. .. .. .. .. .. .. 40 .. 39 .. .. .. .. .. 
.. .. 40 .. .. 39 .. .. .. .. .. 39 .. .. .. .. .. .. .. .. .. .. .. .. .. .. 40 .. .. 39 
.. .. 37 .. .. .. .. .. .. .. .. .. .. .. .. .. .. .. 38 37 .. .. 36 .. .. .. .. .. .. .. 
.. .. .. .. .. .. .. 37 .. .. 36 .. .. .. .. .. .. .. 37 .. .. 36 .. .. .. .. .. .. 37 .. 
.. 36 .. .. .. .. .. .. .. 37 .. .. 36 .. .. .. .. .. .. .. 37 .. .. 36 .. .. .. .. .. .. 
37 .. .. 36 .. .. .. .. .. .. .. 37 .. .. 36 .. .. .. .. .. .. .. 37 .. .. 36 .. .. .. .. 
.. .. 37 .. .. 36 .. .. .. .. .. .. .. 37 .. .. 36 .. .. .. .. .. .. .. 37 .. .. 36 .. .. 
.. .. .. .. 37 .. .. 36 .. .. .. 36 .. .. .. .. .. .. .. .. .. .. .. .. .. .. 37 .. .. 36 
.. 34 .. .. .. .. .. .. .. .. .. .. .. .. .. .. 35 .. .. 34 .. .. .. .. .. .. .. 35 .. .. 
34 .. .. .. .. .. .. 35 .. .. 34 .. .. .. .. .. .. .. 35 .. .. 34 .. .. .. .. .. .. .. 35 
.. .. 34 .. .. .. .. .. .. 35 .. .. 34 .. .. .. .. .. .. .. 35 .. 35 .. .. .. .. .. .. .. 
.. .. .. .. .. .. .. 36 .. .. 35 .. .. .. .. .. .. .. 36 .. .. 35 .. .. .. .. .. .. 36 .. 
.. 35 34 .. .. .. .. .. .. .. .. .. .. .. .. .. .. 35 .. .. 34 .. .. .. .. .. .. .. 35 .. 
.. 34 .. .. .. .. .. .. 35 .. .. 34 32 .. .. .. .. .. .. .. .. .. .. .. .. .. .. 33 .. .. 
32 .. .. .. .. .. .. .. 33 .. .. 32 .. .. .. .. .. .. 33 .. .. 32 .. .. .. .. .. .. .. 33 
.. .. 32 .. .. .. .. .. .. .. 33 .. .. 32 .. .. .. .. .. .. 33 .. .. 32 .. .. .. .. .. .. 
.. 30 .. .. .. .. .. .. .. .. .. .. .. .. .. .. 31 .. .. 30 .. .. .. .. .. .. .. 31 .. 30 
.. .. .. .. .. .. .. .. 31 .. 30 .. 27 .. .. .. .. .. .. .. .. .. .. .. .. .. .. .. 28 27 
.. .. .. .. .. .. .. .. 28 .. 27 .. .. .. .. .. .. .. .. 28 49 .. .. .. .. .. .. .. .. .. 
44 .. .. .. .. .. .. .. .. .. 51 .. .. .. .. .. .. .. .. .. 32 .. .. .. .. .. .. .. .. .. 
37 .. .. .. .. .. .. .. .. .. 32 .. .. .. .. .. .. .. .. .. 39 .. .. .. .. .. .. .. .. .. 
32 .. .. .. .. .. .. .. .. .. 37 .. .. .. .. .. .. .. .. .. 32 .. .. .. .. .. .. .. .. .. 
39 .. .. .. .. .. .. .. .. .. 32 .. .. .. .. .. .. .. .. .. 37 .. .. .. .. .. .. .. .. .. 
32 .. .. .. .. .. .. .. .. .. 39 .. .. .. .. .. .. .. .. .. 32 .. .. .. .. .. .. .. .. .. 
37 .. .. .. .. .. .. .. .. .. 32 .. .. .. .. .. .. .. .. .. 39 .. .. .. .. .. .. .. .. .. 
32 .. .. .. .. .. .. .. .. .. 37 .. .. .. .. .. .. .. .. .. 32 .. .. .. .. .. .. .. .. .. 
39 .. .. .. .. .. .. .. .. .. 32 .. .. .. .. .. .. .. .. .. 37 .. .. .. .. .. .. .. .. .. 
32 .. .. .. .. .. .. .. .. .. 39 .. .. .. .. .. .. .. .. .. 32 .. .. .. .. .. .. .. .. .. 
37 .. .. .. .. .. .. .. .. .. 32 .. .. .. .. .. .. .. .. .. 39 .. .. .. .. .. .. .. .. .. 
32 .. .. .. .. .. .. .. .. .. 37 .. .. .. .. .. .. .. .. .. 32 .. .. .. .. .. .. .. .. .. 
39 .. .. .. .. .. .. .. .. .. 32 .. .. .. .. .. .. .. .. .. 37 .. .. .. .. .. .. .. .. .. 
32 .. .. .. .. .. .. .. .. .. 39 .. .. .. .. .. .. .. .. .. 32 .. .. .. .. .. .. .. .. .. 
37 .. .. .. .. .. .. .. .. .. 32 .. .. .. .. .. .. .. .. .. 39 .. .. .. .. .. .. .. .. .. 
32 .. .. .. .. .. .. .. .. .. 37 .. .. .. .. .. .. .. .. .. 32 .. .. .. .. .. .. .. .. .. 
39 .. .. .. .. .. .. .. .. .. 32 .. .. .. .. .. .. .. .. .. 37 .. .. .. .. .. .. .. .. .. 
32 .. .. .. .. .. .. .. .. .. 39 .. .. .. .. .. .. .. .. .. 32 .. .. .. .. .. .. .. .. .. 
37 .. .. .. .. .. .. .. .. .. 32 .. .. .. .. .. .. .. .. .. 39 .. .. .. .. .. .. .. .. .. 
32 .. .. .. .. .. .. .. .. .. 37 .. .. .. .. .. .. .. .. .. 32 .. .. .. .. .. .. .. .. .. 
39 .. .. .. .. .. .. .. .. .. 32 .. .. .. .. .. .. .. .. .. 37 .. .. .. .. .. .. .. .. .. 
32 .. .. .. .. .. .. .. .. .. 39 .. .. .. .. .. .. .. .. .. .. .. .. .. .. .. .. .. .. .. 
37 .. .. .. .. .. .. .. .. .. 32 .. .. .. .. .. .. .. .. .. 39 .. .. .. .. .. .. .. .. .. 
32 .. .. .. .. .. .. .. .. .. 37 .. .. .. .. .. .. .. .. .. 32 .. .. .. .. .. .. .. .. .. 
39 .. .. .. .. .. .. .. .. .. 32 .. .. .. .. .. .. .. .. .. 37 .. .. .. .. .. .. .. .. .. 
32 .. .. .. .. .. .. .. .. .. 39 .. .. .. .. .. .. .. .. .. 32 .. .. .. .. .. .. .. .. .. 
37 .. .. .. .. .. .. .. .. .. 32 .. .. .. .. .. .. .. .. .. 39 .. .. .. .. .. .. .. .. .. 
32 .. .. .. .. .. .. .. .. .. 37 .. .. .. .. .. .. .. .. .. 32 .. .. .. .. .. .. .. .. .. 
39 .. .. .. .. .. .. .. .. .. 32 .. .. .. .. .. .. .. .. .. 37 .. .. .. .. .. .. .. .. .. 
32 .. .. .. .. .. .. .. .. .. 39 .. .. .. .. .. .. .. .. .. 32 .. .. .. .. .. .. .. .. .. 
37 .. .. .. .. .. .. .. .. .. 32 .. .. .. .. .. .. .. .. .. 39 .. .. .. .. .. .. .. .. .. 
32 .. .. .. .. .. .. .. .. .. 37 .. .. .. .. .. .. .. .. .. 32 .. .. .. .. .. .. .. .. .. 
39 .. .. .. .. .. .. .. .. .. 32 .. .. .. .. .. .. .. .. .. 37 .. .. .. .. .. .. .. .. .. 
32 .. .. .. .. .. .. .. .. .. 39 .. .. .. .. .. .. .. .. .. 32 .. .. .. .. .. .. .. .. .. 
37 .. .. .. .. .. .. .. .. .. 32 .. .. .. .. .. .. .. .. .. 39 .. .. .. .. .. .. .. .. .. 
32 .. .. .. .. .. .. .. .. .. 37 .. .. .. .. .. .. .. .. .. 32 .. .. .. .. .. .. .. .. .. 
39 .. .. .. .. .. .. .. .. .. 32 .. .. .. .. .. .. .. .. .. 37 .. .. .. .. .. .. .. .. .. 
32 .. .. .. .. .. .. .. .. .. 39 .. .. .. .. .. .. .. .. .. 32 .. .. .. .. .. .. .. .. .. 
37 .. .. .. .. .. .. .. .. .. 32 .. .. .. .. .. .. .. .. .. 39 .. .. .. .. .. .. .. .. .. 
32 .. .. .. .. .. .. .. .. .. 37 .. .. .. .. .. .. .. .. .. 32 .. .. .. .. .. .. .. .. .. 
39 .. .. .. .. .. .. .. .. .. 32 .. .. .. .. .. .. .. .. .. 37 .. .. .. .. .. .. .. .. .. 
32 .. .. .. .. .. .. .. .. .. 39 .. .. .. .. .. .. .. .. .. 32 .. .. .. .. .. .. .. .. .. 
37 .. .. .. .. .. .. .. .. .. 32 .. .. .. .. .. .. .. .. .. 39 .. .. .. .. .. .. .. .. .. 
.. .. .. .. .. .. .. .. .. .. .. 14 .. .. .. .. .. .. .. .. .. .. .. .. .. .. .. .. .. .. 
.. .. .. .. .. .. .. .. .. .. .. .. .. .. .. .. .. .. .. .. .. .. .. .. .. .. .. .. .. .. 
.. .. .. .. .. .. .. .. .. .. .. .. .. .. .. .. .. .. .. .. .. .. .. .. .. .. .. .. .. .. 
.. .. .. .. .. .. .. .. .. .. .. .. .. .. .. .. .. .. .. .. .. .. .. .. .. .. .. .. .. .. 
.. .. .. .. .. .. .. .. .. .. .. .. .. .. .. .. .. .. .. .. .. .. .. .. .. .. .. .. .. .. 
.. .. .. .. .. .. .. .. .. .. .. .. .. .. .. .. .. .. .. .. .. .. .. .. .. .. .. .. .. .. 
.. .. .. .. .. .. .. .. .. .. .. .. .. .. .. .. .. .. .. .. .. .. .. .. .. .. .. .. .. .. 
.. .. .. .. .. .. .. .. .. .. .. .. .. .. .. .. .. .. .. .. .. .. .. .. .. .. .. .. .. .. 
.. .. .. .. .. .. .. .. .. .. .. .. .. .. .. .. .. .. .. .. .. .. .. .. .. .. .. .. .. .. 
.. .. .. .. .. .. .. .. .. .. .. .. .. .. .. .. .. .. .. .. .. .. .. .. .. .. .. .. .. .. 
.. .. .. .. .. .. .. .. .. .. .. .. .. .. .. .. .. .. .. .. .. .. .. .. .. .. .. .. .. .. 
.. .. .. .. .. .. .. .. .. .. .. .. .. .. .. .. .. .. .. .. .. .. .. .. .. .. .. .. .. .. 
.. .. .. .. .. .. .. .. .. .. .. .. .. .. .. .. .. .. .. .. .. .. .. .. .. .. .. .. .. .. 
.. .. .. .. .. .. .. .. .. .. .. .. .. .. .. .. .. .. .. .. .. .. .. .. .. .. .. .. .. .. 
.. .. .. .. .. .. .. .. .. .. .. .. .. .. .. .. .. .. .. .. .. .. .. .. .. .. .. .. .. .. 
.. .. .. .. .. .. .. .. .. .. .. .. .. .. .. .. .. .. .. .. .. .. .. .. .. .. .. .. .. .. 
.. .. .. .. .. .. .. .. .. .. .. .. .. .. .. .. .. .. .. .. .. .. .. .. .. .. .. .. .. .. 
.. .. .. .. .. .. .. .. .. .. .. .. .. .. .. .. .. .. .. .. .. .. .. .. .. .. .. .. .. .. 
.. .. .. .. .. .. .. .. .. .. .. .. .. .. .. .. .. .. .. .. .. .. .. .. .. .. .. .. .. .. 
.. .. .. .. .. .. .. .. .. .. .. .. .. .. .. .. .. .. .. .. .. .. .. .. .. .. .. .. .. .. 
.. .. .. .. .. .. .. .. .. .. .. .. .. .. .. .. .. .. .. .. .. .. .. .. .. .. .. .. .. .. 
.. .. .. .. .. .. .. .. .. .. .. .. .. .. .. .. .. .. .. .. .. .. 55 .. .. 56 .. .. .. .. 
.. .. .. .. .. .. .. .. .. .. 57 .. 56 .. .. .. .. .. .. .. .. .. 55 .. .. 56 .. .. .. .. 
.. .. .. .. .. .. .. .. .. .. .. .. .. .. .. .. .. .. .. .. .. 55 .. .. 56 .. .. .. .. .. 
.. .. .. .. .. .. .. .. .. 57 56 .. .. .. .. .. .. .. .. .. .. 55 .. .. 56 .. .. .. .. .. 
.. .. .. .. .. .. .. .. .. 57 .. 56 .. .. .. .. .. .. .. .. .. .. .. .. .. .. .. .. .. .. 
.. .. 54 .. .. .. .. .. .. .. .. .. 49 .. .. .. .. .. .. .. .. 47 .. .. .. .. .. .. .. .. 
55 .. .. 56 .. .. .. .. .. .. .. .. .. .. .. .. .. .. 57 .. 56 .. .. .. .. .. .. .. .. .. 
.. 55 .. 56 .. .. .. .. .. .. .. .. .. .. .. .. .. .. 57 .. .. 56 .. .. .. .. .. .. .. .. 
.. .. 55 .. 56 .. .. .. .. .. .. .. .. .. .. .. .. .. .. 57 56 .. .. .. .. .. .. .. .. .. 
.. .. 55 .. 56 .. .. .. .. .. .. .. .. .. .. .. .. .. .. 57 56 .. .. .. .. .. .. .. .. .. 
.. .. .. .. .. .. .. .. .. .. .. 54 .. .. .. .. .. .. .. .. .. 49 .. .. .. .. .. .. .. .. 
.. .. 47 .. .. .. .. .. .. .. 55 .. .. 56 .. .. .. .. .. .. .. .. .. .. .. .. .. .. 57 56 
.. .. .. .. .. .. .. .. .. .. .. 55 .. .. 56 .. .. .. .. .. .. .. .. .. .. .. .. .. .. 57 
56 .. .. .. .. .. .. .. .. .. .. 55 .. 56 .. .. .. .. .. .. .. .. .. .. .. .. .. .. 57 .. 
.. 56 .. .. .. .. .. .. .. .. .. .. .. 55 .. 56 .. .. .. .. .. .. .. .. .. .. .. .. .. .. 
57 56 .. .. .. .. .. .. .. .. .. .. 55 .. 56 .. .. .. .. .. .. .. .. .. .. .. .. .. .. 57 
.. 59 .. .. .. .. .. .. .. .. .. .. 55 .. .. 56 .. .. .. .. .. .. .. .. .. .. .. .. .. .. 
57 .. 59 .. .. .. .. .. .. .. 55 .. .. .. 56 .. .. .. .. .. .. .. .. .. .. .. .. .. .. 57 
.. 59 .. .. .. .. .. .. .. .. 55 .. .. .. 56 .. .. .. .. .. .. .. .. .. .. .. .. .. .. 57 
.. .. 59 .. .. .. .. .. .. .. .. 55 .. .. .. 56 .. .. .. .. .. .. .. .. .. .. .. .. .. .. 
57 59 .. .. .. .. .. .. .. .. .. .. .. .. .. .. .. .. .. .. .. .. .. .. .. .. .. .. .. .. 
.. 56 .. .. .. .. .. .. .. .. .. 59 .. .. .. .. .. .. .. .. .. .. 61 .. .. .. .. .. .. .. 
.. .. 55 .. .. 56 .. .. .. .. .. .. .. .. .. .. .. .. .. .. 57 .. 56 .. .. .. .. .. .. .. 
.. .. 55 .. .. 56 .. .. .. .. .. .. .. .. .. .. .. .. .. .. .. .. .. .. .. .. .. .. .. .. 
.. 55 .. .. 56 .. .. .. .. .. .. .. .. .. .. .. .. .. .. 57 56 .. .. .. .. .. .. .. .. .. 
.. 55 .. .. 56 .. .. .. .. .. .. .. .. .. .. .. .. .. .. 57 .. 56 .. .. .. .. .. .. .. .. 
.. .. .. .. .. .. .. .. .. .. .. .. 54 .. .. .. .. .. .. .. .. .. 49 .. .. .. .. .. .. .. 
.. 47 .. .. .. .. .. .. .. .. 55 .. .. 56 .. .. .. .. .. .. .. .. .. .. .. .. .. .. 57 .. 
56 .. .. .. .. .. .. .. .. .. .. 55 .. 56 .. .. .. .. .. .. .. .. .. .. .. .. .. .. 57 .. 
.. 56 .. .. .. .. .. .. .. .. .. .. 55 .. 56 .. .. .. .. .. .. .. .. .. .. .. .. .. .. 57 
56 .. .. .. .. .. .. .. .. .. .. .. 55 .. 56 .. .. .. .. .. .. .. .. .. .. .. .. .. .. 57 
56 .. .. .. .. .. .. .. .. .. .. .. .. .. .. .. .. .. .. .. .. 54 .. .. .. .. .. .. .. .. 
.. 49 .. .. .. .. .. .. .. .. .. .. 47 .. .. .. .. .. .. .. 55 .. .. 56 .. .. .. .. .. .. 
.. .. .. .. .. .. .. .. 57 56 .. .. .. .. .. .. .. .. .. .. .. 55 .. .. 56 .. .. .. .. .. 
.. .. .. .. .. .. .. .. .. 57 56 .. .. .. .. .. .. .. .. .. .. 55 .. 56 .. .. .. .. .. .. 
.. .. .. .. .. .. .. .. 57 .. .. 56 .. .. .. .. .. .. .. .. .. .. .. 55 .. 56 .. .. .. .. 
.. .. .. .. .. .. .. .. .. .. 57 56 .. .. .. .. .. .. .. .. .. .. 55 .. 56 .. .. .. .. .. 
.. .. .. .. .. .. .. .. .. 57 .. 59 .. .. .. .. .. .. .. .. .. .. 55 .. .. 56 .. .. .. .. 
.. .. .. .. .. .. .. .. .. .. 57 .. 59 .. .. .. .. .. .. .. 55 .. .. .. 56 .. .. .. .. .. 
.. .. .. .. .. .. .. .. .. 57 .. 59 .. .. .. .. .. .. .. .. 55 .. .. .. 56 .. .. .. .. .. 
.. .. .. .. .. .. .. .. .. 57 .. .. 59 .. .. .. .. .. .. .. .. 55 .. .. .. 56 .. .. .. .. 
.. .. .. .. .. .. .. .. .. .. 57 59 .. .. .. .. .. .. .. .. .. .. .. .. .. .. .. .. .. .. 
.. .. .. .. .. .. .. .. .. .. .. 56 .. .. .. .. .. .. .. .. .. 59 .. .. .. .. .. .. .. .. 
.. .. 61 .. .. .. .. .. .. .. .. .. .. .. .. .. .. .. 62 61 .. .. .. .. .. .. .. .. .. .. 
.. .. .. .. .. .. .. .. .. .. .. .. .. .. .. .. .. .. .. .. 62 61 .. .. .. .. .. .. .. .. 
.. .. .. .. .. .. .. .. .. .. .. .. .. .. .. .. .. .. .. .. .. .. 62 61 .. .. .. .. .. .. 
.. .. .. .. .. .. .. .. .. .. .. .. .. .. .. .. .. .. .. .. .. .. .. .. 62 61 .. .. .. .. 
.. .. .. .. .. .. .. .. .. .. .. .. .. .. .. .. .. .. .. .. .. .. .. .. .. .. 62 61 .. .. 
.. .. .. .. .. .. .. .. .. .. .. .. .. .. .. .. .. .. .. .. .. .. .. .. .. .. .. .. 62 61 
.. .. .. .. .. .. .. .. .. .. .. .. .. .. .. .. .. .. .. .. .. .. .. .. .. .. .. .. .. .. 
62 61 .. .. .. .. .. .. .. .. .. .. .. .. .. .. .. .. .. .. .. .. .. .. .. .. .. .. .. .. 
.. .. 62 61 .. .. .. .. .. .. .. .. .. .. .. .. .. .. .. .. .. .. .. .. .. .. .. .. .. .. 
.. .. .. .. 62 61 .. .. .. .. .. .. .. .. .. .. .. .. .. .. .. .. .. .. .. .. .. .. .. .. 
.. .. .. .. .. .. 62 61 .. .. .. .. .. .. .. .. .. .. .. .. .. .. .. .. .. .. .. .. .. .. 
.. .. .. .. .. .. .. .. 62 61 .. .. .. .. .. .. .. .. .. .. .. .. .. .. .. .. .. .. .. .. 
.. .. .. .. .. .. .. .. .. .. 62 61 .. .. .. .. .. .. .. .. .. .. .. .. .. .. .. .. .. .. 
.. .. .. .. .. .. .. .. .. .. .. .. 62 61 .. .. .. .. .. .. .. .. .. .. .. .. .. .. .. .. 
.. .. .. .. .. .. .. .. .. .. .. .. .. .. 62 61 .. .. .. .. .. .. .. .. .. .. .. .. .. .. 
.. .. .. .. .. .. .. .. .. .. .. .. .. .. .. .. 62 61 .. .. .. .. .. .. .. .. .. .. .. .. 
.. .. .. .. .. .. .. .. .. .. .. .. .. .. .. .. .. .. 62 61 .. .. .. .. .. .. .. .. .. .. 
.. .. .. .. .. .. .. .. .. .. .. .. .. .. .. .. .. .. .. .. 62 61 .. .. .. .. .. .. .. .. 
.. .. .. .. .. .. .. .. .. .. .. .. .. .. .. .. .. .. .. .. .. .. 62 61 .. .. .. .. .. .. 
.. .. .. .. .. .. .. .. .. .. .. .. .. .. .. .. .. .. .. .. .. .. .. .. 62 61 .. .. .. .. 
.. .. .. .. .. .. .. .. .. .. .. .. .. .. .. .. .. .. .. .. .. .. .. .. .. .. 62 61 .. .. 
.. .. .. .. .. .. .. .. .. .. .. .. .. .. .. .. .. .. .. .. .. 39 .. .. .. .. .. .. .. .. 
.. .. .. .. .. .. 40 .. .. 39 .. .. .. .. .. .. .. 40 .. 39 .. .. .. .. .. .. .. .. 40 .. 
39 .. .. .. .. .. .. .. 40 .. .. 39 .. .. .. .. .. .. .. 40 .. 39 .. .. .. .. .. .. .. .. 
40 .. 39 .. .. .. .. .. .. .. 40 .. .. 39 .. .. .. .. .. .. .. 40 .. 39 .. .. .. .. .. .. 
.. .. 40 .. 39 .. .. .. .. .. .. .. 40 .. .. 39 .. .. .. .. .. 39 .. .. .. .. .. .. 
! End
