! Simple
! Song 0
146 30 .. .. .. .. .. .. .. .. .. .. .. .. .. .. .. .. .. 27 .. .. .. .. .. .. .. .. .. .. 
.. .. .. .. .. .. .. 25 .. .. .. .. .. .. .. .. .. .. .. .. .. .. .. .. .. 22 .. .. .. .. 
.. .. .. .. .. .. .. 20 .. .. .. .. .. .. .. .. .. .. .. .. .. .. .. .. .. 20 .. .. .. .. 
.. 26 .. .. .. .. .. .. .. .. .. .. .. .. .. .. .. .. .. 25 .. .. .. .. .. .. .. .. .. .. 
.. .. .. .. .. .. .. 29 .. .. .. .. .. .. .. .. .. .. .. .. .. .. .. .. .. 30 .. .. .. .. 
.. .. .. .. .. .. .. .. .. .. .. .. .. 27 .. .. .. .. .. .. .. .. .. .. .. .. .. .. .. .. 
.. 25 .. .. .. .. .. .. .. .. .. .. .. .. .. .. .. .. .. 22 .. .. .. .. .. .. .. .. .. .. 
.. 20 .. .. .. .. .. .. .. .. .. .. .. .. .. .. .. .. .. 20 .. .. .. .. .. 26 .. .. .. .. 
.. .. .. .. .. .. .. .. .. .. .. .. .. 25 .. .. .. .. .. .. .. .. .. .. .. .. .. .. .. .. 
.. 29 .. .. .. .. .. .. .. .. .. .. .. .. .. .. .. .. .. 30 .. .. .. .. .. .. .. .. .. .. 
.. .. .. .. .. .. .. 27 .. .. .. .. .. .. .. .. .. .. .. .. .. .. .. .. .. 25 .. .. .. .. 
.. .. .. .. .. .. .. .. .. .. .. .. .. 22 .. .. .. .. .. .. .. .. .. .. .. 20 .. .. .. .. 
.. .. .. .. .. .. .. .. .. .. .. .. .. 20 .. .. .. .. .. 26 .. .. .. .. .. .. .. .. .. .. 
.. .. .. .. .. .. .. 25 .. .. .. .. .. .. .. .. .. .. .. .. .. .. .. .. .. 29 .. .. .. .. 
.. .. .. .. .. .. .. .. .. .. .. .. .. 30 .. .. .. .. .. .. .. .. .. .. .. .. .. .. .. .. 
.. 27 .. .. .. .. .. .. .. .. .. .. .. .. .. .. .. .. .. 25 .. .. .. .. .. .. .. .. .. .. 
.. .. .. .. .. .. .. 22 .. .. .. .. .. .. .. .. .. .. .. 20 .. .. .. .. .. .. .. .. .. .. 
.. .. .. .. .. .. .. 20 .. .. .. .. .. 26 .. .. .. .. .. .. .. .. .. .. .. .. .. .. .. .. 
.. 25 .. .. .. .. .. .. .. .. .. .. .. .. .. .. .. .. .. 29 .. .. .. .. .. .. .. .. .. .. 
.. .. .. .. .. .. .. 30 .. .. .. .. .. .. .. .. .. .. .. .. .. .. .. .. .. 27 .. .. .. .. 
.. .. .. .. .. .. .. .. .. .. .. .. .. 25 .. .. .. .. .. .. .. .. .. .. .. .. .. .. .. .. 
.. 22 .. .. .. .. .. .. .. .. .. .. .. 20 .. .. .. .. .. .. .. .. .. .. .. .. .. .. .. .. 
.. 20 .. .. .. .. .. 26 .. .. .. .. .. .. .. .. .. .. .. .. .. .. .. .. .. 25 .. .. .. .. 
.. .. .. .. .. .. .. .. .. .. .. .. .. 29 .. .. .. .. .. .. .. .. .. .. .. .. .. .. .. .. 
.. 18 .. .. .. .. .. .. .. .. .. .. .. .. .. .. .. .. .. .. .. .. .. .. .. .. .. .. .. .. 
.. .. .. .. .. .. .. 25 .. .. .. .. .. .. .. .. .. .. .. 22 .. .. .. .. .. 23 .. .. .. .. 
.. .. .. .. .. .. .. 25 .. .. .. .. .. .. .. .. .. .. .. .. .. .. .. .. .. 25 .. .. .. .. 
.. 23 .. .. .. .. .. .. .. .. .. .. .. .. .. .. .. .. .. 22 .. .. .. .. .. .. .. .. .. .. 
.. .. .. .. .. .. .. 20 .. .. .. .. .. .. .. .. .. .. .. .. .. .. .. .. .. 30 .. .. .. .. 
.. .. .. .. .. .. .. .. .. .. .. .. .. 27 .. .. .. .. .. .. .. .. .. .. .. .. .. .. .. .. 
.. 25 .. .. .. .. .. .. .. .. .. .. .. .. .. .. .. .. .. 22 .. .. .. .. .. .. .. .. .. .. 
.. 20 .. .. .. .. .. .. .. .. .. .. .. .. .. .. .. .. .. 20 .. .. .. .. .. 26 .. .. .. .. 
.. .. .. .. .. .. .. .. .. .. .. .. .. 25 .. .. .. .. .. .. .. .. .. .. .. .. .. .. .. .. 
.. 29 .. .. .. .. .. .. .. .. .. .. .. .. .. .. .. .. .. 30 .. .. .. .. .. .. .. .. .. .. 
.. .. .. .. .. .. .. 27 .. .. .. .. .. .. .. .. .. .. .. .. .. .. .. .. .. 25 .. .. .. .. 
.. .. .. .. .. .. .. .. .. .. .. .. .. 22 .. .. .. .. .. .. .. .. .. .. .. 20 .. .. .. .. 
.. .. .. .. .. .. .. .. .. .. .. .. .. 20 .. .. .. .. .. 26 .. .. .. .. .. .. .. .. .. .. 
.. .. .. .. .. .. .. 25 .. .. .. .. .. .. .. .. .. .. .. .. .. .. .. .. .. 29 .. .. .. .. 
.. .. .. .. .. .. .. .. .. .. .. .. .. 30 .. .. .. .. .. .. .. .. .. .. .. .. .. .. .. .. 
.. 27 .. .. .. .. .. .. .. .. .. .. .. .. .. .. .. .. .. 25 .. .. .. .. .. .. .. .. .. .. 
.. .. .. .. .. .. .. 22 .. .. .. .. .. .. .. .. .. .. .. 20 .. .. .. .. .. .. .. .. .. .. 
.. .. .. .. .. .. .. 20 .. .. .. .. .. 26 .. .. .. .. .. .. .. .. .. .. .. .. .. .. .. .. 
.. 25 .. .. .. .. .. .. .. .. .. .. .. .. .. .. .. .. .. 29 .. .. .. .. .. .. .. .. .. .. 
.. .. .. .. .. .. .. 18 .. .. .. .. .. .. .. .. .. .. .. .. .. .. .. .. .. .. .. .. .. .. 
.. .. .. .. .. .. .. .. .. .. .. .. .. 15 .. .. .. .. .. .. .. .. .. .. .. 18 .. .. .. .. 
.. 25 .. .. .. .. .. .. .. .. .. .. .. 18 .. .. .. .. .. .. .. .. .. .. .. .. .. .. .. .. 
.. 25 .. .. .. .. .. .. .. .. .. .. .. .. .. .. .. .. .. .. .. .. .. .. .. 25 .. .. .. .. 
.. .. .. .. .. .. .. .. .. .. .. .. .. 25 .. .. .. .. .. .. .. .. .. .. .. .. .. .. .. .. 
.. 30 .. .. .. .. .. .. .. .. .. .. .. .. .. .. .. .. .. 27 .. .. .. .. .. .. .. .. .. .. 
.. .. .. .. .. .. .. 25 .. .. .. .. .. .. .. .. .. .. .. .. .. .. .. .. .. 22 .. .. .. .. 
.. .. .. .. .. .. .. 20 .. .. .. .. .. .. .. .. .. .. .. .. .. .. .. .. .. 20 .. .. .. .. 
.. 26 .. .. .. .. .. .. .. .. .. .. .. .. .. .. .. .. .. 25 .. .. .. .. .. .. .. .. .. .. 
.. .. .. .. .. .. .. 29 .. .. .. .. .. .. .. .. .. .. .. .. .. .. .. .. .. 30 .. .. .. .. 
.. .. .. .. .. .. .. .. .. .. .. .. .. 27 .. .. .. .. .. .. .. .. .. .. .. .. .. .. .. .. 
.. 25 .. .. .. .. .. .. .. .. .. .. .. .. .. .. .. .. .. 22 .. .. .. .. .. .. .. .. .. .. 
.. 20 .. .. .. .. .. .. .. .. .. .. .. .. .. .. .. .. .. 20 .. .. .. .. .. 26 .. .. .. .. 
.. .. .. .. .. .. .. .. .. .. .. .. .. 25 .. .. .. .. .. .. .. .. .. .. .. .. .. .. .. .. 
.. 29 .. .. .. .. .. .. .. .. .. .. .. .. .. .. .. .. .. 30 .. .. .. .. .. .. .. .. .. .. 
.. .. .. .. .. .. .. 27 .. .. .. .. .. .. .. .. .. .. .. .. .. .. .. .. .. 25 .. .. .. .. 
.. .. .. .. .. .. .. .. .. .. .. .. .. 22 .. .. .. .. .. .. .. .. .. .. .. 20 .. .. .. .. 
.. .. .. .. .. .. .. .. .. .. .. .. .. 20 .. .. .. .. .. 26 .. .. .. .. .. .. .. .. .. .. 
.. .. .. .. .. .. .. 25 .. .. .. .. .. .. .. .. .. .. .. .. .. .. .. .. .. 29 .. .. .. .. 
.. .. .. .. .. .. .. .. .. .. .. .. .. 30 .. .. .. .. .. .. .. .. .. .. .. .. .. .. .. .. 
.. 27 .. .. .. .. .. .. .. .. .. .. .. .. .. .. .. .. .. 25 .. .. .. .. .. .. .. .. .. .. 
.. .. .. .. .. .. .. 22 .. .. .. .. .. .. .. .. .. .. .. 20 .. .. .. .. .. .. .. .. .. .. 
.. .. .. .. .. .. .. 20 .. .. .. .. .. 26 .. .. .. .. .. .. .. .. .. .. .. .. .. .. .. .. 
.. 25 .. .. .. .. .. .. .. .. .. .. .. .. .. .. .. .. .. 29 .. .. .. .. .. .. .. .. .. .. 
.. .. .. .. .. .. .. 30 .. .. .. .. .. .. .. .. .. .. .. .. .. .. .. .. .. 27 .. .. .. .. 
.. .. .. .. .. .. .. .. .. .. .. .. .. 25 .. .. .. .. .. .. .. .. .. .. .. .. .. .. .. .. 
.. 22 .. .. .. .. .. .. .. .. .. .. .. 20 .. .. .. .. .. .. .. .. .. .. .. .. .. .. .. .. 
.. 20 .. .. .. .. .. 26 .. .. .. .. .. .. .. .. .. .. .. .. .. .. .. .. .. 25 .. .. .. .. 
.. .. .. .. .. .. .. .. .. .. .. .. .. 29 .. .. .. .. .. .. .. .. .. .. .. .. .. .. .. .. 
.. 30 .. .. .. .. .. .. .. .. .. .. .. .. .. .. .. .. .. 27 .. .. .. .. .. .. .. .. .. .. 
.. .. .. .. .. .. .. 25 .. .. .. .. .. .. .. .. .. .. .. .. .. .. .. .. .. 22 .. .. .. .. 
.. .. .. .. .. .. .. 20 .. .. .. .. .. .. .. .. .. .. .. .. .. .. .. .. .. 20 .. .. .. .. 
.. 26 .. .. .. .. .. .. .. .. .. .. .. .. .. .. .. .. .. 25 .. .. .. .. .. .. .. .. .. .. 
.. .. .. .. .. .. .. 29 .. .. .. .. .. .. .. .. .. .. .. .. .. .. .. .. .. 30 .. .. .. .. 
.. .. .. .. .. .. .. .. .. .. .. .. .. 27 .. .. .. .. .. .. .. .. .. .. .. .. .. .. .. .. 
.. 25 .. .. .. .. .. .. .. .. .. .. .. .. .. .. .. .. .. 22 .. .. .. .. .. .. .. .. .. .. 
.. 20 .. .. .. .. .. .. .. .. .. .. .. .. .. .. .. .. .. 20 .. .. .. .. .. 26 .. .. .. .. 
.. .. .. .. .. .. .. .. .. .. .. .. .. 25 .. .. .. .. .. .. .. .. .. .. .. .. .. .. .. .. 
.. 29 .. .. .. .. .. .. .. .. .. .. .. .. .. .. .. .. .. 18 .. .. .. .. .. .. .. .. .. .. 
.. .. .. .. .. .. .. .. .. .. .. .. .. .. .. .. .. .. .. .. .. .. .. .. .. 25 .. .. .. .. 
.. .. .. .. .. .. .. 22 .. .. .. .. .. 23 .. .. .. .. .. .. .. .. .. .. .. 25 .. .. .. .. 
.. .. .. .. .. .. .. .. .. .. .. .. .. 25 .. .. .. .. .. 23 .. .. .. .. .. .. .. .. .. .. 
.. .. .. .. .. .. .. 22 .. .. .. .. .. .. .. .. .. .. .. .. .. .. .. .. .. 20 .. .. .. .. 
.. .. .. .. .. .. .. .. .. .. .. .. .. 30 .. .. .. .. .. .. .. .. .. .. .. .. .. .. .. .. 
.. 27 .. .. .. .. .. .. .. .. .. .. .. .. .. .. .. .. .. 25 .. .. .. .. .. .. .. .. .. .. 
.. .. .. .. .. .. .. 22 .. .. .. .. .. .. .. .. .. .. .. 20 .. .. .. .. .. .. .. .. .. .. 
.. .. .. .. .. .. .. 20 .. .. .. .. .. 26 .. .. .. .. .. .. .. .. .. .. .. .. .. .. .. .. 
.. 25 .. .. .. .. .. .. .. .. .. .. .. .. .. .. .. .. .. 29 .. .. .. .. .. .. .. .. .. .. 
.. .. .. .. .. .. .. 30 .. .. .. .. .. .. .. .. .. .. .. .. .. .. .. .. .. 27 .. .. .. .. 
.. .. .. .. .. .. .. .. .. .. .. .. .. 25 .. .. .. .. .. .. .. .. .. .. .. .. .. .. .. .. 
.. 22 .. .. .. .. .. .. .. .. .. .. .. 20 .. .. .. .. .. .. .. .. .. .. .. .. .. .. .. .. 
.. 20 .. .. .. .. .. 26 .. .. .. .. .. .. .. .. .. .. .. .. .. .. .. .. .. 25 .. .. .. .. 
.. .. .. .. .. .. .. .. .. .. .. .. .. 29 .. .. .. .. .. .. .. .. .. .. .. .. .. .. .. .. 
.. 30 .. .. .. .. .. .. .. .. .. .. .. .. .. .. .. .. .. 27 .. .. .. .. .. .. .. .. .. .. 
.. .. .. .. .. .. .. 25 .. .. .. .. .. .. .. .. .. .. .. .. .. .. .. .. .. 22 .. .. .. .. 
.. .. .. .. .. .. .. 20 .. .. .. .. .. .. .. .. .. .. .. .. .. .. .. .. .. 20 .. .. .. .. 
.. 26 .. .. .. .. .. .. .. .. .. .. .. .. .. .. .. .. .. 25 .. .. .. .. .. .. .. .. .. .. 
.. .. .. .. .. .. .. 29 .. .. .. .. .. .. .. .. .. .. .. .. .. .. .. .. .. 18 .. .. .. .. 
.. .. .. .. .. .. .. .. .. .. .. .. .. .. .. .. .. .. .. .. .. .. .. .. .. .. .. .. .. .. 
.. 15 .. .. .. .. .. .. .. .. .. .. .. 18 .. .. .. .. .. 25 .. .. .. .. .. .. .. .. .. .. 
.. 18 .. .. .. .. .. .. .. .. .. .. .. .. .. .. .. .. .. 25 .. .. .. .. .. .. .. .. .. .. 
.. .. .. .. .. .. .. .. .. .. .. .. .. 25 .. .. .. .. .. .. .. .. .. .. .. .. .. .. .. .. 
.. 25 .. .. .. .. .. .. .. .. .. .. .. .. .. .. .. .. .. 30 .. .. .. .. .. .. .. .. .. .. 
.. .. .. .. .. .. .. 27 .. .. .. .. .. .. .. .. .. .. .. .. .. .. .. .. .. 25 .. .. .. .. 
.. .. .. .. .. .. .. .. .. .. .. .. .. 22 .. .. .. .. .. .. .. .. .. .. .. 20 .. .. .. .. 
.. .. .. .. .. .. .. .. .. .. .. .. .. 20 .. .. .. .. .. 26 .. .. .. .. .. .. .. .. .. .. 
.. .. .. .. .. .. .. 25 .. .. .. .. .. .. .. .. .. .. .. .. .. .. .. .. .. 29 .. .. .. .. 
.. .. .. .. .. .. .. .. .. .. .. .. .. 30 .. .. .. .. .. .. .. .. .. .. .. .. .. .. .. .. 
.. 27 .. .. .. .. .. .. .. .. .. .. .. .. .. .. .. .. .. 25 .. .. .. .. .. .. .. .. .. .. 
.. .. .. .. .. .. .. 22 .. .. .. .. .. .. .. .. .. .. .. 20 .. .. .. .. .. .. .. .. .. .. 
.. .. .. .. .. .. .. 20 .. .. .. .. .. 26 .. .. .. .. .. .. .. .. .. .. .. .. .. .. .. .. 
.. 25 .. .. .. .. .. .. .. .. .. .. .. .. .. .. .. .. .. 29 .. .. .. .. .. .. .. .. .. .. 
.. .. .. .. .. .. .. 30 .. .. .. .. .. .. .. .. .. .. .. .. .. .. .. .. .. 27 .. .. .. .. 
.. .. .. .. .. .. .. .. .. .. .. .. .. 25 .. .. .. .. .. .. .. .. .. .. .. .. .. .. .. .. 
.. 22 .. .. .. .. .. .. .. .. .. .. .. 20 .. .. .. .. .. .. .. .. .. .. .. .. .. .. .. .. 
.. 20 .. .. .. .. .. 26 .. .. .. .. .. .. .. .. .. .. .. .. .. .. .. .. .. 25 .. .. .. .. 
.. .. .. .. .. .. .. .. .. .. .. .. .. 29 .. .. .. .. .. .. .. .. .. .. .. .. .. .. .. .. 
.. 30 .. .. .. .. .. .. .. .. .. .. .. .. .. .. .. .. .. 27 .. .. .. .. .. .. .. .. .. .. 
.. .. .. .. .. .. .. 25 .. .. .. .. .. .. .. .. .. .. .. .. .. .. .. .. .. 22 .. .. .. .. 
.. .. .. .. .. .. .. 20 .. .. .. .. .. .. .. .. .. .. .. .. .. .. .. .. .. 20 .. .. .. .. 
.. 26 .. .. .. .. .. .. .. .. .. .. .. .. .. .. .. .. .. 25 .. .. .. .. .. .. .. .. .. .. 
.. .. .. .. .. .. .. 29 .. .. .. .. .. .. .. .. .. .. .. .. .. .. .. .. .. 30 .. .. .. .. 
.. .. .. .. .. .. .. .. .. .. .. .. .. 27 .. .. .. .. .. .. .. .. .. .. .. .. .. .. .. .. 
.. 25 .. .. .. .. .. .. .. .. .. .. .. .. .. .. .. .. .. 22 .. .. .. .. .. .. .. .. .. .. 
.. 20 .. .. .. .. .. .. .. .. .. .. .. .. .. .. .. .. .. 20 .. .. .. .. .. 26 .. .. .. .. 
.. .. .. .. .. .. .. .. .. .. .. .. .. 25 .. .. .. .. .. .. .. .. .. .. .. .. .. .. .. .. 
.. 29 .. .. .. .. .. .. .. .. .. .. .. .. .. .. .. .. .. 30 .. .. .. .. .. .. .. .. .. .. 
.. .. .. .. .. .. .. 27 .. .. .. .. .. .. .. .. .. .. .. .. .. .. .. .. .. 25 .. .. .. .. 
.. .. .. .. .. .. .. .. .. .. .. .. .. 22 .. .. .. .. .. .. .. .. .. .. .. 20 .. .. .. .. 
.. .. .. .. .. .. .. .. .. .. .. .. .. 20 .. .. .. .. .. 26 .. .. .. .. .. .. .. .. .. .. 
.. .. .. .. .. .. .. 25 .. .. .. .. .. .. .. .. .. .. .. .. .. .. .. .. .. 29 .. .. .. .. 
.. .. .. .. .. .. .. .. .. .. .. .. .. 30 .. .. .. .. .. .. .. .. .. .. .. .. .. .. .. .. 
.. 27 .. .. .. .. .. .. .. .. .. .. .. .. .. .. .. .. .. 25 .. .. .. .. .. .. .. .. .. .. 
.. .. .. .. .. .. .. 22 .. .. .. .. .. .. .. .. .. .. .. 20 .. .. .. .. .. .. .. .. .. .. 
.. .. .. .. .. .. .. 20 .. .. .. .. .. 26 .. .. .. .. .. .. .. .. .. .. .. .. .. .. .. .. 
.. 25 .. .. .. .. .. .. .. .. .. .. .. .. .. .. .. .. .. 29 .. .. .. .. .. .. .. .. .. .. 
.. .. .. .. .. .. .. 18 .. .. .. .. .. .. .. .. .. .. .. .. .. .. .. .. .. .. .. .. .. .. 
.. .. .. .. .. .. .. .. .. .. .. .. .. 25 .. .. .. .. .. .. .. .. .. .. .. 22 .. .. .. .. 
.. 23 .. .. .. .. .. .. .. .. .. .. .. 25 .. .. .. .. .. .. .. .. .. .. .. .. .. .. .. .. 
.. 25 .. .. .. .. .. 23 .. .. .. .. .. .. .. .. .. .. .. .. .. .. .. .. .. 22 .. .. .. .. 
.. .. .. .. .. .. .. .. .. .. .. .. .. 20 .. .. .. .. .. .. .. .. .. .. .. .. .. .. .. .. 
.. 30 .. .. .. .. .. .. .. .. .. .. .. .. .. .. .. .. .. 27 .. .. .. .. .. .. .. .. .. .. 
.. .. .. .. .. .. .. 25 .. .. .. .. .. .. .. .. .. .. .. .. .. .. .. .. .. 22 .. .. .. .. 
.. .. .. .. .. .. .. 20 .. .. .. .. .. .. .. .. .. .. .. .. .. .. .. .. .. 20 .. .. .. .. 
.. 26 .. .. .. .. .. .. .. .. .. .. .. .. .. .. .. .. .. 25 .. .. .. .. .. .. .. .. .. .. 
.. .. .. .. .. .. .. 29 .. .. .. .. .. .. .. .. .. .. .. .. .. .. .. .. .. 30 .. .. .. .. 
.. .. .. .. .. .. .. .. .. .. .. .. .. 27 .. .. .. .. .. .. .. .. .. .. .. .. .. .. .. .. 
.. 25 .. .. .. .. .. .. .. .. .. .. .. .. .. .. .. .. .. 22 .. .. .. .. .. .. .. .. .. .. 
.. 20 .. .. .. .. .. .. .. .. .. .. .. .. .. .. .. .. .. 20 .. .. .. .. .. 26 .. .. .. .. 
.. .. .. .. .. .. .. .. .. .. .. .. .. 25 .. .. .. .. .. .. .. .. .. .. .. .. .. .. .. .. 
.. 29 .. .. .. .. .. .. .. .. .. .. .. .. .. .. .. .. .. 30 .. .. .. .. .. .. .. .. .. .. 
.. .. .. .. .. .. .. 27 .. .. .. .. .. .. .. .. .. .. .. .. .. .. .. .. .. 25 .. .. .. .. 
.. .. .. .. .. .. .. .. .. .. .. .. .. 22 .. .. .. .. .. .. .. .. .. .. .. 20 .. .. .. .. 
.. .. .. .. .. .. .. .. .. .. .. .. .. 20 .. .. .. .. .. 26 .. .. .. .. .. .. .. .. .. .. 
.. .. .. .. .. .. .. 25 .. .. .. .. .. .. .. .. .. .. .. .. .. .. .. .. .. 29 .. .. .. .. 
.. .. .. .. .. .. .. .. .. .. .. .. .. 18 .. .. .. .. .. .. .. .. .. .. .. .. .. .. .. .. 
.. .. .. .. .. .. .. .. .. .. .. .. .. .. .. .. .. .. .. 15 .. .. .. .. .. .. .. .. .. .. 
.. 18 .. .. .. .. .. 25 .. .. .. .. .. .. .. .. .. .. .. 18 .. .. .. .. .. .. .. .. .. .. 
.. .. .. .. .. .. .. 25 .. .. .. .. .. .. .. .. .. .. .. .. .. .. .. .. .. .. .. .. .. .. 
.. 25 .. .. .. .. .. .. .. .. .. .. .. .. .. .. .. .. .. 25 .. .. .. .. .. .. .. .. .. .. 
.. .. .. .. .. .. .. 30 .. .. .. .. .. .. .. .. .. .. .. .. .. .. .. .. .. 27 .. .. .. .. 
.. .. .. .. .. .. .. .. .. .. .. .. .. 25 .. .. .. .. .. .. .. .. .. .. .. .. .. .. .. .. 
.. 22 .. .. .. .. .. .. .. .. .. .. .. 20 .. .. .. .. .. .. .. .. .. .. .. .. .. .. .. .. 
.. 20 .. .. .. .. .. 26 .. .. .. .. .. .. .. .. .. .. .. .. .. .. .. .. .. 25 .. .. .. .. 
.. .. .. .. .. .. .. .. .. .. .. .. .. 29 .. .. .. .. .. .. .. .. .. .. .. .. .. .. .. .. 
.. 30 .. .. .. .. .. .. .. .. .. .. .. .. .. .. .. .. .. 27 .. .. .. .. .. .. .. .. .. .. 
.. .. .. .. .. .. .. 25 .. .. .. .. .. .. .. .. .. .. .. .. .. .. .. .. .. 22 .. .. .. .. 
.. .. .. .. .. .. .. 20 .. .. .. .. .. .. .. .. .. .. .. .. .. .. .. .. .. 20 .. .. .. .. 
.. 26 .. .. .. .. .. .. .. .. .. .. .. .. .. .. .. .. .. 25 .. .. .. .. .. .. .. .. .. .. 
.. .. .. .. .. .. .. 29 .. .. .. .. .. .. .. .. .. .. .. .. .. .. .. .. .. 30 .. .. .. .. 
.. .. .. .. .. .. .. .. .. .. .. .. .. 27 .. .. .. .. .. .. .. .. .. .. .. .. .. .. .. .. 
.. 25 .. .. .. .. .. .. .. .. .. .. .. .. .. .. .. .. .. 22 .. .. .. .. .. .. .. .. .. .. 
.. 20 .. .. .. .. .. .. .. .. .. .. .. .. .. .. .. .. .. 20 .. .. .. .. .. 26 .. .. .. .. 
.. .. .. .. .. .. .. .. .. .. .. .. .. 25 .. .. .. .. .. .. .. .. .. .. .. .. .. .. .. .. 
.. 29 .. .. .. .. .. .. .. .. .. .. .. .. .. .. .. .. .. 30 .. .. .. .. .. .. .. .. .. .. 
.. .. .. .. .. .. .. 27 .. .. .. .. .. .. .. .. .. .. .. .. .. .. .. .. .. 25 .. .. .. .. 
.. .. .. .. .. .. .. .. .. .. .. .. .. 22 .. .. .. .. .. .. .. .. .. .. .. 20 .. .. .. .. 
.. .. .. .. .. .. .. .. .. .. .. .. .. 20 .. .. .. .. .. 26 .. .. .. .. .. .. .. .. .. .. 
.. .. .. .. .. .. .. 25 .. .. .. .. .. .. .. .. .. .. .. .. .. .. .. .. .. 29 .. .. .. .. 
.. .. .. .. .. .. .. .. .. .. .. .. .. 30 .. .. .. .. .. .. .. .. .. .. .. .. .. .. .. .. 
.. 27 .. .. .. .. .. .. .. .. .. .. .. .. .. .. .. .. .. 25 .. .. .. .. .. .. .. .. .. .. 
.. .. .. .. .. .. .. 22 .. .. .. .. .. .. .. .. .. .. .. 20 .. .. .. .. .. .. .. .. .. .. 
.. .. .. .. .. .. .. 20 .. .. .. .. .. 26 .. .. .. .. .. .. .. .. .. .. .. .. .. .. .. .. 
.. 25 .. .. .. .. .. .. .. .. .. .. .. .. .. .. .. .. .. 29 .. .. .. .. .. .. .. .. .. .. 
.. .. .. .. .. .. .. 30 .. .. .. .. .. .. .. .. .. .. .. .. .. .. .. .. .. 27 .. .. .. .. 
.. .. .. .. .. .. .. .. .. .. .. .. .. 25 .. .. .. .. .. .. .. .. .. .. .. .. .. .. .. .. 
.. 22 .. .. .. .. .. .. .. .. .. .. .. 20 .. .. .. .. .. .. .. .. .. .. .. .. .. .. .. .. 
.. 20 .. .. .. .. .. 26 .. .. .. .. .. .. .. .. .. .. .. .. .. .. .. .. .. 25 .. .. .. .. 
.. .. .. .. .. .. .. .. .. .. .. .. .. 29 .. .. .. .. .. .. .. .. .. .. .. .. .. .. .. .. 
.. 30 .. .. .. .. .. .. .. .. .. .. .. .. .. .. .. .. .. 27 .. .. .. .. .. .. .. .. .. .. 
.. .. .. .. .. .. .. 25 .. .. .. .. .. .. .. .. .. .. .. .. .. .. .. .. .. 22 .. .. .. .. 
.. .. .. .. .. .. .. 20 .. .. .. .. .. .. .. .. .. .. .. .. .. .. .. .. .. 20 .. .. .. .. 
.. 26 .. .. .. .. .. .. .. .. .. .. .. .. .. .. .. .. .. 25 .. .. .. .. .. .. .. .. .. .. 
.. .. .. .. .. .. .. 29 .. .. .. .. .. .. .. .. .. .. .. .. .. .. .. .. .. 18 .. .. .. .. 
.. .. .. .. .. .. .. .. .. .. .. .. .. .. .. .. .. .. .. .. .. .. .. .. .. .. .. .. .. .. 
.. 25 .. .. .. .. .. .. .. .. .. .. .. 22 .. .. .. .. .. 23 .. .. .. .. .. .. .. .. .. .. 
.. 25 .. .. .. .. .. .. .. .. .. .. .. .. .. .. .. .. .. 25 .. .. .. .. .. 23 .. .. .. .. 
.. .. .. .. .. .. .. .. .. .. .. .. .. 22 .. .. .. .. .. .. .. .. .. .. .. .. .. .. .. .. 
.. 20 .. .. .. .. .. .. .. .. .. .. .. .. .. .. .. .. .. 30 .. .. .. .. .. .. .. .. .. .. 
.. .. .. .. .. .. .. 27 .. .. .. .. .. .. .. .. .. .. .. .. .. .. .. .. .. 25 .. .. .. .. 
.. .. .. .. .. .. .. .. .. .. .. .. .. 22 .. .. .. .. .. .. .. .. .. .. .. 20 .. .. .. .. 
.. .. .. .. .. .. .. .. .. .. .. .. .. 20 .. .. .. .. .. 26 .. .. .. .. .. .. .. .. .. .. 
.. .. .. .. .. .. .. 25 .. .. .. .. .. .. .. .. .. .. .. .. .. .. .. .. .. 29 .. .. .. .. 
.. .. .. .. .. .. .. .. .. .. .. .. .. 30 .. .. .. .. .. .. .. .. .. .. .. .. .. .. .. .. 
.. 27 .. .. .. .. .. .. .. .. .. .. .. .. .. .. .. .. .. 25 .. .. .. .. .. .. .. .. .. .. 
.. .. .. .. .. .. .. 22 .. .. .. .. .. .. .. .. .. .. .. 20 .. .. .. .. .. .. .. .. .. .. 
.. .. .. .. .. .. .. 20 .. .. .. .. .. 26 .. .. .. .. .. .. .. .. .. .. .. .. .. .. .. .. 
.. 25 .. .. .. .. .. .. .. .. .. .. .. .. .. .. .. .. .. 29 .. .. .. .. .. .. .. .. .. .. 
.. .. .. .. .. .. .. 30 .. .. .. .. .. .. .. .. .. .. .. .. .. .. .. .. .. 27 .. .. .. .. 
.. .. .. .. .. .. .. .. .. .. .. .. .. 25 .. .. .. .. .. .. .. .. .. .. .. .. .. .. .. .. 
.. 22 .. .. .. .. .. .. .. .. .. .. .. 20 .. .. .. .. .. .. .. .. .. .. .. .. .. .. .. .. 
.. 20 .. .. .. .. .. 26 .. .. .. .. .. .. .. .. .. .. .. .. .. .. .. .. .. 25 .. .. .. .. 
.. .. .. .. .. .. .. .. .. .. .. .. .. 29 .. .. .. .. .. .. .. .. .. .. .. .. .. .. .. .. 
.. 18 .. .. .. .. .. .. .. .. .. .. .. .. .. .. .. .. .. .. .. .. .. .. .. .. .. .. .. .. 
.. .. .. .. .. .. .. 15 .. .. .. .. .. .. .. .. .. .. .. 18 .. .. .. .. .. 25 .. .. .. .. 
.. .. .. .. .. .. .. 18 .. .. .. .. .. .. .. .. .. .. .. .. .. .. .. .. .. 25 .. .. .. .. 
.. .. .. .. .. .. .. .. .. .. .. .. .. .. .. .. .. .. .. 25 .. .. .. .. .. .. .. .. .. .. 
.. .. .. .. .. .. .. 25 .. .. .. .. .. .. .. .. .. .. .. .. .. .. .. .. .. 30 .. .. .. .. 
.. .. .. .. .. .. .. .. .. .. .. .. .. 27 .. .. .. .. .. .. .. .. .. .. .. .. .. .. .. .. 
.. 25 .. .. .. .. .. .. .. .. .. .. .. .. .. .. .. .. .. 22 .. .. .. .. .. .. .. .. .. .. 
.. 20 .. .. .. .. .. .. .. .. .. .. .. .. .. .. .. .. .. 20 .. .. .. .. .. 26 .. .. .. .. 
.. .. .. .. .. .. .. .. .. .. .. .. .. 25 .. .. .. .. .. .. .. .. .. .. .. .. .. .. .. .. 
.. 29 .. .. .. .. .. .. .. .. .. .. .. .. .. .. .. .. .. 30 .. .. .. .. .. .. .. .. .. .. 
.. .. .. .. .. .. .. 27 .. .. .. .. .. .. .. .. .. .. .. .. .. .. .. .. .. 25 .. .. .. .. 
.. .. .. .. .. .. .. .. .. .. .. .. .. 22 .. .. .. .. .. .. .. .. .. .. .. 20 .. .. .. .. 
.. .. .. .. .. .. .. .. .. .. .. .. .. 20 .. .. .. .. .. 26 .. .. .. .. .. .. .. .. .. .. 
.. .. .. .. .. .. .. 25 .. .. .. .. .. .. .. .. .. .. .. .. .. .. .. .. .. 29 .. .. .. .. 
.. .. .. .. .. .. .. .. .. .. .. .. .. 30 .. .. .. .. .. .. .. .. .. .. .. .. .. .. .. .. 
.. 27 .. .. .. .. .. .. .. .. .. .. .. .. .. .. .. .. .. 25 .. .. .. .. .. .. .. .. .. .. 
.. .. .. .. .. .. .. 22 .. .. .. .. .. .. .. .. .. .. .. 20 .. .. .. .. .. .. .. .. .. .. 
.. .. .. .. .. .. .. 20 .. .. .. .. .. 26 .. .. .. .. .. .. .. .. .. .. .. .. .. .. .. .. 
.. 25 .. .. .. .. .. .. .. .. .. .. .. .. .. .. .. .. .. 29 .. .. .. .. .. .. .. .. .. .. 
.. .. .. .. .. .. .. 30 .. .. .. .. .. .. .. .. .. .. .. .. .. .. .. .. .. 27 .. .. .. .. 
.. .. .. .. .. .. .. .. .. .. .. .. .. 25 .. .. .. .. .. .. .. .. .. .. .. .. .. .. .. .. 
.. 22 .. .. .. .. .. .. .. .. .. .. .. 20 .. .. .. .. .. .. .. .. .. .. .. .. .. .. .. .. 
.. 20 .. .. .. .. .. 26 .. .. .. .. .. .. .. .. .. .. .. .. .. .. .. .. .. 25 .. .. 
! Song 1
146 39 .. 42 .. 46 .. 49 .. 39 .. 42 .. 46 .. 49 .. 39 .. 42 .. 46 .. 49 .. 39 .. 42 .. 46 
.. 49 .. 39 .. 42 .. 46 .. 49 .. 39 .. 42 .. 46 .. 49 .. 39 .. 42 .. 46 .. 49 .. 39 .. 42 
.. 46 .. 49 .. 39 .. 42 .. 46 .. 34 .. 37 .. 41 .. 44 .. 34 .. 37 .. 41 .. 44 .. 34 .. 37 
.. 41 .. 44 .. 34 .. 37 .. 32 .. 35 .. 39 .. 42 .. 32 .. 35 .. 39 .. 42 .. 32 .. 35 .. 39 
.. 42 .. 32 .. 35 .. 39 .. 42 .. 32 .. 35 .. 39 .. 42 .. 32 .. 35 .. 39 .. 42 .. 32 .. 35 
.. 39 .. 42 .. 32 .. 35 .. 39 .. 42 .. 32 .. 35 .. 39 .. 42 .. 32 .. 35 .. 39 .. 42 .. 32 
.. 35 .. 34 .. 37 .. 41 .. 44 .. 34 .. 37 .. 41 .. 44 .. 34 .. 37 .. 41 .. 44 .. 34 .. 37 
.. 41 .. 44 .. 34 .. 37 .. 41 .. 44 .. 34 .. 39 .. 42 .. 46 .. 49 .. 39 .. 42 .. 46 .. 49 
.. 39 .. 42 .. 46 .. 49 .. 39 .. 42 .. 46 .. 49 .. 39 .. 42 .. 46 .. 49 .. 39 .. 42 .. 46 
.. 49 .. 39 .. 42 .. 46 .. 49 .. 39 .. 42 .. 46 .. 49 .. 39 .. 42 .. 46 .. 34 .. 37 .. 41 
.. 44 .. 34 .. 37 .. 41 .. 44 .. 34 .. 37 .. 41 .. 44 .. 34 .. 37 .. 32 .. 35 .. 39 .. 42 
.. 32 .. 35 .. 39 .. 42 .. 32 .. 35 .. 39 .. 42 .. 32 .. 35 .. 39 .. 42 .. 32 .. 35 .. 39 
.. 42 .. 32 .. 35 .. 39 .. 42 .. 32 .. 35 .. 39 .. 42 .. 32 .. 35 .. 39 .. 42 .. 32 .. 35 
.. 39 .. 42 .. 32 .. 35 .. 39 .. 42 .. 32 .. 35 .. 34 .. 37 .. 41 .. 44 .. 34 .. 37 .. 41 
.. 44 .. 34 .. 37 .. 41 .. 44 .. 34 .. 37 .. 41 .. 44 .. 34 .. 37 .. 41 .. 44 .. 34 .. 39 
.. 42 .. 46 .. 49 .. 39 .. 42 .. 46 .. 49 .. 39 .. 42 .. 46 .. 49 .. 39 .. 42 .. 46 .. 49 
.. 39 .. 42 .. 46 .. 49 .. 39 .. 42 .. 46 .. 49 .. 39 .. 42 .. 46 .. 49 .. 39 .. 42 .. 46 
.. 49 .. 39 .. 42 .. 46 .. 34 .. 37 .. 41 .. 44 .. 34 .. 37 .. 41 .. 44 .. 34 .. 37 .. 41 
.. 44 .. 34 .. 37 .. 32 .. 35 .. 39 .. 42 .. 32 .. 35 .. 39 .. 42 .. 32 .. 35 .. 39 .. 42 
.. 32 .. 35 .. 39 .. 42 .. 32 .. 35 .. 39 .. 42 .. 32 .. 35 .. 39 .. 42 .. 32 .. 35 .. 39 
.. 42 .. 32 .. 35 .. 39 .. 42 .. 32 .. 35 .. 39 .. 42 .. 32 .. 35 .. 39 .. 42 .. 32 .. 35 
.. 34 .. 37 .. 41 .. 44 .. 34 .. 37 .. 41 .. 44 .. 34 .. 37 .. 41 .. 44 .. 34 .. 37 .. 41 
.. 44 .. 34 .. 37 .. 41 .. 44 .. 34 .. 39 .. 42 .. 46 .. 49 .. 39 .. 42 .. 46 .. 49 .. 39 
.. 42 .. 46 .. 49 .. 39 .. 42 .. 46 .. 49 .. 39 .. 42 .. 46 .. 49 .. 39 .. 42 .. 46 .. 49 
.. 39 .. 42 .. 46 .. 49 .. 39 .. 42 .. 46 .. 49 .. 39 .. 42 .. 46 .. 34 .. 37 .. 41 .. 44 
.. 34 .. 37 .. 41 .. 44 .. 34 .. 37 .. 41 .. 44 .. 34 .. 37 .. 32 .. 35 .. 39 .. 42 .. 32 
.. 35 .. 39 .. 42 .. 32 .. 35 .. 39 .. 42 .. 32 .. 35 .. 39 .. 42 .. 32 .. 35 .. 39 .. 42 
.. 32 .. 35 .. 39 .. 42 .. 32 .. 35 .. 39 .. 42 .. 32 .. 35 .. 39 .. 42 .. 32 .. 35 .. 39 
.. 42 .. 32 .. 35 .. 39 .. 42 .. 32 .. 35 .. 34 .. 37 .. 41 .. 44 .. 34 .. 37 .. 41 .. 44 
.. 34 .. 37 .. 41 .. 44 .. 34 .. 37 .. 41 .. 44 .. 34 .. 37 .. 41 .. 44 .. 34 .. 39 .. 42 
.. 46 .. 49 .. 39 .. 42 .. 46 .. 49 .. 39 .. 42 .. 46 .. 49 .. 39 .. 42 .. 46 .. 49 .. 39 
.. 42 .. 46 .. 49 .. 39 .. 42 .. 46 .. 49 .. 39 .. 42 .. 46 .. 49 .. 39 .. 42 .. 46 .. 49 
.. 39 .. 42 .. 46 .. 34 .. 37 .. 41 .. 44 .. 34 .. 37 .. 41 .. 44 .. 34 .. 37 .. 41 .. 44 
.. 34 .. 37 .. 32 .. 35 .. 39 .. 42 .. 32 .. 35 .. 39 .. 42 .. 32 .. 35 .. 39 .. 42 .. 32 
.. 35 .. 39 .. 42 .. 32 .. 35 .. 39 .. 42 .. 32 .. 35 .. 39 .. 42 .. 32 .. 35 .. 39 .. 42 
.. 32 .. 35 .. 39 .. 42 .. 32 .. 35 .. 39 .. 42 .. 32 .. 35 .. 39 .. 42 .. 32 .. 35 .. 34 
.. 37 .. 41 .. 44 .. 34 .. 37 .. 41 .. 44 .. 34 .. 37 .. 41 .. 44 .. 34 .. 37 .. 41 .. 44 
.. 34 .. 37 .. 41 .. 44 .. 34 .. 39 .. 42 .. 46 .. 49 .. 39 .. 42 .. 46 .. 49 .. 39 .. 42 
.. 46 .. 49 .. 39 .. 42 .. 46 .. 49 .. 39 .. 42 .. 46 .. 49 .. 39 .. 42 .. 46 .. 49 .. 39 
.. 42 .. 46 .. 49 .. 39 .. 42 .. 46 .. 49 .. 39 .. 42 .. 46 .. 34 .. 37 .. 41 .. 44 .. 34 
.. 37 .. 41 .. 44 .. 34 .. 37 .. 41 .. 44 .. 34 .. 37 .. 32 .. 35 .. 39 .. 42 .. 32 .. 35 
.. 39 .. 42 .. 32 .. 35 .. 39 .. 42 .. 32 .. 35 .. 39 .. 42 .. 32 .. 35 .. 39 .. 42 .. 32 
.. 35 .. 39 .. 42 .. 32 .. 35 .. 39 .. 42 .. 32 .. 35 .. 39 .. 42 .. 32 .. 35 .. 39 .. 42 
.. 32 .. 35 .. 39 .. 42 .. 32 .. 35 .. 34 .. 37 .. 41 .. 44 .. 34 .. 37 .. 41 .. 44 .. 34 
.. 37 .. 41 .. 44 .. 34 .. 37 .. 41 .. 44 .. 34 .. 37 .. 41 .. 44 .. 34 .. 39 .. 42 .. 46 
.. 49 .. 39 .. 42 .. 46 .. 49 .. 39 .. 42 .. 46 .. 49 .. 39 .. 42 .. 46 .. 49 .. 39 .. 42 
.. 46 .. 49 .. 39 .. 42 .. 46 .. 49 .. 39 .. 42 .. 46 .. 49 .. 39 .. 42 .. 46 .. 49 .. 39 
.. 42 .. 46 .. 34 .. 37 .. 41 .. 44 .. 34 .. 37 .. 41 .. 44 .. 34 .. 37 .. 41 .. 44 .. 34 
.. 37 .. 32 .. 35 .. 39 .. 42 .. 32 .. 35 .. 39 .. 42 .. 32 .. 35 .. 39 .. 42 .. 32 .. 35 
.. 39 .. 42 .. 32 .. 35 .. 39 .. 42 .. 32 .. 35 .. 39 .. 42 .. 32 .. 35 .. 39 .. 42 .. 32 
.. 35 .. 39 .. 42 .. 32 .. 35 .. 39 .. 42 .. 32 .. 35 .. 39 .. 42 .. 32 .. 35 .. 34 .. 37 
.. 41 .. 44 .. 34 .. 37 .. 41 .. 44 .. 34 .. 37 .. 41 .. 44 .. 34 .. 37 .. 41 .. 44 .. 34 
.. 37 .. 41 .. 44 .. 34 .. 39 .. 42 .. 46 .. 49 .. 39 .. 42 .. 46 .. 49 .. 39 .. 42 .. 46 
.. 49 .. 39 .. 42 .. 46 .. 49 .. 39 .. 42 .. 46 .. 49 .. 39 .. 42 .. 46 .. 49 .. 39 .. 42 
.. 46 .. 49 .. 39 .. 42 .. 46 .. 49 .. 39 .. 42 .. 46 .. 34 .. 37 .. 41 .. 44 .. 34 .. 37 
.. 41 .. 44 .. 34 .. 37 .. 41 .. 44 .. 34 .. 37 .. 32 .. 35 .. 39 .. 42 .. 32 .. 35 .. 39 
.. 42 .. 32 .. 35 .. 39 .. 42 .. 32 .. 35 .. 39 .. 42 .. 32 .. 35 .. 39 .. 42 .. 32 .. 35 
.. 39 .. 42 .. 32 .. 35 .. 39 .. 42 .. 32 .. 35 .. 39 .. 42 .. 32 .. 35 .. 39 .. 42 .. 32 
.. 35 .. 39 .. 42 .. 32 .. 35 .. 34 .. 37 .. 41 .. 44 .. 34 .. 37 .. 41 .. 44 .. 34 .. 37 
.. 41 .. 44 .. 34 .. 37 .. 41 .. 44 .. 34 .. 37 .. 41 .. 44 .. 34 .. 39 .. 42 .. 46 .. 49 
.. 39 .. 42 .. 46 .. 49 .. 39 .. 42 .. 46 .. 49 .. 39 .. 42 .. 46 .. 49 .. 39 .. 42 .. 46 
.. 49 .. 39 .. 42 .. 46 .. 49 .. 39 .. 42 .. 46 .. 49 .. 39 .. 42 .. 46 .. 49 .. 39 .. 42 
.. 46 .. 34 .. 37 .. 41 .. 44 .. 34 .. 37 .. 41 .. 44 .. 34 .. 37 .. 41 .. 44 .. 34 .. 37 
.. 32 .. 35 .. 39 .. 42 .. 32 .. 35 .. 39 .. 42 .. 32 .. 35 .. 39 .. 42 .. 32 .. 35 .. 39 
.. 42 .. 32 .. 35 .. 39 .. 42 .. 32 .. 35 .. 39 .. 42 .. 32 .. 35 .. 39 .. 42 .. 32 .. 35 
.. 39 .. 42 .. 32 .. 35 .. 39 .. 42 .. 32 .. 35 .. 39 .. 42 .. 32 .. 35 .. 34 .. 37 .. 41 
.. 44 .. 34 .. 37 .. 41 .. 44 .. 34 .. 37 .. 41 .. 44 .. 34 .. 37 .. 41 .. 44 .. 34 .. 37 
.. 41 .. 44 .. 34 .. 39 .. 42 .. 46 .. 49 .. 39 .. 42 .. 46 .. 49 .. 39 .. 42 .. 46 .. 49 
.. 39 .. 42 .. 46 .. 49 .. 39 .. 42 .. 46 .. 49 .. 39 .. 42 .. 46 .. 49 .. 39 .. 42 .. 46 
.. 49 .. 39 .. 42 .. 46 .. 49 .. 39 .. 42 .. 46 .. 34 .. 37 .. 41 .. 44 .. 34 .. 37 .. 41 
.. 44 .. 34 .. 37 .. 41 .. 44 .. 34 .. 37 .. 32 .. 35 .. 39 .. 42 .. 32 .. 35 .. 39 .. 42 
.. 32 .. 35 .. 39 .. 42 .. 32 .. 35 .. 39 .. 42 .. 32 .. 35 .. 39 .. 42 .. 32 .. 35 .. 39 
.. 42 .. 32 .. 35 .. 39 .. 42 .. 32 .. 35 .. 39 .. 42 .. 32 .. 35 .. 39 .. 42 .. 32 .. 35 
.. 39 .. 42 .. 32 .. 35 .. 34 .. 37 .. 41 .. 44 .. 34 .. 37 .. 41 .. 44 .. 34 .. 37 .. 41 
.. 44 .. 34 .. 37 .. 41 .. 44 .. 34 .. 37 .. 41 .. 44 .. 34 .. 39 .. 42 .. 46 .. 49 .. 39 
.. 42 .. 46 .. 49 .. 39 .. 42 .. 46 .. 49 .. 39 .. 42 .. 46 .. 49 .. 39 .. 42 .. 46 .. 49 
.. 39 .. 42 .. 46 .. 49 .. 39 .. 42 .. 46 .. 49 .. 39 .. 42 .. 46 .. 49 .. 39 .. 42 .. 46 
.. 34 .. 37 .. 41 .. 44 .. 34 .. 37 .. 41 .. 44 .. 34 .. 37 .. 41 .. 44 .. 34 .. 37 .. 32 
.. 35 .. 39 .. 42 .. 32 .. 35 .. 39 .. 42 .. 32 .. 35 .. 39 .. 42 .. 32 .. 35 .. 39 .. 42 
.. 32 .. 35 .. 39 .. 42 .. 32 .. 35 .. 39 .. 42 .. 32 .. 35 .. 39 .. 42 .. 32 .. 35 .. 39 
.. 42 .. 32 .. 35 .. 39 .. 42 .. 32 .. 35 .. 39 .. 42 .. 32 .. 35 .. 34 .. 37 .. 41 .. 44 
.. 34 .. 37 .. 41 .. 44 .. 34 .. 37 .. 41 .. 44 .. 34 .. 37 .. 41 .. 44 .. 34 .. 37 .. 41 
.. 44 .. 34 .. 39 .. 42 .. 46 .. 49 .. 39 .. 42 .. 46 .. 49 .. 39 .. 42 .. 46 .. 49 .. 39 
.. 42 .. 46 .. 49 .. 39 .. 42 .. 46 .. 49 .. 39 .. 42 .. 46 .. 49 .. 39 .. 42 .. 46 .. 49 
.. 39 .. 42 .. 46 .. 49 .. 39 .. 42 .. 46 .. 34 .. 37 .. 41 .. 44 .. 34 .. 37 .. 41 .. 44 
.. 34 .. 37 .. 41 .. 44 .. 34 .. 37 .. 32 .. 35 .. 39 .. 42 .. 32 .. 35 .. 39 .. 42 .. 32 
.. 35 .. 39 .. 42 .. 32 .. 35 .. 39 .. 42 .. 32 .. 35 .. 39 .. 42 .. 32 .. 35 .. 39 .. 42 
.. 32 .. 35 .. 39 .. 42 .. 32 .. 35 .. 39 .. 42 .. 32 .. 35 .. 39 .. 42 .. 32 .. 35 .. 39 
.. 42 .. 32 .. 35 .. 34 .. 37 .. 41 .. 44 .. 34 .. 37 .. 41 .. 44 .. 34 .. 37 .. 41 .. 44 
.. 34 .. 37 .. 41 .. 44 .. 34 .. 37 .. 41 .. 44 .. 34 .. 39 .. 42 .. 46 .. 49 .. 39 .. 42 
.. 46 .. 49 .. 39 .. 42 .. 46 .. 49 .. 39 .. 42 .. 46 .. 49 .. 39 .. 42 .. 46 .. 49 .. 39 
.. 42 .. 46 .. 49 .. 39 .. 42 .. 46 .. 49 .. 39 .. 42 .. 46 .. 49 .. 39 .. 42 .. 46 .. 34 
.. 37 .. 41 .. 44 .. 34 .. 37 .. 41 .. 44 .. 34 .. 37 .. 41 .. 44 .. 34 .. 37 .. 32 .. 35 
.. 39 .. 42 .. 32 .. 35 .. 39 .. 42 .. 32 .. 35 .. 39 .. 42 .. 32 .. 35 .. 39 .. 42 .. 32 
.. 35 .. 39 .. 42 .. 32 .. 35 .. 39 .. 42 .. 32 .. 35 .. 39 .. 42 .. 32 .. 35 .. 39 .. 42 
.. 32 .. 35 .. 39 .. 42 .. 32 .. 35 .. 39 .. 42 .. 32 .. 35 .. 34 .. 37 .. 41 .. 44 .. 34 
.. 37 .. 41 .. 44 .. 34 .. 37 .. 41 .. 44 .. 34 .. 37 .. 41 .. 44 .. 34 .. 37 .. 41 .. 44 
.. 34 .. 39 .. 42 .. 46 .. 49 .. 39 .. 42 .. 46 .. 49 .. 39 .. 42 .. 46 .. 49 .. 39 .. 42 
.. 46 .. 49 .. 39 .. 42 .. 46 .. 49 .. 39 .. 42 .. 46 .. 49 .. 39 .. 42 .. 46 .. 49 .. 39 
.. 42 .. 46 .. 49 .. 39 .. 42 .. 46 .. 34 .. 37 .. 41 .. 44 .. 34 .. 37 .. 41 .. 44 .. 34 
.. 37 .. 41 .. 44 .. 34 .. 37 .. 32 .. 35 .. 39 .. 42 .. 32 .. 35 .. 39 .. 42 .. 32 .. 35 
.. 39 .. 42 .. 32 .. 35 .. 39 .. 42 .. 32 .. 35 .. 39 .. 42 .. 32 .. 35 .. 39 .. 42 .. 32 
.. 35 .. 39 .. 42 .. 32 .. 35 .. 39 .. 42 .. 32 .. 35 .. 39 .. 42 .. 32 .. 35 .. 39 .. 42 
.. 32 .. 35 .. 34 .. 37 .. 41 .. 44 .. 34 .. 37 .. 41 .. 44 .. 34 .. 37 .. 41 .. 44 .. 34 
.. 37 .. 41 .. 44 .. 34 .. 37 .. 41 .. 44 .. 34 .. .. .. 37 .. 41 .. 44 .. 34 .. 37 .. 41 
.. 44 .. 34 .. 37 .. 41 .. 44 .. 34 .. 37 .. 41 .. 44 .. 34 .. 37 .. 41 .. 44 .. 34 .. 37 
.. 41 .. 44 .. 34 .. 37 .. 41 .. 44 .. 34 .. 37 .. 41 .. 44 .. 34 .. 37 .. 41 .. 34 .. 37 
.. 41 .. 44 .. 34 .. 37 .. 41 .. 44 .. 34 .. 37 .. 41 .. 44 .. 34 .. 37 .. 32 .. 35 .. 39 
.. 42 .. 32 .. 35 .. 39 .. 42 .. 32 .. 35 .. 39 .. 42 .. 32 .. 35 .. 39 .. 42 .. 32 .. 35 
.. 39 .. 42 .. 32 .. 35 .. 39 .. 42 .. 32 .. 35 .. 39 .. 42 .. 32 .. 35 .. 39 .. 42 .. 32 
.. 35 .. 39 .. 42 .. 32 .. 35 .. 39 .. 42 .. 32 .. 35 .. 34 .. 37 .. 41 .. 44 .. 34 .. 37 
.. 41 .. 44 .. 34 .. 37 .. 41 .. 44 .. 34 .. 37 .. 41 .. 44 .. 34 .. 37 .. 41 .. 44 .. 34 
.. .. .. 37 .. 41 .. 44 .. 34 .. 37 .. 41 .. 44 .. 34 .. 37 .. 41 .. 44 .. 34 .. 37 .. 41 
.. 44 .. 34 .. 37 .. 41 .. 44 .. 34 .. 37 .. 41 .. 44 .. 34 .. 37 .. 41 .. 44 .. 34 .. 37 
.. 41 .. 44 .. 34 .. 37 .. 41 .. 34 .. 37 .. 41 .. 44 .. 34 .. 37 .. 41 .. 44 .. 34 .. 37 
.. 41 .. 44 .. 34 .. 37 .. 32 .. 35 .. 39 .. 42 .. 32 .. 35 .. 39 .. 42 .. 32 .. 35 .. 39 
.. 42 .. 32 .. 35 .. 39 .. 42 .. 32 .. 35 .. 39 .. 42 .. 32 .. 35 .. 39 .. 42 .. 32 .. 35 
.. 39 .. 42 .. 32 .. 35 .. 39 .. 42 .. 32 .. 35 .. 39 .. 42 .. 32 .. 35 .. 39 .. 42 .. 32 
.. 35 .. 34 .. 37 .. 41 .. 44 .. 34 .. 37 .. 41 .. 44 .. 34 .. 37 .. 41 .. 44 .. 34 .. 37 
.. 41 .. 44 .. 34 .. 37 .. 41 .. 44 .. 34 .. .. .. 37 .. 41 .. 44 .. 34 .. 37 .. 41 .. 44 
.. 34 .. 37 .. 41 .. 44 .. 34 .. 37 .. 41 .. 44 .. 34 .. 37 .. 41 .. 44 .. 34 .. 37 .. 41 
.. 44 .. 34 .. 37 .. 41 .. 44 .. 34 .. 37 .. 41 .. 44 .. 34 .. 37 .. 41 .. 34 .. 37 .. 41 
.. 44 .. 34 .. 37 .. 41 .. 44 .. 34 .. 37 .. 41 .. 44 .. 34 .. 37 .. 32 .. 35 .. 39 .. 42 
.. 32 .. 35 .. 39 .. 42 .. 32 .. 35 .. 39 .. 42 .. 32 .. 35 .. 39 .. 42 .. 32 .. 35 .. 39 
.. 42 .. 32 .. 35 .. 39 .. 42 .. 32 .. 35 .. 39 .. 42 .. 32 .. 35 .. 39 .. 42 .. 32 .. 35 
.. 39 .. 42 .. 32 .. 35 .. 39 .. 42 .. 32 .. 35 .. 34 .. 37 .. 41 .. 44 .. 34 .. 37 .. 41 
.. 44 .. 34 .. 37 .. 41 .. 44 .. 34 .. 37 .. 41 .. 44 .. 34 .. 37 .. 41 .. 44 .. 34 .. .. 
.. 37 .. 41 .. 44 .. 34 .. 37 .. 41 .. 44 .. 34 .. 37 .. 41 .. 44 .. 34 .. 37 .. 41 .. 44 
.. 34 .. 37 .. 41 .. 44 .. 34 .. 37 .. 41 .. 44 .. 34 .. 37 .. 41 .. 44 .. 34 .. 37 .. 41 
.. 44 .. 34 .. 37 .. 41 .. 34 .. 37 .. 41 .. 44 .. 34 .. 37 .. 41 .. 44 .. 34 .. 37 .. 41 
.. 44 .. 34 .. 37 .. 32 .. 35 .. 39 .. 42 .. 32 .. 35 .. 39 .. 42 .. 32 .. 35 .. 39 .. 42 
.. 32 .. 35 .. 39 .. 42 .. 32 .. 35 .. 39 .. 42 .. 32 .. 35 .. 39 .. 42 .. 32 .. 35 .. 39 
.. 42 .. 32 .. 35 .. 39 .. 42 .. 32 .. 35 .. 39 .. 42 .. 32 .. 35 .. 39 .. 42 .. 32 .. 35 
.. 34 .. 37 .. 41 .. 44 .. 34 .. 37 .. 41 .. 44 .. 34 .. 37 .. 41 .. 44 .. 34 .. 37 .. 41 
.. 44 .. 34 .. 37 .. 41 .. 44 .. 34 .. 39 .. 42 .. 46 .. 49 .. 39 .. 42 .. 46 .. 49 .. 39 
.. 42 .. 46 .. 49 .. 39 .. 42 .. 46 .. 49 .. 39 .. 42 .. 46 .. 49 .. 39 .. 42 .. 46 .. 49 
.. 39 .. 42 .. 46 .. 49 .. 39 .. 42 .. 46 .. 49 .. 39 .. 42 .. 46 .. 34 .. 37 .. 41 .. 44 
.. 34 .. 37 .. 41 .. 44 .. 34 .. 37 .. 41 .. 44 .. 34 .. 37 .. 32 .. 35 .. 39 .. 42 .. 32 
.. 35 .. 39 .. 42 .. 32 .. 35 .. 39 .. 42 .. 32 .. 35 .. 39 .. 42 .. 32 .. 35 .. 39 .. 42 
.. 32 .. 35 .. 39 .. 42 .. 32 .. 35 .. 39 .. 42 .. 32 .. 35 .. 39 .. 42 .. 32 .. 35 .. 39 
.. 42 .. 32 .. 35 .. 39 .. 42 .. 32 .. 35 .. 34 .. 37 .. 41 .. 44 .. 34 .. 37 .. 41 .. 44 
.. 34 .. 37 .. 41 .. 44 .. 34 .. 37 .. 41 .. 44 .. 34 .. 37 .. 41 .. 44 .. 34 .. 39 .. 42 
.. 46 .. 49 .. 39 .. 42 .. 46 .. 49 .. 39 .. 42 .. 46 .. 49 .. 39 .. 42 .. 46 .. 49 .. 39 
.. 42 .. 46 .. 49 .. 39 .. 42 .. 46 .. 49 .. 39 .. 42 .. 46 .. 49 .. 39 .. 42 .. 46 .. 49 
.. 39 .. 42 .. 46 .. 34 .. 37 .. 41 .. 44 .. 34 .. 37 .. 41 .. 44 .. 34 .. 37 .. 41 .. 44 
.. 34 .. 37 .. 32 .. 35 .. 39 .. 42 .. 32 .. 35 .. 39 .. 42 .. 32 .. 35 .. 39 .. 42 .. 32 
.. 35 .. 39 .. 42 .. 32 .. 35 .. 39 .. 42 .. 32 .. 35 .. 39 .. 42 .. 32 .. 35 .. 39 .. 42 
.. 32 .. 35 .. 39 .. 42 .. 32 .. 35 .. 39 .. 42 .. 32 .. 35 .. 39 .. 42 .. 32 .. 35 .. 34 
.. 37 .. 41 .. 44 .. 34 .. 37 .. 41 .. 44 .. 34 .. 37 .. 41 .. 44 .. 34 .. 37 .. 41 .. 44 
.. 34 .. 37 .. 41 .. 44 .. 34 .. 39 .. 42 .. 46 .. 49 .. 39 .. 42 .. 46 .. 49 .. 39 .. 42 
.. 46 .. 49 .. 39 .. 42 .. 46 .. 49 .. 39 .. 42 .. 46 .. 49 .. 39 .. 42 .. 46 .. 49 .. 39 
.. 42 .. 46 .. 49 .. 39 .. 42 .. 46 .. 49 .. 39 .. 42 .. 46 .. 34 .. 37 .. 41 .. 44 .. 34 
.. 37 .. 41 .. 44 .. 34 .. 37 .. 41 .. 44 .. 34 .. 37 .. 32 .. 35 .. 39 .. 42 .. 32 .. 35 
.. 39 .. 42 .. 32 .. 35 .. 39 .. 42 .. 32 .. 35 .. 39 .. 42 .. 32 .. 35 .. 39 .. 42 .. 32 
.. 35 .. 39 .. 42 .. 32 .. 35 .. 39 .. 42 .. 32 .. 35 .. 39 .. 42 .. 32 .. 35 .. 39 .. 42 
.. 32 .. 35 .. 39 .. 42 .. 32 .. 35 .. 34 .. 37 .. 41 .. 44 .. 34 .. 37 .. 41 .. 44 .. 34 
.. 37 .. 41 .. 44 .. 34 .. 37 .. 41 .. 44 .. 34 .. 37 .. 41 .. 44 .. 34 .. 39 .. 42 .. 46 
.. 49 .. 39 .. 42 .. 46 .. 49 .. 39 .. 42 .. 46 .. 49 .. 39 .. 42 .. 46 .. 49 .. 39 .. 42 
.. 46 .. 49 .. 39 .. 42 .. 46 .. 49 .. 39 .. 42 .. 46 .. 49 .. 39 .. 42 .. 46 .. 49 .. 39 
.. 42 .. 46 .. 34 .. 37 .. 41 .. 44 .. 34 .. 37 .. 41 .. 44 .. 34 .. 37 .. 41 .. 44 .. 34 
.. 37 .. 32 .. 35 .. 39 .. 42 .. 32 .. 35 .. 39 .. 42 .. 32 .. 35 .. 39 .. 42 .. 32 .. 35 
.. 39 .. 42 .. 32 .. 35 .. 39 .. 42 .. 32 .. 35 .. 39 .. 42 .. 32 .. 35 .. 39 .. 42 .. 32 
.. 35 .. 39 .. 42 .. 32 .. 35 .. 39 .. 42 .. 32 .. 35 .. 39 .. 42 .. 32 .. 35 .. 34 .. 37 
.. 41 .. 44 .. 34 .. 37 .. 41 .. 44 .. 34 .. 37 .. 41 .. 44 .. 34 .. 37 .. 41 .. 44 .. 34 
.. 37 .. 41 .. 44 .. 34 .. 39 .. 42 .. 46 .. 49 .. 39 .. 42 .. 46 .. 49 .. 39 .. 42 .. 46 
.. 49 .. 39 .. 42 .. 46 .. 49 .. 39 .. 42 .. 46 .. 49 .. 39 .. 42 .. 46 .. 49 .. 39 .. 42 
.. 46 .. 49 .. 39 .. 42 .. 46 .. 49 .. 39 .. 42 .. 46 .. 34 .. 37 .. 41 .. 44 .. 34 .. 37 
.. 41 .. 44 .. 34 .. 37 .. 41 .. 44 .. 34 .. 37 .. 32 .. 35 .. 39 .. 42 .. 32 .. 35 .. 39 
.. 42 .. 32 .. 35 .. 39 .. 42 .. 32 .. 35 .. 39 .. 42 .. 32 .. 35 .. 39 .. 42 .. 32 .. 35 
.. 39 .. 42 .. 32 .. 35 .. 39 .. 42 .. 32 .. 35 .. 39 .. 42 .. 32 .. 35 .. 39 .. 42 .. 32 
.. 35 .. 39 .. 42 .. 32 .. 35 .. 34 .. 37 .. 41 .. 44 .. 34 .. 37 .. 41 .. 44 .. 34 .. 37 
.. 41 .. 44 .. 34 .. 37 .. 41 .. 44 .. 34 .. 37 .. 41 .. 44 .. 34 .. 39 .. 42 .. 46 .. 49 
.. 39 .. 42 .. 46 .. 49 .. 39 .. 42 .. 46 .. 49 .. 39 .. 42 .. 46 .. 49 .. 39 .. 42 .. 46 
.. 49 .. 39 .. 42 .. 46 .. 49 .. 39 .. 42 .. 46 .. 49 .. 39 .. 42 .. 46 .. 49 .. 39 .. 42 
.. 46 .. 34 .. 37 .. 41 .. 44 .. 34 .. 37 .. 41 .. 44 .. 34 .. 37 .. 41 .. 44 .. 34 .. 37 
.. 32 .. 35 .. 39 .. 42 .. 32 .. 35 .. 39 .. 42 .. 32 .. 35 .. 39 .. 42 .. 32 .. 35 .. 39 
.. 42 .. 32 .. 35 .. 39 .. 42 .. 32 .. 35 .. 39 .. 42 .. 32 .. 35 .. 39 .. 42 .. 32 .. 35 
.. 39 .. 42 .. 32 .. 35 .. 39 .. 42 .. 32 .. 35 .. 39 .. 42 .. 32 .. 35 .. 34 .. 37 .. 41 
.. 44 .. 34 .. 37 .. 41 .. 44 .. 34 .. 37 .. 41 .. 44 .. 34 .. 37 .. 41 .. 44 .. 34 .. 37 
.. 41 .. 44 .. 34 .. 39 .. 42 .. 46 .. 49 .. 39 .. 42 .. 46 .. 49 .. 39 .. 42 .. 46 .. 49 
.. 39 .. 42 .. 46 .. 49 .. 39 .. 42 .. 46 .. 49 .. 39 .. 42 .. 46 .. 49 .. 39 .. 42 .. 46 
.. 49 .. 39 .. 42 .. 46 .. 49 .. 39 .. 42 .. 46 .. 34 .. 37 .. 41 .. 44 .. 34 .. 37 .. 41 
.. 44 .. 34 .. 37 .. 41 .. 44 .. 34 .. 37 .. 32 .. 35 .. 39 .. 42 .. 32 .. 35 .. 39 .. 42 
.. 32 .. 35 .. 39 .. 42 .. 32 .. 35 .. 39 .. 42 .. 32 .. 35 .. 39 .. 42 .. 32 .. 35 .. 39 
.. 42 .. 32 .. 35 .. 39 .. 42 .. 32 .. 35 .. 39 .. 42 .. 32 .. 35 .. 39 .. 42 .. 32 .. 35 
.. 39 .. 42 .. 32 .. 35 .. 34 .. 37 .. 41 .. 44 .. 34 .. 37 .. 41 .. 44 .. 34 .. 37 .. 41 
.. 44 .. 34 .. 37 .. 41 .. 44 .. 34 .. 37 .. 41 .. 44 .. 34 .. 39 .. 42 .. 46 .. 49 .. 39 
.. 42 .. 46 .. 49 .. 39 .. 42 .. 46 .. 49 .. 39 .. 42 .. 46 .. 49 .. 39 .. 42 .. 46 .. 49 
.. 39 .. 42 .. 46 .. 49 .. 39 .. 42 .. 46 .. 49 .. 39 .. 42 .. 46 .. 49 .. 39 .. 42 .. 46 
.. 34 .. 37 .. 41 .. 44 .. 34 .. 37 .. 41 .. 44 .. 34 .. 37 .. 41 .. 44 .. 34 .. 37 .. 32 
.. 35 .. 39 .. 42 .. 32 .. 35 .. 39 .. 42 .. 32 .. 35 .. 39 .. 42 .. 32 .. 35 .. 39 .. 42 
.. 32 .. 35 .. 39 .. 42 .. 32 .. 35 .. 39 .. 42 .. 32 .. 35 .. 39 .. 42 .. 32 .. 35 .. 39 
.. 42 .. 32 .. 35 .. 39 .. 42 .. 32 .. 35 .. 39 .. 42 .. 32 .. 35 .. 34 .. 37 .. 41 .. 44 
.. 34 .. 37 .. 41 .. 44 .. 34 .. 37 .. 41 .. 44 .. 34 .. 37 .. 41 .. 44 .. 34 .. 37 .. 41 
.. 44 .. 34 .. 39 .. 42 .. 46 .. 49 .. 39 .. 42 .. 46 .. 49 .. 39 .. 42 .. 46 .. 49 .. 39 
.. 42 .. 46 .. 49 .. 39 .. 42 .. 46 .. 49 .. 39 .. 42 .. 46 .. 49 .. 39 .. 42 .. 46 .. 49 
.. 39 .. 42 .. 46 .. 49 .. 39 .. 42 .. 46 .. 34 .. 37 .. 41 .. 44 .. 34 .. 37 .. 41 .. 44 
.. 34 .. 37 .. 41 .. 44 .. 34 .. 37 .. 32 .. 35 .. 39 .. 42 .. 32 .. 35 .. 39 .. 42 .. 32 
.. 35 .. 39 .. 42 .. 32 .. 35 .. 39 .. 42 .. 32 .. 35 .. 39 .. 42 .. 32 .. 35 .. 39 .. 42 
.. 32 .. 35 .. 39 .. 42 .. 32 .. 35 .. 39 .. 42 .. 32 .. 35 .. 39 .. 42 .. 32 .. 35 .. 39 
.. 42 .. 32 .. 35 .. 34 .. 37 .. 41 .. 44 .. 34 .. 37 .. 41 .. 44 .. 34 .. 37 .. 41 .. 44 
.. 34 .. 37 .. 41 .. 44 .. 34 .. 37 .. 41 .. 44 .. 34 .. 39 .. 42 .. 46 .. 49 .. 39 .. 42 
.. 46 .. 49 .. 39 .. 42 .. 46 .. 49 .. 39 .. 42 .. 46 .. 49 .. 39 .. 42 .. 46 .. 49 .. 39 
.. 42 .. 46 .. 49 .. 39 .. 42 .. 46 .. 49 .. 39 .. 42 .. 46 .. 49 .. 39 .. 42 .. 46 .. 34 
.. 37 .. 41 .. 44 .. 34 .. 37 .. 41 .. 44 .. 34 .. 37 .. 41 .. 44 .. 34 .. 37 .. 32 .. 35 
.. 39 .. 42 .. 32 .. 35 .. 39 .. 42 .. 32 .. 35 .. 39 .. 42 .. 32 .. 35 .. 39 .. 42 .. 32 
.. 35 .. 39 .. 42 .. 32 .. 35 .. 39 .. 42 .. 32 .. 35 .. 39 .. 42 .. 32 .. 35 .. 39 .. 42 
.. 32 .. 35 .. 39 .. 42 .. 32 .. 35 .. 39 .. 42 .. 32 .. 35 .. 34 .. 37 .. 41 .. 44 .. 34 
.. 37 .. 41 .. 44 .. 34 .. 37 .. 41 .. 44 .. 34 .. 37 .. 41 .. 44 .. 34 .. 37 .. 41 .. 44 
.. 34 .. 39 .. 42 .. 46 .. 49 .. 39 .. 42 .. 46 .. 49 .. 39 .. 42 .. 46 .. 49 .. 39 .. 42 
.. 46 .. 49 .. 39 .. 42 .. 46 .. 49 .. 39 .. 42 .. 46 .. 49 .. 39 .. 42 .. 46 .. 49 .. 39 
.. 42 .. 46 .. 49 .. 39 .. 42 .. 46 .. 34 .. 37 .. 41 .. 44 .. 34 .. 37 .. 41 .. 44 .. 34 
.. 37 .. 41 .. 44 .. 34 .. 37 .. 32 .. 35 .. 39 .. 42 .. 32 .. 35 .. 39 .. 42 .. 32 .. 35 
.. 39 .. 42 .. 32 .. 35 .. 39 .. 42 .. 32 .. 35 .. 39 .. 42 .. 32 .. 35 .. 39 .. 42 .. 32 
.. 35 .. 39 .. 42 .. 32 .. 35 .. 39 .. 42 .. 32 .. 35 .. 39 .. 42 .. 32 .. 35 .. 39 .. 42 
.. 32 .. 35 .. 34 .. 37 .. 41 .. 44 .. 34 .. 37 .. 41 .. 44 .. 34 .. 37 .. 41 .. 44 .. 34 
.. 37 .. 41 .. 44 .. 34 .. 37 .. 41 .. 44 .. 34 .. 39 .. 42 .. 46 .. 49 .. 39 .. 42 .. 46 
.. 49 .. 39 .. 42 .. 46 .. 49 .. 39 .. 42 .. 46 .. 49 .. 39 .. 42 .. 46 .. 49 .. 39 .. 42 
.. 46 .. 49 .. 39 .. 42 .. 46 .. 49 .. 39 .. 42 .. 46 .. 49 .. 39 .. 42 .. 46 .. 34 .. 37 
.. 41 .. 44 .. 34 .. 37 .. 41 .. 44 .. 34 .. 37 .. 41 .. 44 .. 34 .. 37 .. 32 .. 35 .. 39 
.. 42 .. 32 .. 35 .. 39 .. 42 .. 32 .. 35 .. 39 .. 42 .. 32 .. 35 .. 39 .. 42 .. 32 .. 35 
.. 39 .. 42 .. 32 .. 35 .. 39 .. 42 .. 32 .. 35 .. 39 .. 42 .. 32 .. 35 .. 39 .. 42 .. 32 
.. 35 .. 39 .. 42 .. 32 .. 35 .. 39 .. 42 .. 32 .. 35 .. 34 .. 37 .. 41 .. 44 .. 34 .. 37 
.. 41 .. 44 .. 34 .. 37 .. 41 .. 44 .. 34 .. 37 .. 41 .. 44 .. 34 .. 37 .. 41 .. 44 .. 34 
.. 39 .. 42 .. 46 .. 49 .. 39 .. 42 .. 46 .. 49 .. 39 .. 42 .. 46 .. 49 .. 39 .. 42 .. 46 
.. 49 .. 39 .. 42 .. 46 .. 49 .. 39 .. 42 .. 46 .. 49 .. 39 .. 42 .. 46 .. 49 .. 39 .. 42 
.. 46 .. 49 .. 39 .. 42 .. 46 .. 34 .. 37 .. 41 .. 44 .. 34 .. 37 .. 41 .. 44 .. 34 .. 37 
.. 41 .. 44 .. 34 .. 37 .. 32 .. 35 .. 39 .. 42 .. 32 .. 35 .. 39 .. 42 .. 32 .. 35 .. 39 
.. 42 .. 32 .. 35 .. 39 .. 42 .. 32 .. 35 .. 39 .. 42 .. 32 .. 35 .. 39 .. 42 .. 32 .. 35 
.. 39 .. 42 .. 32 .. 35 .. 39 .. 42 .. 32 .. 35 .. 39 .. 42 .. 32 .. 35 .. 39 .. 42 .. 32 
.. 35 .. 34 .. 37 .. 41 .. 44 .. 34 .. 37 .. 41 .. 44 .. 34 .. 37 .. 41 .. 44 .. 34 .. 37 
.. 41 .. 44 .. 34 .. 37 .. 41 .. 44 .. 34 .. 39 .. 42 .. 46 .. 49 .. 39 .. 42 .. 46 .. 49 
.. 39 .. 42 .. 46 .. 49 .. 39 .. 42 .. 46 .. 49 .. 39 .. 42 .. 46 .. 49 .. 39 .. 42 .. 46 
.. 49 .. 39 .. 42 .. 46 .. 49 .. 39 .. 42 .. 46 .. 49 .. 39 .. 42 .. 46 .. 34 .. 37 .. 41 
.. 44 .. 34 .. 37 .. 41 .. 44 .. 34 .. 37 .. 41 .. 44 .. 34 .. 37 .. 32 .. 35 .. 39 .. 42 
.. 32 .. 35 .. 39 .. 42 .. 32 .. 35 .. 39 .. 42 .. 32 .. 35 .. 39 .. 42 .. 32 .. 35 .. 39 
.. 42 .. 32 .. 35 .. 39 .. 42 .. 32 .. 35 .. 39 .. 42 .. 32 .. 35 .. 39 .. 42 .. 32 .. 35 
.. 39 .. 42 .. 32 .. 35 .. 39 .. 42 .. 32 .. 35 .. 34 .. 37 .. 41 .. 44 .. 34 .. 37 .. 41 
.. 44 .. 34 .. 37 .. 41 .. 44 .. 34 .. 37 .. 41 .. 44 .. 34 .. 37 .. 41 .. 44 .. 34 
! Song 2
146 51 .. 39 .. 51 .. 39 .. .. .. .. .. .. .. .. .. .. .. .. .. .. .. .. .. .. .. .. .. 43 
46 50 53 43 46 50 53 43 46 50 53 43 46 50 53 43 46 50 53 43 46 50 53 43 46 50 53 51 .. 39 
.. 51 .. 39 .. .. .. .. .. .. .. 43 46 50 53 43 46 50 53 43 46 50 53 43 46 50 53 43 46 50 
53 43 46 50 53 43 46 50 53 49 .. 37 .. 49 .. 37 .. .. .. .. .. .. .. .. .. .. .. .. .. .. 
.. .. .. .. .. .. .. 41 44 48 51 41 44 48 51 41 44 48 51 41 44 48 51 41 44 48 51 41 44 48 
51 41 44 48 51 49 .. 37 .. 49 .. 37 .. .. .. .. .. .. .. 49 .. 37 .. 49 .. 37 .. .. .. .. 
.. .. .. .. .. .. .. .. .. .. .. .. .. .. .. .. .. 41 44 48 51 41 44 48 51 41 44 48 51 41 
44 48 51 41 44 48 51 41 44 48 51 41 44 48 51 .. .. 39 .. 51 .. 39 .. .. .. .. .. .. .. .. 
.. .. .. .. .. .. .. .. .. .. .. .. .. 43 46 50 53 43 46 50 53 43 46 50 53 43 46 50 53 43 
46 50 53 43 46 50 53 43 46 50 53 51 .. 39 .. 51 .. 39 .. .. .. .. .. .. .. 43 46 50 53 43 
46 50 53 43 46 50 53 43 46 50 53 43 46 50 53 43 46 50 53 43 46 50 53 49 .. 37 .. 49 .. 37 
.. .. .. .. .. .. .. .. .. .. .. .. .. .. .. .. .. .. .. .. .. 41 44 48 51 41 44 48 51 41 
44 48 51 41 44 48 51 41 44 48 51 41 44 48 51 41 44 48 51 49 .. 37 .. 49 .. 37 .. .. .. .. 
.. .. .. 49 .. 37 .. 49 .. 37 .. .. .. .. .. .. .. .. .. .. .. .. .. .. .. .. .. .. .. .. 
.. 41 44 48 51 41 44 48 51 41 44 48 51 41 44 48 51 41 44 48 51 41 44 48 51 41 44 48 51 .. 
.. 39 .. 51 .. 39 .. .. .. .. .. .. .. .. .. .. .. .. .. .. .. .. .. .. .. .. .. 43 46 50 
53 43 46 50 53 43 46 50 53 43 46 50 53 43 46 50 53 43 46 50 53 43 46 50 53 51 .. 39 .. 51 
.. 39 .. .. .. .. .. .. .. 43 46 50 53 43 46 50 53 43 46 50 53 43 46 50 53 43 46 50 53 43 
46 50 53 43 46 50 53 49 .. 37 .. 49 .. 37 .. .. .. .. .. .. .. .. .. .. .. .. .. .. .. .. 
.. .. .. .. .. 41 44 48 51 41 44 48 51 41 44 48 51 41 44 48 51 41 44 48 51 41 44 48 51 41 
44 48 51 49 .. 37 .. 49 .. 37 .. .. .. .. .. .. .. 49 .. 37 .. 49 .. 37 .. .. .. .. .. .. 
.. .. .. .. .. .. .. .. .. .. .. .. .. .. .. 41 44 48 51 41 44 48 51 41 44 48 51 41 44 48 
51 41 44 48 51 41 44 48 51 41 44 48 51 .. .. 39 .. 51 .. 39 .. .. .. .. .. .. .. .. .. .. 
.. .. .. .. .. .. .. .. .. .. .. 43 46 50 53 43 46 50 53 43 46 50 53 43 46 50 53 43 46 50 
53 43 46 50 53 43 46 50 53 51 .. 39 .. 51 .. 39 .. .. .. .. .. .. .. 43 46 50 53 43 46 50 
53 43 46 50 53 43 46 50 53 43 46 50 53 43 46 50 53 43 46 50 53 49 .. 37 .. 49 .. 37 .. .. 
.. .. .. .. .. .. .. .. .. .. .. .. .. .. .. .. .. .. .. 41 44 48 51 41 44 48 51 41 44 48 
51 41 44 48 51 41 44 48 51 41 44 48 51 41 44 48 51 49 .. 37 .. 49 .. 37 .. .. .. .. .. .. 
.. 49 .. 37 .. 49 .. 37 .. .. .. .. .. .. .. .. .. .. .. .. .. .. .. .. .. .. .. .. .. 41 
44 48 51 41 44 48 51 41 44 48 51 41 44 48 51 41 44 48 51 41 44 48 51 41 44 48 51 .. .. 39 
.. 51 .. 39 .. .. .. .. .. .. .. .. .. .. .. .. .. .. .. .. .. .. .. .. .. 43 46 50 53 43 
46 50 53 43 46 50 53 43 46 50 53 43 46 50 53 43 46 50 53 43 46 50 53 51 .. 39 .. 51 .. 39 
.. .. .. .. .. .. .. 43 46 50 53 43 46 50 53 43 46 50 53 43 46 50 53 43 46 50 53 43 46 50 
53 43 46 50 53 49 .. 37 .. 49 .. 37 .. .. .. .. .. .. .. .. .. .. .. .. .. .. .. .. .. .. 
.. .. .. 41 44 48 51 41 44 48 51 41 44 48 51 41 44 48 51 41 44 48 51 41 44 48 51 41 44 48 
51 49 .. 37 .. 49 .. 37 .. .. .. .. .. .. .. 49 .. 37 .. 49 .. 37 .. .. .. .. .. .. .. .. 
.. .. .. .. .. .. .. .. .. .. .. .. .. 41 44 48 51 41 44 48 51 41 44 48 51 41 44 48 51 41 
44 48 51 41 44 48 51 41 44 48 51 .. .. 39 .. 51 .. 39 .. .. .. .. .. .. .. .. .. .. .. .. 
.. .. .. .. .. .. .. .. .. 43 46 50 53 43 46 50 53 43 46 50 53 43 46 50 53 43 46 50 53 43 
46 50 53 43 46 50 53 51 .. 39 .. 51 .. 39 .. .. .. .. .. .. .. 43 46 50 53 43 46 50 53 43 
46 50 53 43 46 50 53 43 46 50 53 43 46 50 53 43 46 50 53 49 .. 37 .. 49 .. 37 .. .. .. .. 
.. .. .. .. .. .. .. .. .. .. .. .. .. .. .. .. .. 41 44 48 51 41 44 48 51 41 44 48 51 41 
44 48 51 41 44 48 51 41 44 48 51 41 44 48 51 49 .. 37 .. 49 .. 37 .. .. .. .. .. .. .. 49 
.. 37 .. 49 .. 37 .. .. .. .. .. .. .. .. .. .. .. .. .. .. .. .. .. .. .. .. .. 41 44 48 
51 41 44 48 51 41 44 48 51 41 44 48 51 41 44 48 51 41 44 48 51 41 44 48 51 53 .. 41 .. 53 
.. 41 .. .. .. .. .. .. .. .. .. .. .. .. .. .. .. .. .. .. .. .. .. 45 48 52 55 45 48 52 
55 45 48 52 55 45 48 52 55 45 48 52 55 45 48 52 55 45 48 52 55 53 .. 41 .. 53 .. 41 .. .. 
.. .. .. .. .. 45 48 52 55 45 48 52 55 45 48 52 55 45 48 52 55 45 48 52 55 45 48 52 55 45 
48 52 55 51 .. 39 .. 51 .. 39 .. .. .. .. .. .. .. .. .. .. .. .. .. .. .. .. .. .. .. .. 
.. 43 46 50 53 43 46 50 53 43 46 50 53 43 46 50 53 43 46 50 53 43 46 50 53 43 46 50 53 51 
.. 39 .. 51 .. 39 .. .. .. .. .. .. .. 51 .. 39 .. 51 .. 39 .. .. .. .. .. .. .. .. .. .. 
.. .. .. .. .. .. .. .. .. .. .. 43 46 50 53 43 46 50 53 43 46 50 53 43 46 50 53 43 46 50 
53 43 46 50 53 43 46 50 53 .. .. 41 .. 53 .. 41 .. .. .. .. .. .. .. .. .. .. .. .. .. .. 
.. .. .. .. .. .. .. 45 48 52 55 45 48 52 55 45 48 52 55 45 48 52 55 45 48 52 55 45 48 52 
55 45 48 52 55 53 .. 41 .. 53 .. 41 .. .. .. .. .. .. .. 45 48 52 55 45 48 52 55 45 48 52 
55 45 48 52 55 45 48 52 55 45 48 52 55 45 48 52 55 51 .. 39 .. 51 .. 39 .. .. .. .. .. .. 
.. .. .. .. .. .. .. .. .. .. .. .. .. .. .. 43 46 50 53 43 46 50 53 43 46 50 53 43 46 50 
53 43 46 50 53 43 46 50 53 43 46 50 53 51 .. 39 .. 51 .. 39 .. .. .. .. .. .. .. 51 .. 39 
.. 51 .. 39 .. .. .. .. .. .. .. .. .. .. .. .. .. .. .. .. .. .. .. .. .. 43 46 50 53 43 
46 50 53 43 46 50 53 43 46 50 53 43 46 50 53 43 46 50 53 43 46 50 53 .. .. 41 .. 53 .. 41 
.. .. .. .. .. .. .. .. .. .. .. .. .. .. .. .. .. .. .. .. .. 45 48 52 55 45 48 52 55 45 
48 52 55 45 48 52 55 45 48 52 55 45 48 52 55 45 48 52 55 53 .. 41 .. 53 .. 41 .. .. .. .. 
.. .. .. 45 48 52 55 45 48 52 55 45 48 52 55 45 48 52 55 45 48 52 55 45 48 52 55 45 48 52 
55 51 .. 39 .. 51 .. 39 .. .. .. .. .. .. .. .. .. .. .. .. .. .. .. .. .. .. .. .. .. 43 
46 50 53 43 46 50 53 43 46 50 53 43 46 50 53 43 46 50 53 43 46 50 53 43 46 50 53 51 .. 39 
.. 51 .. 39 .. .. .. .. .. .. .. 51 .. 39 .. 51 .. 39 .. .. .. .. .. .. .. .. .. .. .. .. 
.. .. .. .. .. .. .. .. .. 43 46 50 53 43 46 50 53 43 46 50 53 43 46 50 53 43 46 50 53 43 
46 50 53 43 46 50 53 .. .. 41 .. 53 .. 41 .. .. .. .. .. .. .. .. .. .. .. .. .. .. .. .. 
.. .. .. .. .. 45 48 52 55 45 48 52 55 45 48 52 55 45 48 52 55 45 48 52 55 45 48 52 55 45 
48 52 55 53 .. 41 .. 53 .. 41 .. .. .. .. .. .. .. 45 48 52 55 45 48 52 55 45 48 52 55 45 
48 52 55 45 48 52 55 45 48 52 55 45 48 52 55 51 .. 39 .. 51 .. 39 .. .. .. .. .. .. .. .. 
.. .. .. .. .. .. .. .. .. .. .. .. .. 43 46 50 53 43 46 50 53 43 46 50 53 43 46 50 53 43 
46 50 53 43 46 50 53 43 46 50 53 51 .. 39 .. 51 .. 39 .. .. .. .. .. .. .. 51 .. 39 .. 51 
.. 39 .. .. .. .. .. .. .. .. .. .. .. .. .. .. .. .. .. .. .. .. .. 43 46 50 53 43 46 50 
53 43 46 50 53 43 46 50 53 43 46 50 53 43 46 50 53 43 46 50 53 .. .. 41 .. 53 .. 41 .. .. 
.. .. .. .. .. .. .. .. .. .. .. .. .. .. .. .. .. .. .. 45 48 52 55 45 48 52 55 45 48 52 
55 45 48 52 55 45 48 52 55 45 48 52 55 45 48 52 55 53 .. 41 .. 53 .. 41 .. .. .. .. .. .. 
.. 45 48 52 55 45 48 52 55 45 48 52 55 45 48 52 55 45 48 52 55 45 48 52 55 45 48 52 55 51 
.. 39 .. 51 .. 39 .. .. .. .. .. .. .. .. .. .. .. .. .. .. .. .. .. .. .. .. .. 43 46 50 
53 43 46 50 53 43 46 50 53 43 46 50 53 43 46 50 53 43 46 50 53 43 46 50 53 51 .. 39 .. 51 
.. 39 .. .. .. .. .. .. .. 51 .. 39 .. 51 .. 39 .. .. .. .. .. .. .. .. .. .. .. .. .. .. 
.. .. .. .. .. .. .. 43 46 50 53 43 46 50 53 43 46 50 53 43 46 50 53 43 46 50 53 43 46 50 
53 43 46 50 53 .. .. 41 .. 53 .. 41 .. .. .. .. .. .. .. .. .. .. .. .. .. .. .. .. .. .. 
.. .. .. 45 48 52 55 45 48 52 55 45 48 52 55 45 48 52 55 45 48 52 55 45 48 52 55 45 48 52 
55 53 .. 41 .. 53 .. 41 .. .. .. .. .. .. .. 45 48 52 55 45 48 52 55 45 48 52 55 45 48 52 
55 45 48 52 55 45 48 52 55 45 48 52 55 51 .. 39 .. 51 .. 39 .. .. .. .. .. .. .. .. .. .. 
.. .. .. .. .. .. .. .. .. .. .. 43 46 50 53 43 46 50 53 43 46 50 53 43 46 50 53 43 46 50 
53 43 46 50 53 43 46 50 53 51 .. 39 .. 51 .. 39 .. .. .. .. .. .. .. 51 .. 39 .. 51 .. 39 
.. .. .. .. .. .. .. .. .. .. .. .. .. .. .. .. .. .. .. .. .. 43 46 50 53 43 46 50 53 43 
46 50 53 43 46 50 53 43 46 50 53 43 46 50 53 43 46 50 53 51 .. 39 .. 51 .. 39 .. .. .. .. 
.. .. .. .. .. .. .. .. .. .. .. .. .. .. .. .. .. 43 46 50 53 43 46 50 53 43 46 50 53 43 
46 50 53 43 46 50 53 43 46 50 53 43 46 50 53 51 .. 39 .. 51 .. 39 .. .. .. .. .. .. .. 43 
46 50 53 43 46 50 53 43 46 50 53 43 46 50 53 43 46 50 53 43 46 50 53 43 46 50 53 49 .. 37 
.. 49 .. 37 .. .. .. .. .. .. .. .. .. .. .. .. .. .. .. .. .. .. .. .. .. 41 44 48 51 41 
44 48 51 41 44 48 51 41 44 48 51 41 44 48 51 41 44 48 51 41 44 48 51 49 .. 37 .. 49 .. 37 
.. .. .. .. .. .. .. 49 .. 37 .. 49 .. 37 .. .. .. .. .. .. .. .. .. .. .. .. .. .. .. .. 
.. .. .. .. .. 41 44 48 51 41 44 48 51 41 44 48 51 41 44 48 51 41 44 48 51 41 44 48 51 41 
44 48 51 .. .. 39 .. 51 .. 39 .. .. .. .. .. .. .. .. .. .. .. .. .. .. .. .. .. .. .. .. 
.. 43 46 50 53 43 46 50 53 43 46 50 53 43 46 50 53 43 46 50 53 43 46 50 53 43 46 50 53 51 
.. 39 .. 51 .. 39 .. .. .. .. .. .. .. 43 46 50 53 43 46 50 53 43 46 50 53 43 46 50 53 43 
46 50 53 43 46 50 53 43 46 50 53 49 .. 37 .. 49 .. 37 .. .. .. .. .. .. .. .. .. .. .. .. 
.. .. .. .. .. .. .. .. .. 41 44 48 51 41 44 48 51 41 44 48 51 41 44 48 51 41 44 48 51 41 
44 48 51 41 44 48 51 49 .. 37 .. 49 .. 37 .. .. .. .. .. .. .. 49 .. 37 .. 49 .. 37 .. .. 
.. .. .. .. .. .. .. .. .. .. .. .. .. .. .. .. .. .. .. 41 44 48 51 41 44 48 51 41 44 48 
51 41 44 48 51 41 44 48 51 41 44 48 51 41 44 48 51 .. .. 39 .. 51 .. 39 .. .. .. .. .. .. 
.. .. .. .. .. .. .. .. .. .. .. .. .. .. .. 43 46 50 53 43 46 50 53 43 46 50 53 43 46 50 
53 43 46 50 53 43 46 50 53 43 46 50 53 51 .. 39 .. 51 .. 39 .. .. .. .. .. .. .. 43 46 50 
53 43 46 50 53 43 46 50 53 43 46 50 53 43 46 50 53 43 46 50 53 43 46 50 53 49 .. 37 .. 49 
.. 37 .. .. .. .. .. .. .. .. .. .. .. .. .. .. .. .. .. .. .. .. .. 41 44 48 51 41 44 48 
51 41 44 48 51 41 44 48 51 41 44 48 51 41 44 48 51 41 44 48 51 49 .. 37 .. 49 .. 37 .. .. 
.. .. .. .. .. 49 .. 37 .. 49 .. 37 .. .. .. .. .. .. .. .. .. .. .. .. .. .. .. .. .. .. 
.. .. .. 41 44 48 51 41 44 48 51 41 44 48 51 41 44 48 51 41 44 48 51 41 44 48 51 41 44 48 
51 .. .. 39 .. 51 .. 39 .. .. .. .. .. .. .. .. .. .. .. .. .. .. .. .. .. .. .. .. .. 43 
46 50 53 43 46 50 53 43 46 50 53 43 46 50 53 43 46 50 53 43 46 50 53 43 46 50 53 51 .. 39 
.. 51 .. 39 .. .. .. .. .. .. .. 43 46 50 53 43 46 50 53 43 46 50 53 43 46 50 53 43 46 50 
53 43 46 50 53 43 46 50 53 49 .. 37 .. 49 .. 37 .. .. .. .. .. .. .. .. .. .. .. .. .. .. 
.. .. .. .. .. .. .. 41 44 48 51 41 44 48 51 41 44 48 51 41 44 48 51 41 44 48 51 41 44 48 
51 41 44 48 51 49 .. 37 .. 49 .. 37 .. .. .. .. .. .. .. 49 .. 37 .. 49 .. 37 .. .. .. .. 
.. .. .. .. .. .. .. .. .. .. .. .. .. .. .. .. .. 41 44 48 51 41 44 48 51 41 44 48 51 41 
44 48 51 41 44 48 51 41 44 48 51 41 44 48 51 .. .. 39 .. 51 .. 39 .. .. .. .. .. .. .. .. 
.. .. .. .. .. .. .. .. .. .. .. .. .. 43 46 50 53 43 46 50 53 43 46 50 53 43 46 50 53 43 
46 50 53 43 46 50 53 43 46 50 53 51 .. 39 .. 51 .. 39 .. .. .. .. .. .. .. 43 46 50 53 43 
46 50 53 43 46 50 53 43 46 50 53 43 46 50 53 43 46 50 53 43 46 50 53 49 .. 37 .. 49 .. 37 
.. .. .. .. .. .. .. .. .. .. .. .. .. .. .. .. .. .. .. .. .. 41 44 48 51 41 44 48 51 41 
44 48 51 41 44 48 51 41 44 48 51 41 44 48 51 41 44 48 51 49 .. 37 .. 49 .. 37 .. .. .. .. 
.. .. .. 49 .. 37 .. 49 .. 37 .. .. .. .. .. .. .. .. .. .. .. .. .. .. .. .. .. .. .. .. 
.. 41 44 48 51 41 44 48 51 41 44 48 51 41 44 48 51 41 44 48 51 41 44 48 51 41 44 48 51 .. 
.. 39 .. 51 .. 39 .. .. .. .. .. .. .. .. .. .. .. .. .. .. .. .. .. .. .. .. .. 43 46 50 
53 43 46 50 53 43 46 50 53 43 46 50 53 43 46 50 53 43 46 50 53 43 46 50 53 51 .. 39 .. 51 
.. 39 .. .. .. .. .. .. .. 43 46 50 53 43 46 50 53 43 46 50 53 43 46 50 53 43 46 50 53 43 
46 50 53 43 46 50 53 49 .. 37 .. 49 .. 37 .. .. .. .. .. .. .. .. .. .. .. .. .. .. .. .. 
.. .. .. .. .. 41 44 48 51 41 44 48 51 41 44 48 51 41 44 48 51 41 44 48 51 41 44 48 51 41 
44 48 51 49 .. 37 .. 49 .. 37 .. .. .. .. .. .. .. 49 .. 37 .. 49 .. 37 .. .. .. .. .. .. 
.. .. .. .. .. .. .. .. .. .. .. .. .. .. .. 41 44 48 51 41 44 48 51 41 44 48 51 41 44 48 
51 41 44 48 51 41 44 48 51 41 44 48 51 .. .. 39 .. 51 .. 39 .. .. .. .. .. .. .. .. .. .. 
.. .. .. .. .. .. .. .. .. .. .. 43 46 50 53 43 46 50 53 43 46 50 53 43 46 50 53 43 46 50 
53 43 46 50 53 43 46 50 53 51 .. 39 .. 51 .. 39 .. .. .. .. .. .. .. 43 46 50 53 43 46 50 
53 43 46 50 53 43 46 50 53 43 46 50 53 43 46 50 53 43 46 50 53 49 .. 37 .. 49 .. 37 .. .. 
.. .. .. .. .. .. .. .. .. .. .. .. .. .. .. .. .. .. .. 41 44 48 51 41 44 48 51 41 44 48 
51 41 44 48 51 41 44 48 51 41 44 48 51 41 44 48 51 49 .. 37 .. 49 .. 37 .. .. .. .. .. .. 
.. 49 .. 37 .. 49 .. 37 .. .. .. .. .. .. .. .. .. .. .. .. .. .. .. .. .. .. .. .. .. 41 
44 48 51 41 44 48 51 41 44 48 51 41 44 48 51 41 44 48 51 41 44 48 51 41 44 48 51 .. .. 39 
.. 51 .. 39 .. .. .. .. .. .. .. .. .. .. .. .. .. .. .. .. .. .. .. .. .. 43 46 50 53 43 
46 50 53 43 46 50 53 43 46 50 53 43 46 50 53 43 46 50 53 43 46 50 53 51 .. 39 .. 51 .. 39 
.. .. .. .. .. .. .. 43 46 50 53 43 46 50 53 43 46 50 53 43 46 50 53 43 46 50 53 43 46 50 
53 43 46 50 53 49 .. 37 .. 49 .. 37 .. .. .. .. .. .. .. .. .. .. .. .. .. .. .. .. .. .. 
.. .. .. 41 44 48 51 41 44 48 51 41 44 48 51 41 44 48 51 41 44 48 51 41 44 48 51 41 44 48 
51 49 .. 37 .. 49 .. 37 .. .. .. .. .. .. .. 49 .. 37 .. 49 .. 37 .. .. .. .. .. .. .. .. 
.. .. .. .. .. .. .. .. .. .. .. .. .. 41 44 48 51 41 44 48 51 41 44 48 51 41 44 48 51 41 
44 48 51 41 44 48 51 41 44 48 51 53 .. 41 .. 53 .. 41 .. .. .. .. .. .. .. .. .. .. .. .. 
.. .. .. .. .. .. .. .. .. 45 48 52 55 45 48 52 55 45 48 52 55 45 48 52 55 45 48 52 55 45 
48 52 55 45 48 52 55 53 .. 41 .. 53 .. 41 .. .. .. .. .. .. .. 45 48 52 55 45 48 52 55 45 
48 52 55 45 48 52 55 45 48 52 55 45 48 52 55 45 48 52 55 51 .. 39 .. 51 .. 39 .. .. .. .. 
.. .. .. .. .. .. .. .. .. .. .. .. .. .. .. .. .. 43 46 50 53 43 46 50 53 43 46 50 53 43 
46 50 53 43 46 50 53 43 46 50 53 43 46 50 53 51 .. 39 .. 51 .. 39 .. .. .. .. .. .. .. 51 
.. 39 .. 51 .. 39 .. .. .. .. .. .. .. .. .. .. .. .. .. .. .. .. .. .. .. .. .. 43 46 50 
53 43 46 50 53 43 46 50 53 43 46 50 53 43 46 50 53 43 46 50 53 43 46 50 53 .. .. 41 .. 53 
.. 41 .. .. .. .. .. .. .. .. .. .. .. .. .. .. .. .. .. .. .. .. .. 45 48 52 55 45 48 52 
55 45 48 52 55 45 48 52 55 45 48 52 55 45 48 52 55 45 48 52 55 53 .. 41 .. 53 .. 41 .. .. 
.. .. .. .. .. 45 48 52 55 45 48 52 55 45 48 52 55 45 48 52 55 45 48 52 55 45 48 52 55 45 
48 52 55 51 .. 39 .. 51 .. 39 .. .. .. .. .. .. .. .. .. .. .. .. .. .. .. .. .. .. .. .. 
.. 43 46 50 53 43 46 50 53 43 46 50 53 43 46 50 53 43 46 50 53 43 46 50 53 43 46 50 53 51 
.. 39 .. 51 .. 39 .. .. .. .. .. .. .. 51 .. 39 .. 51 .. 39 .. .. .. .. .. .. .. .. .. .. 
.. .. .. .. .. .. .. .. .. .. .. 43 46 50 53 43 46 50 53 43 46 50 53 43 46 50 53 43 46 50 
53 43 46 50 53 43 46 50 53 .. .. 41 .. 53 .. 41 .. .. .. .. .. .. .. .. .. .. .. .. .. .. 
.. .. .. .. .. .. .. 45 48 52 55 45 48 52 55 45 48 52 55 45 48 52 55 45 48 52 55 45 48 52 
55 45 48 52 55 53 .. 41 .. 53 .. 41 .. .. .. .. .. .. .. 45 48 52 55 45 48 52 55 45 48 52 
55 45 48 52 55 45 48 52 55 45 48 52 55 45 48 52 55 51 .. 39 .. 51 .. 39 .. .. .. .. .. .. 
.. .. .. .. .. .. .. .. .. .. .. .. .. .. .. 43 46 50 53 43 46 50 53 43 46 50 53 43 46 50 
53 43 46 50 53 43 46 50 53 43 46 50 53 51 .. 39 .. 51 .. 39 .. .. .. .. .. .. .. 51 .. 39 
.. 51 .. 39 .. .. .. .. .. .. .. .. .. .. .. .. .. .. .. .. .. .. .. .. .. 43 46 50 53 43 
46 50 53 43 46 50 53 43 46 50 53 43 46 50 53 43 46 50 53 43 46 50 53 .. .. 41 .. 53 .. 41 
.. .. .. .. .. .. .. .. .. .. .. .. .. .. .. .. .. .. .. .. .. 45 48 52 55 45 48 52 55 45 
48 52 55 45 48 52 55 45 48 52 55 45 48 52 55 45 48 52 55 53 .. 41 .. 53 .. 41 .. .. .. .. 
.. .. .. 45 48 52 55 45 48 52 55 45 48 52 55 45 48 52 55 45 48 52 55 45 48 52 55 45 48 52 
55 51 .. 39 .. 51 .. 39 .. .. .. .. .. .. .. .. .. .. .. .. .. .. .. .. .. .. .. .. .. 43 
46 50 53 43 46 50 53 43 46 50 53 43 46 50 53 43 46 50 53 43 46 50 53 43 46 50 53 51 .. 39 
.. 51 .. 39 .. .. .. .. .. .. .. 51 .. 39 .. 51 .. 39 .. .. .. .. .. .. .. .. .. .. .. .. 
.. .. .. .. .. .. .. .. .. 43 46 50 53 43 46 50 53 43 46 50 53 43 46 50 53 43 46 50 53 43 
46 50 53 43 46 50 53 41 .. .. .. 53 .. .. .. 41 .. .. .. 53 .. .. .. 41 .. .. .. 53 .. .. 
.. 41 .. .. .. 53 .. .. .. 41 .. .. .. 53 .. .. .. 41 .. 48 .. .. .. 60 .. .. .. 48 .. .. 
.. 60 .. .. .. 48 .. .. .. 60 .. .. .. 48 .. .. .. 60 .. .. .. 48 .. .. .. 60 .. .. .. 48 
.. .. .. 60 .. .. .. 48 .. .. .. 60 .. .. .. 44 .. .. .. 56 .. .. .. 44 .. .. .. 56 .. .. 
.. 44 .. .. .. 56 .. .. .. 44 .. .. .. 56 .. .. .. 44 .. .. .. 56 .. .. .. 44 .. .. .. 56 
.. .. .. 44 .. .. .. 56 .. .. .. 44 .. .. .. 56 .. .. .. 44 .. .. .. 56 .. 43 .. .. .. 55 
.. .. .. 43 .. .. .. 55 .. .. .. 43 .. .. .. 55 .. .. .. 43 .. .. .. 39 .. .. .. 51 .. .. 
.. 39 .. .. .. 51 .. .. .. 39 .. .. .. 51 .. .. .. 39 .. .. .. 41 .. .. .. 53 .. .. .. 41 
.. .. .. 53 .. .. .. 41 .. .. .. 53 .. .. .. 41 .. .. .. 53 .. .. .. 41 .. .. .. 53 .. .. 
.. 41 .. 48 .. .. .. 60 .. .. .. 48 .. .. .. 60 .. .. .. 48 .. .. .. 60 .. .. .. 48 .. .. 
.. 60 .. .. .. 48 .. .. .. 60 .. .. .. 48 .. .. .. 60 .. .. .. 48 .. .. .. 60 .. .. .. 44 
.. .. .. 56 .. .. .. 44 .. .. .. 56 .. .. .. 44 .. .. .. 56 .. .. .. 44 .. .. .. 56 .. .. 
.. 44 .. .. .. 56 .. .. .. 44 .. .. .. 56 .. .. .. 44 .. .. .. 56 .. .. .. 44 .. .. .. 56 
.. .. .. 44 .. .. .. 56 .. 43 .. .. .. 55 .. .. .. 43 .. .. .. 55 .. .. .. 43 .. .. .. 55 
.. .. .. 43 .. .. .. 39 .. .. .. 51 .. .. .. 39 .. .. .. 51 .. .. .. 39 .. .. .. 51 .. .. 
.. 39 .. .. .. 41 .. .. 53 .. .. 65 .. .. 41 .. .. 53 .. .. 65 .. .. 41 .. .. 53 .. .. 65 
.. .. 41 .. .. 53 .. .. 65 .. .. 41 .. .. 53 .. .. 48 .. .. 60 .. .. 72 .. .. 48 .. .. 60 
.. .. 72 .. .. 48 .. .. 60 .. .. 72 .. .. 48 .. .. 60 .. .. 72 .. .. 48 .. .. 60 .. .. 72 
.. .. 48 .. .. 60 .. .. 72 .. .. 48 .. 44 .. .. 56 .. .. 68 .. .. 44 .. .. 56 .. .. 68 .. 
.. 44 .. .. 56 .. .. 68 .. .. 44 .. .. 56 .. .. 68 .. .. 44 .. .. 56 .. .. 68 .. .. 44 .. 
.. 56 .. .. 68 .. .. 44 .. 44 .. .. 56 .. .. 68 .. .. 44 .. .. 56 .. 43 .. .. 55 .. .. 67 
.. .. 43 .. .. 55 .. .. 67 .. .. 43 .. .. 55 .. .. 67 .. .. 43 39 .. .. 51 .. .. 63 .. .. 
39 .. .. 51 .. .. 63 .. .. 39 .. .. 51 .. .. 63 .. .. 39 41 .. .. 53 .. .. 65 .. .. 41 .. 
.. 53 .. .. 65 .. .. 41 .. .. 53 .. .. 65 .. .. 41 .. .. 53 .. .. 65 .. .. 41 .. .. 53 .. 
.. 48 .. .. 60 .. .. 72 .. .. 48 .. .. 60 .. .. 72 .. .. 48 .. .. 60 .. .. 72 .. .. 48 .. 
.. 60 .. .. 72 .. .. 48 .. .. 60 .. .. 72 .. .. 48 .. .. 60 .. .. 72 .. .. 48 .. 44 .. .. 
56 .. .. 68 .. .. 44 .. .. 56 .. .. 68 .. .. 44 .. .. 56 .. .. 68 .. .. 44 .. .. 56 .. .. 
68 .. .. 44 .. .. 56 .. .. 68 .. .. 44 .. .. 56 .. .. 68 .. .. 44 .. 44 .. .. 56 .. .. 68 
.. .. 44 .. .. 56 .. 43 .. .. 55 .. .. 67 .. .. 43 .. .. 55 .. .. 67 .. .. 43 .. .. 55 .. 
.. 67 .. .. 43 39 .. .. 51 .. .. 63 .. .. 39 .. .. 51 .. .. 63 .. .. 39 .. .. 51 .. .. 63 
.. .. 39 51 .. 39 .. 51 .. 39 .. .. .. .. .. .. .. .. .. .. .. .. .. .. .. .. .. .. .. .. 
.. 43 46 50 53 43 46 50 53 43 46 50 53 43 46 50 53 43 46 50 53 43 46 50 53 43 46 50 53 51 
.. 39 .. 51 .. 39 .. .. .. .. .. .. .. 43 46 50 53 43 46 50 53 43 46 50 53 43 46 50 53 43 
46 50 53 43 46 50 53 43 46 50 53 49 .. 37 .. 49 .. 37 .. .. .. .. .. .. .. .. .. .. .. .. 
.. .. .. .. .. .. .. .. .. 41 44 48 51 41 44 48 51 41 44 48 51 41 44 48 51 41 44 48 51 41 
44 48 51 41 44 48 51 49 .. 37 .. 49 .. 37 .. .. .. .. .. .. .. 49 .. 37 .. 49 .. 37 .. .. 
.. .. .. .. .. .. .. .. .. .. .. .. .. .. .. .. .. .. .. 41 44 48 51 41 44 48 51 41 44 48 
51 41 44 48 51 41 44 48 51 41 44 48 51 41 44 48 51 .. .. 39 .. 51 .. 39 .. .. .. .. .. .. 
.. .. .. .. .. .. .. .. .. .. .. .. .. .. .. 43 46 50 53 43 46 50 53 43 46 50 53 43 46 50 
53 43 46 50 53 43 46 50 53 43 46 50 53 51 .. 39 .. 51 .. 39 .. .. .. .. .. .. .. 43 46 50 
53 43 46 50 53 43 46 50 53 43 46 50 53 43 46 50 53 43 46 50 53 43 46 50 53 49 .. 37 .. 49 
.. 37 .. .. .. .. .. .. .. .. .. .. .. .. .. .. .. .. .. .. .. .. .. 41 44 48 51 41 44 48 
51 41 44 48 51 41 44 48 51 41 44 48 51 41 44 48 51 41 44 48 51 49 .. 37 .. 49 .. 37 .. .. 
.. .. .. .. .. 49 .. 37 .. 49 .. 37 .. .. .. .. .. .. .. .. .. .. .. .. .. .. .. .. .. .. 
.. .. .. 41 44 48 51 41 44 48 51 41 44 48 51 41 44 48 51 41 44 48 51 41 44 48 51 41 44 48 
51 .. .. 39 .. 51 .. 39 .. .. .. .. .. .. .. .. .. .. .. .. .. .. .. .. .. .. .. .. .. 43 
46 50 53 43 46 50 53 43 46 50 53 43 46 50 53 43 46 50 53 43 46 50 53 43 46 50 53 51 .. 39 
.. 51 .. 39 .. .. .. .. .. .. .. 43 46 50 53 43 46 50 53 43 46 50 53 43 46 50 53 43 46 50 
53 43 46 50 53 43 46 50 53 49 .. 37 .. 49 .. 37 .. .. .. .. .. .. .. .. .. .. .. .. .. .. 
.. .. .. .. .. .. .. 41 44 48 51 41 44 48 51 41 44 48 51 41 44 48 51 41 44 48 51 41 44 48 
51 41 44 48 51 49 .. 37 .. 49 .. 37 .. .. .. .. .. .. .. 49 .. 37 .. 49 .. 37 .. .. .. .. 
.. .. .. .. .. .. .. .. .. .. .. .. .. .. .. .. .. 41 44 48 51 41 44 48 51 41 44 48 51 41 
44 48 51 41 44 48 51 41 44 48 51 41 44 48 51 .. .. 39 .. 51 .. 39 .. .. .. .. .. .. .. .. 
.. .. .. .. .. .. .. .. .. .. .. .. .. 43 46 50 53 43 46 50 53 43 46 50 53 43 46 50 53 43 
46 50 53 43 46 50 53 43 46 50 53 51 .. 39 .. 51 .. 39 .. .. .. .. .. .. .. 43 46 50 53 43 
46 50 53 43 46 50 53 43 46 50 53 43 46 50 53 43 46 50 53 43 46 50 53 49 .. 37 .. 49 .. 37 
.. .. .. .. .. .. .. .. .. .. .. .. .. .. .. .. .. .. .. .. .. 41 44 48 51 41 44 48 51 41 
44 48 51 41 44 48 51 41 44 48 51 41 44 48 51 41 44 48 51 49 .. 37 .. 49 .. 37 .. .. .. .. 
.. .. .. 49 .. 37 .. 49 .. 37 .. .. .. .. .. .. .. .. .. .. .. .. .. .. .. .. .. .. .. .. 
.. 41 44 48 51 41 44 48 51 41 44 48 51 41 44 48 51 41 44 48 51 41 44 48 51 41 44 48 
! Song 3
146 32 .. .. 36 .. .. 32 .. .. 36 .. .. 32 .. .. 36 .. .. 32 .. .. 36 .. .. 32 .. .. 36 44 
.. .. 48 .. .. 44 .. .. 48 .. .. 44 .. .. 48 .. .. 44 .. .. 48 .. .. 44 .. .. 48 43 .. .. 
46 .. .. 43 .. .. 46 .. .. 43 .. .. 46 .. .. 43 .. .. 46 .. .. 43 .. .. 46 44 .. .. 48 .. 
.. 44 .. .. 48 .. .. 44 .. .. .. .. 49 .. .. 44 .. .. 49 .. .. 44 .. .. 49 .. .. 44 .. .. 
49 .. .. 44 .. .. 49 44 .. .. 49 .. .. 44 .. .. 49 .. .. 44 .. .. 49 .. .. 44 .. .. 49 .. 
.. 44 .. .. 49 44 .. .. 49 .. .. 44 .. .. 49 .. .. 44 .. .. .. .. 48 .. .. 44 .. .. 48 .. 
.. 44 .. .. 48 .. .. 44 .. .. 48 .. .. 44 .. .. 48 43 .. .. 46 .. .. 43 .. .. 46 .. .. 43 
.. .. 46 .. .. 43 .. .. 46 .. .. 43 .. .. 46 32 .. .. 36 .. .. 32 .. .. 36 .. .. 32 .. .. 
36 .. .. 32 .. .. 36 .. .. 32 .. .. 36 44 .. .. 48 .. .. 44 .. .. 48 .. .. 44 .. .. 48 .. 
.. 44 .. .. 48 .. .. 44 .. .. 48 43 .. .. 46 .. .. 43 .. .. 46 .. .. 43 .. .. 46 .. .. 43 
.. .. 46 .. .. 43 .. .. 46 44 .. .. 48 .. .. 44 .. .. 48 .. .. 44 .. 37 .. .. 41 .. .. 37 
.. .. 41 .. .. 37 .. .. 41 .. .. 37 .. .. 41 .. .. 37 .. .. 41 37 .. .. 41 .. .. 37 .. .. 
41 .. .. 37 .. .. 41 .. .. 37 .. .. 41 .. .. 37 .. .. 41 37 .. .. 41 .. .. 37 .. .. 41 .. 
.. 37 .. 39 .. .. 43 .. .. 39 .. .. 43 .. .. 39 .. .. 43 .. .. 39 .. .. 43 .. .. 39 .. .. 
43 39 .. .. 43 .. .. 39 .. .. 43 .. .. 39 .. .. 43 .. .. 39 .. .. 43 .. .. 39 .. .. 43 32 
.. .. 36 .. .. 32 .. .. 36 .. .. 32 .. .. 36 .. .. 32 .. .. 36 .. .. 32 .. .. 36 44 .. .. 
48 .. .. 44 .. .. 48 .. .. 44 .. .. 48 .. .. 44 .. .. 48 .. .. 44 .. .. 48 43 .. .. 46 .. 
.. 43 .. .. 46 .. .. 43 .. .. 46 .. .. 43 .. .. 46 .. .. 43 .. .. 46 44 .. .. 48 .. .. 44 
.. .. 48 .. .. 44 .. .. .. .. 49 .. .. 44 .. .. 49 .. .. 44 .. .. 49 .. .. 44 .. .. 49 .. 
.. 44 .. .. 49 44 .. .. 49 .. .. 44 .. .. 49 .. .. 44 .. .. 49 .. .. 44 .. .. 49 .. .. 44 
.. .. 49 44 .. .. 49 .. .. 44 .. .. 49 .. .. 44 .. .. .. .. 48 .. .. 44 .. .. 48 .. .. 44 
.. .. 48 .. .. 44 .. .. 48 .. .. 44 .. .. 48 43 .. .. 46 .. .. 43 .. .. 46 .. .. 43 .. .. 
46 .. .. 43 .. .. 46 .. .. 43 .. .. 46 32 .. .. 36 .. .. 32 .. .. 36 .. .. 32 .. .. 36 .. 
.. 32 .. .. 36 .. .. 32 .. .. 36 44 .. .. 48 .. .. 44 .. .. 48 .. .. 44 .. .. 48 .. .. 44 
.. .. 48 .. .. 44 .. .. 48 43 .. .. 46 .. .. 43 .. .. 46 .. .. 43 .. .. 46 .. .. 43 .. .. 
46 .. .. 43 .. .. 46 44 .. .. 48 .. .. 44 .. .. 48 .. .. 44 .. 37 .. .. 41 .. .. 37 .. .. 
41 .. .. 37 .. .. 41 .. .. 37 .. .. 41 .. .. 37 .. .. 41 37 .. .. 41 .. .. 37 .. .. 41 .. 
.. 37 .. .. 41 .. .. 37 .. .. 41 .. .. 37 .. .. 41 37 .. .. 41 .. .. 37 .. .. 41 .. .. 37 
.. 39 .. .. 43 .. .. 39 .. .. 43 .. .. 39 .. .. 43 .. .. 39 .. .. 43 .. .. 39 .. .. 43 39 
.. .. 43 .. .. 39 .. .. 43 .. .. 39 .. .. 43 .. .. 39 .. .. 43 .. .. 39 .. .. 43 32 .. .. 
36 .. .. 32 .. .. 36 .. .. 32 .. .. 36 .. .. 32 .. .. 36 .. .. 32 .. .. 36 44 .. .. 48 .. 
.. 44 .. .. 48 .. .. 44 .. .. 48 .. .. 44 .. .. 48 .. .. 44 .. .. 48 43 .. .. 46 .. .. 43 
.. .. 46 .. .. 43 .. .. 46 .. .. 43 .. .. 46 .. .. 43 .. .. 46 44 .. .. 48 .. .. 44 .. .. 
48 .. .. 44 .. .. .. .. 49 .. .. 44 .. .. 49 .. .. 44 .. .. 49 .. .. 44 .. .. 49 .. .. 44 
.. .. 49 44 .. .. 49 .. .. 44 .. .. 49 .. .. 44 .. .. 49 .. .. 44 .. .. 49 .. .. 44 .. .. 
49 44 .. .. 49 .. .. 44 .. .. 49 .. .. 44 .. .. .. .. 48 .. .. 44 .. .. 48 .. .. 44 .. .. 
48 .. .. 44 .. .. 48 .. .. 44 .. .. 48 43 .. .. 46 .. .. 43 .. .. 46 .. .. 43 .. .. 46 .. 
.. 43 .. .. 46 .. .. 43 .. .. 46 32 .. .. 36 .. .. 32 .. .. 36 .. .. 32 .. .. 36 .. .. 32 
.. .. 36 .. .. 32 .. .. 36 44 .. .. 48 .. .. 44 .. .. 48 .. .. 44 .. .. 48 .. .. 44 .. .. 
48 .. .. 44 .. .. 48 43 .. .. 46 .. .. 43 .. .. 46 .. .. 43 .. .. 46 .. .. 43 .. .. 46 .. 
.. 43 .. .. 46 44 .. .. 48 .. .. 44 .. .. 48 .. .. 44 .. 37 .. .. 41 .. .. 37 .. .. 41 .. 
.. 37 .. .. 41 .. .. 37 .. .. 41 .. .. 37 .. .. 41 37 .. .. 41 .. .. 37 .. .. 41 .. .. 37 
.. .. 41 .. .. 37 .. .. 41 .. .. 37 .. .. 41 37 .. .. 41 .. .. 37 .. .. 41 .. .. 37 .. 39 
.. .. 43 .. .. 39 .. .. 43 .. .. 39 .. .. 43 .. .. 39 .. .. 43 .. .. 39 .. .. 43 39 .. .. 
43 .. .. 39 .. .. 43 .. .. 39 .. .. 43 .. .. 39 .. .. 43 .. .. 39 .. .. 43 29 .. .. 32 .. 
.. 29 .. .. 32 .. .. 29 .. .. 32 .. .. 29 .. .. 32 .. .. 29 .. .. 32 41 .. .. 44 .. .. 41 
.. .. 44 .. .. 41 .. .. 44 .. .. 41 .. .. 44 .. .. 41 .. .. 44 39 .. .. 43 .. .. 39 .. .. 
43 .. .. 39 .. .. 43 .. .. 39 .. .. 43 .. .. 39 .. .. 43 41 .. .. 44 .. .. 41 .. .. 44 .. 
.. 41 .. 36 .. .. 39 .. .. 36 .. .. 39 .. .. 36 .. .. 39 .. .. 36 .. .. 39 .. .. 36 .. .. 
39 36 .. .. 39 .. .. 36 .. .. 39 .. .. 36 .. .. 39 .. .. 36 .. .. 39 .. .. 36 .. .. 39 36 
.. .. 39 .. .. 36 .. .. 39 .. .. 36 .. 39 .. .. 43 .. .. 39 .. .. 43 .. .. 39 .. .. 43 .. 
.. 39 .. .. 43 .. .. 39 .. .. 43 41 .. .. 44 .. .. 41 .. .. 44 .. .. 41 .. .. 44 .. .. 41 
.. .. 44 .. .. 41 .. .. 44 29 .. .. 32 .. .. 29 .. .. 32 .. .. 29 .. .. 32 .. .. 29 .. .. 
32 .. .. 29 .. .. 32 41 .. .. 44 .. .. 41 .. .. 44 .. .. 41 .. .. 44 .. .. 41 .. .. 44 .. 
.. 41 .. .. 44 39 .. .. 43 .. .. 39 .. .. 43 .. .. 39 .. .. 43 .. .. 39 .. .. 43 .. .. 39 
.. .. 43 41 .. .. 44 .. .. 41 .. .. 44 .. .. 41 .. 34 .. .. 39 .. .. 34 .. .. 39 .. .. 34 
.. .. 39 .. .. 34 .. .. 39 .. .. 34 .. .. 39 34 .. .. 39 .. .. 34 .. .. 39 .. .. 34 .. .. 
39 .. .. 34 .. .. 39 .. .. 34 .. .. 39 34 .. .. 39 .. .. 34 .. .. 39 .. .. 34 .. 37 .. .. 
41 .. .. 37 .. .. 41 .. .. 37 .. .. 41 .. .. 37 .. .. 41 .. .. 37 .. .. 41 34 .. .. 39 .. 
.. 34 .. .. 39 .. .. 34 .. .. 39 .. .. 34 .. .. 39 .. .. 34 .. .. 39 41 .. .. 44 .. .. 41 
.. .. 44 .. .. 41 .. .. 44 .. .. 41 .. .. 44 .. .. 41 .. .. 44 53 .. .. 56 .. .. 53 .. .. 
56 .. .. 53 .. .. 56 .. .. 53 .. .. 56 .. .. 53 .. .. 56 51 .. .. 55 .. .. 51 .. .. 55 .. 
.. 51 .. .. 55 .. .. 51 .. .. 55 .. .. 51 .. .. 55 53 .. .. 56 .. .. 53 .. .. 56 .. .. 53 
.. 48 .. .. 51 .. .. 48 .. .. 51 .. .. 48 .. .. 51 .. .. 48 .. .. 51 .. .. 48 .. .. 51 48 
.. .. 51 .. .. 48 .. .. 51 .. .. 48 .. .. 51 .. .. 48 .. .. 51 .. .. 48 .. .. 51 48 .. .. 
51 .. .. 48 .. .. 51 .. .. 48 .. 51 .. .. 55 .. .. 51 .. .. 55 .. .. 51 .. .. 55 .. .. 51 
.. .. 55 .. .. 51 .. .. 55 53 .. .. 56 .. .. 53 .. .. 56 .. .. 53 .. .. 56 .. .. 53 .. .. 
56 .. .. 53 .. .. 56 41 .. .. 44 .. .. 41 .. .. 44 .. .. 41 .. .. 44 .. .. 41 .. .. 44 .. 
.. 41 .. .. 44 53 .. .. 56 .. .. 53 .. .. 56 .. .. 53 .. .. 56 .. .. 53 .. .. 56 .. .. 53 
.. .. 56 51 .. .. 55 .. .. 51 .. .. 55 .. .. 51 .. .. 55 .. .. 51 .. .. 55 .. .. 51 .. .. 
55 53 .. .. 56 .. .. 53 .. .. 56 .. .. 53 .. 46 .. .. 51 .. .. 46 .. .. 51 .. .. 46 .. .. 
51 .. .. 46 .. .. 51 .. .. 46 .. .. 51 46 .. .. 51 .. .. 46 .. .. 51 .. .. 46 .. .. 51 .. 
.. 46 .. .. 51 .. .. 46 .. .. 51 46 .. .. 51 .. .. 46 .. .. 51 .. .. 46 .. 49 .. .. 53 .. 
.. 49 .. .. 53 .. .. 49 .. .. 53 .. .. 49 .. .. 53 .. .. 49 .. .. 53 46 .. .. 51 .. .. 46 
.. .. 51 .. .. 46 .. .. 51 .. .. 46 .. .. 51 .. .. 46 .. .. 51 32 .. .. 36 .. .. 32 .. .. 
36 .. .. 32 .. .. 36 .. .. 32 .. .. 36 .. .. 32 .. .. 36 44 .. .. 48 .. .. 44 .. .. 48 .. 
.. 44 .. .. 48 .. .. 44 .. .. 48 .. .. 44 .. .. 48 43 .. .. 46 .. .. 43 .. .. 46 .. .. 43 
.. .. 46 .. .. 43 .. .. 46 .. .. 43 .. .. 46 44 .. .. 48 .. .. 44 .. .. 48 .. .. 44 .. .. 
.. .. 49 .. .. 44 .. .. 49 .. .. 44 .. .. 49 .. .. 44 .. .. 49 .. .. 44 .. .. 49 44 .. .. 
49 .. .. 44 .. .. 49 .. .. 44 .. .. 49 .. .. 44 .. .. 49 .. .. 44 .. .. 49 44 .. .. 49 .. 
.. 44 .. .. 49 .. .. 44 .. .. .. .. 48 .. .. 44 .. .. 48 .. .. 44 .. .. 48 .. .. 44 .. .. 
48 .. .. 44 .. .. 48 43 .. .. 46 .. .. 43 .. .. 46 .. .. 43 .. .. 46 .. .. 43 .. .. 46 .. 
.. 43 .. .. 46 32 .. .. 36 .. .. 32 .. .. 36 .. .. 32 .. .. 36 .. .. 32 .. .. 36 .. .. 32 
.. .. 36 44 .. .. 48 .. .. 44 .. .. 48 .. .. 44 .. .. 48 .. .. 44 .. .. 48 .. .. 44 .. .. 
48 43 .. .. 46 .. .. 43 .. .. 46 .. .. 43 .. .. 46 .. .. 43 .. .. 46 .. .. 43 .. .. 46 44 
.. .. 48 .. .. 44 .. .. 48 .. .. 44 .. 37 .. .. 41 .. .. 37 .. .. 41 .. .. 37 .. .. 41 .. 
.. 37 .. .. 41 .. .. 37 .. .. 41 37 .. .. 41 .. .. 37 .. .. 41 .. .. 37 .. .. 41 .. .. 37 
.. .. 41 .. .. 37 .. .. 41 37 .. .. 41 .. .. 37 .. .. 41 .. .. 37 .. 39 .. .. 43 .. .. 39 
.. .. 43 .. .. 39 .. .. 43 .. .. 39 .. .. 43 .. .. 39 .. .. 43 39 .. .. 43 .. .. 39 .. .. 
43 .. .. 39 .. .. 43 .. .. 39 .. .. 43 .. .. 39 .. .. 43 32 .. .. 36 .. .. 32 .. .. 36 .. 
.. 32 .. .. 36 .. .. 32 .. .. 36 .. .. 32 .. .. 36 44 .. .. 48 .. .. 44 .. .. 48 .. .. 44 
.. .. 48 .. .. 44 .. .. 48 .. .. 44 .. .. 48 43 .. .. 46 .. .. 43 .. .. 46 .. .. 43 .. .. 
46 .. .. 43 .. .. 46 .. .. 43 .. .. 46 44 .. .. 48 .. .. 44 .. .. 48 .. .. 44 .. .. .. .. 
49 .. .. 44 .. .. 49 .. .. 44 .. .. 49 .. .. 44 .. .. 49 .. .. 44 .. .. 49 44 .. .. 49 .. 
.. 44 .. .. 49 .. .. 44 .. .. 49 .. .. 44 .. .. 49 .. .. 44 .. .. 49 44 .. .. 49 .. .. 44 
.. .. 49 .. .. 44 .. .. .. .. 48 .. .. 44 .. .. 48 .. .. 44 .. .. 48 .. .. 44 .. .. 48 .. 
.. 44 .. .. 48 43 .. .. 46 .. .. 43 .. .. 46 .. .. 43 .. .. 46 .. .. 43 .. .. 46 .. .. 43 
.. .. 46 32 .. .. 36 .. .. 32 .. .. 36 .. .. 32 .. .. 36 .. .. 32 .. .. 36 .. .. 32 .. .. 
36 44 .. .. 48 .. .. 44 .. .. 48 .. .. 44 .. .. 48 .. .. 44 .. .. 48 .. .. 44 .. .. 48 43 
.. .. 46 .. .. 43 .. .. 46 .. .. 43 .. .. 46 .. .. 43 .. .. 46 .. .. 43 .. .. 46 44 .. .. 
48 .. .. 44 .. .. 48 .. .. 44 .. 37 .. .. 41 .. .. 37 .. .. 41 .. .. 37 .. .. 41 .. .. 37 
.. .. 41 .. .. 37 .. .. 41 37 .. .. 41 .. .. 37 .. .. 41 .. .. 37 .. .. 41 .. .. 37 .. .. 
41 .. .. 37 .. .. 41 37 .. .. 41 .. .. 37 .. .. 41 .. .. 37 .. 39 .. .. 43 .. .. 39 .. .. 
43 .. .. 39 .. .. 43 .. .. 39 .. .. 43 .. .. 39 .. .. 43 39 .. .. 43 .. .. 39 .. .. 43 .. 
.. 39 .. .. 43 .. .. 39 .. .. 43 .. .. 39 .. .. 43 39 .. .. 44 .. .. 39 .. .. 44 .. .. 39 
.. .. 44 .. .. 39 .. .. 44 .. .. 39 .. .. 44 .. .. 39 .. .. 44 .. .. 39 .. .. 44 .. .. 39 
.. .. 44 .. .. 39 .. .. 44 .. .. 39 .. .. 44 .. .. 39 .. .. 44 .. .. 39 .. .. 44 39 .. .. 
44 .. .. 39 .. .. 44 .. .. 39 .. .. 44 .. .. 39 .. .. 44 .. .. 39 .. .. 44 39 .. .. 44 .. 
.. 39 .. .. 44 .. .. 39 .. .. 44 .. .. 39 .. .. 44 .. .. 39 .. .. 44 .. .. 39 .. .. 44 .. 
.. 39 .. .. 44 .. .. 39 .. .. 44 .. .. 39 .. .. 44 .. .. 39 .. 32 .. .. 37 .. .. 32 .. .. 
37 .. .. 32 .. 34 .. .. 39 .. .. 34 .. .. 39 .. .. 34 .. .. 39 .. .. 34 .. .. 39 .. .. 34 
.. .. 39 .. .. .. 43 .. .. 39 .. .. 43 .. .. 39 .. .. 43 .. .. 39 .. .. 43 .. .. 39 .. .. 
43 32 .. .. 36 .. .. 32 .. .. 36 .. .. 32 .. .. 36 .. .. 32 .. .. 36 .. .. 32 .. .. 36 44 
.. .. 48 .. .. 44 .. .. 48 .. .. 44 .. .. 48 .. .. 44 .. .. 48 .. .. 44 .. .. 48 43 .. .. 
46 .. .. 43 .. .. 46 .. .. 43 .. .. 46 .. .. 43 .. .. 46 .. .. 43 .. .. 46 44 .. .. 48 .. 
.. 44 .. .. 48 .. .. 44 .. .. .. .. 49 .. .. 44 .. .. 49 .. .. 44 .. .. 49 .. .. 44 .. .. 
49 .. .. 44 .. .. 49 44 .. .. 49 .. .. 44 .. .. 49 .. .. 44 .. .. 49 .. .. 44 .. .. 49 .. 
.. 44 .. .. 49 44 .. .. 49 .. .. 44 .. .. 49 .. .. 44 .. .. .. .. 48 .. .. 44 .. .. 48 .. 
.. 44 .. .. 48 .. .. 44 .. .. 48 .. .. 44 .. .. 48 43 .. .. 46 .. .. 43 .. .. 46 .. .. 43 
.. .. 46 .. .. 43 .. .. 46 .. .. 43 .. .. 46 32 .. .. 36 .. .. 32 .. .. 36 .. .. 32 .. .. 
36 .. .. 32 .. .. 36 .. .. 32 .. .. 36 44 .. .. 48 .. .. 44 .. .. 48 .. .. 44 .. .. 48 .. 
.. 44 .. .. 48 .. .. 44 .. .. 48 43 .. .. 46 .. .. 43 .. .. 46 .. .. 43 .. .. 46 .. .. 43 
.. .. 46 .. .. 43 .. .. 46 44 .. .. 48 .. .. 44 .. .. 48 .. .. 44 .. 37 .. .. 41 .. .. 37 
.. .. 41 .. .. 37 .. .. 41 .. .. 37 .. .. 41 .. .. 37 .. .. 41 37 .. .. 41 .. .. 37 .. .. 
41 .. .. 37 .. .. 41 .. .. 37 .. .. 41 .. .. 37 .. .. 41 37 .. .. 41 .. .. 37 .. .. 41 .. 
.. 37 .. 39 .. .. 43 .. .. 39 .. .. 43 .. .. 39 .. .. 43 .. .. 39 .. .. 43 .. .. 39 .. .. 
43 39 .. .. 43 .. .. 39 .. .. 43 .. .. 39 .. .. 43 .. .. 39 .. .. 43 .. .. 39 .. .. 43 32 
.. .. 36 .. .. 32 .. .. 36 .. .. 32 .. .. 36 .. .. 32 .. .. 36 .. .. 32 .. .. 36 44 .. .. 
48 .. .. 44 .. .. 48 .. .. 44 .. .. 48 .. .. 44 .. .. 48 .. .. 44 .. .. 48 43 .. .. 46 .. 
.. 43 .. .. 46 .. .. 43 .. .. 46 .. .. 43 .. .. 46 .. .. 43 .. .. 46 44 .. .. 48 .. .. 44 
.. .. 48 .. .. 44 .. .. .. .. 49 .. .. 44 .. .. 49 .. .. 44 .. .. 49 .. .. 44 .. .. 49 .. 
.. 44 .. .. 49 44 .. .. 49 .. .. 44 .. .. 49 .. .. 44 .. .. 49 .. .. 44 .. .. 49 .. .. 44 
.. .. 49 44 .. .. 49 .. .. 44 .. .. 49 .. .. 44 .. .. .. .. 48 .. .. 44 .. .. 48 .. .. 44 
.. .. 48 .. .. 44 .. .. 48 .. .. 44 .. .. 48 43 .. .. 46 .. .. 43 .. .. 46 .. .. 43 .. .. 
46 .. .. 43 .. .. 46 .. .. 43 .. .. 46 32 .. .. 36 .. .. 32 .. .. 36 .. .. 32 .. .. 36 .. 
.. 32 .. .. 36 .. .. 32 .. .. 36 44 .. .. 48 .. .. 44 .. .. 48 .. .. 44 .. .. 48 .. .. 44 
.. .. 48 .. .. 44 .. .. 48 43 .. .. 46 .. .. 43 .. .. 46 .. .. 43 .. .. 46 .. .. 43 .. .. 
46 .. .. 43 .. .. 46 44 .. .. 48 .. .. 44 .. .. 48 .. .. 44 .. 37 .. .. 41 .. .. 37 .. .. 
41 .. .. 37 .. .. 41 .. .. 37 .. .. 41 .. .. 37 .. .. 41 37 .. .. 41 .. .. 37 .. .. 41 .. 
.. 37 .. .. 41 .. .. 37 .. .. 41 .. .. 37 .. .. 41 37 .. .. 41 .. .. 37 .. .. 41 .. .. 37 
.. 39 .. .. 43 .. .. 39 .. .. 43 .. .. 39 .. .. 43 .. .. 39 .. .. 43 .. .. 39 .. .. 43 39 
.. .. 43 .. .. 39 .. .. 43 .. .. 39 .. .. 43 .. .. 39 .. .. 43 .. .. 39 .. .. 43 51 .. .. 
56 .. .. 51 .. .. 56 .. .. 51 .. .. 56 .. .. 51 .. .. 56 .. .. 51 .. .. 56 .. .. 51 .. .. 
56 .. .. 51 .. .. 56 .. .. 51 .. .. 56 .. .. 51 .. .. 56 .. .. 51 .. .. 56 .. .. 51 .. .. 
56 .. .. 51 .. .. 56 51 .. .. 56 .. .. 51 .. .. 56 .. .. 51 .. .. 56 .. .. 51 .. .. 56 .. 
.. 51 .. .. 56 51 .. .. 56 .. .. 51 .. .. 56 .. .. 51 .. .. 56 .. .. 51 .. .. 56 .. .. 51 
.. .. 56 .. .. 51 .. .. 56 .. .. 51 .. .. 56 .. .. 51 .. .. 56 .. .. 51 .. .. 56 .. .. 51 
.. 44 .. .. 49 .. .. 44 .. .. 49 .. .. 44 .. 46 .. .. 51 .. .. 46 .. .. 51 .. .. 46 .. .. 
51 .. .. 46 .. .. 51 .. .. 46 .. .. 51 .. .. .. 55 .. .. 51 .. .. 55 .. .. 51 .. .. 55 .. 
.. 51 .. .. 55 .. .. 51 .. .. 55 32 .. .. 36 .. .. 32 .. .. 36 .. .. 32 .. .. 36 .. .. 32 
.. .. 36 .. .. 32 .. .. 36 44 .. .. 48 .. .. 44 .. .. 48 .. .. 44 .. .. 48 .. .. 44 .. .. 
48 .. .. 44 .. .. 48 43 .. .. 46 .. .. 43 .. .. 46 .. .. 43 .. .. 46 .. .. 43 .. .. 46 .. 
.. 43 .. .. 46 44 .. .. 48 .. .. 44 .. .. 48 .. .. 44 .. .. .. .. 49 .. .. 44 .. .. 49 .. 
.. 44 .. .. 49 .. .. 44 .. .. 49 .. .. 44 .. .. 49 44 .. .. 49 .. .. 44 .. .. 49 .. .. 44 
.. .. 49 .. .. 44 .. .. 49 .. .. 44 .. .. 49 44 .. .. 49 .. .. 44 .. .. 49 .. .. 44 .. .. 
.. .. 48 .. .. 44 .. .. 48 .. .. 44 .. .. 48 .. .. 44 .. .. 48 .. .. 44 .. .. 48 43 .. .. 
46 .. .. 43 .. .. 46 .. .. 43 .. .. 46 .. .. 43 .. .. 46 .. .. 43 .. .. 46 32 .. .. 36 .. 
.. 32 .. .. 36 .. .. 32 .. .. 36 .. .. 32 .. .. 36 .. .. 32 .. .. 36 44 .. .. 48 .. .. 44 
.. .. 48 .. .. 44 .. .. 48 .. .. 44 .. .. 48 .. .. 44 .. .. 48 43 .. .. 46 .. .. 43 .. .. 
46 .. .. 43 .. .. 46 .. .. 43 .. .. 46 .. .. 43 .. .. 46 44 .. .. 48 .. .. 44 .. .. 48 .. 
.. 44 .. 37 .. .. 41 .. .. 37 .. .. 41 .. .. 37 .. .. 41 .. .. 37 .. .. 41 .. .. 37 .. .. 
41 37 .. .. 41 .. .. 37 .. .. 41 .. .. 37 .. .. 41 .. .. 37 .. .. 41 .. .. 37 .. .. 41 37 
.. .. 41 .. .. 37 .. .. 41 .. .. 37 .. 39 .. .. 43 .. .. 39 .. .. 43 .. .. 39 .. .. 43 .. 
.. 39 .. .. 43 .. .. 39 .. .. 43 39 .. .. 43 .. .. 39 .. .. 43 .. .. 39 .. .. 43 .. .. 39 
.. .. 43 .. .. 39 .. .. 43 32 .. .. 36 .. .. 32 .. .. 36 .. .. 32 .. .. 36 .. .. 32 .. .. 
36 .. .. 32 .. .. 36 44 .. .. 48 .. .. 44 .. .. 48 .. .. 44 .. .. 48 .. .. 44 .. .. 48 .. 
.. 44 .. .. 48 43 .. .. 46 .. .. 43 .. .. 46 .. .. 43 .. .. 46 .. .. 43 .. .. 46 .. .. 43 
.. .. 46 44 .. .. 48 .. .. 44 .. .. 48 .. .. 44 .. .. .. .. 49 .. .. 44 .. .. 49 .. .. 44 
.. .. 49 .. .. 44 .. .. 49 .. .. 44 .. .. 49 44 .. .. 49 .. .. 44 .. .. 49 .. .. 44 .. .. 
49 .. .. 44 .. .. 49 .. .. 44 .. .. 49 44 .. .. 49 .. .. 44 .. .. 49 .. .. 44 .. .. .. .. 
48 .. .. 44 .. .. 48 .. .. 44 .. .. 48 .. .. 44 .. .. 48 .. .. 44 .. .. 48 43 .. .. 46 .. 
.. 43 .. .. 46 .. .. 43 .. .. 46 .. .. 43 .. .. 46 .. .. 43 .. .. 46 32 .. .. 36 .. .. 32 
.. .. 36 .. .. 32 .. .. 36 .. .. 32 .. .. 36 .. .. 32 .. .. 36 44 .. .. 48 .. .. 44 .. .. 
48 .. .. 44 .. .. 48 .. .. 44 .. .. 48 .. .. 44 .. .. 48 43 .. .. 46 .. .. 43 .. .. 46 .. 
.. 43 .. .. 46 .. .. 43 .. .. 46 .. .. 43 .. .. 46 44 .. .. 48 .. .. 44 .. .. 48 .. .. 44 
.. 37 .. .. 41 .. .. 37 .. .. 41 .. .. 37 .. .. 41 .. .. 37 .. .. 41 .. .. 37 .. .. 41 37 
.. .. 41 .. .. 37 .. .. 41 .. .. 37 .. .. 41 .. .. 37 .. .. 41 .. .. 37 .. .. 41 37 .. .. 
41 .. .. 37 .. .. 41 .. .. 37 .. 39 .. .. 43 .. .. 39 .. .. 43 .. .. 39 .. .. 43 .. .. 39 
.. .. 43 .. .. 39 .. .. 43 39 .. .. 43 .. .. 39 .. .. 43 .. .. 39 .. .. 43 .. .. 39 .. .. 
43 .. .. 39 .. .. 43 32 .. .. 36 .. .. 32 .. .. 36 .. .. 32 .. .. 36 .. .. 32 .. .. 36 .. 
.. 32 .. .. 36 44 .. .. 48 .. .. 44 .. .. 48 .. .. 44 .. .. 48 .. .. 44 .. .. 48 .. .. 44 
.. .. 48 43 .. .. 46 .. .. 43 .. .. 46 .. .. 43 .. .. 46 .. .. 43 .. .. 46 .. .. 43 .. .. 
46 44 .. .. 48 .. .. 44 .. .. 48 .. .. 44 .. .. .. .. 49 .. .. 44 .. .. 49 .. .. 44 .. .. 
49 .. .. 44 .. .. 49 .. .. 44 .. .. 49 44 .. .. 49 .. .. 44 .. .. 49 .. .. 44 .. .. 49 .. 
.. 44 .. .. 49 .. .. 44 .. .. 49 44 .. .. 49 .. .. 44 .. .. 49 .. .. 44 .. .. .. .. 48 .. 
.. 44 .. .. 48 .. .. 44 .. .. 48 .. .. 44 .. .. 48 .. .. 44 .. .. 48 43 .. .. 46 .. .. 43 
.. .. 46 .. .. 43 .. .. 46 .. .. 43 .. .. 46 .. .. 43 .. .. 46 32 .. .. 36 .. .. 32 .. .. 
36 .. .. 32 .. .. 36 .. .. 32 .. .. 36 .. .. 32 .. .. 36 44 .. .. 48 .. .. 44 .. .. 48 .. 
.. 44 .. .. 48 .. .. 44 .. .. 48 .. .. 44 .. .. 48 43 .. .. 46 .. .. 43 .. .. 46 .. .. 43 
.. .. 46 .. .. 43 .. .. 46 .. .. 43 .. .. 46 44 .. .. 48 .. .. 44 .. .. 48 .. .. 44 .. 37 
.. .. 41 .. .. 37 .. .. 41 .. .. 37 .. .. 41 .. .. 37 .. .. 41 .. .. 37 .. .. 41 37 .. .. 
41 .. .. 37 .. .. 41 .. .. 37 .. .. 41 .. .. 37 .. .. 41 .. .. 37 .. .. 41 37 .. .. 41 .. 
.. 37 .. .. 41 .. .. 37 .. 39 .. .. 43 .. .. 39 .. .. 43 .. .. 39 .. .. 43 .. .. 39 .. .. 
43 .. .. 39 .. .. 43 39 .. .. 43 .. .. 39 .. .. 43 .. .. 39 .. .. 43 .. .. 39 .. .. 43 .. 
.. 39 .. .. 43 29 .. .. 32 .. .. 29 .. .. 32 .. .. 29 .. .. 32 .. .. 29 .. .. 32 .. .. 29 
.. .. 32 41 .. .. 44 .. .. 41 .. .. 44 .. .. 41 .. .. 44 .. .. 41 .. .. 44 .. .. 41 .. .. 
44 39 .. .. 43 .. .. 39 .. .. 43 .. .. 39 .. .. 43 .. .. 39 .. .. 43 .. .. 39 .. .. 43 41 
.. .. 44 .. .. 41 .. .. 44 .. .. 41 .. 36 .. .. 39 .. .. 36 .. .. 39 .. .. 36 .. .. 39 .. 
.. 36 .. .. 39 .. .. 36 .. .. 39 36 .. .. 39 .. .. 36 .. .. 39 .. .. 36 .. .. 39 .. .. 36 
.. .. 39 .. .. 36 .. .. 39 36 .. .. 39 .. .. 36 .. .. 39 .. .. 36 .. 39 .. .. 43 .. .. 39 
.. .. 43 .. .. 39 .. .. 43 .. .. 39 .. .. 43 .. .. 39 .. .. 43 41 .. .. 44 .. .. 41 .. .. 
44 .. .. 41 .. .. 44 .. .. 41 .. .. 44 .. .. 41 .. .. 44 29 .. .. 32 .. .. 29 .. .. 32 .. 
.. 29 .. .. 32 .. .. 29 .. .. 32 .. .. 29 .. .. 32 41 .. .. 44 .. .. 41 .. .. 44 .. .. 41 
.. .. 44 .. .. 41 .. .. 44 .. .. 41 .. .. 44 39 .. .. 43 .. .. 39 .. .. 43 .. .. 39 .. .. 
43 .. .. 39 .. .. 43 .. .. 39 .. .. 43 41 .. .. 44 .. .. 41 .. .. 44 .. .. 41 .. 34 .. .. 
39 .. .. 34 .. .. 39 .. .. 34 .. .. 39 .. .. 34 .. .. 39 .. .. 34 .. .. 39 34 .. .. 39 .. 
.. 34 .. .. 39 .. .. 34 .. .. 39 .. .. 34 .. .. 39 .. .. 34 .. .. 39 34 .. .. 39 .. .. 34 
.. .. 39 .. .. 34 .. 37 .. .. 41 .. .. 37 .. .. 41 .. .. 37 .. .. 41 .. .. 37 .. .. 41 .. 
.. 37 .. .. 41 34 .. .. 39 .. .. 34 .. .. 39 .. .. 34 .. .. 39 .. .. 34 .. .. 39 .. .. 34 
.. .. 39 41 .. .. 44 .. .. 41 .. .. 44 .. .. 41 .. .. 44 .. .. 41 .. .. 44 .. .. 41 .. .. 
44 53 .. .. 56 .. .. 53 .. .. 56 .. .. 53 .. .. 56 .. .. 53 .. .. 56 .. .. 53 .. .. 56 51 
.. .. 55 .. .. 51 .. .. 55 .. .. 51 .. .. 55 .. .. 51 .. .. 55 .. .. 51 .. .. 55 53 .. .. 
56 .. .. 53 .. .. 56 .. .. 53 .. 48 .. .. 51 .. .. 48 .. .. 51 .. .. 48 .. .. 51 .. .. 48 
.. .. 51 .. .. 48 .. .. 51 48 .. .. 51 .. .. 48 .. .. 51 .. .. 48 .. .. 51 .. .. 48 .. .. 
51 .. .. 48 .. .. 51 48 .. .. 51 .. .. 48 .. .. 51 .. .. 48 .. 51 .. .. 55 .. .. 51 .. .. 
55 .. .. 51 .. .. 55 .. .. 51 .. .. 55 .. .. 51 .. .. 55 53 .. .. 56 .. .. 53 .. .. 56 .. 
.. 53 .. .. 56 .. .. 53 .. .. 56 .. .. 53 .. .. 56 41 .. .. 44 .. .. 41 .. .. 44 .. .. 41 
.. .. 44 .. .. 41 .. .. 44 .. .. 41 .. .. 44 53 .. .. 56 .. .. 53 .. .. 56 .. .. 53 .. .. 
56 .. .. 53 .. .. 56 .. .. 53 .. .. 56 51 .. .. 55 .. .. 51 .. .. 55 .. .. 51 .. .. 55 .. 
.. 51 .. .. 55 .. .. 51 .. .. 55 53 .. .. 56 .. .. 53 .. .. 56 .. .. 53 .. 46 .. .. 51 .. 
.. 46 .. .. 51 .. .. 46 .. .. 51 .. .. 46 .. .. 51 .. .. 46 .. .. 51 46 .. .. 51 .. .. 46 
.. .. 51 .. .. 46 .. .. 51 .. .. 46 .. .. 51 .. .. 46 .. .. 51 46 .. .. 51 .. .. 46 .. .. 
51 .. .. 46 .. 49 .. .. 53 .. .. 49 .. .. 53 .. .. 49 .. .. 53 .. .. 49 .. .. 53 .. .. 49 
.. .. 53 46 .. .. 51 .. .. 46 .. .. 51 .. .. 46 .. .. 51 .. .. 46 .. .. 51 .. .. 46 .. .. 
51 32 .. .. 36 .. .. 32 .. .. 36 .. .. 32 .. .. 36 .. .. 32 .. .. 36 .. .. 32 .. .. 36 44 
.. .. 48 .. .. 44 .. .. 48 .. .. 44 .. .. 48 .. .. 44 .. .. 48 .. .. 44 .. .. 48 43 .. .. 
46 .. .. 43 .. .. 46 .. .. 43 .. .. 46 .. .. 43 .. .. 46 .. .. 43 .. .. 46 44 .. .. 48 .. 
.. 44 .. .. 48 .. .. 44 .. .. .. .. 49 .. .. 44 .. .. 49 .. .. 44 .. .. 49 .. .. 44 .. .. 
49 .. .. 44 .. .. 49 44 .. .. 49 .. .. 44 .. .. 49 .. .. 44 .. .. 49 .. .. 44 .. .. 49 .. 
.. 44 .. .. 49 44 .. .. 49 .. .. 44 .. .. 49 .. .. 44 .. .. .. .. 48 .. .. 44 .. .. 48 .. 
.. 44 .. .. 48 .. .. 44 .. .. 48 .. .. 44 .. .. 48 43 .. .. 46 .. .. 43 .. .. 46 .. .. 43 
.. .. 46 .. .. 43 .. .. 46 .. .. 43 .. .. 46 32 .. .. 36 .. .. 32 .. .. 36 .. .. 32 .. .. 
36 .. .. 32 .. .. 36 .. .. 32 .. .. 36 44 .. .. 48 .. .. 44 .. .. 48 .. .. 44 .. .. 48 .. 
.. 44 .. .. 48 .. .. 44 .. .. 48 43 .. .. 46 .. .. 43 .. .. 46 .. .. 43 .. .. 46 .. .. 43 
.. .. 46 .. .. 43 .. .. 46 44 .. .. 48 .. .. 44 .. .. 48 .. .. 44 .. 37 .. .. 41 .. .. 37 
.. .. 41 .. .. 37 .. .. 41 .. .. 37 .. .. 41 .. .. 37 .. .. 41 37 .. .. 41 .. .. 37 .. .. 
41 .. .. 37 .. .. 41 .. .. 37 .. .. 41 .. .. 37 .. .. 41 37 .. .. 41 .. .. 37 .. .. 41 .. 
.. 37 .. 39 .. .. 43 .. .. 39 .. .. 43 .. .. 39 .. .. 43 .. .. 39 .. .. 43 .. .. 39 .. .. 
43 39 .. .. 43 .. .. 39 .. .. 43 .. .. 39 .. .. 43 .. .. 39 .. .. 43 .. .. 39 .. .. 
! Song 4
146 20 .. .. .. .. .. .. .. .. .. .. .. .. .. .. .. .. .. .. .. .. .. .. .. 20 .. .. .. 24 
.. .. .. .. .. .. .. .. .. .. .. .. .. .. .. .. .. .. .. .. .. .. .. 25 .. .. .. .. .. .. 
.. .. .. .. .. .. .. 25 .. .. .. .. .. .. .. .. .. .. .. .. .. 25 .. .. .. 18 .. .. .. .. 
.. .. .. .. .. .. .. .. .. 19 .. .. .. .. .. .. .. .. .. .. .. .. .. 20 .. .. .. .. .. .. 
.. .. .. .. .. .. .. .. .. .. .. .. .. .. .. .. .. 20 .. .. .. 24 .. .. .. .. .. .. .. .. 
.. .. .. .. .. .. .. .. .. .. .. .. .. .. .. 25 .. .. .. .. .. .. .. .. .. .. .. .. .. 25 
.. .. .. .. .. .. .. .. .. .. .. .. .. 25 .. .. .. 27 .. .. .. .. .. .. .. .. .. .. .. .. 
.. 31 .. .. .. .. .. .. .. .. .. .. .. .. .. 32 .. .. .. .. .. .. .. .. .. .. .. .. .. 29 
.. .. .. .. .. .. .. .. .. .. .. .. .. 27 .. .. .. .. .. .. .. .. .. 24 .. .. .. 27 .. .. 
.. .. .. .. .. 20 .. .. .. .. .. .. .. .. .. .. .. .. .. .. .. .. .. .. .. .. .. .. .. .. 
.. .. .. .. .. .. .. .. .. .. .. .. .. .. .. .. .. .. .. .. .. .. .. .. .. .. .. .. .. .. 
.. .. .. .. .. .. .. .. .. .. .. .. .. .. .. .. .. .. .. .. .. .. .. .. .. .. .. .. .. .. 
.. .. .. .. .. .. .. .. .. .. .. .. .. .. .. .. .. .. .. .. .. .. .. .. .. .. .. .. .. .. 
.. .. .. .. .. .. .. .. .. .. .. .. .. .. .. .. .. .. .. .. .. .. .. .. .. .. .. 
! Song 5
146 20 .. .. .. .. .. .. .. .. .. .. .. .. .. .. .. .. .. .. .. .. .. .. .. .. .. .. .. .. 
.. 20 .. .. .. .. .. 18 .. .. .. .. .. .. .. .. .. .. .. .. .. .. .. .. .. .. .. .. .. .. 
.. .. .. .. .. .. .. 17 .. .. .. .. .. .. .. .. .. .. .. .. .. .. .. .. .. 17 .. .. .. .. 
.. .. .. .. .. .. .. .. .. .. .. .. .. 17 .. .. .. .. .. 16 .. .. .. .. .. .. .. .. .. .. 
.. .. .. .. .. .. .. 16 .. .. .. .. .. .. .. .. .. .. .. .. .. .. .. .. .. 15 .. .. .. .. 
.. .. .. .. .. .. .. .. .. .. .. .. .. .. .. .. .. .. .. .. .. .. .. .. .. .. .. .. .. .. 
.. .. .. .. .. .. .. .. .. .. .. .. .. .. .. .. .. .. .. .. .. .. .. .. .. .. .. .. .. .. 
.. .. .. .. .. .. .. .. .. .. .. .. .. .. .. .. .. .. .. .. .. .. .. .. .. .. .. .. .. .. 
.. .. .. .. .. .. .. .. .. .. .. .. .. .. .. .. .. .. .. .. .. .. .. .. .. .. .. .. .. .. 
.. .. .. .. .. .. .. .. .. .. .. .. .. .. .. .. .. .. .. .. .. .. .. .. .. .. .. .. .. .. 
.. .. .. .. .. .. .. 
! End
