! Simple
! Song 0
14 .. .. .. 51 .. .. .. .. 51 .. .. .. .. .. .. 39 .. .. .. .. .. 49 .. .. .. .. .. .. 39 
.. .. .. .. .. .. 49 .. .. .. .. .. 39 .. .. .. .. .. .. 51 .. .. .. .. .. .. 39 .. .. .. 
.. .. 51 .. .. .. .. .. .. 39 .. .. .. .. .. .. 49 .. .. .. .. .. 49 .. .. .. .. .. .. 39 
.. .. .. .. .. .. 49 .. .. .. .. 39 .. .. .. .. .. .. 51 .. .. .. .. .. .. 51 .. .. .. .. 
.. 39 .. .. .. .. .. .. 49 .. .. .. .. .. .. 39 .. .. .. .. .. .. 49 .. .. .. .. .. 39 .. 
.. .. .. .. .. 51 .. .. .. .. .. .. 39 .. .. .. .. .. 51 .. .. .. .. .. .. 39 .. .. .. .. 
.. .. 49 .. .. .. .. .. 51 .. .. .. .. .. .. .. .. .. .. .. .. .. .. .. .. .. .. .. .. .. 
.. .. .. .. .. 51 .. .. .. .. .. 51 .. .. .. .. .. 39 .. .. .. .. .. .. 49 .. .. .. .. .. 
.. 39 .. .. .. .. .. 49 .. .. .. .. .. .. 39 .. .. .. .. .. .. 51 .. .. .. .. .. 39 .. .. 
.. .. .. .. 51 .. .. .. .. .. .. 39 .. .. .. .. .. 49 .. .. .. .. .. .. 49 .. .. .. .. .. 
.. 39 .. .. .. .. .. 49 .. .. .. .. .. .. 39 .. .. .. .. .. .. 51 .. .. .. .. .. .. 51 .. 
.. .. .. 39 .. .. .. .. .. .. 49 .. .. .. .. .. .. 39 .. .. .. .. .. 49 .. .. .. .. .. .. 
39 .. .. .. .. .. .. 51 .. .. .. .. .. 39 .. .. .. .. .. .. 51 .. .. .. .. .. .. 39 .. .. 
.. .. .. 49 .. .. .. .. .. .. 54 .. .. .. .. .. .. .. .. .. .. .. .. .. .. .. .. 53 .. .. 
.. .. 54 .. .. .. .. 51 .. .. .. .. .. 51 .. .. .. .. .. .. 39 .. .. .. .. .. .. 49 .. .. 
.. .. 39 .. .. .. .. .. .. 49 .. .. .. .. .. .. 39 .. .. .. .. .. 51 .. .. .. .. .. .. 39 
.. .. .. .. .. .. 51 .. .. .. .. .. 39 .. .. .. .. .. .. 49 .. .. .. .. .. .. 49 .. .. .. 
.. .. .. 39 .. .. .. .. .. 49 .. .. .. .. .. .. 39 .. .. .. .. .. .. 51 .. .. .. .. .. 51 
.. .. .. .. .. .. 39 .. .. .. .. .. .. 49 .. .. .. .. .. 39 .. .. .. .. .. .. 49 .. .. .. 
.. .. 39 .. .. .. .. .. 51 .. .. .. .. .. .. 39 .. .. .. .. .. .. 51 .. .. .. .. .. 39 .. 
.. .. .. .. .. 49 .. .. .. .. .. .. 51 .. .. .. .. .. .. .. .. .. .. .. .. .. .. .. .. .. 
.. .. .. .. .. .. .. .. 51 .. .. .. .. .. .. 51 .. .. .. .. .. .. 39 .. .. .. .. .. 49 .. 
.. .. .. .. .. 39 .. .. .. .. .. .. 49 .. .. .. .. .. 39 .. .. .. .. .. .. 51 .. .. .. .. 
.. 39 .. .. .. .. .. .. 51 .. .. .. .. .. 39 .. .. .. .. .. .. 49 .. .. .. .. .. .. 49 .. 
.. .. .. .. 39 .. .. .. .. .. .. 49 .. .. .. .. .. .. 39 .. .. .. .. .. 51 .. .. .. .. .. 
.. 51 .. .. .. .. .. .. 39 .. .. .. .. .. 49 .. .. .. .. .. .. 39 .. .. .. .. .. .. 49 .. 
.. .. .. .. 39 .. .. .. .. .. .. 51 .. .. .. .. .. .. 39 .. .. .. .. .. 51 .. .. .. .. .. 
39 .. .. .. .. .. .. 49 .. .. .. .. .. 54 .. .. .. .. .. .. .. .. .. .. .. .. .. .. .. .. 
53 .. .. .. .. 54 .. .. .. .. 51 .. .. .. .. .. .. 51 .. .. .. .. .. 39 .. .. .. .. .. .. 
49 .. .. .. .. .. .. 39 .. .. .. .. .. 49 .. .. .. .. .. .. 39 .. .. .. .. .. .. 51 .. .. 
.. .. .. .. 39 .. .. .. .. .. 51 .. .. .. .. .. .. 39 .. .. .. .. .. 49 .. .. .. .. .. 49 
.. .. .. .. .. .. 39 .. .. .. .. .. .. 49 .. .. .. .. .. 39 .. .. .. .. .. .. 51 .. .. .. 
.. .. .. 51 .. .. .. .. .. 39 .. .. .. .. .. .. 49 .. .. .. .. .. .. 39 .. .. .. .. .. 49 
.. .. .. .. .. .. 39 .. .. .. .. .. .. 51 .. .. .. .. .. 39 .. .. .. .. .. .. 51 .. .. .. 
.. .. .. 39 .. .. .. .. .. 49 .. .. .. .. .. .. 51 .. .. .. .. .. .. .. .. .. .. .. .. .. 
.. .. .. .. .. .. .. .. .. .. .. .. 51 .. .. .. .. .. 51 .. .. .. .. .. .. 39 .. .. .. .. 
.. .. 49 .. .. .. .. .. .. 39 .. .. .. .. .. 49 .. .. .. .. .. .. 39 .. .. .. .. .. .. 51 
.. .. .. .. .. 39 .. .. .. .. .. .. 51 .. .. .. .. .. .. 39 .. .. .. .. .. 49 .. .. .. .. 
.. .. 49 .. .. .. .. .. .. 39 .. .. .. .. .. 49 .. .. .. .. .. 39 .. .. .. .. .. .. 51 .. 
.. .. .. .. 51 .. .. .. .. .. .. 39 .. .. .. .. .. .. 49 .. .. .. .. .. 39 .. .. .. .. .. 
.. 49 .. .. .. .. .. .. 39 .. .. .. .. .. 51 .. .. .. .. .. .. 39 .. .. .. .. .. .. 51 .. 
.. .. .. .. 39 .. .. .. .. .. .. 49 .. .. .. .. .. .. 54 .. .. .. .. .. .. .. .. .. .. .. 
.. .. .. .. .. 53 .. .. .. .. 54 .. .. .. .. 51 .. .. .. .. 51 .. .. .. .. .. .. 39 .. .. 
.. .. .. .. 49 .. .. .. .. .. 39 .. .. .. .. .. .. 49 .. .. .. .. .. .. 39 .. .. .. .. .. 
51 .. .. .. .. .. .. 39 .. .. .. .. .. .. 51 .. .. .. .. .. 39 .. .. .. .. .. .. 49 .. .. 
.. .. .. .. 49 .. .. .. .. .. 39 .. .. .. .. .. .. 49 .. .. .. .. .. .. 39 .. .. .. .. .. 
51 .. .. .. .. .. .. 51 .. .. .. .. .. 39 .. .. .. .. .. 49 .. .. .. .. .. .. 39 .. .. .. 
.. .. .. 49 .. .. .. .. .. 39 .. .. .. .. .. .. 51 .. .. .. .. .. .. 39 .. .. .. .. .. 51 
.. .. .. .. .. .. 39 .. .. .. .. .. .. 49 .. .. .. .. .. .. 51 .. .. .. .. .. .. .. .. .. 
.. .. .. .. .. .. .. .. .. .. .. .. .. .. .. .. 51 .. .. .. .. .. .. 51 .. .. .. .. .. .. 
39 .. .. .. .. .. 49 .. .. .. .. .. 39 .. .. .. .. .. .. 49 .. .. .. .. .. 39 .. .. .. .. 
.. .. 51 .. .. .. .. .. .. 39 .. .. .. .. .. 51 .. .. .. .. .. .. 39 .. .. .. .. .. .. 49 
.. .. .. .. .. 49 .. .. .. .. .. .. 39 .. .. .. .. .. .. 49 .. .. .. .. .. 39 .. .. .. .. 
.. .. 51 .. .. .. .. .. .. 51 .. .. .. .. .. 39 .. .. .. .. .. .. 49 .. .. .. .. .. .. 39 
.. .. .. .. .. 49 .. .. .. .. .. 39 .. .. .. .. .. .. 51 .. .. .. .. .. 39 .. .. .. .. .. 
.. 51 .. .. .. .. .. .. 39 .. .. .. .. .. .. 49 .. .. .. .. .. 54 .. .. .. .. .. .. .. .. 
.. .. .. .. .. .. .. .. 53 .. .. .. .. 54 .. .. .. .. 51 .. .. .. .. .. .. 51 .. .. .. .. 
.. 39 .. .. .. .. .. .. 49 .. .. .. .. .. .. 39 .. .. .. .. .. 49 .. .. .. .. .. .. 39 .. 
.. .. .. .. .. 51 .. .. .. .. 39 .. .. .. .. .. .. 51 .. .. .. .. .. .. 39 .. .. .. .. .. 
49 .. .. .. .. .. .. 49 .. .. .. .. .. .. 39 .. .. .. .. .. 49 .. .. .. .. .. .. 39 .. .. 
.. .. .. .. 51 .. .. .. .. .. 51 .. .. .. .. .. .. 39 .. .. .. .. .. .. 49 .. .. .. .. .. 
39 .. .. .. .. .. .. 49 .. .. .. .. .. .. 39 .. .. .. .. .. .. 51 .. .. .. .. .. 39 .. .. 
.. .. .. 51 .. .. .. .. .. .. 39 .. .. .. .. .. 49 .. .. .. .. .. .. 51 .. .. .. .. .. .. 
.. .. .. .. .. .. .. .. .. .. .. .. .. .. .. .. .. .. .. .. 51 .. .. .. .. .. 51 .. .. .. 
.. .. .. 39 .. .. .. .. .. .. 49 .. .. .. .. .. 39 .. .. .. .. .. .. 49 .. .. .. .. .. .. 
39 .. .. .. .. .. 51 .. .. .. .. .. .. 39 .. .. .. .. .. .. 51 .. .. .. .. .. 39 .. .. .. 
.. .. 49 .. .. .. .. .. .. 49 .. .. .. .. .. 39 .. .. .. .. .. .. 49 .. .. .. .. .. .. 39 
.. .. .. .. .. 51 .. .. .. .. .. .. 51 .. .. .. .. .. .. 39 .. .. .. .. .. .. 49 .. .. .. 
.. .. 39 .. .. .. .. .. .. 49 .. .. .. .. .. .. 39 .. .. .. .. .. 51 .. .. .. .. .. .. 39 
.. .. .. .. .. .. 51 .. .. .. .. .. 39 .. .. .. .. .. .. 49 .. .. .. .. .. .. 54 .. .. .. 
.. .. .. .. .. .. .. .. .. .. .. .. 53 .. .. .. .. 54 .. .. .. 51 .. .. .. .. .. .. 51 .. 
.. .. .. .. .. 39 .. .. .. .. .. 49 .. .. .. .. .. .. 39 .. .. .. .. .. .. 49 .. .. .. .. 
.. 39 .. .. .. .. .. .. 51 .. .. .. .. .. .. 39 .. .. .. .. .. 51 .. .. .. .. .. .. 39 .. 
.. .. .. .. .. 49 .. .. .. .. .. 49 .. .. .. .. .. .. 39 .. .. .. .. .. .. 49 .. .. .. .. 
.. 39 .. .. .. .. .. 51 .. .. .. .. .. .. 51 .. .. .. .. .. .. 39 .. .. .. .. .. 49 .. .. 
.. .. .. .. 39 .. .. .. .. .. .. 49 .. .. .. .. .. 39 .. .. .. .. .. .. 51 .. .. .. .. .. 
.. 39 .. .. .. .. .. 51 .. .. .. .. .. .. 39 .. .. .. .. .. .. 49 .. .. .. .. .. 51 .. .. 
.. .. .. .. .. .. .. .. .. .. .. .. .. .. .. .. .. .. .. .. .. .. .. .. 51 .. .. .. .. .. 
51 .. .. .. .. .. 39 .. .. .. .. .. .. 49 .. .. .. .. .. .. 39 .. .. .. .. .. 49 .. .. .. 
.. .. .. 39 .. .. .. .. .. .. 51 .. .. .. .. .. 39 .. .. .. .. .. .. 51 .. .. .. .. .. .. 
39 .. .. .. .. .. 49 .. .. .. .. .. .. 49 .. .. .. .. .. .. 39 .. .. .. .. .. .. 49 .. .. 
.. .. .. 39 .. .. .. .. .. .. 51 .. .. .. .. .. .. 51 .. .. .. .. 39 .. .. .. .. .. .. 49 
.. .. .. .. .. .. 39 .. .. .. .. .. 49 .. .. .. .. .. .. 39 .. .. .. .. .. .. 51 .. .. .. 
.. .. 39 .. .. .. .. .. .. 51 .. .. .. .. .. .. 39 .. .. .. .. .. 49 .. .. .. .. .. .. 54 
.. .. .. .. .. .. .. .. .. .. .. .. .. .. .. .. 53 .. .. .. .. 54 .. .. .. .. 51 .. .. .. 
.. .. 51 .. .. .. .. .. .. 39 .. .. .. .. .. .. 49 .. .. .. .. 39 .. .. .. .. .. .. 49 .. 
.. .. .. .. .. 39 .. .. .. .. .. 51 .. .. .. .. .. .. 39 .. .. .. .. .. .. 51 .. .. .. .. 
.. .. 39 .. .. .. .. .. 49 .. .. .. .. .. .. 49 .. .. .. .. .. .. 39 .. .. .. .. .. 49 .. 
.. .. .. .. .. 39 .. .. .. .. .. .. 51 .. .. .. .. .. 51 .. .. .. .. .. .. 39 .. .. .. .. 
.. .. 49 .. .. .. .. .. 39 .. .. .. .. .. 49 .. .. .. .. .. .. 39 .. .. .. .. .. 51 .. .. 
.. .. .. .. 39 .. .. .. .. .. .. 51 .. .. .. .. .. 39 .. .. .. .. .. .. 49 .. .. .. .. .. 
.. 51 .. .. .. .. .. .. .. .. .. .. .. .. .. .. .. .. .. .. .. .. .. .. .. .. .. 51 .. .. 
.. .. .. .. 51 .. .. .. .. .. .. 39 .. .. .. .. .. 49 .. .. .. .. .. .. 39 .. .. .. .. .. 
.. 49 .. .. .. .. .. .. 39 .. .. .. .. 51 .. .. .. .. .. .. 39 .. .. .. .. .. .. 51 .. .. 
.. .. .. 39 .. .. .. .. .. .. 49 .. .. .. .. .. .. 49 .. .. .. .. .. 39 .. .. .. .. .. .. 
49 .. .. .. .. .. .. 39 .. .. .. .. .. 51 .. .. .. .. .. .. 51 .. .. .. .. .. .. 39 .. .. 
.. .. .. 49 .. .. .. .. .. .. 39 .. .. .. .. .. .. 49 .. .. .. .. .. 39 .. .. .. .. .. .. 
51 .. .. .. .. .. .. 39 .. .. .. .. 51 .. .. .. .. .. .. 39 .. .. .. .. .. .. 49 .. .. .. 
.. .. 54 .. .. .. .. .. .. .. .. .. .. .. .. .. .. .. .. 53 .. .. .. .. 54 .. .. .. .. 51 
.. .. .. .. .. .. 51 .. .. .. .. .. .. 39 .. .. .. .. .. 49 .. .. .. .. .. .. 39 .. .. .. 
.. .. .. 49 .. .. .. .. .. 39 .. .. .. .. .. .. 51 .. .. .. .. .. .. 39 .. .. .. .. .. 51 
.. .. .. .. .. .. 39 .. .. .. .. .. 49 .. .. .. .. .. 49 .. .. .. .. .. .. 39 .. .. .. .. 
.. .. 49 .. .. .. .. .. 39 .. .. .. .. .. .. 51 .. .. .. .. .. .. 51 .. .. .. .. .. 39 .. 
.. .. .. .. .. 49 .. .. .. .. .. .. 39 .. .. .. .. .. 49 .. .. .. .. .. .. 39 .. .. .. .. 
.. .. 51 .. .. .. .. .. 39 .. .. .. .. .. .. 51 .. .. .. .. .. .. 39 .. .. .. .. .. 49 .. 
.. .. .. .. .. 51 .. .. .. .. .. .. .. .. .. .. .. .. .. .. .. .. .. .. .. .. .. .. .. .. 
.. 51 .. .. .. .. .. .. 51 .. .. .. .. .. 39 .. .. .. .. .. .. 49 .. .. .. .. .. .. 39 .. 
.. .. .. .. 49 .. .. .. .. .. .. 39 .. .. .. .. .. .. 51 .. .. .. .. .. 39 .. .. .. .. .. 
.. 51 .. .. .. .. .. .. 39 .. .. .. .. .. 49 .. .. .. .. .. .. 49 .. .. .. .. .. .. 39 .. 
.. .. .. .. 49 .. .. .. .. .. 39 .. .. .. .. .. .. 51 .. .. .. .. .. 51 .. .. .. .. .. .. 
39 .. .. .. .. .. .. 49 .. .. .. .. .. 39 .. .. .. .. .. .. 49 .. .. .. .. .. .. 39 .. .. 
.. .. .. 51 .. .. .. .. .. .. 39 .. .. .. .. .. .. 51 .. .. .. .. .. 39 .. .. .. .. .. .. 
49 .. .. .. .. .. .. 54 .. .. .. .. .. .. .. .. .. .. .. .. .. .. .. .. 53 .. .. .. 54 .. 
.. .. .. 51 .. .. .. .. .. 51 .. .. .. .. .. .. 39 .. .. .. .. .. .. 49 .. .. .. .. .. 39 
.. .. .. .. .. .. 49 .. .. .. .. .. .. 39 .. .. .. .. .. 51 .. .. .. .. .. .. 39 .. .. .. 
.. .. .. 51 .. .. .. .. .. 39 .. .. .. .. .. .. 49 .. .. .. .. .. .. 49 .. .. .. .. .. 39 
.. .. .. .. .. .. 49 .. .. .. .. .. .. 39 .. .. .. .. .. 51 .. .. .. .. .. .. 51 .. .. .. 
.. .. 39 .. .. .. .. .. 49 .. .. .. .. .. .. 39 .. .. .. .. .. .. 49 .. .. .. .. .. 39 .. 
.. .. .. .. .. 51 .. .. .. .. .. .. 39 .. .. .. .. .. .. 51 .. .. .. .. .. 39 .. .. .. .. 
.. .. 49 .. .. .. .. .. .. 51 .. .. .. .. .. .. .. .. .. .. .. .. .. .. .. .. .. .. .. .. 
.. .. .. .. .. 51 .. .. .. .. .. .. 51 .. .. .. .. .. .. 39 .. .. .. .. .. 49 .. .. .. .. 
.. 39 .. .. .. .. .. .. 49 .. .. .. .. .. 39 .. .. .. .. .. .. 51 .. .. .. .. .. .. 39 .. 
.. .. .. .. 51 .. .. .. .. .. .. 39 .. .. .. .. .. .. 49 .. .. .. .. .. 49 .. .. .. .. .. 
.. 39 .. .. .. .. .. .. 49 .. .. .. .. .. 39 .. .. .. .. .. .. 51 .. .. .. .. .. .. 51 .. 
.. .. .. .. 39 .. .. .. .. .. .. 49 .. .. .. .. .. .. 39 .. .. .. .. .. 49 .. .. .. .. .. 
39 .. .. .. .. .. .. 51 .. .. .. .. .. .. 39 .. .. .. .. .. 51 .. .. .. .. .. .. 39 .. .. 
.. .. .. .. 49 .. .. .. .. .. 54 .. .. .. .. .. .. .. .. .. .. .. .. .. .. .. .. 53 .. .. 
.. .. 54 .. .. .. .. 51 .. .. .. .. .. .. 51 .. .. .. .. .. 39 .. .. .. .. .. .. 49 .. .. 
.. .. .. .. 39 .. .. .. .. .. 49 .. .. .. .. .. .. 39 .. .. .. .. .. 51 .. .. .. .. .. 39 
.. .. .. .. .. .. 51 .. .. .. .. .. .. 39 .. .. .. .. .. 49 .. .. .. .. .. .. 49 .. .. .. 
.. .. .. 39 .. .. .. .. .. 49 .. .. .. .. .. .. 39 .. .. .. .. .. .. 51 .. .. .. .. .. 51 
.. .. .. .. .. .. 39 .. .. .. .. .. .. 49 .. .. .. .. .. .. 39 .. .. .. .. .. 49 .. .. .. 
.. .. .. 39 .. .. .. .. .. .. 51 .. .. .. .. .. 39 .. .. .. .. .. 51 .. .. .. .. .. .. 39 
.. .. .. .. .. 49 .. .. .. .. .. .. 51 .. .. .. .. .. .. .. .. .. .. .. .. .. .. .. .. .. 
.. .. .. .. .. .. .. .. .. 51 .. .. .. .. .. 51 .. .. .. .. .. .. 39 .. .. .. .. .. .. 49 
.. .. .. .. .. 39 .. .. .. .. .. .. 49 .. .. .. .. .. .. 39 .. .. .. .. .. 51 .. .. .. .. 
.. .. 39 .. .. .. .. .. .. 51 .. .. .. .. .. 39 .. .. .. .. .. 49 .. .. .. .. .. .. 49 .. 
.. .. .. .. 39 .. .. .. .. .. .. 49 .. .. .. .. .. .. 39 .. .. .. .. .. .. 51 .. .. .. .. 
.. 51 .. .. .. .. .. .. 39 .. .. .. .. .. .. 49 .. .. .. .. .. 39 .. .. .. .. .. .. 49 .. 
.. .. .. .. .. 39 .. .. .. .. .. 51 .. .. .. .. .. .. 39 .. .. .. .. .. .. 51 .. .. .. .. 
.. 39 .. .. .. .. .. .. 49 .. .. .. .. .. .. 54 .. .. .. .. .. .. .. .. .. .. .. .. .. .. 
.. 53 .. .. .. .. 54 .. .. .. 51 .. .. .. .. .. .. 51 .. .. .. .. .. .. 39 .. .. .. .. .. 
49 .. .. .. .. .. .. 39 .. .. .. .. .. .. 49 .. .. .. .. .. 39 .. .. .. .. .. .. 51 .. .. 
.. .. .. .. 39 .. .. .. .. .. 51 .. .. .. .. .. .. 39 .. .. .. .. .. .. 49 .. .. .. .. .. 
.. 49 .. .. .. .. .. 39 .. .. .. .. .. 49 .. .. .. .. .. .. 39 .. .. .. .. .. 51 .. .. .. 
.. .. .. 51 .. .. .. .. .. .. 39 .. .. .. .. .. 49 .. .. .. .. .. .. 39 .. .. .. .. .. .. 
49 .. .. .. .. .. 39 .. .. .. .. .. .. 51 .. .. .. .. .. .. 39 .. .. .. .. .. 51 .. .. .. 
.. .. .. 39 .. .. .. .. .. .. 49 .. .. .. .. .. 51 .. .. .. .. .. .. .. .. .. .. .. .. .. 
.. .. .. .. .. .. .. .. .. .. .. .. 51 .. .. .. .. .. .. 51 .. .. .. .. .. 39 .. .. .. .. 
.. .. 49 .. .. .. .. .. .. 39 .. .. .. .. .. 49 .. .. .. .. .. .. 39 .. .. .. .. .. .. 51 
.. .. .. .. .. .. 39 .. .. .. .. .. 51 .. .. .. .. .. .. 39 .. .. .. .. .. .. 49 .. .. .. 
.. .. 49 .. .. .. .. .. .. 39 .. .. .. .. .. .. 49 .. .. .. .. .. 39 .. .. .. .. .. .. 51 
.. .. .. .. .. .. 51 .. .. .. .. 39 .. .. .. .. .. .. 49 .. .. .. .. .. .. 39 .. .. .. .. 
.. 49 .. .. .. .. .. .. 39 .. .. .. .. .. .. 51 .. .. .. .. .. 39 .. .. .. .. .. .. 51 .. 
.. .. .. .. .. 39 .. .. .. .. .. 49 .. .. .. .. .. .. 54 .. .. .. .. .. .. .. .. .. .. .. 
.. .. .. .. .. 53 .. .. .. .. 54 .. .. .. .. 51 .. .. .. .. .. 51 .. .. .. .. .. .. 39 .. 
.. .. .. .. .. 49 .. .. .. .. 39 .. .. .. .. .. .. 49 .. .. .. .. .. .. 39 .. .. .. .. .. 
.. 51 .. .. .. .. .. 39 .. .. .. .. .. .. 51 .. .. .. .. .. .. 39 .. .. .. .. .. 49 .. .. 
.. .. .. .. 49 .. .. .. .. .. .. 39 .. .. .. .. .. 49 .. .. .. .. .. .. 39 .. .. .. .. .. 
.. 51 .. .. .. .. .. 51 .. .. .. .. .. .. 39 .. .. .. .. .. .. 49 .. .. .. .. .. 39 .. .. 
.. .. .. 49 .. .. .. .. .. .. 39 .. .. .. .. .. 51 .. .. .. .. .. .. 39 .. .. .. .. .. .. 
51 .. .. .. .. .. 39 .. .. .. .. .. .. 49 .. .. .. .. .. .. 51 .. .. .. .. .. .. .. .. .. 
.. .. .. .. .. .. .. .. .. .. .. .. .. .. .. .. 51 .. .. .. .. .. .. 51 .. .. .. .. .. .. 
39 .. .. .. .. .. .. 49 .. .. .. .. .. 39 .. .. .. .. .. .. 49 .. .. .. .. .. .. 39 .. .. 
.. .. 51 .. .. .. .. .. .. 39 .. .. .. .. .. .. 51 .. .. .. .. .. 39 .. .. .. .. .. .. 49 
.. .. .. .. .. .. 49 .. .. .. .. .. 39 .. .. .. .. .. .. 49 .. .. .. .. .. .. 39 .. .. .. 
.. .. 51 .. .. .. .. .. .. 51 .. .. .. .. .. .. 39 .. .. .. .. .. 49 .. .. .. .. .. .. 39 
.. .. .. .. .. .. 49 .. .. .. .. .. 39 .. .. .. .. .. .. 51 .. .. .. .. .. .. 39 .. .. .. 
.. 51 .. .. .. .. .. .. 39 .. .. .. .. .. .. 49 .. .. .. .. .. 54 .. .. .. .. .. .. .. .. 
.. .. .. .. .. .. .. .. 53 .. .. .. .. 54 .. .. .. .. 51 .. .. .. .. .. .. 51 .. .. .. .. 
.. .. 39 .. .. .. .. .. 49 .. .. .. .. .. .. 39 .. .. .. .. .. .. 49 .. .. .. .. .. 39 .. 
.. .. .. .. .. 51 .. .. .. .. .. .. 39 .. .. .. .. .. 51 .. .. .. .. .. .. 39 .. .. .. .. 
.. 49 .. .. .. .. .. 49 .. .. .. .. .. .. 39 .. .. .. .. .. .. 49 .. .. .. .. .. 39 .. .. 
.. .. .. .. 51 .. .. .. .. .. .. 51 .. .. .. .. .. 39 .. .. .. .. .. .. 49 .. .. .. .. .. 
.. 39 .. .. .. .. .. 49 .. .. .. .. .. .. 39 .. .. .. .. .. .. 51 .. .. .. .. .. 39 .. .. 
.. .. .. .. 51 .. .. .. .. .. .. 39 .. .. .. .. .. .. 49 .. .. .. .. 39 51 .. .. .. .. .. 
.. .. .. .. .. .. .. .. .. .. .. .. .. .. .. .. .. .. .. .. 51 .. .. .. .. .. .. 51 .. .. 
.. .. .. 39 .. .. .. .. .. .. 49 .. .. .. .. .. .. 39 .. .. .. .. .. 49 .. .. .. .. .. .. 
39 .. .. .. .. .. .. 51 .. .. .. .. .. 39 .. .. .. .. .. .. 51 .. .. .. .. .. .. 39 .. .. 
.. .. .. 49 .. .. .. .. .. .. 49 .. .. .. .. .. .. 39 .. .. .. .. 49 .. .. .. .. .. .. 39 
.. .. .. .. .. .. 51 .. .. .. .. .. 51 .. .. .. .. .. .. 39 .. .. .. .. .. .. 49 .. .. .. 
.. .. 39 .. .. .. .. .. .. 49 .. .. .. .. .. .. 39 .. .. .. .. .. 51 .. .. .. .. .. .. 39 
.. .. .. .. .. .. 51 .. .. .. .. .. .. 39 .. .. .. .. .. 49 .. .. .. .. .. .. 54 .. .. .. 
.. .. .. .. .. .. .. .. .. .. .. .. .. 53 .. .. .. 54 .. .. .. .. 51 .. .. .. .. .. 51 .. 
.. .. .. .. .. 39 .. .. .. .. .. .. 49 .. .. .. .. .. 39 .. .. .. .. .. .. 49 .. .. .. .. 
.. .. 39 .. .. .. .. .. 51 .. .. .. .. .. .. 39 .. .. .. .. .. .. 51 .. .. .. .. .. 39 .. 
.. .. .. .. .. 49 .. .. .. .. .. .. 49 .. .. .. .. .. 39 .. .. .. .. .. .. 49 .. .. .. .. 
.. .. 39 .. .. .. .. .. 51 .. .. .. .. .. .. 51 .. .. .. .. .. 39 .. .. .. .. .. 49 .. .. 
.. .. .. .. 39 .. .. .. .. .. .. 49 .. .. .. .. .. .. 39 .. .. .. .. .. 51 .. .. .. .. .. 
.. 39 .. .. .. .. .. .. 51 .. .. .. .. .. 39 .. .. .. .. .. .. 49 .. .. .. .. .. .. 51 .. 
.. .. .. .. .. .. .. .. .. .. .. .. .. .. .. .. .. .. .. .. .. .. .. .. 51 .. .. .. .. .. 
.. 51 .. .. .. .. .. .. 39 .. .. .. .. .. 49 .. .. .. .. .. 39 .. .. .. .. .. .. 49 .. .. 
.. .. .. 39 .. .. .. .. .. .. 51 .. .. .. .. .. .. 39 .. .. .. .. .. 51 .. .. .. .. .. .. 
39 .. .. .. .. .. .. 49 .. .. .. .. .. 49 .. .. .. .. .. .. 39 .. .. .. .. .. .. 49 .. .. 
.. .. .. 39 .. .. .. .. .. .. 51 .. .. .. .. .. .. 51 .. .. .. .. .. .. 39 .. .. .. .. .. 
49 .. .. .. .. .. .. 39 .. .. .. .. .. 49 .. .. .. .. .. 39 .. .. .. .. .. .. 51 .. .. .. 
.. .. .. 39 .. .. .. .. .. 51 .. .. .. .. .. .. 39 .. .. .. .. .. .. 49 .. .. .. .. .. 54 
.. .. .. .. .. .. .. .. .. .. .. .. .. .. .. .. 53 .. .. .. .. 54 .. .. .. .. 51 .. .. .. 
.. .. .. 51 .. .. .. .. .. 39 .. .. .. .. .. .. 49 .. .. .. .. .. .. 39 .. .. .. .. .. 49 
.. .. .. .. .. .. 39 .. .. .. .. .. 51 .. .. .. .. .. 39 .. .. .. .. .. .. 51 .. .. .. .. 
.. .. 39 .. .. .. .. .. 49 .. .. .. .. .. .. 49 .. .. .. .. .. .. 39 .. .. .. .. .. .. 49 
.. .. .. .. .. 39 .. .. .. .. .. .. 51 .. .. .. .. .. .. 51 .. .. .. .. .. 39 .. .. .. .. 
.. .. 49 .. .. .. .. .. .. 39 .. .. .. .. .. 49 .. .. .. .. .. .. 39 .. .. .. .. .. .. 51 
.. .. .. .. .. 39 .. .. .. .. .. 51 .. .. .. .. .. .. 39 .. .. .. .. .. 49 .. .. .. .. .. 
.. 51 .. .. .. .. .. .. .. .. .. .. .. .. .. .. .. .. .. .. .. .. .. .. .. .. .. .. 51 .. 
.. .. .. .. 51 .. .. .. .. .. .. 39 .. .. .. .. .. .. 49 .. .. .. .. .. 39 .. .. .. .. .. 
.. 49 .. .. .. .. .. .. 39 .. .. .. .. .. 51 .. .. .. .. .. .. 39 .. .. .. .. .. .. 51 .. 
.. .. .. .. 39 .. .. .. .. .. 49 .. .. .. .. .. .. 49 .. .. .. .. .. .. 39 .. .. .. .. .. 
49 .. .. .. .. .. .. 39 .. .. .. .. .. .. 51 .. .. .. .. .. 51 .. .. .. .. .. .. 39 .. .. 
.. .. .. .. 49 .. .. .. .. .. 39 .. .. .. .. .. .. 49 .. .. .. .. .. .. 39 .. .. .. .. .. 
51 .. .. .. .. .. .. 39 .. .. .. .. .. .. 51 .. .. .. .. .. 39 .. .. .. .. .. .. 49 .. .. 
.. .. .. 54 .. .. .. .. .. .. .. .. .. .. .. .. .. .. .. .. 53 .. .. .. .. 54 .. .. .. 51 
.. .. .. .. .. .. 51 .. .. .. .. .. .. 39 .. .. .. .. .. 49 .. .. .. .. .. .. 39 .. .. .. 
.. .. .. 49 .. .. .. .. .. 39 .. .. .. .. .. .. 51 .. .. .. .. .. .. 39 .. .. .. .. .. .. 
51 .. .. .. .. .. 39 .. .. .. .. .. .. 49 .. .. .. .. .. .. 49 .. .. .. .. .. 39 .. .. .. 
.. .. 49 .. .. .. .. .. .. 39 .. .. .. .. .. 51 .. .. .. .. .. .. 51 .. .. .. .. .. .. 39 
.. .. .. .. .. 49 .. .. .. .. .. .. 39 .. .. .. .. .. .. 49 .. .. .. .. .. 39 .. .. .. .. 
.. .. 51 .. .. .. .. .. .. 39 .. .. .. .. .. 51 .. .. .. .. .. .. 39 .. .. .. .. .. .. 49 
.. .. .. .. .. 51 .. .. .. .. .. .. .. .. .. .. .. .. .. .. .. .. .. .. .. .. .. .. .. .. 
.. 51 .. .. .. .. .. .. 51 .. .. .. .. .. 39 .. .. .. .. .. .. 49 .. .. .. .. .. .. 39 .. 
.. .. .. .. .. 49 .. .. .. .. .. 39 .. .. .. .. .. .. 51 .. .. .. .. .. .. 39 .. .. .. .. 
.. 51 .. .. .. .. .. .. 39 .. .. .. .. .. .. 49 .. .. .. .. .. 49 .. .. .. .. .. .. 39 .. 
.. .. .. .. .. 49 .. .. .. .. .. 39 .. .. .. .. .. .. 51 .. .. .. .. .. .. 51 .. .. .. .. 
39 .. .. .. .. .. .. 49 .. .. .. .. .. .. 39 .. .. .. .. .. 49 .. .. .. .. .. .. 39 .. .. 
.. .. .. .. 51 .. .. .. .. .. 39 .. .. .. .. .. .. 51 .. .. .. .. .. .. 39 .. .. .. .. .. 
49 .. .. .. .. .. .. 54 .. .. .. .. .. .. .. .. .. .. .. .. .. .. .. .. 53 .. .. .. .. 54 
.. .. .. .. 51 .. .. .. .. .. .. 51 .. .. .. .. .. 39 .. .. .. .. .. 49 .. .. .. .. .. .. 
39 .. .. .. .. .. 49 .. .. .. .. .. .. 39 .. .. .. .. .. .. 51 .. .. .. .. .. 39 .. .. .. 
.. .. .. 51 .. .. .. .. .. .. 39 .. .. .. .. .. 49 .. .. .. .. .. .. 49 .. .. .. .. .. .. 
39 .. .. .. .. .. 49 .. .. .. .. .. .. 39 .. .. .. .. .. .. 51 .. .. .. .. .. 51 .. .. .. 
.. .. .. 39 .. .. .. .. .. .. 49 .. .. .. .. .. 39 .. .. .. .. .. 49 .. .. .. .. .. .. 39 
.. .. .. .. .. 51 .. .. .. .. .. .. 39 .. .. .. .. .. .. 51 .. .. .. .. .. 39 .. .. .. .. 
.. .. 49 .. .. .. .. .. .. 51 .. .. .. .. .. .. .. .. .. .. .. .. .. .. .. .. .. .. .. .. 
.. .. .. .. .. .. 51 .. .. .. .. .. 51 .. .. .. .. .. .. 39 .. .. .. .. .. .. 49 .. .. .. 
.. .. 39 .. .. .. .. .. .. 49 .. .. .. .. .. .. 39 .. .. .. .. 51 .. .. .. .. .. .. 39 .. 
.. .. .. .. .. 51 .. .. .. .. .. 39 .. .. .. .. .. .. 49 .. .. .. .. .. .. 49 .. .. .. .. 
.. 39 .. .. .. .. .. .. 49 .. .. .. .. .. .. 39 .. .. .. .. .. 51 .. .. .. .. .. .. 51 .. 
.. .. .. .. .. 39 .. .. .. .. .. 49 .. .. .. .. .. .. 39 .. .. .. .. .. .. 49 .. .. .. .. 
.. 39 .. .. .. .. .. .. 51 .. .. .. .. .. .. 39 .. .. .. .. 51 .. .. .. .. .. .. 39 
! Song 1
14 .. .. .. 55 .. .. .. .. .. .. .. .. .. 55 .. .. .. .. .. .. .. .. .. .. .. 55 .. .. .. 
.. .. .. .. .. .. .. .. 58 .. .. .. .. .. .. .. .. .. .. .. 58 .. .. .. .. .. .. .. .. .. 
.. .. 58 .. .. .. .. .. .. .. .. .. .. 63 .. .. .. .. .. .. .. .. .. .. .. .. .. .. .. .. 
.. 62 .. 63 .. .. .. .. .. .. .. .. .. .. .. .. .. .. .. .. .. 62 .. .. 63 .. .. .. .. .. 
.. .. .. .. .. .. .. .. .. .. .. .. .. .. .. .. .. .. .. .. .. .. .. .. .. .. .. .. .. .. 
.. .. .. .. .. .. .. .. .. .. .. .. .. .. .. .. .. .. .. .. .. .. .. .. .. .. .. .. .. .. 
.. .. .. .. .. .. .. .. .. .. .. .. .. .. .. .. .. .. .. .. .. .. .. .. .. .. .. .. .. .. 
.. .. .. .. .. .. .. .. .. .. .. .. .. .. .. .. .. .. .. .. .. .. .. .. .. .. .. .. .. .. 
.. .. .. .. .. .. 
! Song 2
14 .. .. .. 62 .. .. .. .. .. .. .. .. .. 61 .. .. .. .. .. .. .. .. .. .. .. 60 .. .. .. 
.. .. .. .. .. .. .. .. 59 .. .. .. .. .. .. .. .. .. .. .. 58 .. .. .. .. .. .. .. .. .. 
.. .. 57 .. .. .. .. .. .. .. .. .. .. 55 .. .. .. .. .. .. .. .. .. .. .. .. .. .. .. .. 
.. .. 54 55 .. .. .. .. .. .. .. .. .. .. .. .. .. .. .. .. .. .. 54 55 .. .. .. .. .. .. 
.. .. .. .. .. .. .. .. .. .. .. .. .. .. .. .. .. .. .. .. .. .. .. .. .. .. .. .. .. .. 
.. .. .. .. .. .. .. .. .. .. .. .. .. .. .. .. .. .. .. .. .. .. .. .. .. .. .. .. .. .. 
.. .. .. .. .. .. .. .. .. .. .. .. .. .. .. .. .. .. .. .. .. .. .. .. .. .. .. .. .. .. 
.. .. .. .. .. .. .. .. .. .. .. .. .. .. .. .. .. .. .. .. .. .. .. .. .. .. .. .. .. .. 
.. .. .. .. .. .. 
! Song 3
14 .. .. 37 .. .. 16 .. .. .. .. .. .. .. .. .. .. .. .. .. .. .. .. .. .. .. .. .. .. .. 
.. .. .. .. .. .. .. .. .. .. .. .. .. .. .. .. .. .. .. .. .. .. .. .. .. .. .. .. .. .. 
.. .. .. .. .. .. .. .. .. .. .. .. .. .. .. .. .. .. .. .. .. .. .. .. .. .. .. .. .. .. 
.. .. .. .. .. .. .. .. .. .. .. .. .. .. .. .. .. .. .. .. .. .. .. .. .. .. .. .. .. .. 
.. .. .. .. .. .. .. .. .. .. .. .. 
! Song 4
14 .. .. 49 .. .. 16 .. .. .. .. .. .. .. .. .. .. .. .. .. .. .. .. .. .. .. .. .. .. .. 
.. .. .. .. .. .. .. .. .. .. .. .. .. .. .. .. .. .. .. .. .. .. .. .. .. .. .. .. .. .. 
.. .. .. .. .. .. .. .. .. .. .. .. .. .. .. .. .. .. .. .. .. .. .. .. .. .. .. .. .. .. 
.. .. .. .. .. .. .. .. .. .. .. .. .. .. .. .. .. .. .. .. .. .. .. .. .. .. .. .. .. .. 
.. .. .. .. .. .. .. .. .. .. .. .. 
! Song 5
14 .. .. .. .. 46 .. .. .. 51 .. .. .. 58 .. .. .. 55 .. .. .. 51 .. .. .. 46 .. .. .. 43 
.. .. .. 46 .. .. .. 50 .. .. .. 51 .. .. .. .. .. .. .. .. .. .. .. .. .. .. .. .. .. .. 
.. .. .. .. .. .. .. .. .. .. .. 14 .. .. .. .. .. .. .. .. .. .. .. .. .. .. .. .. .. .. 
.. .. .. .. .. .. .. .. .. .. .. .. .. .. .. .. .. .. .. .. .. .. .. .. .. .. .. .. .. .. 
.. .. .. .. .. .. .. .. .. .. .. .. .. .. .. .. .. .. .. .. .. .. .. .. .. .. .. .. .. .. 
.. .. .. .. .. .. .. .. .. .. .. .. .. .. .. .. .. .. .. .. .. 
! Song 6
.. .. .. .. .. .. .. .. .. .. .. .. .. .. .. .. .. .. .. .. .. .. .. .. .. .. .. .. .. .. 
.. .. .. .. .. .. .. .. .. .. .. .. .. .. .. .. .. .. .. .. .. .. .. .. .. .. .. .. .. .. 
.. .. .. .. .. .. .. .. .. .. .. .. .. .. .. .. .. .. .. .. .. .. .. .. .. .. .. .. .. .. 
.. .. .. .. .. .. .. .. .. .. .. .. .. .. .. .. .. .. .. .. .. .. .. .. .. .. .. .. .. .. 
.. .. .. .. .. .. .. .. .. .. .. .. .. .. .. .. .. .. .. 
! Song 7
.. .. .. .. .. .. .. .. .. .. .. .. .. .. .. .. .. .. .. .. .. .. .. .. .. .. .. .. .. .. 
.. .. .. .. .. .. .. .. .. .. .. .. .. .. .. .. .. .. .. .. .. .. .. .. .. .. .. .. .. .. 
.. .. .. .. .. .. .. .. .. .. .. .. .. .. .. .. .. .. .. .. .. .. .. .. .. .. .. .. .. .. 
.. .. .. .. .. .. .. .. .. .. .. .. .. .. .. .. .. .. .. .. .. .. .. .. .. .. .. .. .. .. 
.. .. .. .. .. .. .. .. .. .. .. .. .. .. .. 
! Song 8
.. .. .. .. .. .. .. .. .. .. .. .. .. .. .. .. .. .. .. .. .. .. .. .. .. .. .. .. .. .. 
.. .. .. .. .. .. .. .. .. .. .. .. .. .. .. .. .. .. .. .. .. .. .. .. .. .. .. .. .. .. 
.. .. .. .. .. .. .. .. .. .. .. .. .. .. .. .. .. .. .. .. .. .. .. .. .. .. .. .. .. .. 
.. .. .. .. .. .. .. .. .. .. .. .. .. .. .. .. .. .. .. .. .. .. .. .. .. .. .. .. .. .. 
.. .. .. .. .. .. .. .. .. .. .. .. .. .. .. .. .. .. .. .. .. .. .. 
! Song 9
.. .. .. .. .. .. .. .. .. .. .. .. .. .. .. .. .. .. .. .. .. .. .. .. .. .. .. .. .. .. 
.. .. .. .. .. .. .. .. .. .. .. .. .. .. .. .. .. .. .. .. .. .. .. .. .. .. .. .. .. .. 
.. .. .. .. .. .. .. .. .. .. .. .. .. .. .. .. .. .. .. .. .. .. .. .. .. .. .. .. .. .. 
.. .. .. .. .. .. .. .. .. .. .. .. .. .. .. .. .. .. .. .. .. .. .. .. .. .. .. .. .. .. 
.. .. .. .. .. .. .. .. .. .. .. .. .. .. .. .. .. .. .. .. .. .. .. .. .. 
! Song 10
.. .. .. .. .. .. .. .. .. .. .. .. .. .. .. .. .. .. .. .. .. .. .. .. .. .. .. .. .. .. 
.. .. .. .. .. .. .. .. .. .. .. .. .. .. .. .. .. .. .. .. .. .. .. .. .. .. .. .. .. .. 
.. .. .. .. .. .. .. .. .. .. .. .. .. .. .. .. .. .. .. .. .. .. .. .. .. .. .. .. .. .. 
.. .. .. .. .. .. .. .. .. .. .. .. .. .. .. .. .. .. .. .. .. .. .. .. .. .. .. .. .. .. 
.. .. .. .. .. .. .. .. .. .. .. .. .. .. .. .. .. .. .. .. .. .. .. 
! Song 11
.. .. .. .. .. 61 .. .. 60 .. .. 59 .. .. 57 .. .. 56 .. .. 54 .. .. 53 .. .. 51 .. .. 50 
.. .. 49 .. .. 47 .. .. 46 .. .. 45 .. .. 43 .. .. 42 .. .. 40 .. .. 39 .. .. 38 .. .. 36 
.. .. 35 .. .. 34 .. .. 32 .. .. 31 .. .. 29 .. .. 28 .. .. 27 .. .. 25 .. .. 24 .. .. 22 
.. .. 21 .. 20 .. .. 18 .. .. 17 .. .. 15 .. .. 14 .. .. .. .. .. 75 .. .. 74 .. .. 73 .. 
.. 71 .. .. 16 .. .. .. .. .. .. .. .. .. .. .. .. .. .. .. .. .. .. .. .. .. .. .. .. .. 
.. .. .. .. .. .. .. 
! Song 12
14 .. .. .. .. 61 .. .. 60 .. .. 59 .. .. 58 .. .. 57 .. .. 56 .. .. 55 .. .. 54 .. .. 53 
.. .. 51 .. .. .. .. .. 50 .. .. 49 .. .. 48 .. .. 47 .. .. 46 .. .. 45 .. .. 44 .. .. 43 
.. .. 42 .. .. 41 .. .. 40 .. .. 39 .. .. 38 .. .. 37 .. .. 36 .. .. 35 .. .. 34 .. .. 33 
.. .. 32 .. 31 .. .. 30 .. .. 29 .. .. 28 .. .. 27 .. .. 26 .. .. 25 .. .. 24 .. .. 23 .. 
.. 22 .. .. 21 .. .. 20 .. .. 19 .. .. 18 .. .. 17 .. .. 14 .. .. .. .. .. .. .. .. .. .. 
.. .. .. .. .. .. .. .. .. .. .. .. .. .. .. .. .. .. .. .. .. .. .. .. .. .. .. .. .. .. 
.. .. .. .. .. .. .. .. .. .. .. .. .. .. .. .. .. .. .. .. .. .. .. .. .. .. .. .. .. .. 
.. .. .. .. .. .. .. .. .. .. .. .. .. .. .. .. .. .. .. .. .. .. .. .. .. .. .. .. .. .. 
.. .. .. .. .. .. .. .. .. .. .. .. .. .. .. .. .. .. .. .. .. .. .. .. .. .. 
! Song 13
.. .. .. .. .. 27 .. 24 .. 20 .. 17 .. 22 .. 26 .. 33 35 37 39 41 43 45 47 49 51 53 55 57 
59 61 63 65 67 69 71 73 75 14 15 17 19 21 23 25 27 14 .. .. .. .. .. .. .. .. .. .. .. .. 
.. .. .. .. .. .. .. .. .. .. .. .. .. .. .. .. .. .. .. .. .. .. .. .. .. .. .. .. .. .. 
.. .. .. .. .. .. .. .. .. .. .. .. .. .. .. .. .. .. .. .. .. .. .. .. .. .. .. .. .. .. 
.. .. .. .. .. .. .. .. .. .. .. .. .. .. .. .. .. .. .. .. .. .. .. .. .. .. .. .. .. .. 
.. .. .. .. .. .. .. .. .. .. .. .. .. .. .. .. .. .. .. .. .. .. .. 
! Song 14
.. .. .. .. .. .. .. .. .. .. .. .. .. .. .. .. .. .. .. .. .. .. .. .. .. .. .. .. .. .. 
.. .. .. .. .. .. .. .. .. .. .. .. .. .. .. .. .. .. .. .. .. .. .. .. .. .. .. .. .. .. 
.. .. .. .. .. .. .. .. .. .. .. .. .. .. .. .. .. .. .. .. .. .. .. .. .. .. .. .. .. .. 
.. .. .. .. .. .. .. .. .. .. .. .. .. .. .. .. .. .. .. .. .. .. .. .. .. .. .. .. .. .. 
.. .. .. .. .. .. .. .. .. .. .. .. .. .. .. .. .. .. .. 
! Song 15
.. .. .. .. .. .. .. 51 .. .. .. .. .. 56 .. .. .. .. .. 59 .. .. .. .. .. 64 .. .. .. .. 
.. .. .. .. .. .. .. .. .. .. .. .. .. .. .. .. .. .. .. .. .. .. .. .. .. 16 .. .. .. .. 
.. .. .. .. .. .. .. .. .. .. .. .. .. .. .. .. .. .. .. .. .. .. .. .. .. .. .. .. .. .. 
.. .. .. .. .. .. .. .. .. .. .. .. .. .. .. .. .. .. .. .. .. .. .. .. .. .. .. .. .. .. 
.. .. .. .. .. .. .. .. .. .. .. .. .. .. .. .. .. .. .. .. .. .. .. .. .. .. .. .. .. .. 
.. .. .. .. .. .. .. .. .. .. .. .. .. .. .. .. .. .. .. .. .. 
! Song 16
14 .. .. .. .. .. .. 51 .. .. .. .. .. 54 .. .. .. .. .. 57 .. .. .. .. .. 61 .. .. .. .. 
.. .. .. .. .. .. .. .. .. .. .. .. .. .. .. .. .. .. .. .. .. .. .. .. .. 15 .. .. .. .. 
.. .. .. .. .. .. .. .. .. .. .. .. .. .. .. .. .. .. .. .. .. .. .. .. .. .. .. .. .. .. 
.. .. .. .. .. .. .. .. .. .. .. .. .. .. .. .. .. .. .. .. .. .. .. .. .. .. .. .. .. .. 
.. .. .. .. .. .. .. .. .. .. .. .. .. .. .. .. .. .. .. .. .. .. .. .. .. .. .. .. .. .. 
.. .. .. .. .. .. .. .. .. .. .. .. .. .. .. .. .. .. .. .. .. 
! Song 17
14 .. .. .. .. .. .. 54 .. .. .. .. .. 58 .. .. .. .. .. 61 .. .. .. .. .. 66 .. .. .. .. 
.. .. .. .. .. .. .. .. .. .. .. .. .. .. .. .. .. .. .. .. .. .. .. .. .. 16 .. .. .. .. 
.. .. .. .. .. .. .. .. .. .. .. .. .. .. .. .. .. .. .. .. .. .. .. .. .. .. .. .. .. .. 
.. .. .. .. .. .. .. .. .. .. .. .. .. .. .. .. .. .. .. .. .. .. .. .. .. .. .. .. .. .. 
.. .. .. .. .. .. .. .. .. .. .. .. .. .. .. .. .. .. .. .. .. .. .. .. .. .. .. .. .. .. 
.. .. .. .. .. .. .. .. .. .. .. .. .. .. .. .. .. .. .. .. .. 
! Song 18
14 .. .. .. .. .. .. .. 40 .. .. .. .. .. 44 .. .. .. .. .. 47 .. .. .. .. .. 51 .. .. .. 
.. .. 52 .. .. .. .. .. 56 .. .. .. .. .. 59 .. .. .. .. .. 63 .. .. .. .. .. 64 .. .. .. 
.. .. 60 .. .. .. .. .. 57 .. .. .. .. .. 53 .. .. .. .. .. 52 .. .. .. .. .. 48 .. .. .. 
.. .. 45 .. .. .. .. 41 .. .. .. .. .. 15 .. .. .. .. .. .. .. .. .. .. .. .. .. .. .. .. 
.. .. .. .. .. .. .. .. .. .. .. .. .. .. .. .. .. .. .. .. .. .. .. .. .. .. .. .. .. .. 
.. .. .. .. .. .. .. .. .. .. .. .. .. .. .. .. .. .. .. .. .. .. .. .. .. .. .. .. .. .. 
.. .. .. .. .. .. .. .. .. .. .. .. .. .. .. .. .. .. .. .. .. .. .. .. .. .. .. .. .. .. 
.. .. .. .. .. .. .. .. .. .. .. .. .. .. .. .. .. .. 
! Song 19
14 .. .. .. .. .. .. 59 .. .. .. .. .. 56 .. .. .. .. .. 54 .. .. .. .. .. 51 .. .. .. .. 
.. 54 .. .. .. .. .. 56 .. .. .. .. .. 61 .. .. .. .. .. 56 .. .. .. .. .. 54 .. .. .. .. 
.. 51 .. .. .. .. .. 54 .. .. .. .. .. 56 .. .. .. .. .. 59 .. .. .. .. .. 61 .. .. .. .. 
.. 63 .. .. .. .. 66 .. .. .. .. .. 68 .. .. .. .. .. 71 .. .. .. .. .. .. .. .. .. .. .. 
.. .. .. .. .. .. .. .. .. .. .. .. .. .. .. .. .. .. 16 .. .. .. .. .. .. .. .. .. .. .. 
.. .. .. .. .. .. .. .. .. .. .. .. .. .. .. .. .. .. .. .. .. .. .. .. .. .. .. .. .. .. 
.. .. .. .. .. .. .. .. .. .. .. .. .. .. .. .. .. .. .. .. .. .. .. .. .. .. .. .. .. .. 
.. .. .. .. .. .. .. .. .. .. .. .. .. .. .. .. .. .. .. .. .. .. .. .. .. .. .. .. .. .. 
.. .. .. .. .. .. .. .. .. .. .. .. .. .. .. .. .. .. .. .. .. .. .. .. .. .. 
! Song 20
14 .. .. .. .. .. .. .. .. .. .. .. .. .. .. .. .. .. .. .. .. .. .. .. .. .. .. .. .. .. 
.. .. .. .. .. .. .. .. .. .. .. .. .. .. .. .. .. .. .. .. .. .. .. .. .. .. .. .. .. .. 
.. .. .. .. .. .. .. .. .. .. .. .. .. .. .. .. .. .. .. .. .. .. .. .. .. .. .. .. .. .. 
.. .. .. .. .. .. .. .. .. .. .. .. .. .. .. .. .. .. .. .. .. .. .. .. .. .. .. .. .. .. 
.. .. .. .. .. .. .. .. .. .. .. .. .. .. .. 
! Song 21
.. .. .. .. .. .. .. .. .. .. .. .. .. .. .. .. .. .. .. .. .. .. .. .. .. .. .. .. .. .. 
.. .. .. .. .. .. .. .. .. .. .. .. .. .. .. .. .. .. .. .. .. .. .. .. .. .. .. .. .. .. 
.. .. .. .. .. .. .. .. .. .. .. .. .. .. .. .. .. .. .. .. .. .. .. .. .. .. .. .. .. .. 
.. .. .. .. .. .. .. .. .. .. .. .. .. .. .. .. .. .. .. .. .. .. .. .. .. .. .. .. .. .. 
.. .. .. .. .. .. .. .. .. .. .. .. .. .. .. 
! Song 22
.. .. .. .. .. .. .. .. .. .. .. .. .. .. .. .. .. .. .. .. .. .. .. .. .. .. .. .. .. .. 
.. .. .. .. .. .. .. .. .. .. .. .. .. .. .. .. .. .. .. .. .. .. .. .. .. .. .. .. .. .. 
.. .. .. .. .. .. .. .. .. .. .. .. .. .. .. .. .. .. .. .. .. .. .. .. .. .. .. .. .. .. 
.. .. .. .. .. .. .. .. .. .. .. .. .. .. .. .. .. .. .. .. .. .. .. .. .. .. .. .. .. .. 
.. .. .. .. .. .. .. .. .. .. .. .. .. .. .. 
! Song 23
.. .. .. .. .. .. .. 57 .. .. 56 .. .. 55 .. .. 54 .. .. 53 .. .. 51 .. .. .. .. .. 49 .. 
.. 47 .. .. .. .. .. 51 .. .. .. .. .. 54 .. .. .. .. .. 58 .. .. .. .. .. 49 .. .. .. .. 
.. 53 .. .. .. .. .. 56 .. .. .. .. .. 60 .. .. .. .. .. 51 .. .. .. .. .. 56 .. .. .. .. 
.. 59 .. .. .. .. 64 .. .. .. .. .. .. .. .. .. .. .. .. .. .. .. .. .. .. .. .. .. .. .. 
.. .. .. .. .. .. 16 .. .. .. .. .. .. .. .. .. .. .. .. .. .. .. .. .. .. .. .. .. .. .. 
.. .. .. .. .. .. .. .. .. .. .. .. .. .. .. .. .. .. .. .. .. .. .. .. .. .. .. .. .. .. 
.. .. .. .. .. .. .. .. .. .. .. .. .. .. .. .. .. .. .. .. .. .. .. .. .. .. .. .. .. .. 
.. .. .. .. .. .. .. .. .. .. .. .. .. .. .. .. .. .. .. .. .. .. .. .. .. .. .. .. .. .. 
.. .. .. .. .. .. .. .. .. .. .. .. .. .. 
! Song 24
14 .. .. .. .. .. .. .. .. .. .. .. .. .. .. .. .. .. .. .. .. .. .. .. .. .. .. .. .. .. 
.. .. .. .. .. .. .. .. .. .. .. .. .. .. .. .. .. .. .. .. .. .. .. .. .. .. .. .. .. .. 
.. .. .. .. .. .. .. .. .. .. .. .. .. .. .. .. .. .. .. .. .. .. .. .. .. .. .. .. .. .. 
.. .. .. .. .. .. .. .. .. .. .. .. .. .. .. .. .. .. .. .. .. .. .. .. .. .. .. .. .. .. 
.. .. .. .. .. .. .. .. .. .. .. .. 
! Song 25
.. .. .. .. .. 15 .. 14 .. .. .. 17 .. 14 .. .. .. 21 23 25 27 29 31 33 35 37 39 41 43 45 
47 49 51 53 55 57 59 61 63 65 67 69 71 73 75 14 15 .. .. .. .. .. .. .. .. .. .. .. .. .. 
.. .. .. .. .. .. .. .. .. .. .. .. .. .. .. .. .. .. .. .. .. .. .. .. .. .. .. .. .. .. 
.. .. .. .. .. .. .. .. .. .. .. .. .. .. .. .. .. .. .. .. .. .. .. .. .. .. .. .. .. .. 
.. .. .. .. .. .. .. .. .. .. .. .. .. .. .. .. .. .. .. .. .. .. .. .. .. .. .. .. .. .. 
.. .. .. .. .. .. .. .. .. .. .. .. .. .. .. .. .. .. .. .. .. .. .. 
! Song 26
14 .. .. .. .. .. .. .. .. .. .. .. .. .. .. .. .. .. .. .. .. .. .. .. .. .. .. .. .. .. 
.. .. .. .. .. .. .. .. .. .. .. .. .. .. .. .. .. .. .. .. .. .. .. .. .. .. .. .. .. .. 
.. .. .. .. .. .. .. .. .. .. .. .. .. .. .. .. .. .. .. .. .. .. .. .. .. .. .. .. .. .. 
.. .. .. .. .. .. .. .. .. .. .. .. .. .. .. .. .. .. .. .. .. .. .. .. .. .. .. .. .. .. 
.. .. .. .. .. .. .. .. .. .. .. .. 
! Song 27
.. .. .. .. .. .. .. .. .. .. .. .. .. .. .. .. .. .. .. .. .. .. .. .. .. .. .. .. .. .. 
.. .. .. .. .. .. .. .. .. .. .. .. .. .. .. .. .. .. .. .. .. .. .. .. .. .. .. .. .. .. 
.. .. .. .. .. .. .. .. .. .. .. .. .. .. .. .. .. .. .. .. .. .. .. .. .. .. .. .. .. .. 
.. .. .. .. .. .. .. .. .. .. .. .. .. .. .. .. .. .. .. .. .. .. .. .. .. .. .. .. .. .. 
.. .. .. .. .. .. .. .. .. .. .. .. .. .. .. .. .. .. .. .. .. .. .. .. .. .. .. .. .. 
! Song 28
.. .. .. .. .. .. .. .. .. .. .. .. .. .. .. .. .. .. .. .. .. .. .. .. .. .. .. .. .. .. 
.. .. .. .. .. .. .. .. .. .. .. .. .. .. .. .. .. .. .. .. .. .. .. .. .. .. .. .. .. .. 
.. .. .. .. .. .. .. .. .. .. .. .. .. .. .. .. .. .. .. .. .. .. .. .. .. .. .. .. .. .. 
.. .. .. .. .. .. .. .. .. .. .. .. .. .. .. .. .. .. .. .. .. .. .. .. .. .. .. .. .. .. 
.. .. .. .. .. .. .. .. .. .. .. .. .. .. .. .. .. 
! Song 29
.. .. .. .. .. .. .. .. .. .. .. .. .. .. .. .. .. .. .. .. .. .. .. .. .. .. .. .. .. .. 
.. .. .. .. .. .. .. .. .. .. .. .. .. .. .. .. .. .. .. .. .. .. .. .. .. .. .. .. .. .. 
.. .. .. .. .. .. .. .. .. .. .. .. .. .. .. .. .. .. .. .. .. .. .. .. .. .. .. .. .. .. 
.. .. .. .. .. .. .. .. .. .. .. .. .. .. .. .. .. .. .. .. .. .. .. .. .. .. .. .. .. .. 
.. .. .. .. .. .. 
! Song 30
.. .. .. .. .. .. .. .. .. .. .. .. .. .. .. .. .. .. .. .. .. .. .. .. .. .. .. .. .. .. 
.. .. .. .. .. .. .. .. .. .. .. .. .. .. .. .. .. .. .. .. .. .. .. .. .. .. .. .. .. .. 
.. .. .. .. .. .. .. .. .. .. .. .. .. .. .. .. .. .. .. .. .. .. .. .. .. .. .. .. .. .. 
.. .. .. .. .. .. .. .. .. .. .. .. .. .. .. .. .. .. .. .. .. .. .. .. .. .. .. .. .. .. 
.. .. .. .. .. .. .. .. .. .. .. .. 
! End
