! Simple
! Song 0
14 .. 66 .. .. .. .. .. .. .. .. .. .. .. .. .. .. .. 61 .. .. .. .. .. .. .. 56 .. .. .. 
.. .. .. .. .. .. .. .. .. .. .. .. 66 .. .. .. .. .. .. .. 65 .. .. .. .. .. .. .. .. .. 
.. .. .. .. .. .. 61 .. .. .. .. .. .. .. 56 .. .. .. .. .. .. .. .. .. .. .. .. .. .. .. 
65 .. .. .. .. .. .. .. 63 .. .. .. .. .. .. .. .. .. .. .. .. .. .. .. .. .. .. .. .. .. 
.. .. .. .. .. .. .. .. .. .. .. .. .. .. .. .. .. .. .. .. .. .. .. .. .. .. .. .. .. .. 
.. .. .. .. .. .. .. .. .. .. .. .. .. .. .. .. .. .. .. .. .. .. .. .. .. .. .. .. .. .. 
.. .. .. .. .. .. .. .. .. .. .. .. .. .. 53 .. .. .. .. .. .. .. .. .. .. .. .. .. .. .. 
54 .. .. .. .. .. .. .. 53 .. .. .. .. .. .. .. .. .. .. .. .. .. .. .. 44 .. .. .. .. .. 
.. .. .. .. .. .. .. .. .. .. .. .. .. .. .. .. .. .. 49 .. .. .. .. .. .. .. 53 .. .. .. 
.. .. .. .. .. .. .. .. .. .. .. .. .. .. .. .. .. .. .. .. .. .. .. .. .. .. .. .. .. .. 
.. .. .. .. .. .. 53 .. .. .. .. .. .. .. .. .. .. .. .. .. .. .. .. .. .. .. .. .. .. .. 
.. .. .. .. .. .. .. .. .. .. .. .. .. .. .. .. .. .. .. .. .. .. .. .. 51 .. .. .. .. .. 
.. .. 49 .. .. .. .. .. .. .. .. .. .. .. .. .. .. .. 48 .. .. .. .. .. .. .. 49 .. .. .. 
.. .. .. .. .. .. .. .. .. .. .. .. .. .. .. .. .. .. .. .. .. .. .. .. .. .. .. .. .. .. 
.. .. .. .. .. .. .. .. .. .. .. .. .. .. .. .. .. .. .. .. .. .. .. .. .. .. .. .. .. .. 
51 .. .. .. .. .. .. .. 49 .. .. .. .. .. .. .. .. .. .. .. .. .. .. .. 47 .. .. .. .. .. 
.. .. .. .. .. .. .. .. .. .. .. .. .. .. .. .. .. .. .. .. .. .. .. .. .. .. .. .. .. .. 
.. .. .. .. .. .. .. .. .. .. .. .. 49 .. .. .. .. .. .. .. 51 .. .. .. .. .. .. .. .. .. 
.. .. .. .. .. .. .. .. .. .. .. .. .. .. 47 .. .. .. .. .. .. .. .. .. .. .. .. .. .. .. 
.. .. .. .. .. .. .. .. 46 .. .. .. .. .. .. .. .. .. .. .. .. .. .. .. 42 .. .. .. .. .. 
.. .. 46 .. .. .. .. .. .. .. .. .. .. .. .. .. .. .. 53 .. .. .. .. .. .. .. .. .. .. .. 
.. .. .. .. .. .. .. .. .. .. .. .. 51 .. .. .. .. .. .. .. 49 .. .. .. .. .. .. .. .. .. 
.. .. .. .. .. .. 48 .. .. .. .. .. .. .. 49 .. .. .. .. .. .. .. .. .. .. .. .. .. .. .. 
48 .. .. .. .. .. .. .. 49 .. .. .. .. .. .. .. .. .. .. .. .. .. .. .. 44 .. .. .. .. .. 
.. .. .. .. .. .. .. .. .. .. .. .. .. .. .. .. .. .. 46 .. .. .. .. .. .. .. 48 .. .. .. 
.. .. .. .. .. .. .. .. .. .. .. .. .. .. .. .. .. .. .. .. 46 .. .. .. .. .. .. .. .. .. 
.. .. .. .. .. .. 43 .. .. .. .. .. .. .. 46 .. .. .. .. .. .. .. .. .. .. .. .. .. .. .. 
53 .. .. .. .. .. .. .. .. .. .. .. .. .. .. .. .. .. .. .. .. .. .. .. 51 .. .. .. .. .. 
.. .. 49 .. .. .. .. .. .. .. .. .. .. .. .. .. .. .. 48 .. .. .. .. .. .. .. 51 .. .. .. 
.. .. .. .. .. .. .. .. .. .. .. .. 44 .. .. .. .. .. .. .. .. .. .. .. .. .. .. .. .. .. 
.. .. .. .. .. .. .. .. .. .. .. .. .. .. .. .. .. .. .. .. .. .. .. .. .. .. .. .. .. .. 
48 .. .. .. .. .. .. .. 51 .. .. .. .. .. .. .. .. .. .. .. .. .. .. .. .. .. .. .. .. .. 
.. .. 53 .. .. .. .. .. .. .. .. .. .. .. .. .. .. .. 54 .. .. .. .. .. .. .. 53 .. .. .. 
.. .. .. .. .. .. .. .. .. .. .. .. 44 .. .. .. .. .. .. .. .. .. .. .. .. .. .. .. .. .. 
.. .. .. .. .. .. 49 .. .. .. .. .. .. .. 53 .. .. .. .. .. .. .. .. .. .. .. .. .. .. .. 
.. .. .. .. .. .. .. .. .. .. .. .. .. .. .. .. .. .. .. .. .. .. .. .. 53 .. .. .. .. .. 
.. .. .. .. .. .. .. .. .. .. .. .. .. .. .. .. .. .. .. .. .. .. .. .. .. .. .. .. .. .. 
.. .. .. .. .. .. .. .. .. .. .. .. 51 .. .. .. .. .. .. .. 49 .. .. .. .. .. .. .. .. .. 
.. .. .. .. .. .. 48 .. .. .. .. .. .. .. 49 .. .. .. .. .. .. .. .. .. .. .. .. .. .. .. 
.. .. .. .. .. .. .. .. .. .. .. .. .. .. .. .. .. .. .. .. .. .. .. .. .. .. .. .. .. .. 
.. .. .. .. .. .. .. .. .. .. .. .. .. .. .. .. .. .. 51 .. .. .. .. .. .. .. 49 .. .. .. 
.. .. .. .. .. .. .. .. .. .. .. .. 47 .. .. .. .. .. .. .. .. .. .. .. .. .. .. .. .. .. 
.. .. .. .. .. .. .. .. .. .. .. .. .. .. .. .. .. .. .. .. .. .. .. .. .. .. .. .. .. .. 
49 .. .. .. .. .. .. .. 51 .. .. .. .. .. .. .. .. .. .. .. .. .. .. .. 53 .. .. .. .. .. 
.. .. 54 .. .. .. .. .. .. .. .. .. .. .. .. .. .. .. 56 .. .. .. .. .. .. .. 54 .. .. .. 
.. .. .. .. .. .. .. .. .. .. .. .. 53 .. .. .. .. .. .. .. 54 .. .. .. .. .. .. .. .. .. 
.. .. .. .. .. .. 46 .. .. .. .. .. .. .. .. .. .. .. .. .. .. .. .. .. .. .. .. .. .. .. 
49 .. .. .. .. .. .. .. 54 .. .. .. .. .. .. .. .. .. .. .. .. .. .. .. .. .. .. .. .. .. 
.. .. 53 .. .. .. .. .. .. .. .. .. .. .. .. .. .. .. 52 .. .. .. .. .. .. .. 53 .. .. .. 
.. .. .. .. .. .. .. .. .. .. .. .. 44 .. .. .. .. .. .. .. .. .. .. .. .. .. .. .. .. .. 
.. .. .. .. .. .. 49 .. .. .. .. .. .. .. 53 .. .. .. .. .. .. .. .. .. .. .. .. .. .. .. 
.. .. .. .. .. .. .. .. 51 .. .. .. .. .. .. .. .. .. .. .. .. .. .. .. .. .. .. .. .. .. 
.. .. 49 .. .. .. .. .. .. .. .. .. .. .. .. .. .. .. .. .. .. .. .. .. .. .. 48 .. .. .. 
.. .. .. .. .. .. .. .. .. .. .. .. .. .. .. .. .. .. .. .. 46 .. .. .. .. .. .. .. .. .. 
.. .. .. .. .. .. .. .. .. .. .. .. .. .. 44 .. .. .. .. .. .. .. .. .. .. .. .. .. .. .. 
.. .. .. .. .. .. .. .. .. .. .. .. .. .. .. .. .. .. .. .. .. .. .. .. .. .. .. .. .. .. 
.. .. .. .. .. .. .. .. .. .. .. .. .. .. .. .. .. .. 48 .. .. .. .. .. .. .. 51 .. .. .. 
.. .. .. .. .. .. .. .. .. .. .. .. 53 .. .. .. .. .. .. .. 54 .. .. .. .. .. .. .. .. .. 
.. .. .. .. .. .. .. .. .. .. .. .. .. .. .. .. .. .. .. .. .. .. .. .. .. .. .. .. .. .. 
.. .. .. .. .. .. .. .. .. .. .. .. .. .. .. .. .. .. .. .. .. .. .. .. 53 .. .. .. .. .. 
.. .. 54 .. .. .. .. .. .. .. .. .. .. .. .. .. .. .. 56 .. .. .. .. .. .. .. .. .. .. .. 
.. .. .. .. .. .. .. .. .. .. .. .. .. .. .. .. .. .. .. .. 54 .. .. .. .. .. .. .. .. .. 
.. .. .. .. .. .. .. .. .. .. .. .. .. .. 53 .. .. .. .. .. .. .. .. .. .. .. .. .. .. .. 
.. .. .. .. .. .. .. .. 51 .. .. .. .. .. .. .. .. .. .. .. .. .. .. .. .. .. .. .. .. .. 
.. .. 53 .. .. .. .. .. .. .. .. .. .. .. .. .. .. .. .. .. .. .. .. .. .. .. .. .. .. .. 
.. .. .. .. .. .. .. .. .. .. .. .. .. .. .. .. .. .. .. .. .. .. .. .. .. .. .. .. .. .. 
.. .. .. .. .. .. 51 .. .. .. .. .. .. .. 53 .. .. .. .. .. .. .. .. .. .. .. .. .. .. .. 
46 .. .. .. .. .. .. .. .. .. .. .. .. .. .. .. .. .. .. .. .. .. .. .. .. .. .. .. .. .. 
.. .. .. .. .. .. .. .. .. .. .. .. .. .. .. .. .. .. .. .. .. .. .. .. .. .. .. .. .. .. 
.. .. .. .. .. .. .. .. .. .. .. .. 49 .. .. .. .. .. .. .. 53 .. .. .. .. .. .. .. .. .. 
.. .. .. .. .. .. .. .. .. .. .. .. .. .. 54 .. .. .. .. .. .. .. .. .. .. .. .. .. .. .. 
.. .. .. .. .. .. .. .. .. .. .. .. .. .. .. .. .. .. .. .. .. .. .. .. .. .. .. .. .. .. 
.. .. .. .. .. .. .. .. .. .. .. .. .. .. .. .. .. .. 53 .. .. .. .. .. .. .. 54 .. .. .. 
.. .. .. .. .. .. .. .. .. .. .. .. 55 .. .. .. .. .. .. .. .. .. .. .. .. .. .. .. .. .. 
.. .. .. .. .. .. .. .. .. .. .. .. .. .. 55 .. .. .. .. .. .. .. .. .. .. .. .. .. .. .. 
.. .. .. .. .. .. .. .. .. .. .. .. .. .. .. .. .. .. .. .. .. .. .. .. 51 .. .. .. .. .. 
.. .. 55 .. .. .. .. .. .. .. .. .. .. .. .. .. .. .. 56 .. .. .. .. .. .. .. .. .. .. .. 
.. .. .. .. .. .. .. .. .. .. .. .. .. .. .. .. .. .. .. .. 56 .. .. .. .. .. .. .. .. .. 
.. .. .. .. .. .. .. .. .. .. .. .. .. .. .. .. .. .. .. .. .. .. .. .. .. .. .. .. .. .. 
.. .. .. .. .. .. .. .. .. .. .. .. .. .. .. .. .. .. .. .. .. .. .. .. .. .. .. .. .. .. 
.. .. .. .. .. .. .. .. .. .. .. .. .. .. .. .. .. .. 55 .. .. .. .. .. .. .. 54 .. .. .. 
.. .. .. .. .. .. .. .. .. .. .. .. 53 .. .. .. .. .. .. .. .. .. .. .. .. .. .. .. .. .. 
.. .. .. .. .. .. 52 .. .. .. .. .. .. .. 51 .. .. .. .. .. .. .. .. .. .. .. .. .. .. .. 
50 .. .. .. .. .. .. .. 53 .. .. .. .. .. .. .. .. .. .. .. .. .. .. .. 54 .. .. .. .. .. 
.. .. 53 .. .. .. .. .. .. .. .. .. .. .. .. .. .. .. 44 .. .. .. .. .. .. .. .. .. .. .. 
.. .. .. .. .. .. .. .. .. .. .. .. 49 .. .. .. .. .. .. .. 53 .. .. .. .. .. .. .. .. .. 
.. .. .. .. .. .. .. .. .. .. .. .. .. .. .. .. .. .. .. .. .. .. .. .. .. .. .. .. .. .. 
53 .. .. .. .. .. .. .. .. .. .. .. .. .. .. .. .. .. .. .. .. .. .. .. .. .. .. .. .. .. 
.. .. .. .. .. .. .. .. .. .. .. .. .. .. .. .. .. .. 51 .. .. .. .. .. .. .. 49 .. .. .. 
.. .. .. .. .. .. .. .. .. .. .. .. 48 .. .. .. .. .. .. .. 49 .. .. .. .. .. .. .. .. .. 
.. .. .. .. .. .. .. .. .. .. .. .. .. .. .. .. .. .. .. .. .. .. .. .. .. .. .. .. .. .. 
.. .. .. .. .. .. .. .. .. .. .. .. .. .. .. .. .. .. .. .. .. .. .. .. 51 .. .. .. .. .. 
.. .. 49 .. .. .. .. .. .. .. .. .. .. .. .. .. .. .. 47 .. .. .. .. .. .. .. .. .. .. .. 
.. .. .. .. .. .. .. .. .. .. .. .. .. .. .. .. .. .. .. .. .. .. .. .. .. .. .. .. .. .. 
.. .. .. .. .. .. 49 .. .. .. .. .. .. .. 51 .. .. .. .. .. .. .. .. .. .. .. .. .. .. .. 
.. .. .. .. .. .. .. .. 47 .. .. .. .. .. .. .. .. .. .. .. .. .. .. .. .. .. .. .. .. .. 
.. .. 46 .. .. .. .. .. .. .. .. .. .. .. .. .. .. .. 42 .. .. .. .. .. .. .. 46 .. .. .. 
.. .. .. .. .. .. .. .. .. .. .. .. 53 .. .. .. .. .. .. .. .. .. .. .. .. .. .. .. .. .. 
.. .. .. .. .. .. 51 .. .. .. .. .. .. .. 49 .. .. .. .. .. .. .. .. .. .. .. .. .. .. .. 
48 .. .. .. .. .. .. .. 49 .. .. .. .. .. .. .. .. .. .. .. .. .. .. .. 48 .. .. .. .. .. 
.. .. 49 .. .. .. .. .. .. .. .. .. .. .. .. .. .. .. 44 .. .. .. .. .. .. .. .. .. .. .. 
.. .. .. .. .. .. .. .. .. .. .. .. 46 .. .. .. .. .. .. .. 48 .. .. .. .. .. .. .. .. .. 
.. .. .. .. .. .. .. .. .. .. .. .. .. .. 46 .. .. .. .. .. .. .. .. .. .. .. .. .. .. .. 
43 .. .. .. .. .. .. .. 46 .. .. .. .. .. .. .. .. .. .. .. .. .. .. .. 53 .. .. .. .. .. 
.. .. .. .. .. .. .. .. .. .. .. .. .. .. .. .. .. .. 51 .. .. .. .. .. .. .. 49 .. .. .. 
.. .. .. .. .. .. .. .. .. .. .. .. 48 .. .. .. .. .. .. .. 51 .. .. .. .. .. .. .. .. .. 
.. .. .. .. .. .. 44 .. .. .. .. .. .. .. .. .. .. .. .. .. .. .. .. .. .. .. .. .. .. .. 
.. .. .. .. .. .. .. .. .. .. .. .. .. .. .. .. .. .. .. .. .. .. .. .. 48 .. .. .. .. .. 
.. .. 51 .. .. .. .. .. .. .. .. .. .. .. .. .. .. .. .. .. .. .. .. .. .. .. 53 .. .. .. 
.. .. .. .. .. .. .. .. .. .. .. .. 54 .. .. .. .. .. .. .. 53 .. .. .. .. .. .. .. .. .. 
.. .. .. .. .. .. 44 .. .. .. .. .. .. .. .. .. .. .. .. .. .. .. .. .. .. .. .. .. .. .. 
49 .. .. .. .. .. .. .. 53 .. .. .. .. .. .. .. .. .. .. .. .. .. .. .. .. .. .. .. .. .. 
.. .. .. .. .. .. .. .. .. .. .. .. .. .. .. .. .. .. 53 .. .. .. .. .. .. .. .. .. .. .. 
.. .. .. .. .. .. .. .. .. .. .. .. .. .. .. .. .. .. .. .. .. .. .. .. .. .. .. .. .. .. 
.. .. .. .. .. .. 51 .. .. .. .. .. .. .. 49 .. .. .. .. .. .. .. .. .. .. .. .. .. .. .. 
48 .. .. .. .. .. .. .. 49 .. .. .. .. .. .. .. .. .. .. .. .. .. .. .. .. .. .. .. .. .. 
.. .. .. .. .. .. .. .. .. .. .. .. .. .. .. .. .. .. .. .. .. .. .. .. .. .. .. .. .. .. 
.. .. .. .. .. .. .. .. .. .. .. .. 51 .. .. .. .. .. .. .. 49 .. .. .. .. .. .. .. .. .. 
.. .. .. .. .. .. 47 .. .. .. .. .. .. .. .. .. .. .. .. .. .. .. .. .. .. .. .. .. .. .. 
.. .. .. .. .. .. .. .. .. .. .. .. .. .. .. .. .. .. .. .. .. .. .. .. 49 .. .. .. .. .. 
.. .. 51 .. .. .. .. .. .. .. .. .. .. .. .. .. .. .. 53 .. .. .. .. .. .. .. 54 .. .. .. 
.. .. .. .. .. .. .. .. .. .. .. .. 56 .. .. .. .. .. .. .. 54 .. .. .. .. .. .. .. .. .. 
.. .. .. .. .. .. 53 .. .. .. .. .. .. .. 54 .. .. .. .. .. .. .. .. .. .. .. .. .. .. .. 
46 .. .. .. .. .. .. .. .. .. .. .. .. .. .. .. .. .. .. .. .. .. .. .. 49 .. .. .. .. .. 
.. .. 54 .. .. .. .. .. .. .. .. .. .. .. .. .. .. .. .. .. .. .. .. .. .. .. 53 .. .. .. 
.. .. .. .. .. .. .. .. .. .. .. .. 52 .. .. .. .. .. .. .. 53 .. .. .. .. .. .. .. .. .. 
.. .. .. .. .. .. 44 .. .. .. .. .. .. .. .. .. .. .. .. .. .. .. .. .. .. .. .. .. .. .. 
49 .. .. .. .. .. .. .. 53 .. .. .. .. .. .. .. .. .. .. .. .. .. .. .. .. .. .. .. .. .. 
.. .. 51 .. .. .. .. .. .. .. .. .. .. .. .. .. .. .. .. .. .. .. .. .. .. .. 49 .. .. .. 
.. .. .. .. .. .. .. .. .. .. .. .. .. .. .. .. .. .. .. .. 48 .. .. .. .. .. .. .. .. .. 
.. .. .. .. .. .. .. .. .. .. .. .. .. .. 46 .. .. .. .. .. .. .. .. .. .. .. .. .. .. .. 
.. .. .. .. .. .. .. .. 44 .. .. .. .. .. .. .. .. .. .. .. .. .. .. .. .. .. .. .. .. .. 
.. .. .. .. .. .. .. .. .. .. .. .. .. .. .. .. .. .. .. .. .. .. .. .. .. .. .. .. .. .. 
.. .. .. .. .. .. .. .. .. .. .. .. 48 .. .. .. .. .. .. .. 51 .. .. .. .. .. .. .. .. .. 
.. .. .. .. .. .. 53 .. .. .. .. .. .. .. 54 .. .. .. .. .. .. .. .. .. .. .. .. .. .. .. 
.. .. .. .. .. .. .. .. .. .. .. .. .. .. .. .. .. .. .. .. .. .. .. .. .. .. .. .. .. .. 
.. .. .. .. .. .. .. .. .. .. .. .. .. .. .. .. .. .. 53 .. .. .. .. .. .. .. 54 .. .. .. 
.. .. .. .. .. .. .. .. .. .. .. .. 56 .. .. .. .. .. .. .. .. .. .. .. .. .. .. .. .. .. 
.. .. .. .. .. .. .. .. .. .. .. .. .. .. 54 .. .. .. .. .. .. .. .. .. .. .. .. .. .. .. 
.. .. .. .. .. .. .. .. 53 .. .. .. .. .. .. .. .. .. .. .. .. .. .. .. .. .. .. .. .. .. 
.. .. 51 .. .. .. .. .. .. .. .. .. .. .. .. .. .. .. .. .. .. .. .. .. .. .. 53 .. .. .. 
.. .. .. .. .. .. .. .. .. .. .. .. .. .. .. .. .. .. .. .. .. .. .. .. .. .. .. .. .. .. 
.. .. .. .. .. .. .. .. .. .. .. .. .. .. .. .. .. .. .. .. .. .. .. .. .. .. .. .. .. .. 
51 .. .. .. .. .. .. .. 53 .. .. .. .. .. .. .. .. .. .. .. .. .. .. .. 46 .. .. .. .. .. 
.. .. .. .. .. .. .. .. .. .. .. .. .. .. .. .. .. .. .. .. .. .. .. .. .. .. .. .. .. .. 
.. .. .. .. .. .. .. .. .. .. .. .. .. .. .. .. .. .. .. .. .. .. .. .. .. .. .. .. .. .. 
.. .. .. .. .. .. 49 .. .. .. .. .. .. .. 53 .. .. .. .. .. .. .. .. .. .. .. .. .. .. .. 
.. .. .. .. .. .. .. .. 54 .. .. .. .. .. .. .. .. .. .. .. .. .. .. .. .. .. .. .. .. .. 
.. .. .. .. .. .. .. .. .. .. .. .. .. .. .. .. .. .. .. .. .. .. .. .. .. .. .. .. .. .. 
.. .. .. .. .. .. .. .. .. .. .. .. 53 .. .. .. .. .. .. .. 54 .. .. .. .. .. .. .. .. .. 
.. .. .. .. .. .. 55 .. .. .. .. .. .. .. .. .. .. .. .. .. .. .. .. .. .. .. .. .. .. .. 
.. .. .. .. .. .. .. .. 55 .. .. .. .. .. .. .. .. .. .. .. .. .. .. .. .. .. .. .. .. .. 
.. .. .. .. .. .. .. .. .. .. .. .. .. .. .. .. .. .. 51 .. .. .. .. .. .. .. 55 .. .. .. 
.. .. .. .. .. .. .. .. .. .. .. .. 56 .. .. .. .. .. .. .. .. .. .. .. .. .. .. .. .. .. 
.. .. .. .. .. .. .. .. .. .. .. .. .. .. 56 .. .. .. .. .. .. .. .. .. .. .. .. .. .. .. 
.. .. .. .. .. .. .. .. .. .. .. .. .. .. .. .. .. .. .. .. .. .. .. .. .. .. .. .. .. .. 
.. .. .. .. .. .. .. .. .. .. .. .. .. .. .. .. .. .. .. .. .. .. .. .. .. .. .. .. .. .. 
.. .. .. .. .. .. .. .. .. .. .. .. 55 .. .. .. .. .. .. .. 54 .. .. .. .. .. .. .. .. .. 
.. .. .. .. .. .. 53 .. .. .. .. .. .. .. .. .. .. .. .. .. .. .. .. .. .. .. .. .. .. .. 
52 .. .. .. .. .. .. .. 51 .. .. .. .. .. .. .. .. .. .. .. .. .. .. .. 50 .. .. .. .. .. 
.. .. 53 .. .. .. .. .. .. .. .. .. .. .. .. .. .. .. 54 .. .. .. .. .. .. .. 53 .. .. .. 
.. .. .. .. .. .. .. .. .. .. .. .. 44 .. .. .. .. .. .. .. .. .. .. .. .. .. .. .. .. .. 
.. .. .. .. .. .. 49 .. .. .. .. .. .. .. 53 .. .. .. .. .. .. .. .. .. .. .. .. .. .. .. 
.. .. .. .. .. .. .. .. .. .. .. .. .. .. .. .. .. .. .. .. .. .. .. .. 53 .. .. .. .. .. 
.. .. .. .. .. .. .. .. .. .. .. .. .. .. .. .. .. .. .. .. .. .. .. .. .. .. .. .. .. .. 
.. .. .. .. .. .. .. .. .. .. .. .. 51 .. .. .. .. .. .. .. 49 .. .. .. .. .. .. .. .. .. 
.. .. .. .. .. .. 48 .. .. .. .. .. .. .. 49 .. .. .. .. .. .. .. .. .. .. .. .. .. .. .. 
.. .. .. .. .. .. .. .. .. .. .. .. .. .. .. .. .. .. .. .. .. .. .. .. .. .. .. .. .. .. 
.. .. .. .. .. .. .. .. .. .. .. .. .. .. .. .. .. .. 51 .. .. .. .. .. .. .. 49 .. .. .. 
.. .. .. .. .. .. .. .. .. .. .. .. 47 .. .. .. .. .. .. .. .. .. .. .. .. .. .. .. .. .. 
.. .. .. .. .. .. .. .. .. .. .. .. .. .. .. .. .. .. .. .. .. .. .. .. .. .. .. .. .. .. 
49 .. .. .. .. .. .. .. 51 .. .. .. .. .. .. .. .. .. .. .. .. .. .. .. .. .. .. .. .. .. 
.. .. 47 .. .. .. .. .. .. .. .. .. .. .. .. .. .. .. .. .. .. .. .. .. .. .. 46 .. .. .. 
.. .. .. .. .. .. .. .. .. .. .. .. 42 .. .. .. .. .. .. .. 46 .. .. .. .. .. .. .. .. .. 
.. .. .. .. .. .. 53 .. .. .. .. .. .. .. .. .. .. .. .. .. .. .. .. .. .. .. .. .. .. .. 
51 .. .. .. .. .. .. .. 49 .. .. .. .. .. .. .. .. .. .. .. .. .. .. .. 48 .. .. .. .. .. 
.. .. 49 .. .. .. .. .. .. .. .. .. .. .. .. .. .. .. 48 .. .. .. .. .. .. .. 49 .. .. .. 
.. .. .. .. .. .. .. .. .. .. .. .. 44 .. .. .. .. .. .. .. .. .. .. .. .. .. .. .. .. .. 
.. .. .. .. .. .. 46 .. .. .. .. .. .. .. 48 .. .. .. .. .. .. .. .. .. .. .. .. .. .. .. 
.. .. .. .. .. .. .. .. 46 .. .. .. .. .. .. .. .. .. .. .. .. .. .. .. 43 .. .. .. .. .. 
.. .. 46 .. .. .. .. .. .. .. .. .. .. .. .. .. .. .. 53 .. .. .. .. .. .. .. .. .. .. .. 
.. .. .. .. .. .. .. .. .. .. .. .. 51 .. .. .. .. .. .. .. 49 .. .. .. .. .. .. .. .. .. 
.. .. .. .. .. .. 48 .. .. .. .. .. .. .. 51 .. .. .. .. .. .. .. .. .. .. .. .. .. .. .. 
44 .. .. .. .. .. .. .. .. .. .. .. .. .. .. .. .. .. .. .. .. .. .. .. .. .. .. .. .. .. 
.. .. .. .. .. .. .. .. .. .. .. .. .. .. .. .. .. .. 48 .. .. .. .. .. .. .. 51 .. .. .. 
.. .. .. .. .. .. .. .. .. .. .. .. .. .. .. .. .. .. .. .. 53 .. .. .. .. .. .. .. .. .. 
.. .. .. .. .. .. 54 .. .. .. .. .. .. .. 53 .. .. .. .. .. .. .. .. .. .. .. .. .. .. .. 
44 .. .. .. .. .. .. .. .. .. .. .. .. .. .. .. .. .. .. .. .. .. .. .. 49 .. .. .. .. .. 
.. .. 53 .. .. .. .. .. .. .. .. .. .. .. .. .. .. .. .. .. .. .. .. .. .. .. .. .. .. .. 
.. .. .. .. .. .. .. .. .. .. .. .. 53 .. .. .. .. .. .. .. .. .. .. .. .. .. .. .. .. .. 
.. .. .. .. .. .. .. .. .. .. .. .. .. .. .. .. .. .. .. .. .. .. .. .. .. .. .. .. .. .. 
51 .. .. .. .. .. .. .. 49 .. .. .. .. .. .. .. .. .. .. .. .. .. .. .. 48 .. .. .. .. .. 
.. .. 49 .. .. .. .. .. .. .. .. .. .. .. .. .. .. .. .. .. .. .. .. .. .. .. .. .. .. .. 
.. .. .. .. .. .. .. .. .. .. .. .. .. .. .. .. .. .. .. .. .. .. .. .. .. .. .. .. .. .. 
.. .. .. .. .. .. 51 .. .. .. .. .. .. .. 49 .. .. .. .. .. .. .. .. .. .. .. .. .. .. .. 
47 .. .. .. .. .. .. .. .. .. .. .. .. .. .. .. .. .. .. .. .. .. .. .. .. .. .. .. .. .. 
.. .. .. .. .. .. .. .. .. .. .. .. .. .. .. .. .. .. 49 .. .. .. .. .. .. .. 51 .. .. .. 
.. .. .. .. .. .. .. .. .. .. .. .. 53 .. .. .. .. .. .. .. 54 .. .. .. .. .. .. .. .. .. 
.. .. .. .. .. .. 56 .. .. .. .. .. .. .. 54 .. .. .. .. .. .. .. .. .. .. .. .. .. .. .. 
53 .. .. .. .. .. .. .. 54 .. .. .. .. .. .. .. .. .. .. .. .. .. .. .. 46 .. .. .. .. .. 
.. .. .. .. .. .. .. .. .. .. .. .. .. .. .. .. .. .. 49 .. .. .. .. .. .. .. 54 .. .. .. 
.. .. .. .. .. .. .. .. .. .. .. .. .. .. .. .. .. .. .. .. 53 .. .. .. .. .. .. .. .. .. 
.. .. .. .. .. .. 52 .. .. .. .. .. .. .. 53 .. .. .. .. .. .. .. .. .. .. .. .. .. .. .. 
44 .. .. .. .. .. .. .. .. .. .. .. .. .. .. .. .. .. .. .. .. .. .. .. 49 .. .. .. .. .. 
.. .. 53 .. .. .. .. .. .. .. .. .. .. .. .. .. .. .. .. .. .. .. .. .. .. .. 51 .. .. .. 
.. .. .. .. .. .. .. .. .. .. .. .. .. .. .. .. .. .. .. .. 49 .. .. .. .. .. .. .. .. .. 
.. .. .. .. .. .. .. .. .. .. .. .. .. .. 48 .. .. .. .. .. .. .. .. .. .. .. .. .. .. .. 
.. .. .. .. .. .. .. .. 46 .. .. .. .. .. .. .. .. .. .. .. .. .. .. .. .. .. .. .. .. .. 
.. .. 44 .. .. .. .. .. .. .. .. .. .. .. .. .. .. .. .. .. .. .. .. .. .. .. .. .. .. .. 
.. .. .. .. .. .. .. .. .. .. .. .. .. .. .. .. .. .. .. .. .. .. .. .. .. .. .. .. .. .. 
.. .. .. .. .. .. 48 .. .. .. .. .. .. .. 51 .. .. .. .. .. .. .. .. .. .. .. .. .. .. .. 
53 .. .. .. .. .. .. .. 54 .. .. .. .. .. .. .. .. .. .. .. .. .. .. .. .. .. .. .. .. .. 
.. .. .. .. .. .. .. .. .. .. .. .. .. .. .. .. .. .. .. .. .. .. .. .. .. .. .. .. .. .. 
.. .. .. .. .. .. .. .. .. .. .. .. 53 .. .. .. .. .. .. .. 54 .. .. .. .. .. .. .. .. .. 
.. .. .. .. .. .. 56 .. .. .. .. .. .. .. .. .. .. .. .. .. .. .. .. .. .. .. .. .. .. .. 
.. .. .. .. .. .. .. .. 54 .. .. .. .. .. .. .. .. .. .. .. .. .. .. .. .. .. .. .. .. .. 
.. .. 53 .. .. .. .. .. .. .. .. .. .. .. .. .. .. .. .. .. .. .. .. .. .. .. 51 .. .. .. 
.. .. .. .. .. .. .. .. .. .. .. .. .. .. .. .. .. .. .. .. 53 .. .. .. .. .. .. .. .. .. 
.. .. .. .. .. .. .. .. .. .. .. .. .. .. .. .. .. .. .. .. .. .. .. .. .. .. .. .. .. .. 
.. .. .. .. .. .. .. .. .. .. .. .. .. .. .. .. .. .. .. .. .. .. .. .. 51 .. .. .. .. .. 
.. .. 53 .. .. .. .. .. .. .. .. .. .. .. .. .. .. .. 46 .. .. .. .. .. .. .. .. .. .. .. 
.. .. .. .. .. .. .. .. .. .. .. .. .. .. .. .. .. .. .. .. .. .. .. .. .. .. .. .. .. .. 
.. .. .. .. .. .. .. .. .. .. .. .. .. .. .. .. .. .. .. .. .. .. .. .. .. .. .. .. .. .. 
49 .. .. .. .. .. .. .. 53 .. .. .. .. .. .. .. .. .. .. .. .. .. .. .. .. .. .. .. .. .. 
.. .. 54 .. .. .. .. .. .. .. .. .. .. .. .. .. .. .. .. .. .. .. .. .. .. .. .. .. .. .. 
.. .. .. .. .. .. .. .. .. .. .. .. .. .. .. .. .. .. .. .. .. .. .. .. .. .. .. .. .. .. 
.. .. .. .. .. .. 53 .. .. .. .. .. .. .. 54 .. .. .. .. .. .. .. .. .. .. .. .. .. .. .. 
55 .. .. .. .. .. .. .. .. .. .. .. .. .. .. .. .. .. .. .. .. .. .. .. .. .. .. .. .. .. 
.. .. 55 .. .. .. .. .. .. .. .. .. .. .. .. .. .. .. .. .. .. .. .. .. .. .. .. .. .. .. 
.. .. .. .. .. .. .. .. .. .. .. .. 51 .. .. .. .. .. .. .. 55 .. .. .. .. .. .. .. .. .. 
.. .. .. .. .. .. 56 .. .. .. .. .. .. .. .. .. .. .. .. .. .. .. .. .. .. .. .. .. .. .. 
.. .. .. .. .. .. .. .. 56 .. .. .. .. .. .. .. .. .. .. .. .. .. .. .. .. .. .. .. .. .. 
.. .. .. .. .. .. .. .. .. .. .. .. .. .. .. .. .. .. .. .. .. .. .. .. .. .. .. .. .. .. 
.. .. .. .. .. .. .. .. .. .. .. .. .. .. .. .. .. .. .. .. .. .. .. .. .. .. .. .. .. .. 
.. .. .. .. .. .. 55 .. .. .. .. .. .. .. 54 .. .. .. .. .. .. .. .. .. .. .. .. .. .. .. 
53 .. .. .. .. .. .. .. .. .. .. .. .. .. .. .. .. .. .. .. .. .. .. .. 52 .. .. .. .. .. 
.. .. 51 .. .. .. .. .. .. .. .. .. .. .. .. .. .. .. 50 .. .. .. .. .. .. .. 53 .. .. .. 
.. .. .. .. .. .. .. .. .. .. .. .. 54 .. .. .. .. .. .. .. 53 .. .. .. .. .. .. .. .. .. 
.. .. .. .. .. .. 44 .. .. .. .. .. .. .. .. .. .. .. .. .. .. .. .. .. .. .. .. .. 
! Song 1
14 .. 46 .. .. .. .. .. .. .. .. .. .. .. .. .. .. .. .. .. .. .. .. .. .. .. .. .. .. .. 
.. .. .. .. .. .. .. .. .. .. .. .. .. .. .. .. .. .. .. .. 48 .. .. .. .. .. .. .. .. .. 
.. .. .. .. .. .. .. .. .. .. .. .. .. .. .. .. .. .. .. .. .. .. .. .. .. .. .. .. .. .. 
.. .. .. .. .. .. .. .. 46 .. .. .. .. .. .. .. .. .. .. .. .. .. .. .. .. .. .. .. .. .. 
.. .. 48 .. .. .. .. .. .. .. .. .. .. .. 49 .. .. .. .. .. .. .. .. .. .. .. 50 .. .. .. 
.. .. .. .. .. .. .. .. .. .. .. .. .. .. .. .. .. .. .. .. 74 75 74 75 74 75 74 75 74 75 
74 75 74 75 74 75 74 75 74 75 74 75 74 75 58 .. .. 55 .. .. 58 .. .. 55 .. .. 58 .. .. 55 
.. .. 58 .. .. 55 .. .. 67 .. .. .. .. .. .. .. .. .. .. .. 65 .. .. .. .. .. .. .. .. .. 
.. .. 63 .. .. .. .. .. .. .. .. .. .. .. 62 .. .. .. .. .. .. .. .. .. .. .. 60 .. .. .. 
.. .. .. .. .. .. .. .. 58 .. .. .. .. .. .. .. .. .. .. .. 56 .. .. .. .. .. .. .. .. .. 
.. .. 55 .. .. .. .. .. .. .. .. .. .. .. 53 .. .. .. .. .. .. .. .. .. .. .. 51 .. .. .. 
.. .. .. .. .. .. .. .. 50 .. .. .. .. .. .. .. .. .. .. .. 48 .. .. .. .. .. .. .. .. .. 
.. .. 46 .. .. .. .. .. .. .. .. .. .. .. .. .. .. .. .. .. .. .. .. .. .. .. 56 .. .. 53 
.. .. 56 .. .. 53 .. .. 56 .. .. 53 .. .. 56 .. .. 53 .. .. 65 .. .. .. .. .. .. .. .. .. 
.. .. 63 .. .. .. .. .. .. .. .. .. .. .. 62 .. .. .. .. .. .. .. .. .. .. .. 60 .. .. .. 
.. .. .. .. .. .. .. .. 58 .. .. .. .. .. .. .. .. .. .. .. 56 .. .. .. .. .. .. .. .. .. 
.. .. 46 .. .. .. .. .. .. .. .. .. .. .. .. .. .. .. .. .. .. .. .. .. .. .. 50 .. .. .. 
.. .. .. .. .. .. .. .. 48 .. .. .. .. .. .. .. .. .. .. .. 46 .. .. .. .. .. .. .. .. .. 
.. .. .. .. .. .. .. .. .. .. .. .. .. .. .. .. .. .. .. .. .. .. .. .. .. .. .. .. .. .. 
.. .. .. .. .. .. .. .. 58 .. .. 55 .. .. 58 .. .. 55 .. .. 58 .. .. 55 .. .. 58 .. .. 55 
.. .. 67 .. .. .. .. .. .. .. .. .. .. .. 65 .. .. .. .. .. .. .. .. .. .. .. 63 .. .. .. 
.. .. .. .. .. .. .. .. 62 .. .. .. .. .. .. .. .. .. .. .. 60 .. .. .. .. .. .. .. .. .. 
.. .. 58 .. .. .. .. .. .. .. .. .. .. .. 56 .. .. .. .. .. .. .. .. .. .. .. 55 .. .. .. 
.. .. .. .. .. .. .. .. 53 .. .. .. .. .. .. .. .. .. .. .. 51 .. .. .. .. .. .. .. .. .. 
.. .. 50 .. .. .. .. .. .. .. .. .. .. .. 48 .. .. .. .. .. .. .. .. .. .. .. 46 .. .. .. 
.. .. .. .. .. .. .. .. .. .. .. .. .. .. .. .. .. .. .. .. 56 .. .. 53 .. .. 56 .. .. 53 
.. .. 56 .. .. 53 .. .. 56 .. .. 53 .. .. 65 .. .. .. .. .. .. .. .. .. .. .. 63 .. .. .. 
.. .. .. .. .. .. .. .. 62 .. .. .. .. .. .. .. .. .. .. .. 60 .. .. .. .. .. .. .. .. .. 
.. .. 58 .. .. .. .. .. .. .. .. .. .. .. 62 .. .. .. .. .. .. .. .. .. .. .. 51 .. .. .. 
.. .. .. .. .. .. .. .. 46 .. .. .. .. .. .. .. .. .. .. .. 48 .. .. .. .. .. .. .. .. .. 
.. .. 46 .. .. .. .. .. .. .. .. .. .. .. .. .. .. .. .. .. .. .. .. .. .. .. 50 .. .. .. 
.. .. .. .. .. .. .. .. 51 .. .. .. .. .. .. .. .. .. .. .. .. .. .. .. .. .. .. .. .. .. 
.. .. 60 .. .. .. .. .. .. .. .. .. .. .. .. .. .. .. .. .. .. .. .. .. .. .. 63 .. .. .. 
.. .. .. .. .. .. .. .. .. .. .. .. .. .. .. .. .. .. .. .. 68 .. .. .. .. .. .. .. .. .. 
.. .. .. .. .. .. .. .. .. .. .. .. .. .. 60 .. .. .. .. .. .. .. .. .. .. .. 68 .. .. .. 
.. .. .. .. .. .. .. .. 67 .. .. .. .. .. .. .. .. .. .. .. .. .. .. .. .. .. .. .. .. .. 
.. .. .. .. .. .. .. .. .. .. .. .. .. .. .. .. .. .. .. .. .. .. .. .. .. .. .. .. .. .. 
.. .. .. .. .. .. .. .. .. .. .. .. .. .. .. .. .. .. .. .. .. .. .. .. .. .. .. .. .. .. 
.. .. .. .. .. .. .. .. .. .. .. .. .. .. 65 .. .. .. .. .. .. .. .. .. .. .. 64 .. .. .. 
.. .. .. .. .. .. .. .. 63 .. .. .. .. .. .. .. .. .. .. .. 62 .. .. .. .. .. .. .. .. .. 
.. .. 58 .. .. .. .. .. .. .. .. .. .. .. .. .. .. .. .. .. .. .. .. .. .. .. 62 .. .. .. 
.. .. .. .. .. .. .. .. 68 .. .. .. .. .. .. .. .. .. .. .. 67 .. .. .. .. .. .. .. .. .. 
.. .. .. .. .. .. .. .. .. .. .. .. .. .. .. .. .. .. .. .. .. .. .. .. .. .. .. .. .. .. 
.. .. .. .. .. .. .. .. .. .. .. .. .. .. .. .. .. .. .. .. .. .. .. .. .. .. .. .. .. .. 
.. .. .. .. .. .. .. .. .. .. .. .. .. .. .. .. .. .. .. .. .. .. .. .. .. .. 60 .. .. .. 
.. .. .. .. .. .. .. .. .. .. .. .. .. .. .. .. .. .. .. .. 63 .. .. .. .. .. .. .. .. .. 
.. .. .. .. .. .. .. .. .. .. .. .. .. .. 68 .. .. .. .. .. .. .. .. .. .. .. .. .. .. .. 
.. .. .. .. .. .. .. .. 60 .. .. .. .. .. .. .. .. .. .. .. 68 .. .. .. .. .. .. .. .. .. 
.. .. 67 .. .. .. .. .. .. .. .. .. .. .. .. .. .. .. .. .. .. .. .. .. .. .. .. .. .. .. 
.. .. .. .. .. .. .. .. .. .. .. .. .. .. .. .. .. .. .. .. .. .. .. .. .. .. .. .. .. .. 
.. .. .. .. .. .. .. .. .. .. .. .. .. .. .. .. .. .. .. .. .. .. .. .. .. .. .. .. .. .. 
.. .. .. .. .. .. .. .. 65 .. .. .. .. .. .. .. .. .. .. .. .. .. .. .. .. .. .. .. .. .. 
.. .. .. .. .. .. .. .. .. .. .. .. .. .. .. .. .. .. .. .. .. .. .. .. .. .. .. .. .. .. 
.. .. .. .. .. .. .. .. 63 .. .. .. .. .. .. .. .. .. .. .. 62 .. .. .. .. .. .. .. .. .. 
.. .. 60 .. .. .. .. .. .. .. .. .. .. .. 46 .. .. .. .. .. .. .. .. .. .. .. .. .. .. .. 
.. .. .. .. .. .. .. .. 50 .. .. .. .. .. .. .. .. .. .. .. 53 .. .. .. .. .. .. .. .. .. 
.. .. 58 .. .. .. .. .. .. .. .. .. .. .. .. .. .. .. .. .. .. .. .. .. .. .. .. .. .. .. 
.. .. .. .. .. .. .. .. .. .. .. .. .. .. .. .. .. .. .. .. 58 .. .. 55 .. .. 58 .. .. 55 
.. .. 58 .. .. 55 .. .. 58 .. .. 55 .. .. 67 .. .. .. .. .. .. .. .. .. .. .. 65 .. .. .. 
.. .. .. .. .. .. .. .. 63 .. .. .. .. .. .. .. .. .. .. .. 62 .. .. .. .. .. .. .. .. .. 
.. .. 60 .. .. .. .. .. .. .. .. .. .. .. 58 .. .. .. .. .. .. .. .. .. .. .. 56 .. .. .. 
.. .. .. .. .. .. .. .. 55 .. .. .. .. .. .. .. .. .. .. .. 53 .. .. .. .. .. .. .. .. .. 
.. .. 51 .. .. .. .. .. .. .. .. .. .. .. 50 .. .. .. .. .. .. .. .. .. .. .. 48 .. .. .. 
.. .. .. .. .. .. .. .. 46 .. .. .. .. .. .. .. .. .. .. .. .. .. .. .. .. .. .. .. .. .. 
.. .. 56 .. .. 53 .. .. 56 .. .. 53 .. .. 56 .. .. 53 .. .. 56 .. .. 53 .. .. 65 .. .. .. 
.. .. .. .. .. .. .. .. 63 .. .. .. .. .. .. .. .. .. .. .. 62 .. .. .. .. .. .. .. .. .. 
.. .. 60 .. .. .. .. .. .. .. .. .. .. .. 58 .. .. .. .. .. .. .. .. .. .. .. 56 .. .. .. 
.. .. .. .. .. .. .. .. 46 .. .. .. .. .. .. .. .. .. .. .. .. .. .. .. .. .. .. .. .. .. 
.. .. 50 .. .. .. .. .. .. .. .. .. .. .. 48 .. .. .. .. .. .. .. .. .. .. .. 46 .. .. .. 
.. .. .. .. .. .. .. .. .. .. .. .. .. .. .. .. .. .. .. .. .. .. .. .. .. .. .. .. .. .. 
.. .. .. .. .. .. .. .. .. .. .. .. .. .. 58 .. .. 55 .. .. 58 .. .. 55 .. .. 58 .. .. 55 
.. .. 58 .. .. 55 .. .. 67 .. .. .. .. .. .. .. .. .. .. .. 65 .. .. .. .. .. .. .. .. .. 
.. .. 63 .. .. .. .. .. .. .. .. .. .. .. 62 .. .. .. .. .. .. .. .. .. .. .. 60 .. .. .. 
.. .. .. .. .. .. .. .. 58 .. .. .. .. .. .. .. .. .. .. .. 56 .. .. .. .. .. .. .. .. .. 
.. .. 55 .. .. .. .. .. .. .. .. .. .. .. 53 .. .. .. .. .. .. .. .. .. .. .. 51 .. .. .. 
.. .. .. .. .. .. .. .. 50 .. .. .. .. .. .. .. .. .. .. .. 48 .. .. .. .. .. .. .. .. .. 
.. .. 46 .. .. .. .. .. .. .. .. .. .. .. .. .. .. .. .. .. .. .. .. .. .. .. 56 .. .. 53 
.. .. 56 .. .. 53 .. .. 56 .. .. 53 .. .. 56 .. .. 53 .. .. 65 .. .. .. .. .. .. .. .. .. 
.. .. 63 .. .. .. .. .. .. .. .. .. .. .. 62 .. .. .. .. .. .. .. .. .. .. .. 60 .. .. .. 
.. .. .. .. .. .. .. .. 58 .. .. .. .. .. .. .. .. .. .. .. 62 .. .. .. .. .. .. .. .. .. 
.. .. 51 .. .. .. .. .. .. .. .. .. .. .. 46 .. .. .. .. .. .. .. .. .. .. .. 48 .. .. .. 
.. .. .. .. .. .. .. .. 46 .. .. .. .. .. .. .. .. .. .. .. .. .. .. .. .. .. .. .. .. .. 
.. .. 50 .. .. .. .. .. .. .. .. .. .. .. 51 .. .. .. .. .. .. .. .. .. .. .. .. .. .. .. 
.. .. .. .. .. .. .. .. 60 .. .. .. .. .. .. .. .. .. .. .. .. .. .. .. .. .. .. .. .. .. 
.. .. 63 .. .. .. .. .. .. .. .. .. .. .. .. .. .. .. .. .. .. .. .. .. .. .. 68 .. .. .. 
.. .. .. .. .. .. .. .. .. .. .. .. .. .. .. .. .. .. .. .. 60 .. .. .. .. .. .. .. .. .. 
.. .. 68 .. .. .. .. .. .. .. .. .. .. .. 67 .. .. .. .. .. .. .. .. .. .. .. .. .. .. .. 
.. .. .. .. .. .. .. .. .. .. .. .. .. .. .. .. .. .. .. .. .. .. .. .. .. .. .. .. .. .. 
.. .. .. .. .. .. .. .. .. .. .. .. .. .. .. .. .. .. .. .. .. .. .. .. .. .. .. .. .. .. 
.. .. .. .. .. .. .. .. .. .. .. .. .. .. .. .. .. .. .. .. 65 .. .. .. .. .. .. .. .. .. 
.. .. 64 .. .. .. .. .. .. .. .. .. .. .. 63 .. .. .. .. .. .. .. .. .. .. .. 62 .. .. .. 
.. .. .. .. .. .. .. .. 58 .. .. .. .. .. .. .. .. .. .. .. .. .. .. .. .. .. .. .. .. .. 
.. .. 62 .. .. .. .. .. .. .. .. .. .. .. 68 .. .. .. .. .. .. .. .. .. .. .. 67 .. .. .. 
.. .. .. .. .. .. .. .. .. .. .. .. .. .. .. .. .. .. .. .. .. .. .. .. .. .. .. .. .. .. 
.. .. .. .. .. .. .. .. .. .. .. .. .. .. .. .. .. .. .. .. .. .. .. .. .. .. .. .. .. .. 
.. .. .. .. .. .. .. .. .. .. .. .. .. .. .. .. .. .. .. .. .. .. .. .. .. .. .. .. .. .. 
.. .. 60 .. .. .. .. .. .. .. .. .. .. .. .. .. .. .. .. .. .. .. .. .. .. .. 63 .. .. .. 
.. .. .. .. .. .. .. .. .. .. .. .. .. .. .. .. .. .. .. .. 68 .. .. .. .. .. .. .. .. .. 
.. .. .. .. .. .. .. .. .. .. .. .. .. .. 60 .. .. .. .. .. .. .. .. .. .. .. 68 .. .. .. 
.. .. .. .. .. .. .. .. 67 .. .. .. .. .. .. .. .. .. .. .. .. .. .. .. .. .. .. .. .. .. 
.. .. .. .. .. .. .. .. .. .. .. .. .. .. .. .. .. .. .. .. .. .. .. .. .. .. .. .. .. .. 
.. .. .. .. .. .. .. .. .. .. .. .. .. .. .. .. .. .. .. .. .. .. .. .. .. .. .. .. .. .. 
.. .. .. .. .. .. .. .. .. .. .. .. .. .. 65 .. .. .. .. .. .. .. .. .. .. .. .. .. .. .. 
.. .. .. .. .. .. .. .. .. .. .. .. .. .. .. .. .. .. .. .. .. .. .. .. .. .. .. .. .. .. 
.. .. .. .. .. .. .. .. .. .. .. .. .. .. 63 .. .. .. .. .. .. .. .. .. .. .. 62 .. .. .. 
.. .. .. .. .. .. .. .. 60 .. .. .. .. .. .. .. .. .. .. .. 46 .. .. .. .. .. .. .. .. .. 
.. .. .. .. .. .. .. .. .. .. .. .. .. .. 50 .. .. .. .. .. .. .. .. .. .. .. 53 .. .. .. 
.. .. .. .. .. .. .. .. 58 .. .. .. .. .. .. .. .. .. .. .. .. .. .. .. .. .. .. .. .. .. 
.. .. .. .. .. .. .. .. .. .. .. .. .. .. .. .. .. .. .. .. .. .. .. .. .. .. 58 .. .. 55 
.. .. 58 .. .. 55 .. .. 58 .. .. 55 .. .. 58 .. .. 55 .. .. 67 .. .. .. .. .. .. .. .. .. 
.. .. 65 .. .. .. .. .. .. .. .. .. .. .. 63 .. .. .. .. .. .. .. .. .. .. .. 62 .. .. .. 
.. .. .. .. .. .. .. .. 60 .. .. .. .. .. .. .. .. .. .. .. 58 .. .. .. .. .. .. .. .. .. 
.. .. 56 .. .. .. .. .. .. .. .. .. .. .. 55 .. .. .. .. .. .. .. .. .. .. .. 53 .. .. .. 
.. .. .. .. .. .. .. .. 51 .. .. .. .. .. .. .. .. .. .. .. 50 .. .. .. .. .. .. .. .. .. 
.. .. 48 .. .. .. .. .. .. .. .. .. .. .. 46 .. .. .. .. .. .. .. .. .. .. .. .. .. .. .. 
.. .. .. .. .. .. .. .. 56 .. .. 53 .. .. 56 .. .. 53 .. .. 56 .. .. 53 .. .. 56 .. .. 53 
.. .. 65 .. .. .. .. .. .. .. .. .. .. .. 63 .. .. .. .. .. .. .. .. .. .. .. 62 .. .. .. 
.. .. .. .. .. .. .. .. 60 .. .. .. .. .. .. .. .. .. .. .. 58 .. .. .. .. .. .. .. .. .. 
.. .. 56 .. .. .. .. .. .. .. .. .. .. .. 46 .. .. .. .. .. .. .. .. .. .. .. .. .. .. .. 
.. .. .. .. .. .. .. .. 50 .. .. .. .. .. .. .. .. .. .. .. 48 .. .. .. .. .. .. .. .. .. 
.. .. 46 .. .. .. .. .. .. .. .. .. .. .. .. .. .. .. .. .. .. .. .. .. .. .. .. .. .. .. 
.. .. .. .. .. .. .. .. .. .. .. .. .. .. .. .. .. .. .. .. 58 .. .. 55 .. .. 58 .. .. 55 
.. .. 58 .. .. 55 .. .. 58 .. .. 55 .. .. 67 .. .. .. .. .. .. .. .. .. .. .. 65 .. .. .. 
.. .. .. .. .. .. .. .. 63 .. .. .. .. .. .. .. .. .. .. .. 62 .. .. .. .. .. .. .. .. .. 
.. .. 60 .. .. .. .. .. .. .. .. .. .. .. 58 .. .. .. .. .. .. .. .. .. .. .. 56 .. .. .. 
.. .. .. .. .. .. .. .. 55 .. .. .. .. .. .. .. .. .. .. .. 53 .. .. .. .. .. .. .. .. .. 
.. .. 51 .. .. .. .. .. .. .. .. .. .. .. 50 .. .. .. .. .. .. .. .. .. .. .. 48 .. .. .. 
.. .. .. .. .. .. .. .. 46 .. .. .. .. .. .. .. .. .. .. .. .. .. .. .. .. .. .. .. .. .. 
.. .. 56 .. .. 53 .. .. 56 .. .. 53 .. .. 56 .. .. 53 .. .. 56 .. .. 53 .. .. 65 .. .. .. 
.. .. .. .. .. .. .. .. 63 .. .. .. .. .. .. .. .. .. .. .. 62 .. .. .. .. .. .. .. .. .. 
.. .. 60 .. .. .. .. .. .. .. .. .. .. .. 58 .. .. .. .. .. .. .. .. .. .. .. 62 .. .. .. 
.. .. .. .. .. .. .. .. 51 .. .. .. .. .. .. .. .. .. .. .. 46 .. .. .. .. .. .. .. .. .. 
.. .. 48 .. .. .. .. .. .. .. .. .. .. .. 46 .. .. .. .. .. .. .. .. .. .. .. .. .. .. .. 
.. .. .. .. .. .. .. .. 50 .. .. .. .. .. .. .. .. .. .. .. 51 .. .. .. .. .. .. .. .. .. 
.. .. .. .. .. .. .. .. .. .. .. .. .. .. 60 .. .. .. .. .. .. .. .. .. .. .. .. .. .. .. 
.. .. .. .. .. .. .. .. 63 .. .. .. .. .. .. .. .. .. .. .. .. .. .. .. .. .. .. .. .. .. 
.. .. 68 .. .. .. .. .. .. .. .. .. .. .. .. .. .. .. .. .. .. .. .. .. .. .. 60 .. .. .. 
.. .. .. .. .. .. .. .. 68 .. .. .. .. .. .. .. .. .. .. .. 67 .. .. .. .. .. .. .. .. .. 
.. .. .. .. .. .. .. .. .. .. .. .. .. .. .. .. .. .. .. .. .. .. .. .. .. .. .. .. .. .. 
.. .. .. .. .. .. .. .. .. .. .. .. .. .. .. .. .. .. .. .. .. .. .. .. .. .. .. .. .. .. 
.. .. .. .. .. .. .. .. .. .. .. .. .. .. .. .. .. .. .. .. .. .. .. .. .. .. 65 .. .. .. 
.. .. .. .. .. .. .. .. 64 .. .. .. .. .. .. .. .. .. .. .. 63 .. .. .. .. .. .. .. .. .. 
.. .. 62 .. .. .. .. .. .. .. .. .. .. .. 58 .. .. .. .. .. .. .. .. .. .. .. .. .. .. .. 
.. .. .. .. .. .. .. .. 62 .. .. .. .. .. .. .. .. .. .. .. 68 .. .. .. .. .. .. .. .. .. 
.. .. 67 .. .. .. .. .. .. .. .. .. .. .. .. .. .. .. .. .. .. .. .. .. .. .. .. .. .. .. 
.. .. .. .. .. .. .. .. .. .. .. .. .. .. .. .. .. .. .. .. .. .. .. .. .. .. .. .. .. .. 
.. .. .. .. .. .. .. .. .. .. .. .. .. .. .. .. .. .. .. .. .. .. .. .. .. .. .. .. .. .. 
.. .. .. .. .. .. .. .. 60 .. .. .. .. .. .. .. .. .. .. .. .. .. .. .. .. .. .. .. .. .. 
.. .. 63 .. .. .. .. .. .. .. .. .. .. .. .. .. .. .. .. .. .. .. .. .. .. .. 68 .. .. .. 
.. .. .. .. .. .. .. .. .. .. .. .. .. .. .. .. .. .. .. .. 60 .. .. .. .. .. .. .. .. .. 
.. .. 68 .. .. .. .. .. .. .. .. .. .. .. 67 .. .. .. .. .. .. .. .. .. .. .. .. .. .. .. 
.. .. .. .. .. .. .. .. .. .. .. .. .. .. .. .. .. .. .. .. .. .. .. .. .. .. .. .. .. .. 
.. .. .. .. .. .. .. .. .. .. .. .. .. .. .. .. .. .. .. .. .. .. .. .. .. .. .. .. .. .. 
.. .. .. .. .. .. .. .. .. .. .. .. .. .. .. .. .. .. .. .. 65 .. .. .. .. .. .. .. .. .. 
.. .. .. .. .. .. .. .. .. .. .. .. .. .. .. .. .. .. .. .. .. .. .. .. .. .. .. .. .. .. 
.. .. .. .. .. .. .. .. .. .. .. .. .. .. .. .. .. .. .. .. 63 .. .. .. .. .. .. .. .. .. 
.. .. 62 .. .. .. .. .. .. .. .. .. .. .. 60 .. .. .. .. .. .. .. .. .. .. .. 46 .. .. .. 
.. .. .. .. .. .. .. .. .. .. .. .. .. .. .. .. .. .. .. .. 50 .. .. .. .. .. .. .. .. .. 
.. .. 53 .. .. .. .. .. .. .. .. .. .. .. 58 .. .. .. .. .. .. .. .. .. .. .. .. .. .. .. 
.. .. .. .. .. .. .. .. .. .. .. .. .. .. .. .. .. .. .. .. .. .. .. .. .. .. .. .. .. .. 
.. .. 58 .. .. 55 .. .. 58 .. .. 55 .. .. 58 .. .. 55 .. .. 58 .. .. 55 .. .. 67 .. .. .. 
.. .. .. .. .. .. .. .. 65 .. .. .. .. .. .. .. .. .. .. .. 63 .. .. .. .. .. .. .. .. .. 
.. .. 62 .. .. .. .. .. .. .. .. .. .. .. 60 .. .. .. .. .. .. .. .. .. .. .. 58 .. .. .. 
.. .. .. .. .. .. .. .. 56 .. .. .. .. .. .. .. .. .. .. .. 55 .. .. .. .. .. .. .. .. .. 
.. .. 53 .. .. .. .. .. .. .. .. .. .. .. 51 .. .. .. .. .. .. .. .. .. .. .. 50 .. .. .. 
.. .. .. .. .. .. .. .. 48 .. .. .. .. .. .. .. .. .. .. .. 46 .. .. .. .. .. .. .. .. .. 
.. .. .. .. .. .. .. .. .. .. .. .. .. .. 56 .. .. 53 .. .. 56 .. .. 53 .. .. 56 .. .. 53 
.. .. 56 .. .. 53 .. .. 65 .. .. .. .. .. .. .. .. .. .. .. 63 .. .. .. .. .. .. .. .. .. 
.. .. 62 .. .. .. .. .. .. .. .. .. .. .. 60 .. .. .. .. .. .. .. .. .. .. .. 58 .. .. .. 
.. .. .. .. .. .. .. .. 56 .. .. .. .. .. .. .. .. .. .. .. 46 .. .. .. .. .. .. .. .. .. 
.. .. .. .. .. .. .. .. .. .. .. .. .. .. 50 .. .. .. .. .. .. .. .. .. .. .. 48 .. .. .. 
.. .. .. .. .. .. .. .. 46 .. .. .. .. .. .. .. .. .. .. .. .. .. .. .. .. .. .. .. .. .. 
.. .. .. .. .. .. .. .. .. .. .. .. .. .. .. .. .. .. .. .. .. .. .. .. .. .. 58 .. .. 55 
.. .. 58 .. .. 55 .. .. 58 .. .. 55 .. .. 58 .. .. 55 .. .. 67 .. .. .. .. .. .. .. .. .. 
.. .. 65 .. .. .. .. .. .. .. .. .. .. .. 63 .. .. .. .. .. .. .. .. .. .. .. 62 .. .. .. 
.. .. .. .. .. .. .. .. 60 .. .. .. .. .. .. .. .. .. .. .. 58 .. .. .. .. .. .. .. .. .. 
.. .. 56 .. .. .. .. .. .. .. .. .. .. .. 55 .. .. .. .. .. .. .. .. .. .. .. 53 .. .. .. 
.. .. .. .. .. .. .. .. 51 .. .. .. .. .. .. .. .. .. .. .. 50 .. .. .. .. .. .. .. .. .. 
.. .. 48 .. .. .. .. .. .. .. .. .. .. .. 46 .. .. .. .. .. .. .. .. .. .. .. .. .. .. .. 
.. .. .. .. .. .. .. .. 56 .. .. 53 .. .. 56 .. .. 53 .. .. 56 .. .. 53 .. .. 56 .. .. 53 
.. .. 65 .. .. .. .. .. .. .. .. .. .. .. 63 .. .. .. .. .. .. .. .. .. .. .. 62 .. .. .. 
.. .. .. .. .. .. .. .. 60 .. .. .. .. .. .. .. .. .. .. .. 58 .. .. .. .. .. .. .. .. .. 
.. .. 62 .. .. .. .. .. .. .. .. .. .. .. 51 .. .. .. .. .. .. .. .. .. .. .. 46 .. .. .. 
.. .. .. .. .. .. .. .. 48 .. .. .. .. .. .. .. .. .. .. .. 46 .. .. .. .. .. .. .. .. .. 
.. .. .. .. .. .. .. .. .. .. .. .. .. .. 50 .. .. .. .. .. .. .. .. .. .. .. 51 .. .. .. 
.. .. .. .. .. .. .. .. .. .. .. .. .. .. .. .. .. .. .. .. 60 .. .. .. .. .. .. .. .. .. 
.. .. .. .. .. .. .. .. .. .. .. .. .. .. 63 .. .. .. .. .. .. .. .. .. .. .. .. .. .. .. 
.. .. .. .. .. .. .. .. 68 .. .. .. .. .. .. .. .. .. .. .. .. .. .. .. .. .. .. .. .. .. 
.. .. 60 .. .. .. .. .. .. .. .. .. .. .. 68 .. .. .. .. .. .. .. .. .. .. .. 67 .. .. .. 
.. .. .. .. .. .. .. .. .. .. .. .. .. .. .. .. .. .. .. .. .. .. .. .. .. .. .. .. .. .. 
.. .. .. .. .. .. .. .. .. .. .. .. .. .. .. .. .. .. .. .. .. .. .. .. .. .. .. .. .. .. 
.. .. .. .. .. .. .. .. .. .. .. .. .. .. .. .. .. .. .. .. .. .. .. .. .. .. .. .. .. .. 
.. .. 65 .. .. .. .. .. .. .. .. .. .. .. 64 .. .. .. .. .. .. .. .. .. .. .. 63 .. .. .. 
.. .. .. .. .. .. .. .. 62 .. .. .. .. .. .. .. .. .. .. .. 58 .. .. .. .. .. .. .. .. .. 
.. .. .. .. .. .. .. .. .. .. .. .. .. .. 62 .. .. .. .. .. .. .. .. .. .. .. 68 .. .. .. 
.. .. .. .. .. .. .. .. 67 .. .. .. .. .. .. .. .. .. .. .. .. .. .. .. .. .. .. .. .. .. 
.. .. .. .. .. .. .. .. .. .. .. .. .. .. .. .. .. .. .. .. .. .. .. .. .. .. .. .. .. .. 
.. .. .. .. .. .. .. .. .. .. .. .. .. .. .. .. .. .. .. .. .. .. .. .. .. .. .. .. .. .. 
.. .. .. .. .. .. .. .. .. .. .. .. .. .. 60 .. .. .. .. .. .. .. .. .. .. .. .. .. .. .. 
.. .. .. .. .. .. .. .. 63 .. .. .. .. .. .. .. .. .. .. .. .. .. .. .. .. .. .. .. .. .. 
.. .. 68 .. .. .. .. .. .. .. .. .. .. .. .. .. .. .. .. .. .. .. .. .. .. .. 60 .. .. .. 
.. .. .. .. .. .. .. .. 68 .. .. .. .. .. .. .. .. .. .. .. 67 .. .. .. .. .. .. .. .. .. 
.. .. .. .. .. .. .. .. .. .. .. .. .. .. .. .. .. .. .. .. .. .. .. .. .. .. .. .. .. .. 
.. .. .. .. .. .. .. .. .. .. .. .. .. .. .. .. .. .. .. .. .. .. .. .. .. .. .. .. .. .. 
.. .. .. .. .. .. .. .. .. .. .. .. .. .. .. .. .. .. .. .. .. .. .. .. .. .. 65 .. .. .. 
.. .. .. .. .. .. .. .. .. .. .. .. .. .. .. .. .. .. .. .. .. .. .. .. .. .. .. .. .. .. 
.. .. .. .. .. .. .. .. .. .. .. .. .. .. .. .. .. .. .. .. .. .. .. .. .. .. 63 .. .. .. 
.. .. .. .. .. .. .. .. 62 .. .. .. .. .. .. .. .. .. .. .. 60 .. .. .. .. .. .. .. .. .. 
.. .. 46 .. .. .. .. .. .. .. .. .. .. .. .. .. .. .. .. .. .. .. .. .. .. .. 50 .. .. .. 
.. .. .. .. .. .. .. .. 53 .. .. .. .. .. .. .. .. .. .. .. 58 .. .. .. .. .. .. .. .. .. 
.. .. .. .. .. .. .. .. .. .. .. .. .. .. .. .. .. .. .. .. .. .. .. .. .. .. .. .. .. .. 
.. .. .. .. .. .. .. .. 58 .. .. 55 .. .. 58 .. .. 55 .. .. 58 .. .. 55 .. .. 58 .. .. 55 
.. .. 67 .. .. .. .. .. .. .. .. .. .. .. 65 .. .. .. .. .. .. .. .. .. .. .. 63 .. .. .. 
.. .. .. .. .. .. .. .. 62 .. .. .. .. .. .. .. .. .. .. .. 60 .. .. .. .. .. .. .. .. .. 
.. .. 58 .. .. .. .. .. .. .. .. .. .. .. 56 .. .. .. .. .. .. .. .. .. .. .. 55 .. .. .. 
.. .. .. .. .. .. .. .. 53 .. .. .. .. .. .. .. .. .. .. .. 51 .. .. .. .. .. .. .. .. .. 
.. .. 50 .. .. .. .. .. .. .. .. .. .. .. 48 .. .. .. .. .. .. .. .. .. .. .. 46 .. .. .. 
.. .. .. .. .. .. .. .. .. .. .. .. .. .. .. .. .. .. .. .. 56 .. .. 53 .. .. 56 .. .. 53 
.. .. 56 .. .. 53 .. .. 56 .. .. 53 .. .. 65 .. .. .. .. .. .. .. .. .. .. .. 63 .. .. .. 
.. .. .. .. .. .. .. .. 62 .. .. .. .. .. .. .. .. .. .. .. 60 .. .. .. .. .. .. .. .. .. 
.. .. 58 .. .. .. .. .. .. .. .. .. .. .. 56 .. .. .. .. .. .. .. .. .. .. .. 46 .. .. .. 
.. .. .. .. .. .. .. .. .. .. .. .. .. .. .. .. .. .. .. .. 50 .. .. .. .. .. .. .. .. .. 
.. .. 48 .. .. .. .. .. .. .. .. .. .. .. 46 .. .. .. .. .. .. .. .. .. .. .. .. .. .. .. 
.. .. .. .. .. .. .. .. .. .. .. .. .. .. .. .. .. .. .. .. .. .. .. .. .. .. .. .. .. .. 
.. .. 58 .. .. 55 .. .. 58 .. .. 55 .. .. 58 .. .. 55 .. .. 58 .. .. 55 .. .. 67 .. .. .. 
.. .. .. .. .. .. .. .. 65 .. .. .. .. .. .. .. .. .. .. .. 63 .. .. .. .. .. .. .. .. .. 
.. .. 62 .. .. .. .. .. .. .. .. .. .. .. 60 .. .. .. .. .. .. .. .. .. .. .. 58 .. .. .. 
.. .. .. .. .. .. .. .. 56 .. .. .. .. .. .. .. .. .. .. .. 55 .. .. .. .. .. .. .. .. .. 
.. .. 53 .. .. .. .. .. .. .. .. .. .. .. 51 .. .. .. .. .. .. .. .. .. .. .. 50 .. .. .. 
.. .. .. .. .. .. .. .. 48 .. .. .. .. .. .. .. .. .. .. .. 46 .. .. .. .. .. .. .. .. .. 
.. .. .. .. .. .. .. .. .. .. .. .. .. .. 56 .. .. 53 .. .. 56 .. .. 53 .. .. 56 .. .. 53 
.. .. 56 .. .. 53 .. .. 65 .. .. .. .. .. .. .. .. .. .. .. 63 .. .. .. .. .. .. .. .. .. 
.. .. 62 .. .. .. .. .. .. .. .. .. .. .. 60 .. .. .. .. .. .. .. .. .. .. .. 58 .. .. .. 
.. .. .. .. .. .. .. .. 62 .. .. .. .. .. .. .. .. .. .. .. 51 .. .. .. .. .. .. .. .. .. 
.. .. 46 .. .. .. .. .. .. .. .. .. .. .. 48 .. .. .. .. .. .. .. .. .. .. .. 46 .. .. .. 
.. .. .. .. .. .. .. .. .. .. .. .. .. .. .. .. .. .. .. .. 50 .. .. .. .. .. .. .. .. .. 
.. .. 51 .. .. .. .. .. .. .. .. .. .. .. .. .. .. .. .. .. .. .. .. .. .. .. 60 .. .. .. 
.. .. .. .. .. .. .. .. .. .. .. .. .. .. .. .. .. .. .. .. 63 .. .. .. .. .. .. .. .. .. 
.. .. .. .. .. .. .. .. .. .. .. .. .. .. 68 .. .. .. .. .. .. .. .. .. .. .. .. .. 
! Song 2
14 .. 51 .. .. .. .. .. .. .. .. .. .. .. .. .. .. .. .. .. .. .. 55 .. .. .. .. .. .. .. 
.. .. .. .. .. .. .. .. .. .. .. .. 58 .. .. .. .. .. .. .. .. .. .. .. .. .. .. .. .. .. 
.. .. 56 .. .. .. .. .. .. .. .. .. .. .. .. .. .. .. .. .. .. .. 55 .. .. .. .. .. .. .. 
.. .. .. .. .. .. .. .. .. .. .. .. 53 .. .. .. .. .. .. .. .. .. .. .. .. .. .. .. .. .. 
.. .. 55 .. .. .. .. .. .. .. .. .. .. .. .. .. .. .. .. .. .. .. 53 .. .. .. .. .. .. .. 
.. .. .. .. .. .. .. .. .. .. .. .. 51 .. .. .. .. .. .. .. .. .. .. .. .. .. .. .. .. .. 
.. .. 56 .. .. .. .. .. .. .. .. .. .. .. .. .. .. .. .. .. .. .. 55 .. .. .. .. .. .. .. 
.. .. .. .. .. .. .. .. .. .. .. .. 53 .. .. .. .. .. .. .. .. .. .. .. .. .. .. .. .. .. 
.. .. 51 .. .. .. .. .. .. .. .. .. .. .. .. .. .. .. .. .. .. .. 55 .. .. .. .. .. .. .. 
.. .. .. .. .. .. .. .. .. .. .. .. 58 .. .. .. .. .. .. .. .. .. .. .. .. .. .. .. .. .. 
.. .. 60 .. .. .. .. .. .. .. .. .. 58 .. .. .. .. .. .. .. .. .. 56 .. .. .. .. .. .. .. 
.. .. .. .. .. .. .. .. .. .. .. .. 55 .. .. .. .. .. .. .. .. .. .. .. .. .. .. .. .. .. 
.. .. 53 .. .. .. .. .. .. .. .. .. .. .. .. .. .. .. .. .. .. .. 51 .. .. .. .. .. .. .. 
.. .. .. .. .. .. .. .. .. .. .. .. 50 .. .. .. .. .. .. .. .. .. .. .. .. .. .. .. .. .. 
.. .. 46 .. .. .. .. .. .. .. .. .. .. .. .. .. .. .. .. .. .. .. 50 .. .. .. .. .. .. .. 
.. .. .. .. .. .. .. .. .. .. .. .. 53 .. .. .. .. .. .. .. .. .. .. .. .. .. .. .. .. .. 
.. .. 51 .. .. .. .. .. .. .. .. .. .. .. .. .. .. .. .. .. .. .. 55 .. .. .. .. .. .. .. 
.. .. .. .. .. .. .. .. .. .. .. .. 58 .. .. .. .. .. .. .. .. .. .. .. .. .. .. .. .. .. 
.. .. 56 .. .. .. .. .. .. .. .. .. .. .. .. .. .. .. .. .. .. .. 55 .. .. .. .. .. .. .. 
.. .. .. .. .. .. .. .. .. .. .. .. 53 .. .. .. .. .. .. .. .. .. .. .. .. .. .. .. .. .. 
.. .. 55 .. .. .. .. .. .. .. .. .. .. .. .. .. .. .. .. .. .. .. 53 .. .. .. .. .. .. .. 
.. .. .. .. .. .. .. .. .. .. .. .. 51 .. .. .. .. .. .. .. .. .. .. .. .. .. .. .. .. .. 
.. .. 56 .. .. .. .. .. .. .. .. .. .. .. .. .. .. .. .. .. .. .. 55 .. .. .. .. .. .. .. 
.. .. .. .. .. .. .. .. .. .. .. .. 53 .. .. .. .. .. .. .. .. .. .. .. .. .. .. .. .. .. 
.. .. 51 .. .. .. .. .. .. .. .. .. .. .. .. .. .. .. .. .. .. .. 55 .. .. .. .. .. .. .. 
.. .. .. .. .. .. .. .. .. .. .. .. 58 .. .. .. .. .. .. .. .. .. .. .. .. .. .. .. .. .. 
.. .. 60 .. .. .. .. .. .. .. .. .. 58 .. .. .. .. .. .. .. .. .. 56 .. .. .. .. .. .. .. 
.. .. .. .. .. .. .. .. .. .. .. .. 55 .. .. .. .. .. .. .. .. .. .. .. .. .. .. .. .. .. 
.. .. 53 .. .. .. .. .. .. .. .. .. .. .. .. .. .. .. .. .. .. .. 51 .. .. .. .. .. .. .. 
.. .. .. .. .. .. .. .. .. .. .. .. 50 .. .. .. .. .. .. .. .. .. .. .. .. .. .. .. .. .. 
.. .. 46 .. .. .. .. .. .. .. .. .. .. .. .. .. .. .. .. .. .. .. 50 .. .. .. .. .. .. .. 
.. .. .. .. .. .. .. .. .. .. .. .. 53 .. .. .. .. .. .. .. .. .. .. .. .. .. .. .. .. .. 
.. .. 51 .. .. .. .. .. .. .. .. .. .. .. .. .. .. .. .. .. .. .. 55 .. .. .. .. .. .. .. 
.. .. .. .. .. .. .. .. .. .. .. .. 58 .. .. .. .. .. .. .. .. .. .. .. .. .. .. .. .. .. 
.. .. 56 .. .. .. .. .. .. .. .. .. .. .. .. .. .. .. .. .. .. .. 55 .. .. .. .. .. .. .. 
.. .. .. .. .. .. .. .. .. .. .. .. 53 .. .. .. .. .. .. .. .. .. .. .. .. .. .. .. .. .. 
.. .. 55 .. .. .. .. .. .. .. .. .. .. .. .. .. .. .. .. .. .. .. 53 .. .. .. .. .. .. .. 
.. .. .. .. .. .. .. .. .. .. .. .. 51 .. .. .. .. .. .. .. .. .. .. .. .. .. .. .. .. .. 
.. .. 56 .. .. .. .. .. .. .. .. .. .. .. .. .. .. .. .. .. .. .. 55 .. .. .. .. .. .. .. 
.. .. .. .. .. .. .. .. .. .. .. .. 53 .. .. .. .. .. .. .. .. .. .. .. .. .. .. .. .. .. 
.. .. 51 .. .. .. .. .. .. .. .. .. .. .. .. .. .. .. .. .. .. .. 55 .. .. .. .. .. .. .. 
.. .. .. .. .. .. .. .. .. .. .. .. 58 .. .. .. .. .. .. .. .. .. .. .. .. .. .. .. .. .. 
.. .. 60 .. .. .. .. .. .. .. .. .. 58 .. .. .. .. .. .. .. .. .. 56 .. .. .. .. .. .. .. 
.. .. .. .. .. .. .. .. .. .. .. .. 55 .. .. .. .. .. .. .. .. .. .. .. .. .. .. .. .. .. 
.. .. 53 .. .. .. .. .. .. .. .. .. .. .. .. .. .. .. .. .. .. .. 51 .. .. .. .. .. .. .. 
.. .. .. .. .. .. .. .. .. .. .. .. 50 .. .. .. .. .. .. .. .. .. .. .. .. .. .. .. .. .. 
.. .. 46 .. .. .. .. .. .. .. .. .. .. .. .. .. .. .. .. .. .. .. 50 .. .. .. .. .. .. .. 
.. .. .. .. .. .. .. .. .. .. .. .. 53 .. .. .. .. .. .. .. .. .. .. .. .. .. .. .. .. .. 
.. .. 51 .. .. .. .. .. .. .. .. .. .. .. .. .. .. .. .. .. .. .. 55 .. .. .. .. .. .. .. 
.. .. .. .. .. .. .. .. .. .. .. .. 58 .. .. .. .. .. .. .. .. .. .. .. .. .. .. .. .. .. 
.. .. 56 .. .. .. .. .. .. .. .. .. .. .. .. .. .. .. .. .. .. .. 55 .. .. .. .. .. .. .. 
.. .. .. .. .. .. .. .. .. .. .. .. 53 .. .. .. .. .. .. .. .. .. .. .. .. .. .. .. .. .. 
.. .. 55 .. .. .. .. .. .. .. .. .. .. .. .. .. .. .. .. .. .. .. 53 .. .. .. .. .. .. .. 
.. .. .. .. .. .. .. .. .. .. .. .. 51 .. .. .. .. .. .. .. .. .. .. .. .. .. .. .. .. .. 
.. .. 56 .. .. .. .. .. .. .. .. .. .. .. .. .. .. .. .. .. .. .. 55 .. .. .. .. .. .. .. 
.. .. .. .. .. .. .. .. .. .. .. .. 53 .. .. .. .. .. .. .. .. .. .. .. .. .. .. .. .. .. 
.. .. 51 .. .. .. .. .. .. .. .. .. .. .. .. .. .. .. .. .. .. .. 55 .. .. .. .. .. .. .. 
.. .. .. .. .. .. .. .. .. .. .. .. 58 .. .. .. .. .. .. .. .. .. .. .. .. .. .. .. .. .. 
.. .. 60 .. .. .. .. .. .. .. .. .. 58 .. .. .. .. .. .. .. .. .. 56 .. .. .. .. .. .. .. 
.. .. .. .. .. .. .. .. .. .. .. .. 55 .. .. .. .. .. .. .. .. .. .. .. .. .. .. .. .. .. 
.. .. 53 .. .. .. .. .. .. .. .. .. .. .. .. .. .. .. .. .. .. .. 51 .. .. .. .. .. .. .. 
.. .. .. .. .. .. .. .. .. .. .. .. 50 .. .. .. .. .. .. .. .. .. .. .. .. .. .. .. .. .. 
.. .. 46 .. .. .. .. .. .. .. .. .. .. .. .. .. .. .. .. .. .. .. 50 .. .. .. .. .. .. .. 
.. .. .. .. .. .. .. .. .. .. .. .. 53 .. .. .. .. .. .. .. .. .. .. .. .. .. .. .. .. .. 
.. .. 51 .. .. .. .. .. .. .. .. .. .. .. .. .. .. .. .. .. .. .. 55 .. .. .. .. .. .. .. 
.. .. .. .. .. .. .. .. .. .. .. .. 58 .. .. .. .. .. .. .. .. .. .. .. .. .. .. .. .. .. 
.. .. 56 .. .. .. .. .. .. .. .. .. .. .. .. .. .. .. .. .. .. .. 55 .. .. .. .. .. .. .. 
.. .. .. .. .. .. .. .. .. .. .. .. 53 .. .. .. .. .. .. .. .. .. .. .. .. .. .. .. .. .. 
.. .. 55 .. .. .. .. .. .. .. .. .. .. .. .. .. .. .. .. .. .. .. 53 .. .. .. .. .. .. .. 
.. .. .. .. .. .. .. .. .. .. .. .. 51 .. .. .. .. .. .. .. .. .. .. .. .. .. .. .. .. .. 
.. .. 56 .. .. .. .. .. .. .. .. .. .. .. .. .. .. .. .. .. .. .. 55 .. .. .. .. .. .. .. 
.. .. .. .. .. .. .. .. .. .. .. .. 53 .. .. .. .. .. .. .. .. .. .. .. .. .. .. .. .. .. 
.. .. 51 .. .. .. .. .. .. .. .. .. .. .. .. .. .. .. .. .. .. .. 55 .. .. .. .. .. .. .. 
.. .. .. .. .. .. .. .. .. .. .. .. 58 .. .. .. .. .. .. .. .. .. .. .. .. .. .. .. .. .. 
.. .. 60 .. .. .. .. .. .. .. .. .. 58 .. .. .. .. .. .. .. .. .. 56 .. .. .. .. .. .. .. 
.. .. .. .. .. .. .. .. .. .. .. .. 55 .. .. .. .. .. .. .. .. .. .. .. .. .. .. .. .. .. 
.. .. 53 .. .. .. .. .. .. .. .. .. .. .. .. .. .. .. .. .. .. .. 51 .. .. .. .. .. .. .. 
.. .. .. .. .. .. .. .. .. .. .. .. 50 .. .. .. .. .. .. .. .. .. .. .. .. .. .. .. .. .. 
.. .. 46 .. .. .. .. .. .. .. .. .. .. .. .. .. .. .. .. .. .. .. 50 .. .. .. .. .. .. .. 
.. .. .. .. .. .. .. .. .. .. .. .. 53 .. .. .. .. .. .. .. .. .. .. .. .. .. .. .. .. .. 
.. .. 51 .. .. .. .. .. .. .. .. .. .. .. .. .. .. .. .. .. .. .. 55 .. .. .. .. .. .. .. 
.. .. .. .. .. .. .. .. .. .. .. .. 58 .. .. .. .. .. .. .. .. .. .. .. .. .. .. .. .. .. 
.. .. 56 .. .. .. .. .. .. .. .. .. .. .. .. .. .. .. .. .. .. .. 55 .. .. .. .. .. .. .. 
.. .. .. .. .. .. .. .. .. .. .. .. 53 .. .. .. .. .. .. .. .. .. .. .. .. .. .. .. .. .. 
.. .. 55 .. .. .. .. .. .. .. .. .. .. .. .. .. .. .. .. .. .. .. 53 .. .. .. .. .. .. .. 
.. .. .. .. .. .. .. .. .. .. .. .. 51 .. .. .. .. .. .. .. .. .. .. .. .. .. .. .. .. .. 
.. .. 56 .. .. .. .. .. .. .. .. .. .. .. .. .. .. .. .. .. .. .. 55 .. .. .. .. .. .. .. 
.. .. .. .. .. .. .. .. .. .. .. .. 53 .. .. .. .. .. .. .. .. .. .. .. .. .. .. .. .. .. 
.. .. 51 .. .. .. .. .. .. .. .. .. .. .. .. .. .. .. .. .. .. .. 55 .. .. .. .. .. .. .. 
.. .. .. .. .. .. .. .. .. .. .. .. 58 .. .. .. .. .. .. .. .. .. .. .. .. .. .. .. .. .. 
.. .. 60 .. .. .. .. .. .. .. .. .. 58 .. .. .. .. .. .. .. .. .. 56 .. .. .. .. .. .. .. 
.. .. .. .. .. .. .. .. .. .. .. .. 55 .. .. .. .. .. .. .. .. .. .. .. .. .. .. .. .. .. 
.. .. 53 .. .. .. .. .. .. .. .. .. .. .. .. .. .. .. .. .. .. .. 51 .. .. .. .. .. .. .. 
.. .. .. .. .. .. .. .. .. .. .. .. 50 .. .. .. .. .. .. .. .. .. .. .. .. .. .. .. .. .. 
.. .. 46 .. .. .. .. .. .. .. .. .. .. .. .. .. .. .. .. .. .. .. 50 .. .. .. .. .. .. .. 
.. .. .. .. .. .. .. .. .. .. .. .. 53 .. .. .. .. .. .. .. .. .. .. .. .. .. .. .. .. .. 
.. .. 51 .. .. .. .. .. .. .. .. .. .. .. .. .. .. .. .. .. .. .. 55 .. .. .. .. .. .. .. 
.. .. .. .. .. .. .. .. .. .. .. .. 58 .. .. .. .. .. .. .. .. .. .. .. .. .. .. .. .. .. 
.. .. 56 .. .. .. .. .. .. .. .. .. .. .. .. .. .. .. .. .. .. .. 55 .. .. .. .. .. .. .. 
.. .. .. .. .. .. .. .. .. .. .. .. 53 .. .. .. .. .. .. .. .. .. .. .. .. .. .. .. .. .. 
.. .. 55 .. .. .. .. .. .. .. .. .. .. .. .. .. .. .. .. .. .. .. 53 .. .. .. .. .. .. .. 
.. .. .. .. .. .. .. .. .. .. .. .. 51 .. .. .. .. .. .. .. .. .. .. .. .. .. .. .. .. .. 
.. .. 56 .. .. .. .. .. .. .. .. .. .. .. .. .. .. .. .. .. .. .. 55 .. .. .. .. .. .. .. 
.. .. .. .. .. .. .. .. .. .. .. .. 53 .. .. .. .. .. .. .. .. .. .. .. .. .. .. .. .. .. 
.. .. 51 .. .. .. .. .. .. .. .. .. .. .. .. .. .. .. .. .. .. .. 55 .. .. .. .. .. .. .. 
.. .. .. .. .. .. .. .. .. .. .. .. 58 .. .. .. .. .. .. .. .. .. .. .. .. .. .. .. .. .. 
.. .. 60 .. .. .. .. .. .. .. .. .. 58 .. .. .. .. .. .. .. .. .. 56 .. .. .. .. .. .. .. 
.. .. .. .. .. .. .. .. .. .. .. .. 55 .. .. .. .. .. .. .. .. .. .. .. .. .. .. .. .. .. 
.. .. 53 .. .. .. .. .. .. .. .. .. .. .. .. .. .. .. .. .. .. .. 51 .. .. .. .. .. .. .. 
.. .. .. .. .. .. .. .. .. .. .. .. 50 .. .. .. .. .. .. .. .. .. .. .. .. .. .. .. .. .. 
.. .. 46 .. .. .. .. .. .. .. .. .. .. .. .. .. .. .. .. .. .. .. 50 .. .. .. .. .. .. .. 
.. .. .. .. .. .. .. .. .. .. .. .. 53 .. .. .. .. .. .. .. .. .. .. .. .. .. .. .. .. .. 
.. .. 51 .. .. .. .. .. .. .. .. .. .. .. .. .. .. .. .. .. .. .. 55 .. .. .. .. .. .. .. 
.. .. .. .. .. .. .. .. .. .. .. .. 58 .. .. .. .. .. .. .. .. .. .. .. .. .. .. .. .. .. 
.. .. 56 .. .. .. .. .. .. .. .. .. .. .. .. .. .. .. .. .. .. .. 55 .. .. .. .. .. .. .. 
.. .. .. .. .. .. .. .. .. .. .. .. 53 .. .. .. .. .. .. .. .. .. .. .. .. .. .. .. .. .. 
.. .. 55 .. .. .. .. .. .. .. .. .. .. .. .. .. .. .. .. .. .. .. 53 .. .. .. .. .. .. .. 
.. .. .. .. .. .. .. .. .. .. .. .. 51 .. .. .. .. .. .. .. .. .. .. .. .. .. .. .. .. .. 
.. .. 56 .. .. .. .. .. .. .. .. .. .. .. .. .. .. .. .. .. .. .. 55 .. .. .. .. .. .. .. 
.. .. .. .. .. .. .. .. .. .. .. .. 53 .. .. .. .. .. .. .. .. .. .. .. .. .. .. .. .. .. 
.. .. 51 .. .. .. .. .. .. .. .. .. .. .. .. .. .. .. .. .. .. .. 55 .. .. .. .. .. .. .. 
.. .. .. .. .. .. .. .. .. .. .. .. 58 .. .. .. .. .. .. .. .. .. .. .. .. .. .. .. .. .. 
.. .. 60 .. .. .. .. .. .. .. .. .. 58 .. .. .. .. .. .. .. .. .. 56 .. .. .. .. .. .. .. 
.. .. .. .. .. .. .. .. .. .. .. .. 55 .. .. .. .. .. .. .. .. .. .. .. .. .. .. .. .. .. 
.. .. 53 .. .. .. .. .. .. .. .. .. .. .. .. .. .. .. .. .. .. .. 51 .. .. .. .. .. .. .. 
.. .. .. .. .. .. .. .. .. .. .. .. 50 .. .. .. .. .. .. .. .. .. .. .. .. .. .. .. .. .. 
.. .. 46 .. .. .. .. .. .. .. .. .. .. .. .. .. .. .. .. .. .. .. 50 .. .. .. .. .. .. .. 
.. .. .. .. .. .. .. .. .. .. .. .. 53 .. .. .. .. .. .. .. .. .. .. .. .. .. .. .. .. .. 
.. .. 51 .. .. .. .. .. .. .. .. .. .. .. .. .. .. .. .. .. .. .. 55 .. .. .. .. .. .. .. 
.. .. .. .. .. .. .. .. .. .. .. .. 58 .. .. .. .. .. .. .. .. .. .. .. .. .. .. .. .. .. 
.. .. 56 .. .. .. .. .. .. .. .. .. .. .. .. .. .. .. .. .. .. .. 55 .. .. .. .. .. .. .. 
.. .. .. .. .. .. .. .. .. .. .. .. 53 .. .. .. .. .. .. .. .. .. .. .. .. .. .. .. .. .. 
.. .. 55 .. .. .. .. .. .. .. .. .. .. .. .. .. .. .. .. .. .. .. 53 .. .. .. .. .. .. .. 
.. .. .. .. .. .. .. .. .. .. .. .. 51 .. .. .. .. .. .. .. .. .. .. .. .. .. .. .. .. .. 
.. .. 56 .. .. .. .. .. .. .. .. .. .. .. .. .. .. .. .. .. .. .. 55 .. .. .. .. .. .. .. 
.. .. .. .. .. .. .. .. .. .. .. .. 53 .. .. .. .. .. .. .. .. .. .. .. .. .. .. .. .. .. 
.. .. 51 .. .. .. .. .. .. .. .. .. .. .. .. .. .. .. .. .. .. .. 55 .. .. .. .. .. .. .. 
.. .. .. .. .. .. .. .. .. .. .. .. 58 .. .. .. .. .. .. .. .. .. .. .. .. .. .. .. .. .. 
.. .. 60 .. .. .. .. .. .. .. .. .. 58 .. .. .. .. .. .. .. .. .. 56 .. .. .. .. .. .. .. 
.. .. .. .. .. .. .. .. .. .. .. .. 55 .. .. .. .. .. .. .. .. .. .. .. .. .. .. .. .. .. 
.. .. 53 .. .. .. .. .. .. .. .. .. .. .. .. .. .. .. .. .. .. .. 51 .. .. .. .. .. .. .. 
.. .. .. .. .. .. .. .. .. .. .. .. 50 .. .. .. .. .. .. .. .. .. .. .. .. .. .. .. .. .. 
.. .. 46 .. .. .. .. .. .. .. .. .. .. .. .. .. .. .. .. .. .. .. 50 .. .. .. .. .. .. .. 
.. .. .. .. .. .. .. .. .. .. .. .. 53 .. .. .. .. .. .. .. .. .. .. .. .. .. .. .. .. .. 
.. .. 51 .. .. .. .. .. .. .. .. .. .. .. .. .. .. .. .. .. .. .. 55 .. .. .. .. .. .. .. 
.. .. .. .. .. .. .. .. .. .. .. .. 58 .. .. .. .. .. .. .. .. .. .. .. .. .. .. .. .. .. 
.. .. 56 .. .. .. .. .. .. .. .. .. .. .. .. .. .. .. .. .. .. .. 55 .. .. .. .. .. .. .. 
.. .. .. .. .. .. .. .. .. .. .. .. 53 .. .. .. .. .. .. .. .. .. .. .. .. .. .. .. .. .. 
.. .. 55 .. .. .. .. .. .. .. .. .. .. .. .. .. .. .. .. .. .. .. 53 .. .. .. .. .. .. .. 
.. .. .. .. .. .. .. .. .. .. .. .. 51 .. .. .. .. .. .. .. .. .. .. .. .. .. .. .. .. .. 
.. .. 56 .. .. .. .. .. .. .. .. .. .. .. .. .. .. .. .. .. .. .. 55 .. .. .. .. .. .. .. 
.. .. .. .. .. .. .. .. .. .. .. .. 53 .. .. .. .. .. .. .. .. .. .. .. .. .. .. .. .. .. 
.. .. 51 .. .. .. .. .. .. .. .. .. .. .. .. .. .. .. .. .. .. .. 55 .. .. .. .. .. .. .. 
.. .. .. .. .. .. .. .. .. .. .. .. 58 .. .. .. .. .. .. .. .. .. .. .. .. .. .. .. .. .. 
.. .. 60 .. .. .. .. .. .. .. .. .. 58 .. .. .. .. .. .. .. .. .. 56 .. .. .. .. .. .. .. 
.. .. .. .. .. .. .. .. .. .. .. .. 55 .. .. .. .. .. .. .. .. .. .. .. .. .. .. .. .. .. 
.. .. 53 .. .. .. .. .. .. .. .. .. .. .. .. .. .. .. .. .. .. .. 51 .. .. .. .. .. .. .. 
.. .. .. .. .. .. .. .. .. .. .. .. 50 .. .. .. .. .. .. .. .. .. .. .. .. .. .. .. .. .. 
.. .. 46 .. .. .. .. .. .. .. .. .. .. .. .. .. .. .. .. .. .. .. 50 .. .. .. .. .. .. .. 
.. .. .. .. .. .. .. .. .. .. .. .. 53 .. .. .. .. .. .. .. .. .. .. .. .. .. .. .. .. .. 
.. .. 51 .. .. .. .. .. .. .. .. .. .. .. .. .. .. .. .. .. .. .. 55 .. .. .. .. .. .. .. 
.. .. .. .. .. .. .. .. .. .. .. .. 58 .. .. .. .. .. .. .. .. .. .. .. .. .. .. .. .. .. 
.. .. 56 .. .. .. .. .. .. .. .. .. .. .. .. .. .. .. .. .. .. .. 55 .. .. .. .. .. .. .. 
.. .. .. .. .. .. .. .. .. .. .. .. 53 .. .. .. .. .. .. .. .. .. .. .. .. .. .. .. .. .. 
.. .. 55 .. .. .. .. .. .. .. .. .. .. .. .. .. .. .. .. .. .. .. 53 .. .. .. .. .. .. .. 
.. .. .. .. .. .. .. .. .. .. .. .. 51 .. .. .. .. .. .. .. .. .. .. .. .. .. .. .. .. .. 
.. .. 56 .. .. .. .. .. .. .. .. .. .. .. .. .. .. .. .. .. .. .. 55 .. .. .. .. .. .. .. 
.. .. .. .. .. .. .. .. .. .. .. .. 53 .. .. .. .. .. .. .. .. .. .. .. .. .. .. .. .. .. 
.. .. 51 .. .. .. .. .. .. .. .. .. .. .. .. .. .. .. .. .. .. .. 55 .. .. .. .. .. .. .. 
.. .. .. .. .. .. .. .. .. .. .. .. 58 .. .. .. .. .. .. .. .. .. .. .. .. .. .. .. .. .. 
.. .. 60 .. .. .. .. .. .. .. .. .. 58 .. .. .. .. .. .. .. .. .. 56 .. .. .. .. .. .. .. 
.. .. .. .. .. .. .. .. .. .. .. .. 55 .. .. .. .. .. .. .. .. .. .. .. .. .. .. .. .. .. 
.. .. 53 .. .. .. .. .. .. .. .. .. .. .. .. .. .. .. .. .. .. .. 51 .. .. .. .. .. .. .. 
.. .. .. .. .. .. .. .. .. .. .. .. 50 .. .. .. .. .. .. .. .. .. .. .. .. .. .. .. .. .. 
.. .. 46 .. .. .. .. .. .. .. .. .. .. .. .. .. .. .. .. .. .. .. 50 .. .. .. .. .. .. .. 
.. .. .. .. .. .. .. .. .. .. .. .. 53 .. .. .. .. .. .. .. .. .. .. .. .. .. .. .. .. .. 
.. .. 51 .. .. .. .. .. .. .. .. .. .. .. .. .. .. .. .. .. .. .. 55 .. .. .. .. .. .. .. 
.. .. .. .. .. .. .. .. .. .. .. .. 58 .. .. .. .. .. .. .. .. .. .. .. .. .. .. .. .. .. 
.. .. 56 .. .. .. .. .. .. .. .. .. .. .. .. .. .. .. .. .. .. .. 55 .. .. .. .. .. .. .. 
.. .. .. .. .. .. .. .. .. .. .. .. 53 .. .. .. .. .. .. .. .. .. .. .. .. .. .. .. .. .. 
.. .. 55 .. .. .. .. .. .. .. .. .. .. .. .. .. .. .. .. .. .. .. 53 .. .. .. .. .. .. .. 
.. .. .. .. .. .. .. .. .. .. .. .. 51 .. .. .. .. .. .. .. .. .. .. .. .. .. .. .. .. .. 
.. .. 56 .. .. .. .. .. .. .. .. .. .. .. .. .. .. .. .. .. .. .. 55 .. .. .. .. .. .. .. 
.. .. .. .. .. .. .. .. .. .. .. .. 53 .. .. .. .. .. .. .. .. .. .. .. .. .. .. .. .. .. 
.. .. 51 .. .. .. .. .. .. .. .. .. .. .. .. .. .. .. .. .. .. .. 55 .. .. .. .. .. .. .. 
.. .. .. .. .. .. .. .. .. .. .. .. 58 .. .. .. .. .. .. .. .. .. .. .. .. .. .. .. .. .. 
.. .. 60 .. .. .. .. .. .. .. .. .. 58 .. .. .. .. .. .. .. .. .. 56 .. .. .. .. .. .. .. 
.. .. .. .. .. .. .. .. .. .. .. .. 55 .. .. .. .. .. .. .. .. .. .. .. .. .. .. .. .. .. 
.. .. 53 .. .. .. .. .. .. .. .. .. .. .. .. .. .. .. .. .. .. .. 51 .. .. .. .. .. .. .. 
.. .. .. .. .. .. .. .. .. .. .. .. 50 .. .. .. .. .. .. .. .. .. .. .. .. .. .. .. .. .. 
.. .. 46 .. .. .. .. .. .. .. .. .. .. .. .. .. .. .. .. .. .. .. 50 .. .. .. .. .. .. .. 
.. .. .. .. .. .. .. .. .. .. .. .. 53 .. .. .. .. .. .. .. .. .. .. .. .. .. .. .. .. .. 
.. .. 51 .. .. .. .. .. .. .. .. .. .. .. .. .. .. .. .. .. .. .. 55 .. .. .. .. .. .. .. 
.. .. .. .. .. .. .. .. .. .. .. .. 58 .. .. .. .. .. .. .. .. .. .. .. .. .. .. .. .. .. 
.. .. 56 .. .. .. .. .. .. .. .. .. .. .. .. .. .. .. .. .. .. .. 55 .. .. .. .. .. .. .. 
.. .. .. .. .. .. .. .. .. .. .. .. 53 .. .. .. .. .. .. .. .. .. .. .. .. .. .. .. .. .. 
.. .. 55 .. .. .. .. .. .. .. .. .. .. .. .. .. .. .. .. .. .. .. 53 .. .. .. .. .. .. .. 
.. .. .. .. .. .. .. .. .. .. .. .. 51 .. .. .. .. .. .. .. .. .. .. .. .. .. .. .. .. .. 
.. .. 56 .. .. .. .. .. .. .. .. .. .. .. .. .. .. .. .. .. .. .. 55 .. .. .. .. .. .. .. 
.. .. .. .. .. .. .. .. .. .. .. .. 53 .. .. .. .. .. .. .. .. .. .. .. .. .. .. .. .. .. 
.. .. 51 .. .. .. .. .. .. .. .. .. .. .. .. .. .. .. .. .. .. .. 55 .. .. .. .. .. .. .. 
.. .. .. .. .. .. .. .. .. .. .. .. 58 .. .. .. .. .. .. .. .. .. .. .. .. .. .. .. .. .. 
.. .. 60 .. .. .. .. .. .. .. .. .. 58 .. .. .. .. .. .. .. .. .. 56 .. .. .. .. .. .. .. 
.. .. .. .. .. .. .. .. .. .. .. .. 55 .. .. .. .. .. .. .. .. .. .. .. .. .. .. .. .. .. 
.. .. 53 .. .. .. .. .. .. .. .. .. .. .. .. .. .. .. .. .. .. .. 51 .. .. .. .. .. .. .. 
.. .. .. .. .. .. .. .. .. .. .. .. 50 .. .. .. .. .. .. .. .. .. .. .. .. .. .. .. .. .. 
.. .. 46 .. .. .. .. .. .. .. .. .. .. .. .. .. .. .. .. .. .. .. 50 .. .. .. .. .. .. .. 
.. .. .. .. .. .. .. .. .. .. .. .. 53 .. .. .. .. .. .. .. .. .. .. .. .. .. .. .. .. .. 
.. .. 51 .. .. .. .. .. .. .. .. .. .. .. .. .. .. .. .. .. .. .. 55 .. .. .. .. .. .. .. 
.. .. .. .. .. .. .. .. .. .. .. .. 58 .. .. .. .. .. .. .. .. .. .. .. .. .. .. .. .. .. 
.. .. 56 .. .. .. .. .. .. .. .. .. .. .. .. .. .. .. .. .. .. .. 55 .. .. .. .. .. .. .. 
.. .. .. .. .. .. .. .. .. .. .. .. 53 .. .. .. .. .. .. .. .. .. .. .. .. .. .. .. .. .. 
.. .. 55 .. .. .. .. .. .. .. .. .. .. .. .. .. .. .. .. .. .. .. 53 .. .. .. .. .. .. .. 
.. .. .. .. .. .. .. .. .. .. .. .. 51 .. .. .. .. .. .. .. .. .. .. .. .. .. .. .. .. .. 
.. .. 56 .. .. .. .. .. .. .. .. .. .. .. .. .. .. .. .. .. .. .. 55 .. .. .. .. .. .. .. 
.. .. .. .. .. .. .. .. .. .. .. .. 53 .. .. .. .. .. .. .. .. .. .. .. .. .. .. .. .. .. 
.. .. 51 .. .. .. .. .. .. .. .. .. .. .. .. .. .. .. .. .. .. .. 55 .. .. .. .. .. .. .. 
.. .. .. .. .. .. .. .. .. .. .. .. 58 .. .. .. .. .. .. .. .. .. .. .. .. .. .. .. .. .. 
.. .. 60 .. .. .. .. .. .. .. .. .. 58 .. .. .. .. .. .. .. .. .. 56 .. .. .. .. .. .. .. 
.. .. .. .. .. .. .. .. .. .. .. .. 55 .. .. .. .. .. .. .. .. .. .. .. .. .. .. .. .. .. 
.. .. 53 .. .. .. .. .. .. .. .. .. .. .. .. .. .. .. .. .. .. .. 51 .. .. .. .. .. .. .. 
.. .. .. .. .. .. .. .. .. .. .. .. 50 .. .. .. .. .. .. .. .. .. .. .. .. .. .. .. .. .. 
.. .. 46 .. .. .. .. .. .. .. .. .. .. .. .. .. .. .. .. .. .. .. 50 .. .. .. .. .. .. .. 
.. .. .. .. .. .. .. .. .. .. .. .. 53 .. .. .. .. .. .. .. .. .. .. .. .. .. .. .. .. .. 
.. .. 51 .. .. .. .. .. .. .. .. .. .. .. .. .. .. .. .. .. .. .. 55 .. .. .. .. .. .. .. 
.. .. .. .. .. .. .. .. .. .. .. .. 58 .. .. .. .. .. .. .. .. .. .. .. .. .. .. .. .. .. 
.. .. 56 .. .. .. .. .. .. .. .. .. .. .. .. .. .. .. .. .. .. .. 55 .. .. .. .. .. .. .. 
.. .. .. .. .. .. .. .. .. .. .. .. 53 .. .. .. .. .. .. .. .. .. .. .. .. .. .. .. .. .. 
.. .. 55 .. .. .. .. .. .. .. .. .. .. .. .. .. .. .. .. .. .. .. 53 .. .. .. .. .. .. .. 
.. .. .. .. .. .. .. .. .. .. .. .. 51 .. .. .. .. .. .. .. .. .. .. .. .. .. .. .. .. .. 
.. .. 56 .. .. .. .. .. .. .. .. .. .. .. .. .. .. .. .. .. .. .. 55 .. .. .. .. .. .. .. 
.. .. .. .. .. .. .. .. .. .. .. .. 53 .. .. .. .. .. .. .. .. .. .. .. .. .. .. .. .. .. 
.. .. 51 .. .. .. .. .. .. .. .. .. .. .. .. .. .. .. .. .. .. .. 55 .. .. .. .. .. .. .. 
.. .. .. .. .. .. .. .. .. .. .. .. 58 .. .. .. .. .. .. .. .. .. .. .. .. .. .. .. .. .. 
.. .. 60 .. .. .. .. .. .. .. .. .. 58 .. .. .. .. .. .. .. .. .. 56 .. .. .. .. .. .. .. 
.. .. .. .. .. .. .. .. .. .. .. .. 55 .. .. .. .. .. .. .. .. .. .. .. .. .. .. .. .. .. 
.. .. 53 .. .. .. .. .. .. .. .. .. .. .. .. .. .. .. .. .. .. .. 51 .. .. .. .. .. .. .. 
.. .. .. .. .. .. .. .. .. .. .. .. 50 .. .. .. .. .. .. .. .. .. .. .. .. .. .. .. .. .. 
.. .. 46 .. .. .. .. .. .. .. .. .. .. .. .. .. .. .. .. .. .. .. 50 .. .. .. .. .. 
! Song 3
14 .. .. .. .. .. .. .. .. .. .. .. .. .. .. .. .. .. 56 .. .. .. .. .. .. .. 55 .. .. .. 
.. .. .. .. .. .. .. .. .. .. .. .. 56 .. .. .. .. .. .. .. 58 .. .. .. .. .. .. .. .. .. 
.. .. .. .. .. .. 57 .. .. .. .. .. .. .. 58 .. .. .. .. .. .. .. .. .. .. .. .. .. .. .. 
60 .. .. .. .. .. .. .. 61 .. .. .. .. .. .. .. .. .. .. .. .. .. .. .. .. .. .. .. .. .. 
.. .. 60 .. .. .. .. .. .. .. .. .. .. .. .. .. .. .. 61 .. .. .. .. .. .. .. .. .. .. .. 
.. .. .. .. .. .. .. .. .. .. .. .. 15 .. .. .. .. .. .. .. .. .. .. .. .. .. .. .. .. .. 
.. .. .. .. .. .. .. .. .. .. .. .. .. .. .. .. .. .. .. .. .. .. .. .. .. .. .. .. .. .. 
.. .. .. .. .. .. .. .. .. .. .. .. .. .. .. .. .. .. .. .. .. .. .. .. .. .. .. .. .. .. 
.. .. .. .. .. .. .. .. .. .. .. .. .. .. .. .. .. .. .. .. .. .. .. .. .. .. .. .. .. .. 
.. .. .. .. .. .. .. .. .. .. .. .. .. .. .. .. .. 
! Song 4
14 .. .. .. .. .. .. .. .. .. .. 58 .. .. .. .. .. 55 .. .. .. .. .. 58 .. .. .. .. .. 55 
.. .. .. .. .. 59 .. .. .. .. .. 55 .. .. .. .. .. 59 .. .. .. .. .. 55 .. .. .. .. .. 60 
.. .. .. .. .. 56 .. .. .. .. .. 60 .. .. .. .. .. 56 .. .. .. .. .. 61 .. .. .. .. .. 56 
.. .. .. .. .. 61 .. .. .. .. .. 56 .. .. .. .. .. 62 .. .. .. .. .. 58 .. .. .. .. .. 56 
.. .. .. .. .. 53 .. .. .. .. .. 50 .. .. .. .. .. 53 .. .. .. .. .. 56 .. .. .. .. .. 58 
.. .. .. .. .. 62 .. .. .. .. .. .. .. .. .. .. .. .. .. .. .. .. .. .. .. .. .. .. .. .. 
.. .. .. .. .. .. .. .. .. .. .. .. .. .. 55 .. .. .. .. .. 51 .. .. .. .. .. 46 .. .. .. 
.. .. 51 .. .. .. .. .. 55 .. .. .. .. .. 51 .. .. .. .. .. 46 .. .. .. .. .. 51 .. .. .. 
.. .. 55 .. .. .. .. .. 51 .. .. .. .. .. 46 .. .. .. .. .. 51 .. .. .. .. .. 55 .. .. .. 
.. .. 51 .. .. .. .. .. 46 .. .. .. .. .. 51 .. .. .. .. .. 56 .. .. .. .. .. 51 .. .. .. 
.. .. 48 .. .. .. .. .. 51 .. .. .. .. .. 56 .. .. .. .. .. 51 .. .. .. .. .. 48 .. .. .. 
.. .. 51 .. .. .. .. .. 56 .. .. .. .. .. 51 .. .. .. .. .. 48 .. .. .. .. .. 51 .. .. .. 
.. .. 56 .. .. .. .. .. 51 .. .. .. .. .. 48 .. .. .. .. .. 51 .. .. .. .. .. 58 .. .. .. 
.. .. 53 .. .. .. .. .. 50 .. .. .. .. .. 53 .. .. .. .. .. 58 .. .. .. .. .. 53 .. .. .. 
.. .. 50 .. .. .. .. .. 53 .. .. .. .. .. 58 .. .. .. .. .. 53 .. .. .. .. .. 50 .. .. .. 
.. .. 53 .. .. .. .. .. 58 .. .. .. .. .. 53 .. .. .. .. .. 50 .. .. .. .. .. 53 .. .. .. 
.. .. 63 .. .. .. .. .. .. .. .. .. .. .. 62 .. .. .. .. .. .. .. .. .. .. .. 61 .. .. .. 
.. .. .. .. .. .. .. .. 60 .. .. .. .. .. .. .. .. .. .. .. 59 .. .. .. .. .. .. .. .. .. 
.. .. 58 .. .. .. .. .. .. .. .. .. .. .. 57 .. .. .. .. .. .. .. .. .. .. .. 56 .. .. .. 
.. .. .. .. .. .. .. .. 55 .. .. .. .. .. 51 .. .. .. .. .. 46 .. .. .. .. .. 51 .. .. .. 
.. .. 55 .. .. .. .. .. 51 .. .. .. .. .. 46 .. .. .. .. .. 51 .. .. .. .. .. 55 .. .. .. 
.. .. 51 .. .. .. .. .. 46 .. .. .. .. .. 51 .. .. .. .. .. 55 .. .. .. .. .. 51 .. .. .. 
.. .. 46 .. .. .. .. .. 51 .. .. .. .. .. 56 .. .. .. .. .. 51 .. .. .. .. .. 48 .. .. .. 
.. .. 51 .. .. .. .. .. 56 .. .. .. .. .. 51 .. .. .. .. .. 48 .. .. .. .. .. 51 .. .. .. 
.. .. 56 .. .. .. .. .. 51 .. .. .. .. .. 48 .. .. .. .. .. 51 .. .. .. .. .. 56 .. .. .. 
.. .. 51 .. .. .. .. .. 48 .. .. .. .. .. 51 .. .. .. .. .. 58 .. .. .. .. .. 53 .. .. .. 
.. .. 50 .. .. .. .. .. 53 .. .. .. .. .. 58 .. .. .. .. .. 53 .. .. .. .. .. 50 .. .. .. 
.. .. 53 .. .. .. .. .. 58 .. .. .. .. .. 53 .. .. .. .. .. 50 .. .. .. .. .. 53 .. .. .. 
.. .. 58 .. .. .. .. .. 53 .. .. .. .. .. 50 .. .. .. .. .. 53 .. .. .. .. .. 63 .. .. .. 
.. .. 58 .. .. .. .. .. 55 .. .. .. .. .. 58 .. .. .. .. .. 63 .. .. .. .. .. 58 .. .. .. 
.. .. 55 .. .. .. .. .. 58 .. .. .. .. .. 63 .. .. .. .. .. .. .. .. .. .. .. .. .. .. .. 
.. .. .. .. .. .. .. .. .. .. .. .. .. .. .. .. .. .. .. .. .. .. .. .. .. .. .. .. .. .. 
.. .. .. .. .. .. .. .. .. .. .. .. .. .. .. .. .. .. 15 .. .. .. .. .. .. .. .. .. .. .. 
.. .. .. .. .. .. .. .. .. .. .. .. .. .. .. .. .. .. .. .. .. .. .. .. .. .. .. .. .. .. 
.. .. .. .. .. .. .. .. .. .. .. .. .. .. .. .. .. .. .. .. .. .. .. .. .. .. .. .. .. .. 
.. .. .. .. .. .. .. .. .. .. .. .. .. .. .. .. .. .. .. .. 
! End
