! Simple
! Song 9
50 52 .. .. .. .. .. .. .. .. .. .. .. .. .. .. .. .. .. .. .. .. .. .. .. .. .. .. .. .. 
.. .. .. .. .. .. .. .. .. .. .. .. .. .. .. .. .. .. .. .. .. .. .. .. .. .. .. .. .. .. 
.. .. .. .. .. .. .. .. .. .. .. .. .. .. .. .. .. .. .. .. .. .. .. .. .. .. .. .. .. .. 
.. .. .. .. .. .. .. .. .. .. .. .. .. .. .. .. .. .. .. .. .. .. .. .. .. .. .. .. .. .. 
.. .. .. .. .. .. .. .. .. .. .. .. .. .. .. .. .. .. .. .. .. .. .. .. .. .. .. .. .. .. 
.. .. .. .. .. .. .. .. .. .. .. .. .. .. .. .. .. .. .. .. .. .. .. .. .. .. .. .. .. .. 
.. .. .. .. .. .. .. .. .. .. .. .. .. .. .. .. .. .. .. .. .. .. .. .. .. .. .. .. .. .. 
.. .. .. .. .. .. .. .. .. .. .. .. .. .. .. .. .. .. .. .. .. .. .. .. .. .. .. .. .. .. 
.. .. .. .. .. .. .. .. .. .. .. .. .. .. .. .. .. .. .. .. .. .. .. .. .. .. .. .. .. .. 
.. .. .. .. .. .. .. .. .. .. .. .. .. .. .. .. .. .. .. .. .. .. .. .. .. .. .. .. .. .. 
.. .. .. .. .. .. .. .. .. .. .. .. .. .. .. .. .. .. .. .. .. .. .. .. .. .. .. .. .. .. 
.. .. .. .. .. .. .. .. .. .. .. .. .. .. .. .. .. .. .. .. .. .. .. .. .. .. .. .. .. .. 
.. .. .. .. .. .. .. .. .. .. .. .. .. .. .. .. .. .. .. .. .. .. .. .. .. .. .. .. .. .. 
.. .. .. .. .. .. .. .. .. .. .. .. .. .. .. .. .. .. .. .. .. .. .. .. .. .. .. .. .. .. 
.. .. .. .. .. .. .. .. .. .. .. .. .. .. .. .. .. .. .. .. .. .. .. .. .. .. .. .. .. .. 
.. .. .. .. .. .. .. .. .. .. .. .. .. .. .. .. .. .. .. .. .. .. .. .. .. .. .. .. .. .. 
.. .. .. .. .. .. .. .. .. .. .. .. .. .. .. .. .. .. .. .. .. .. .. .. .. .. .. .. .. .. 
.. .. .. .. .. .. .. .. .. .. .. .. .. .. .. .. .. .. .. .. .. .. .. .. .. .. .. .. .. .. 
.. .. .. .. .. .. .. .. .. .. .. .. .. .. .. .. .. .. .. .. .. .. .. .. .. .. .. .. .. .. 
.. .. .. .. .. .. .. .. .. .. .. .. .. .. .. .. .. .. .. .. .. .. .. .. .. .. .. .. .. .. 
.. .. .. .. .. .. .. .. .. .. .. .. .. .. .. .. .. .. .. .. .. .. .. .. .. .. .. .. .. .. 
.. .. .. .. .. .. .. .. .. .. .. .. .. .. .. .. .. .. .. .. .. .. .. .. .. .. .. .. .. .. 
.. .. .. .. .. .. .. .. .. .. .. .. .. .. .. .. .. .. .. .. .. .. .. .. .. .. .. .. .. .. 
.. .. .. .. .. .. .. .. .. .. .. .. .. .. .. .. .. .. .. .. .. .. .. .. .. .. .. .. .. .. 
.. .. .. .. .. .. .. .. .. .. .. .. .. .. .. .. .. .. .. .. .. .. .. .. .. .. .. .. .. .. 
.. .. .. .. .. .. .. .. .. .. .. .. .. .. .. .. .. .. .. .. .. .. .. .. .. .. .. .. .. .. 
.. .. .. .. .. .. .. .. .. .. .. .. .. .. .. .. .. .. .. .. .. .. .. .. .. .. .. .. .. .. 
.. .. .. .. .. .. .. .. .. .. .. .. .. .. .. .. .. .. .. .. .. .. .. .. .. .. .. .. .. .. 
.. .. .. .. .. .. .. .. .. .. .. .. .. .. .. .. .. .. .. .. .. .. .. .. .. .. .. .. .. .. 
.. .. .. .. .. .. .. .. .. .. .. .. .. .. .. .. .. .. .. .. .. .. .. .. .. .. .. .. .. .. 
.. .. .. .. .. .. .. .. .. .. .. .. .. .. .. .. .. .. .. .. .. .. .. .. .. .. .. .. .. .. 
.. .. .. .. .. .. .. .. .. .. .. .. .. .. .. .. .. .. .. .. .. .. .. .. .. .. .. .. .. .. 
.. .. .. .. .. .. .. .. .. .. .. .. .. .. .. .. .. .. .. .. .. .. .. .. .. .. .. .. .. .. 
.. .. .. .. .. .. .. .. .. .. .. .. .. .. .. .. .. .. .. .. .. .. .. .. .. .. .. .. .. .. 
.. .. .. .. .. .. .. .. .. .. .. .. .. .. .. .. .. .. .. .. .. .. .. .. .. .. .. .. .. .. 
.. .. .. .. .. .. .. .. .. .. .. .. .. .. .. .. .. .. .. .. .. .. .. .. .. .. .. .. .. .. 
.. .. .. .. .. .. .. .. .. .. .. .. .. .. .. .. .. .. .. .. .. .. .. .. .. .. .. .. .. .. 
.. .. .. .. .. .. .. .. .. .. .. .. .. .. .. .. .. .. .. .. .. .. .. .. .. .. .. .. .. .. 
.. .. .. .. .. .. .. .. .. .. .. .. .. .. .. .. .. .. .. .. .. .. .. .. .. .. .. .. .. .. 
.. .. .. .. .. .. .. .. .. .. .. .. .. .. .. .. .. .. .. .. .. .. .. .. .. .. .. .. .. .. 
.. .. .. .. .. .. .. .. .. .. .. .. .. .. .. .. .. .. .. .. .. .. .. .. .. .. .. .. .. .. 
.. .. .. .. .. .. .. .. .. .. .. .. .. .. .. .. .. .. .. .. .. .. .. .. .. .. .. .. .. .. 
.. .. .. .. .. .. .. .. .. .. .. .. .. .. .. .. .. .. .. .. .. .. .. .. .. .. .. .. .. .. 
.. .. .. .. .. .. .. .. .. .. .. .. .. .. .. .. .. .. .. .. .. .. .. .. .. .. .. .. .. .. 
.. .. .. .. .. .. .. .. .. .. .. .. .. .. .. .. .. .. .. .. .. .. .. .. .. .. .. .. .. .. 
.. .. .. .. .. .. .. .. .. .. .. .. .. .. .. .. .. .. .. .. .. .. .. .. .. .. .. .. .. .. 
.. .. .. .. .. .. .. .. .. .. .. .. .. .. .. .. .. .. .. .. .. .. .. .. .. .. .. .. .. .. 
.. .. .. .. .. .. .. .. .. .. .. .. .. .. .. .. .. .. .. .. .. .. .. .. .. .. .. .. .. .. 
.. .. .. .. .. .. .. .. .. .. .. .. .. .. .. .. .. .. .. .. .. .. .. .. .. .. .. .. .. .. 
.. .. .. .. .. .. .. .. .. .. .. .. .. .. .. .. .. .. .. .. .. .. .. .. .. .. .. .. .. .. 
.. .. .. .. .. .. .. .. .. .. .. .. .. .. .. .. .. .. .. .. .. .. .. .. .. .. .. .. .. .. 
.. .. .. .. .. .. .. .. .. .. .. .. .. .. .. .. .. .. .. .. .. .. .. .. .. .. .. .. .. .. 
.. .. .. .. .. .. .. .. .. .. .. .. .. .. .. .. .. .. .. .. .. .. .. .. .. .. .. .. .. .. 
.. .. .. .. .. .. .. .. .. .. .. .. .. .. .. .. .. .. .. .. .. .. .. .. .. .. .. .. .. .. 
.. .. .. .. .. .. .. .. .. .. .. .. .. .. .. .. .. .. .. .. .. .. .. .. .. .. .. .. .. .. 
.. .. .. .. .. .. .. .. .. .. .. .. .. .. .. .. .. .. .. .. .. .. .. .. .. .. .. .. .. .. 
.. .. .. .. .. .. .. .. .. .. .. .. .. .. .. .. .. .. .. .. .. .. .. .. .. .. .. .. .. .. 
.. .. .. .. .. .. .. .. .. .. .. .. .. .. .. .. .. .. .. .. .. .. .. .. .. .. .. .. .. .. 
.. .. .. .. .. .. .. .. .. .. .. .. .. .. .. .. .. .. .. .. .. .. .. .. .. .. .. .. .. .. 
.. .. .. .. .. .. .. .. .. .. .. .. .. .. .. .. .. .. .. .. .. .. .. .. .. .. .. .. .. .. 
.. .. .. .. .. .. .. .. .. .. .. .. .. .. .. .. .. .. .. .. .. .. .. .. .. .. .. .. .. .. 
.. .. .. .. .. .. .. .. .. .. .. .. .. .. .. .. .. .. .. .. .. .. .. .. .. .. .. .. .. .. 
.. .. .. .. .. .. .. .. .. .. .. .. .. .. .. .. .. .. .. .. .. .. .. .. .. .. .. .. .. .. 
.. .. .. .. .. .. .. .. .. .. .. .. .. .. .. .. .. .. .. .. .. .. .. .. .. .. .. .. .. .. 
.. .. .. .. .. .. .. .. .. .. .. .. .. .. .. .. .. .. .. .. .. .. .. .. .. .. .. .. .. .. 
.. .. 33 .. .. .. .. .. .. .. .. .. .. .. .. .. .. .. 47 .. 46 45 44 .. 43 42 47 .. 46 45 
44 .. 43 42 44 .. 43 42 .. 41 40 39 .. 38 37 36 .. 35 34 33 .. 44 43 42 .. 41 40 .. 39 40 
39 .. 38 37 36 .. 35 34 33 .. 32 31 30 .. 29 40 39 .. 38 37 .. 36 35 40 .. 39 38 37 .. 36 
35 34 .. 33 32 31 .. 30 29 38 .. 37 36 .. 35 34 33 .. 32 31 30 .. 29 28 27 .. 38 37 36 .. 
35 34 .. 33 32 31 .. 30 29 28 .. 27 47 .. .. .. .. .. .. .. .. .. .. .. .. .. .. .. .. .. 
.. .. .. .. .. .. .. .. .. .. .. .. .. .. .. 45 .. .. .. .. .. .. .. .. .. .. .. .. .. .. 
.. 47 .. .. .. .. .. .. .. 44 .. .. .. .. .. .. .. .. .. .. .. .. .. .. .. .. .. .. .. .. 
.. .. .. 40 .. .. .. .. .. .. .. .. .. .. .. .. .. .. .. .. .. .. .. .. .. .. .. .. .. .. 
.. .. .. .. .. .. .. .. .. .. .. .. .. .. .. .. .. .. .. .. .. .. 47 .. .. .. .. .. .. .. 
.. .. .. .. .. .. .. .. .. .. .. .. .. .. .. .. .. .. .. .. .. .. .. .. .. 45 .. .. .. .. 
.. .. .. .. .. .. .. .. .. .. .. 47 .. .. .. .. .. .. .. 43 .. .. .. .. .. .. .. .. .. .. 
.. .. .. .. .. .. .. .. .. .. .. .. .. 38 .. .. .. .. .. .. .. .. .. .. .. .. .. .. .. .. 
.. .. .. .. .. .. .. .. .. .. .. .. .. .. .. .. .. .. .. .. .. .. .. .. .. .. .. .. .. .. 
.. .. .. .. .. .. .. .. .. .. .. .. .. .. .. .. .. .. 40 .. .. .. .. .. .. .. .. .. .. .. 
.. .. .. .. .. 42 .. .. .. .. .. .. .. .. .. .. .. .. .. .. .. 43 .. .. .. .. .. .. .. .. 
.. .. .. .. .. .. .. 45 .. .. .. .. .. .. .. .. .. .. .. .. .. .. .. 47 .. .. .. .. .. .. 
.. .. .. .. .. .. .. .. .. .. 48 .. .. .. .. .. .. .. .. .. .. .. .. .. .. .. 50 .. .. .. 
.. .. .. .. .. .. .. .. .. .. .. .. 52 .. .. .. .. .. .. .. .. .. .. .. .. .. .. .. .. .. 
.. .. .. .. .. .. .. .. .. .. .. .. .. .. .. 54 .. .. .. .. .. .. .. .. 53 .. .. .. 54 .. 
.. .. .. .. .. .. .. .. .. 56 .. .. .. .. .. .. .. .. 55 .. .. .. .. 56 .. .. .. .. .. .. 
.. .. .. 54 .. .. .. .. .. .. .. .. .. 53 .. .. .. 54 .. .. 52 .. .. .. .. .. .. .. .. .. 
.. .. .. .. .. .. .. .. .. .. .. .. .. .. .. .. .. .. .. .. .. .. 59 .. .. .. .. .. .. .. 
.. .. 58 .. .. .. 59 .. .. .. .. .. .. .. .. .. .. .. .. 58 .. .. .. 59 .. 57 .. .. .. .. 
.. .. .. .. 56 .. .. .. 57 .. .. 59 .. .. .. .. .. .. .. 56 .. .. .. .. .. .. .. .. .. 55 
.. .. .. 56 .. .. .. .. .. .. .. .. .. 52 .. .. .. .. .. .. .. .. .. .. .. .. .. .. .. .. 
.. .. .. .. .. .. .. .. .. .. .. .. .. .. .. .. .. .. .. .. .. .. .. .. .. .. .. .. .. .. 
.. .. 59 .. .. .. .. .. .. .. .. .. 58 .. .. .. 59 .. .. .. .. .. .. .. .. .. .. .. .. 58 
.. .. .. 59 .. 57 .. .. .. .. .. .. .. .. 56 .. .. .. 57 .. .. 59 .. .. .. .. .. .. .. 55 
.. .. .. .. .. .. .. .. .. .. .. .. .. .. .. .. .. .. .. .. .. .. .. 50 .. .. .. .. .. .. 
.. .. .. .. .. .. .. .. .. .. .. .. .. .. .. .. .. .. .. .. .. .. .. .. .. .. .. .. .. .. 
.. .. .. .. .. .. .. .. .. .. .. .. 57 .. .. .. .. .. .. .. .. .. 56 .. .. .. 57 .. 55 .. 
.. .. .. .. .. .. .. .. .. .. .. .. .. .. .. 54 .. .. .. .. .. .. .. .. 53 .. .. .. 54 .. 
.. 52 .. .. .. .. .. .. .. .. .. .. .. .. .. .. .. 50 .. .. .. .. .. .. .. .. .. .. .. .. 
.. .. .. 52 .. .. .. .. .. .. .. .. .. .. .. .. .. .. .. .. 54 .. .. .. .. .. .. .. .. 53 
.. .. .. 54 .. .. 50 .. .. .. .. .. .. .. .. .. .. .. .. .. .. .. 52 .. .. .. .. .. .. .. 
.. .. .. .. .. .. .. .. 47 .. .. .. .. .. .. .. .. .. .. .. .. .. .. .. .. 44 .. .. .. .. 
.. .. .. 47 .. .. .. .. .. .. .. .. .. .. .. .. .. .. .. 40 .. .. .. .. .. .. .. .. .. .. 
.. .. .. .. .. .. .. .. .. .. .. .. .. .. .. .. .. .. .. .. .. .. .. .. .. .. .. .. .. .. 
.. .. .. .. .. .. .. .. .. .. .. .. .. .. .. .. .. .. .. .. .. .. .. .. 21 .. .. .. .. .. 
.. .. 54 .. .. .. .. .. .. .. 53 .. .. .. .. .. .. .. .. 54 .. .. .. .. .. .. .. 49 .. .. 
.. .. .. .. .. 46 .. .. .. .. .. .. .. .. .. .. .. .. .. .. .. 42 .. .. .. .. .. .. .. 54 
.. .. .. .. .. .. .. .. .. 53 .. .. .. 54 .. 53 .. .. .. .. .. .. .. .. 54 .. .. .. .. .. 
.. .. 49 .. .. .. .. .. .. .. 46 .. .. .. .. .. .. .. .. .. .. .. .. .. .. .. 42 .. .. .. 
.. .. .. .. .. .. .. .. .. .. .. .. 52 .. .. .. .. .. .. .. .. .. .. .. .. .. .. .. .. 51 
.. .. .. .. .. .. .. 49 .. .. .. .. .. .. .. .. .. .. .. .. .. .. .. 47 .. .. .. .. .. .. 
.. .. .. .. .. .. .. .. .. 49 .. .. .. .. .. .. .. .. .. .. .. .. .. .. .. .. .. .. .. .. 
.. .. .. .. .. .. .. .. .. .. .. .. .. .. .. .. .. .. .. .. .. .. .. .. .. .. .. .. .. .. 
.. .. .. .. .. .. .. .. .. .. .. .. .. .. 21 .. .. .. .. .. .. .. 52 .. .. .. .. .. .. .. 
51 .. .. .. .. .. .. .. .. 52 .. .. .. .. .. .. .. 47 .. .. .. .. .. .. .. 44 .. .. .. .. 
.. .. .. .. .. .. .. .. .. .. .. 40 .. .. .. .. .. .. .. 52 .. .. .. .. .. .. .. .. .. .. 
.. .. .. .. .. 51 .. .. .. .. .. .. .. .. 52 .. .. .. .. .. .. .. 47 .. .. .. .. .. .. .. 
44 .. .. .. .. .. .. .. .. .. .. .. .. .. .. .. 40 .. .. .. .. .. .. .. .. .. .. .. .. .. 
.. .. 42 .. .. .. .. .. .. .. .. .. .. .. .. .. .. .. .. 44 .. .. .. .. .. .. .. 46 .. .. 
.. .. .. .. .. .. .. .. .. .. .. .. .. 47 .. .. .. .. .. .. .. 49 .. .. .. .. .. .. .. .. 
.. .. .. .. .. .. .. 54 .. .. .. .. .. .. .. .. .. 53 .. .. .. 54 .. .. .. .. .. .. .. .. 
.. .. .. .. 53 .. .. .. .. 54 .. .. .. .. .. .. .. .. .. .. .. .. 53 .. .. .. 54 .. .. .. 
.. .. .. .. .. .. .. .. .. .. 53 .. 54 .. .. .. .. .. .. .. .. 53 .. .. .. .. .. .. .. 54 
.. .. .. .. .. .. .. 49 .. .. .. .. .. .. .. 46 .. .. .. .. .. .. .. .. .. .. .. .. .. .. 
.. 42 .. .. .. .. .. .. .. 54 .. .. .. .. .. .. .. .. .. 53 .. .. .. 54 .. .. 53 .. .. .. 
.. .. .. .. 54 .. .. .. .. .. .. .. 49 .. .. .. .. .. .. .. 46 .. .. .. .. .. .. .. .. .. 
.. .. .. .. .. .. 42 .. .. .. .. .. .. .. .. .. .. .. .. .. .. .. 52 .. .. .. .. .. .. .. 
.. .. .. .. .. .. .. .. .. 51 .. .. .. .. .. .. .. 49 .. .. .. .. .. .. .. .. .. .. .. .. 
.. .. .. 47 .. .. .. .. .. .. .. .. .. .. .. .. .. .. .. 49 .. .. .. .. .. .. .. .. .. .. 
.. .. .. .. .. .. .. .. .. .. .. .. .. .. .. .. .. .. .. .. .. .. .. .. .. .. .. .. .. .. 
.. .. .. .. .. .. .. .. .. .. .. .. .. .. .. .. .. .. .. .. .. .. .. .. 21 .. .. .. .. .. 
.. .. 52 .. .. .. .. .. .. .. .. 51 .. .. .. .. .. .. .. 52 .. .. .. .. .. .. .. 47 .. .. 
.. .. .. .. .. 44 .. .. .. .. .. .. .. .. .. .. .. .. .. .. .. 40 .. .. .. .. .. .. .. 52 
.. .. .. .. .. .. .. .. .. .. .. .. .. .. .. .. 51 .. .. .. .. .. .. .. 52 .. .. .. .. .. 
.. .. 47 .. .. .. .. .. .. .. 44 .. .. .. .. .. .. .. .. .. .. .. .. .. .. .. 40 .. .. .. 
.. .. .. .. .. .. .. .. .. .. .. .. 42 .. .. .. .. .. .. .. .. .. .. .. .. .. .. .. .. 44 
.. .. .. .. .. .. .. 46 .. .. .. .. .. .. .. .. .. .. .. .. .. .. .. 47 .. .. .. .. .. .. 
.. 49 .. .. .. .. .. .. .. .. .. .. .. .. .. .. .. 54 .. .. .. .. .. .. .. .. .. 53 .. .. 
.. 54 .. .. .. .. .. .. .. .. .. .. .. .. .. 53 .. .. .. 54 .. .. .. .. .. .. .. .. .. .. 
.. .. 53 .. .. .. 54 .. .. .. .. .. .. .. .. .. .. .. .. .. 53 .. .. 40 .. .. .. .. .. .. 
.. .. .. .. .. .. .. .. .. .. .. .. .. .. .. .. .. .. .. .. .. .. .. .. .. 44 .. .. .. .. 
.. .. .. .. .. .. .. .. .. .. .. 45 .. .. .. .. .. .. .. 47 .. .. .. .. .. .. .. .. .. .. 
.. .. .. .. .. .. .. .. .. .. .. .. .. .. 45 .. .. .. .. .. .. .. .. .. .. .. .. .. .. .. 
44 .. .. .. .. .. .. .. .. .. .. .. .. .. .. .. .. .. .. .. .. .. .. .. .. .. .. .. .. .. 
.. .. .. 37 .. .. .. .. .. .. .. .. .. .. .. .. .. .. .. .. .. .. .. .. .. .. .. .. .. .. 
.. .. .. .. .. 40 .. .. .. .. .. .. .. .. .. .. .. .. .. .. .. 42 .. .. .. .. .. .. .. 44 
.. .. .. .. .. .. .. .. .. .. .. .. .. .. .. .. 42 .. .. .. .. .. .. .. 40 .. .. .. .. .. 
.. .. 39 .. .. .. .. .. .. .. 37 .. .. .. .. .. .. .. .. .. .. .. .. .. .. .. 35 .. .. .. 
.. .. .. .. .. .. .. .. .. .. .. .. .. 33 .. .. .. .. .. .. .. .. .. .. .. .. .. .. .. 37 
.. .. .. .. .. .. .. .. .. .. .. .. .. .. .. 40 .. .. .. .. .. .. .. .. .. .. .. .. .. .. 
.. 45 .. .. .. .. .. .. .. .. .. .. .. .. .. .. .. .. 52 .. .. .. .. .. .. .. .. .. .. .. 
.. .. .. .. .. .. .. .. .. .. .. .. .. .. .. .. .. .. .. .. 51 .. .. .. .. .. .. .. .. .. 
.. .. .. .. .. .. 49 .. .. .. .. .. .. .. 51 .. .. .. .. .. .. .. .. .. .. .. .. .. .. .. 
.. .. .. .. .. .. .. .. .. 47 .. .. .. .. .. .. .. .. .. .. .. .. .. .. .. 42 .. .. .. .. 
.. .. .. .. .. .. .. .. .. .. .. 39 .. .. .. .. .. .. .. .. .. .. .. .. .. .. .. .. 35 .. 
.. .. .. .. .. .. .. .. .. .. .. .. .. .. 37 .. .. .. .. .. .. .. .. .. .. .. .. .. .. .. 
39 .. .. .. .. .. .. .. .. .. .. .. .. .. .. .. .. .. .. .. .. .. .. .. .. .. .. .. .. .. 
.. .. .. 40 .. .. .. .. .. .. .. .. .. .. .. .. .. .. .. .. .. .. .. .. .. .. .. .. .. .. 
.. .. .. .. .. 44 .. .. .. .. .. .. .. .. .. .. .. .. .. .. .. 45 .. .. .. .. .. .. .. .. 
47 .. .. .. .. .. .. .. .. .. .. .. .. .. .. .. 45 .. .. .. .. .. .. .. 44 .. .. .. .. .. 
.. .. 42 .. .. .. .. .. .. .. 40 .. .. .. .. .. .. .. .. .. .. .. .. .. .. .. .. .. .. .. 
.. .. .. .. .. 39 .. .. .. .. .. .. .. 37 .. .. .. .. .. .. .. .. .. .. .. .. .. .. .. .. 
.. .. .. .. .. .. .. .. .. .. .. .. .. .. .. 40 .. .. .. .. .. .. .. .. .. .. .. .. .. .. 
.. 44 .. .. .. .. .. .. .. .. .. .. .. .. .. .. .. .. .. .. .. .. .. .. .. .. .. .. .. .. 
.. .. .. .. 47 .. .. .. .. .. .. .. .. .. .. .. .. .. .. .. 45 .. .. .. .. .. .. .. .. .. 
.. .. .. .. .. .. 44 .. .. .. .. .. .. .. .. .. .. .. .. .. .. .. .. 45 .. .. .. .. .. .. 
.. .. .. .. .. .. .. .. .. 40 .. .. .. .. .. .. .. .. .. .. .. .. .. .. .. 37 .. .. .. .. 
.. .. .. .. .. .. .. .. .. .. .. 33 .. .. .. .. .. .. .. .. .. .. .. .. .. .. .. .. .. .. 
.. .. .. .. .. .. .. .. .. .. .. .. .. .. 37 .. .. .. .. .. .. .. .. .. .. .. .. .. .. .. 
40 .. .. .. .. .. .. .. .. .. .. .. .. .. .. .. 45 .. .. .. .. .. .. .. .. .. .. .. .. .. 
.. .. .. 47 .. .. .. .. .. .. .. .. .. .. .. .. .. .. .. .. .. .. .. .. .. .. .. .. .. .. 
.. .. .. .. .. .. .. .. .. .. .. .. .. .. .. .. .. .. .. .. .. 49 .. .. .. .. .. .. .. .. 
51 .. .. .. .. .. .. .. .. .. .. .. .. .. .. .. .. .. .. .. .. .. .. .. .. .. .. .. .. .. 
.. .. .. .. .. .. .. .. .. .. .. .. .. .. .. .. .. .. .. .. .. .. .. .. .. .. .. .. .. .. 
.. .. .. .. .. 21 .. .. .. .. .. .. .. 54 .. .. .. .. .. .. .. .. .. .. 53 .. .. .. 54 .. 
.. .. .. .. .. .. .. .. .. .. .. .. .. .. .. .. .. .. .. .. .. .. .. .. .. .. 53 .. .. .. 
54 .. .. .. .. .. .. .. .. .. .. .. .. .. .. .. .. .. .. .. 53 .. .. .. .. 54 .. .. .. .. 
.. .. .. .. 56 .. .. .. .. .. .. .. .. .. .. 55 .. .. .. 56 58 .. .. .. .. .. .. .. .. .. 
.. 57 .. .. .. 58 .. .. .. .. .. .. .. .. .. .. .. .. .. 57 .. .. .. 51 .. .. .. .. .. .. 
.. .. .. .. .. .. .. .. .. .. .. .. .. .. .. .. .. .. .. .. .. .. .. .. .. .. .. .. .. .. 
.. .. .. .. .. .. .. .. .. .. .. .. .. .. .. .. .. .. .. .. .. .. .. .. .. .. .. .. 54 .. 
.. .. .. .. .. .. .. .. .. 53 .. .. .. 54 56 .. .. .. .. .. .. .. 58 .. .. .. .. .. .. .. 
.. .. .. 57 .. .. .. 58 .. .. .. .. .. .. .. .. .. .. .. .. .. 57 .. .. .. 21 .. .. .. .. 
.. .. .. 47 .. .. .. .. .. .. .. .. .. .. .. .. .. .. .. .. .. .. .. .. .. .. .. .. .. .. 
.. .. .. .. .. 51 .. .. .. .. .. .. .. .. .. .. .. .. .. .. .. .. 53 .. .. .. .. .. .. .. 
54 .. .. .. .. .. .. .. .. .. .. 53 .. .. .. 54 .. .. .. .. .. .. .. .. 56 .. .. .. .. .. 
.. .. .. .. .. 55 .. .. .. 56 58 .. .. .. .. .. .. .. .. .. .. 57 .. .. .. 58 .. 54 .. .. 
.. .. .. .. .. .. .. 53 .. .. .. .. 54 56 .. .. .. .. .. .. .. .. .. .. 55 .. .. .. 56 .. 
.. .. .. .. .. .. .. .. .. .. .. 55 .. .. .. 56 .. .. .. .. .. .. .. .. .. .. .. .. .. 55 
.. .. .. 56 .. .. .. .. .. .. .. .. .. .. .. .. .. 55 45 44 .. 43 42 41 .. 40 44 43 .. 42 
41 40 .. 39 44 43 .. 42 41 .. 40 39 38 .. 37 36 35 .. 34 33 40 .. 39 38 37 .. 36 35 .. 34 
33 32 .. 31 30 29 .. 40 39 38 .. 37 36 35 .. 34 33 32 .. 31 30 .. 29 54 .. .. .. .. .. .. 
.. .. .. .. 53 .. .. .. 54 .. .. .. .. .. .. .. .. .. .. .. .. .. .. .. .. .. .. .. .. .. 
.. .. .. .. .. .. 53 .. .. .. 54 .. .. .. .. .. .. .. .. .. .. .. .. .. .. .. .. .. .. .. 
.. 53 .. .. .. 54 .. .. .. .. .. .. .. .. 56 .. .. .. .. .. .. .. .. .. .. 55 .. .. .. 56 
58 .. .. .. .. .. .. .. .. .. .. 57 .. .. .. 58 .. .. .. .. .. .. .. .. .. .. .. .. .. 57 
.. .. .. 51 .. .. .. .. .. .. .. .. .. .. .. .. .. .. .. .. .. .. .. .. .. .. .. .. .. .. 
.. .. .. .. .. .. .. .. .. .. .. .. .. .. .. .. .. .. .. .. .. .. .. .. .. .. .. .. .. .. 
.. .. .. .. .. .. .. .. 54 .. .. .. .. .. .. .. .. .. .. 53 .. .. .. 54 56 .. .. .. .. .. 
.. .. 58 .. .. .. .. .. .. .. .. .. .. 57 .. .. .. 58 .. .. .. .. .. .. .. .. .. .. .. .. 
.. 57 .. .. .. 21 .. .. .. .. .. .. .. 47 .. .. .. .. .. .. .. .. .. .. .. .. .. .. .. .. 
.. .. .. .. .. .. .. .. .. .. .. .. .. .. .. 51 .. .. .. .. .. .. .. .. .. .. .. .. .. .. 
.. .. 53 .. .. .. .. .. .. .. 54 .. .. .. .. .. .. .. .. .. .. 53 .. .. .. 54 .. .. .. .. 
.. .. .. .. 56 .. .. .. .. .. .. .. .. .. .. 55 .. .. .. 56 58 .. .. .. .. .. .. .. .. .. 
.. 57 .. .. .. 58 .. 54 .. .. .. .. .. .. .. .. .. .. 53 .. .. .. 54 56 .. .. .. .. .. .. 
.. .. .. .. 55 .. .. .. 56 .. .. .. .. .. .. .. .. .. .. .. .. 55 .. .. .. 56 .. .. .. .. 
.. .. .. .. .. .. .. .. .. 55 .. .. .. 56 .. .. .. .. .. .. .. .. .. .. .. .. .. 55 45 44 
.. 43 42 41 .. 40 44 43 .. 42 41 .. 40 39 44 .. 43 42 41 .. 40 39 38 .. 37 36 35 .. 34 33 
.. 40 39 38 .. 37 36 35 .. 34 33 32 .. 31 30 29 .. 40 39 38 .. 37 36 .. 35 34 33 .. 32 31 
30 .. 29 47 .. .. .. .. .. .. .. 46 .. .. .. .. .. .. .. 44 .. .. .. .. .. .. .. 42 .. .. 
.. .. .. .. .. .. 40 .. .. .. .. .. .. .. .. .. .. .. .. .. .. .. 39 .. .. .. .. .. .. .. 
37 .. .. .. .. .. .. .. .. .. .. .. .. .. .. .. 39 .. .. .. .. .. .. .. .. .. .. .. .. .. 
.. .. .. .. .. .. .. .. .. .. .. 35 .. .. .. .. .. .. .. .. .. .. .. .. .. .. .. .. .. .. 
.. .. .. .. .. .. .. .. .. .. .. .. .. 47 .. .. .. .. .. .. .. 46 .. .. .. .. .. .. .. 44 
.. .. .. .. .. .. .. 42 .. .. .. .. .. .. .. .. 40 .. .. .. .. .. .. .. .. .. .. .. .. .. 
.. .. 39 .. .. .. .. .. .. .. 37 .. .. .. .. .. .. .. .. .. .. .. .. .. .. .. .. .. .. .. 
.. .. .. .. 39 .. .. .. .. .. .. .. .. .. .. .. .. .. .. .. .. 35 .. .. .. .. .. .. .. .. 
.. .. .. .. .. .. .. .. .. .. .. .. .. .. .. .. .. .. .. .. .. .. .. 32 .. .. .. .. .. .. 
.. .. .. .. .. .. .. .. .. 34 .. .. .. .. .. .. .. .. .. .. .. .. .. .. .. .. 35 .. .. .. 
.. .. .. .. .. .. .. .. .. .. .. .. 37 .. .. .. .. .. .. .. .. .. .. .. .. .. .. .. 39 .. 
.. .. .. .. .. .. .. .. .. .. .. .. .. .. .. .. .. .. .. .. .. .. .. .. .. .. .. .. .. .. 
.. 37 .. .. .. .. .. .. .. .. .. .. .. .. .. .. .. 35 .. .. .. .. .. .. .. 37 .. .. .. .. 
.. .. .. .. .. .. .. .. .. .. .. .. .. .. .. .. .. .. .. 42 .. .. .. .. .. .. .. .. .. .. 
.. .. .. .. .. .. 46 .. .. .. .. .. .. .. .. .. .. .. .. .. .. .. 47 .. .. .. .. .. .. .. 
.. .. .. .. .. .. .. .. 49 .. .. .. .. .. .. .. .. .. .. .. .. .. .. .. .. .. .. .. .. .. 
.. .. .. .. .. .. .. .. .. .. .. .. .. .. .. .. .. .. .. .. .. .. .. .. .. .. .. .. .. .. 
.. .. .. .. .. .. .. .. .. .. .. .. .. 51 .. .. .. .. .. .. .. .. .. .. .. .. .. .. .. 49 
.. .. .. .. .. .. .. .. 47 .. .. .. .. .. .. .. .. .. .. .. .. .. .. .. .. .. .. .. .. .. 
.. .. 46 .. .. .. .. .. .. .. .. .. .. .. .. .. .. .. 47 .. .. .. .. .. .. .. .. .. .. .. 
.. .. .. .. 42 .. .. .. .. .. .. .. .. .. .. .. .. .. .. .. .. .. .. .. .. .. .. .. .. .. 
.. .. .. .. .. .. .. .. .. .. .. .. .. .. .. .. .. .. .. .. .. .. .. 47 .. .. .. .. .. .. 
.. .. .. .. .. .. .. .. .. 46 .. .. .. .. .. .. .. .. .. .. .. .. .. .. .. .. 44 .. .. .. 
.. .. .. .. .. .. .. .. .. .. .. .. 43 .. .. .. .. .. .. .. 44 .. .. .. .. .. .. .. .. .. 
.. .. .. .. .. .. .. .. .. .. .. .. .. .. 39 .. .. .. .. .. .. .. .. .. .. .. .. .. .. .. 
.. .. .. .. .. .. .. .. .. .. .. .. .. .. .. .. .. .. .. .. .. .. .. .. .. .. .. .. .. .. 
.. .. .. 35 .. .. .. .. .. .. .. 40 .. .. .. .. .. .. .. 42 .. .. .. .. .. .. .. .. 44 .. 
.. .. .. .. .. .. 47 .. .. .. .. .. .. .. .. .. .. .. .. .. .. .. 52 .. .. .. .. .. .. .. 
54 .. .. .. .. .. .. .. 56 .. .. .. .. .. .. .. .. .. .. 55 .. .. .. 56 54 .. .. .. .. .. 
.. .. .. .. .. 53 .. .. .. 54 .. 52 .. .. .. .. .. .. .. .. .. .. .. .. .. .. .. 56 .. .. 
.. .. .. .. .. .. .. .. 55 .. .. .. 56 54 .. .. .. .. .. .. .. .. .. .. 53 .. .. .. 
! End
