! Simple
! Song 0
14 15 .. .. .. .. .. .. .. .. .. .. .. .. .. .. .. .. .. .. .. .. .. .. .. .. .. .. .. .. 
.. .. .. .. .. .. .. .. .. .. .. .. .. .. .. .. .. .. .. .. .. .. .. .. .. .. .. .. .. .. 
.. .. .. .. .. .. .. .. .. .. .. .. .. .. .. .. .. .. .. .. .. .. .. .. .. .. .. .. .. .. 
.. .. .. .. .. .. .. .. .. .. .. .. .. .. .. .. .. .. .. .. .. .. .. .. .. .. .. .. .. .. 
.. .. .. .. .. .. .. .. .. .. .. .. .. .. .. .. .. .. .. .. .. .. .. .. .. .. .. .. .. .. 
.. .. .. .. .. .. .. .. .. .. .. .. .. .. .. .. .. .. .. .. .. .. .. .. .. .. .. .. .. .. 
.. .. .. .. .. .. .. .. .. .. .. .. .. .. .. .. .. .. .. .. .. .. .. .. .. .. .. .. .. .. 
.. .. .. .. .. .. .. .. .. .. .. .. .. .. .. .. .. .. .. .. .. .. .. .. .. .. .. .. .. .. 
.. .. .. .. .. .. .. .. .. .. .. .. .. .. .. .. .. .. .. .. .. .. .. .. .. .. .. .. .. .. 
.. .. .. .. .. .. .. .. .. .. .. .. .. .. .. .. .. .. .. .. .. .. .. .. .. .. .. .. .. .. 
.. .. .. .. .. .. .. .. .. .. .. .. .. .. .. .. .. .. .. .. .. .. .. .. .. .. .. .. .. .. 
.. .. .. .. .. .. .. .. .. .. .. .. .. .. .. .. .. .. .. .. .. .. .. .. .. .. .. .. .. .. 
.. .. .. .. .. .. .. .. .. .. .. .. .. .. .. .. .. .. .. .. .. .. .. .. .. .. .. .. .. .. 
.. .. .. .. .. .. .. .. .. .. .. .. .. .. .. .. .. .. .. .. .. .. .. .. .. .. .. .. .. .. 
.. .. .. .. .. .. .. .. .. .. .. .. .. .. .. .. .. .. .. .. .. .. .. .. .. .. .. .. .. .. 
.. .. .. .. .. .. .. .. .. .. .. .. .. .. .. .. .. .. .. .. .. .. .. .. .. .. .. .. .. .. 
.. .. .. .. .. .. .. .. .. .. .. .. .. .. .. .. .. .. .. .. .. .. .. .. .. .. .. .. .. .. 
.. .. .. .. .. .. .. .. .. .. .. .. .. .. .. .. .. .. .. .. .. .. .. .. .. .. .. .. .. .. 
.. .. .. .. .. .. .. .. .. .. .. .. .. .. .. .. .. .. .. .. .. .. .. .. .. .. .. .. .. .. 
.. .. .. .. .. .. .. .. .. .. .. .. .. .. .. .. .. .. .. .. .. .. .. .. .. .. .. .. .. .. 
.. .. .. .. .. .. .. .. .. .. .. .. .. .. .. .. .. .. .. .. .. .. .. .. .. .. .. .. .. .. 
.. .. .. .. .. .. .. .. .. .. .. .. .. .. .. .. .. .. .. .. .. .. .. .. .. .. .. .. .. .. 
.. .. .. .. .. .. .. .. .. .. .. .. .. .. .. .. .. .. .. .. .. .. .. .. .. .. .. .. .. .. 
.. .. .. .. .. .. .. .. .. .. .. .. .. .. .. .. .. .. .. .. .. .. .. .. .. .. .. .. .. .. 
.. .. .. .. .. .. .. .. .. .. .. .. .. .. .. .. .. .. .. .. .. .. .. .. .. .. .. .. .. .. 
.. .. .. .. .. .. .. .. .. .. .. .. .. .. .. .. .. .. .. .. .. .. .. .. .. .. .. .. .. .. 
.. .. .. .. .. .. .. .. .. .. .. .. .. .. .. .. .. .. .. .. .. .. .. .. .. .. .. .. .. .. 
.. .. .. .. .. .. .. .. .. .. .. .. .. .. .. .. .. .. .. .. .. .. .. 16 .. .. .. .. .. .. 
.. 17 .. .. .. 16 .. 17 .. .. .. .. .. .. .. .. .. .. .. .. .. 16 .. 17 .. .. .. .. .. .. 
.. .. .. .. .. .. .. 16 .. 17 .. .. .. .. .. .. .. .. .. .. .. .. .. 16 .. 17 .. .. .. .. 
.. .. .. .. .. .. .. .. .. 16 .. 17 .. .. .. .. .. .. .. .. .. .. .. .. .. 16 .. 17 .. .. 
.. .. .. .. .. .. .. .. .. .. .. 16 .. 17 .. .. .. .. .. .. .. .. .. .. .. .. .. 16 .. 17 
.. .. .. .. .. .. .. .. .. .. .. .. .. 16 .. 17 .. .. .. .. .. .. .. .. .. .. .. .. .. 16 
.. 17 .. .. .. .. .. .. .. .. .. .. .. .. .. 16 .. 17 .. .. .. .. .. .. .. .. .. .. .. .. 
.. 16 .. 17 .. .. .. .. .. .. .. .. .. .. .. .. .. 16 .. 17 .. .. .. .. .. .. .. .. .. .. 
.. .. .. .. .. 16 .. 17 .. .. .. .. .. .. .. .. .. .. .. .. .. 16 .. 17 .. .. .. .. .. .. 
.. .. .. .. .. .. .. 16 .. 17 .. .. .. .. .. .. .. .. .. .. .. .. .. 16 .. 17 .. .. .. .. 
.. .. .. .. .. .. .. .. .. 16 .. 17 .. .. .. .. .. .. .. .. .. .. .. .. .. 16 .. 17 .. .. 
.. .. .. .. .. .. .. .. .. .. .. 16 .. 17 .. .. .. .. .. .. .. .. .. .. .. .. .. 16 .. 17 
.. .. .. .. .. .. .. .. .. .. .. .. .. 16 .. 17 .. .. .. .. .. .. .. .. .. .. .. .. .. 16 
.. 17 .. .. .. .. .. .. .. .. .. .. .. .. .. 16 .. 17 .. .. .. .. .. .. .. .. .. .. .. .. 
.. 16 .. 17 .. .. .. .. .. .. .. .. .. .. .. .. .. 16 .. 17 .. .. .. .. .. .. .. .. .. .. 
.. .. .. .. .. 16 .. 17 .. .. .. .. .. .. .. .. .. .. .. .. .. 16 .. 17 .. .. .. .. .. .. 
.. .. .. .. .. .. .. 16 .. 17 .. .. .. .. .. .. .. .. .. .. .. .. .. 16 .. 17 .. .. .. .. 
.. .. .. .. .. .. .. .. .. 16 .. 17 .. .. .. .. .. .. .. .. .. .. .. .. .. 16 .. 17 .. .. 
.. .. .. .. .. .. .. .. .. .. .. 16 .. 17 .. .. .. .. .. .. .. .. .. .. .. .. .. 16 .. 17 
.. .. .. .. .. .. .. .. .. .. .. .. .. 16 .. 17 .. .. .. .. .. .. .. .. .. .. .. .. .. 16 
.. 17 .. .. .. .. .. .. .. .. .. .. .. .. .. 16 .. 17 .. .. .. .. .. .. .. .. .. .. .. .. 
.. 16 .. 17 .. .. .. .. .. .. .. .. .. .. .. .. .. 16 .. 17 .. .. .. .. .. .. .. .. .. .. 
.. .. .. .. .. 16 .. 17 .. .. .. .. .. .. .. .. .. .. .. .. .. 16 .. 17 .. .. .. .. .. .. 
.. .. .. .. .. .. .. 16 .. 17 .. .. .. .. .. .. .. .. .. .. .. .. .. 16 .. 17 .. .. .. .. 
.. .. .. .. .. .. .. .. .. 16 .. 17 .. .. .. .. .. .. .. .. .. .. .. .. .. 16 .. 17 .. .. 
.. .. .. .. .. .. .. .. .. .. .. 16 .. 17 .. .. .. .. .. .. .. .. .. .. .. .. .. 16 .. 17 
.. .. .. .. .. .. .. .. .. .. .. .. .. 16 .. 17 .. .. .. .. .. .. .. .. .. .. .. .. .. 16 
.. 17 .. .. .. .. .. .. .. .. .. .. .. .. .. 16 .. 17 .. .. .. .. .. .. .. .. .. .. .. .. 
.. 16 .. 17 .. .. .. .. .. .. .. .. .. .. .. .. .. 16 .. 17 .. .. .. .. .. .. .. .. .. .. 
.. .. .. .. .. .. .. .. .. .. .. 62 17 46 17 24 18 17 18 87 18 52 19 54 19 88 19 35 20 27 
20 45 20 32 20 40 21 74 21 .. .. 71 21 23 21 35 22 77 22 19 22 26 22 62 22 95 22 25 22 29 
23 57 23 83 23 32 23 54 23 26 23 47 23 67 23 86 23 19 23 17 23 54 23 .. 24 37 24 50 24 63 
24 75 24 86 24 74 24 27 24 31 24 44 24 28 24 37 24 20 24 27 24 34 24 40 24 46 24 52 24 57 
24 62 24 67 24 71 24 75 24 79 24 83 24 86 24 90 24 93 24 74 24 47 24 28 24 19 24 27 24 32 
24 23 24 31 24 44 24 31 24 23 24 16 24 103 24 19 24 54 24 44 24 50 24 80 .. .. .. .. .. .. 
.. .. .. .. .. .. .. .. .. .. .. .. .. .. .. .. .. .. .. .. .. .. .. .. .. .. .. .. .. .. 
.. .. .. .. .. .. .. .. .. .. .. .. .. .. .. .. .. .. .. .. .. .. .. .. .. .. .. .. .. .. 
.. .. .. .. .. .. .. .. .. .. .. .. .. .. .. .. .. .. .. .. .. .. .. .. .. .. 62 17 46 17 
24 18 17 18 87 18 52 19 54 19 88 19 35 20 27 20 45 20 32 20 40 21 74 21 .. .. 71 21 23 21 
35 22 77 22 19 22 26 22 62 22 95 22 25 22 29 23 57 23 83 23 32 23 54 23 26 23 47 23 67 23 
86 23 19 23 17 23 54 23 .. 24 37 24 50 24 63 24 75 24 86 24 74 24 27 24 31 24 44 24 28 24 
37 24 20 24 27 24 34 24 40 24 46 24 52 24 57 24 62 24 67 24 71 24 75 24 79 24 83 24 86 24 
90 24 93 24 74 24 47 24 28 24 19 24 27 24 32 24 23 24 31 24 44 24 31 24 23 24 16 24 103 24 
19 24 54 24 44 24 50 24 80 .. .. .. .. .. .. .. .. .. .. .. .. .. .. .. .. .. .. .. .. .. 
.. .. .. .. .. .. .. .. .. .. .. .. .. .. .. .. .. .. .. .. .. .. .. .. .. .. .. .. .. .. 
.. .. .. .. .. .. .. .. .. .. .. .. .. .. .. .. .. .. .. .. .. .. .. .. .. .. .. .. .. .. 
.. .. .. .. .. .. .. .. .. .. .. 32 29 26 23 20 17 15 17 54 28 51 25 17 38 65 53 .. .. .. 
.. .. .. .. .. .. .. .. .. 32 29 26 23 20 17 15 17 54 28 51 25 17 38 53 41 .. .. .. .. .. 
53 41 .. .. .. .. .. 32 29 26 23 20 17 15 17 54 28 51 25 17 38 65 53 .. .. .. .. .. .. .. 
.. .. .. .. .. 32 29 26 23 20 17 15 17 54 28 51 25 17 38 53 41 .. .. .. .. .. .. .. .. .. 
.. .. .. 32 29 26 23 20 17 15 17 54 28 51 25 17 38 65 53 .. .. .. .. .. .. .. .. .. .. .. 
.. 32 29 26 23 20 17 15 17 54 28 51 25 17 38 53 41 .. .. .. .. .. 53 41 .. .. .. .. .. 32 
29 26 23 20 17 15 17 54 28 51 25 17 38 65 53 .. .. .. .. .. .. .. .. .. .. .. .. 32 29 26 
23 20 17 15 17 54 28 51 25 17 38 32 29 26 23 20 17 15 65 53 .. .. .. .. .. 32 29 26 23 20 
17 15 17 54 28 51 25 17 38 65 53 .. .. .. .. .. .. .. .. .. .. .. .. 32 29 26 23 20 17 15 
17 54 28 51 25 17 38 53 41 .. .. .. .. .. 53 41 .. .. .. .. .. 32 29 26 23 20 17 15 17 54 
28 51 25 17 38 65 53 .. .. .. .. .. .. .. .. .. .. .. .. 32 29 26 23 20 17 15 17 54 28 51 
25 17 38 53 41 .. .. .. .. .. .. .. .. .. .. .. .. 32 29 26 23 20 17 15 17 54 28 51 25 17 
38 65 53 .. .. .. .. .. .. .. .. .. .. .. .. 32 29 26 23 20 17 15 17 54 28 51 25 17 38 53 
41 .. .. .. .. .. 53 41 .. .. .. .. .. 32 29 26 23 20 17 15 17 54 28 51 25 17 38 65 53 .. 
.. .. .. .. .. .. .. .. .. .. .. 32 29 26 23 20 17 15 17 54 28 51 25 17 38 32 29 26 23 20 
17 15 65 53 .. .. .. .. .. 41 29 .. .. .. .. .. .. 17 .. .. .. .. .. 39 27 .. .. .. .. .. 
41 29 .. .. .. .. .. .. 17 .. .. .. .. .. 39 27 .. .. .. .. .. 41 29 .. .. .. .. .. .. 17 
.. .. .. .. .. 29 17 .. .. .. .. .. 29 17 .. .. .. .. .. 41 29 .. .. .. .. .. .. 17 .. .. 
.. .. .. 42 30 .. .. .. .. .. 29 17 .. .. .. .. .. 41 29 .. .. .. .. .. .. 17 .. .. .. .. 
.. 41 29 .. .. .. .. .. .. 17 .. .. .. .. .. 39 27 .. .. .. .. .. 41 29 .. .. .. .. .. .. 
17 .. .. .. .. .. 39 27 .. .. .. .. .. 41 29 .. .. .. .. .. .. 17 .. .. .. .. .. 29 17 .. 
.. .. .. .. 29 17 .. .. .. .. .. 41 29 .. .. .. .. .. .. 17 .. .. .. .. .. 42 30 .. .. .. 
.. .. 29 17 .. .. .. .. .. 41 29 .. .. .. .. .. .. 17 .. .. .. .. .. 41 29 .. .. .. .. .. 
.. 17 .. .. .. .. .. 39 27 .. .. .. .. .. 41 29 .. .. .. .. .. .. 17 .. .. .. .. .. 39 27 
.. .. .. .. .. 41 29 .. .. .. .. .. .. 17 .. .. .. .. .. 29 17 .. .. .. .. .. 29 17 .. .. 
.. .. .. 41 29 .. .. .. .. .. .. 17 .. .. .. .. .. 42 30 .. .. .. .. .. 29 17 .. .. .. .. 
.. 41 29 .. .. .. .. .. .. 17 .. .. .. .. .. 41 29 .. .. .. .. .. .. 17 .. .. .. .. .. 39 
27 .. .. .. .. .. 41 29 .. .. .. .. .. .. 17 .. .. .. .. .. 39 27 .. .. .. .. .. 41 29 .. 
.. .. .. .. .. 17 .. .. .. .. .. 29 17 .. .. .. .. .. 29 17 .. .. .. .. .. 41 29 .. .. .. 
.. .. .. 17 .. .. .. .. .. 42 30 .. .. .. .. .. 29 17 .. .. .. .. .. 41 29 .. .. .. .. .. 
.. 17 .. .. .. .. .. 41 29 .. .. .. .. .. .. 17 .. .. .. .. .. 39 27 .. .. .. .. .. 41 29 
.. .. .. .. .. .. 17 .. .. .. .. .. 39 27 .. .. .. .. .. 41 29 .. .. .. .. .. .. 17 .. .. 
.. .. .. 29 17 .. .. .. .. .. 29 17 .. .. .. .. .. 41 29 .. .. .. .. .. .. 17 .. .. .. .. 
.. 42 30 .. .. .. .. .. 29 17 .. .. .. .. .. 41 29 .. .. .. .. .. .. 17 .. .. .. .. .. 41 
29 .. .. .. .. .. .. 17 .. .. .. .. .. 39 27 .. .. .. .. .. 41 29 .. .. .. .. .. .. 17 .. 
.. .. .. .. 39 27 .. .. .. .. .. 41 29 .. .. .. .. .. .. 17 .. .. .. .. .. 29 17 .. .. .. 
.. .. 29 17 .. .. .. .. .. 41 29 .. .. .. .. .. .. 17 .. .. .. .. .. 42 30 .. .. .. .. .. 
29 17 .. .. .. .. .. 41 29 .. .. .. .. .. .. 17 .. .. .. .. .. 41 29 .. .. .. .. .. .. 17 
.. .. .. .. .. 39 27 .. .. .. .. .. 41 29 .. .. .. .. .. .. 17 .. .. .. .. .. 39 27 .. .. 
.. .. .. 41 29 .. .. .. .. .. .. 17 .. .. .. .. .. 29 17 .. .. .. .. .. 29 17 .. .. .. .. 
.. 41 29 .. .. .. .. .. .. 17 .. .. .. .. .. 42 30 .. .. .. .. .. 29 17 .. .. .. .. .. 41 
29 .. .. .. .. .. .. 17 .. .. .. .. .. 41 29 .. .. .. .. .. .. 17 .. .. .. .. .. 39 27 .. 
.. .. .. .. 41 29 .. .. .. .. .. .. 17 .. .. .. .. .. 39 27 .. .. .. .. .. 41 29 .. .. .. 
.. .. .. 17 .. .. .. .. .. 29 17 .. .. .. .. .. 29 17 .. .. .. .. .. 41 29 .. .. .. .. .. 
.. 17 .. .. .. .. .. 42 30 .. .. .. .. .. 29 17 .. .. .. .. .. 41 29 .. .. .. .. .. .. 17 
.. .. .. .. .. 43 31 .. .. .. .. .. .. 19 .. .. .. .. .. 41 29 .. .. .. .. .. 43 31 .. .. 
.. .. .. .. 19 .. .. .. .. .. 41 29 .. .. .. .. .. 43 31 .. .. .. .. .. .. 19 .. .. .. .. 
.. 31 19 .. .. .. .. .. 31 19 .. .. .. .. .. 43 31 .. .. .. .. .. .. 19 .. .. .. .. .. 44 
32 31 32 .. .. .. 31 19 .. .. .. .. .. 43 31 .. .. .. .. .. .. 19 .. .. .. .. .. 43 31 .. 
.. .. .. .. .. 19 .. .. .. .. .. 41 29 .. .. .. .. .. 43 31 .. .. .. .. .. .. 19 .. .. .. 
.. .. 41 29 .. .. .. .. .. 43 31 .. .. .. .. .. .. 19 .. .. .. .. .. 31 19 .. .. .. .. .. 
31 19 .. .. .. .. .. 43 31 .. .. .. .. .. .. 19 .. .. .. .. .. 44 32 31 32 .. .. .. 31 19 
.. .. .. .. .. 43 31 .. .. .. .. .. .. 19 .. .. .. .. .. 43 31 .. .. .. .. .. .. 19 .. .. 
.. .. .. 41 29 .. .. .. .. .. 43 31 .. .. .. .. .. .. 19 .. .. .. .. .. 41 29 .. .. .. .. 
.. 43 31 .. .. .. .. .. .. 19 .. .. .. .. .. 31 19 .. .. .. .. .. 31 19 .. .. .. .. .. 43 
31 .. .. .. .. .. .. 19 .. .. .. .. .. 44 32 31 32 .. .. .. 31 19 .. .. .. .. .. 43 31 .. 
.. .. .. .. .. 19 .. .. .. .. .. 43 31 .. .. .. .. .. .. 19 .. .. .. .. .. 41 29 .. .. .. 
.. .. 43 31 .. .. .. .. .. .. 19 .. .. .. .. .. 41 29 .. .. .. .. .. 43 31 .. .. .. .. .. 
.. 19 .. .. .. .. .. 31 19 .. .. .. .. .. 31 19 .. .. .. .. .. 43 31 .. .. .. .. .. .. 19 
.. .. .. .. .. 44 32 31 32 .. .. .. 31 19 .. .. .. .. .. 43 31 .. .. .. .. .. .. 19 .. .. 
.. .. .. 43 31 .. .. .. .. .. .. 19 .. .. .. .. .. 41 29 .. .. .. .. .. 43 31 .. .. .. .. 
.. .. 19 .. .. .. .. .. 41 29 .. .. .. .. .. 43 31 .. .. .. .. .. .. 19 .. .. .. .. .. 31 
19 .. .. .. .. .. 31 19 .. .. .. .. .. 43 31 .. .. .. .. .. .. 19 .. .. .. .. .. 41 29 .. 
.. .. .. .. 31 19 .. .. .. .. .. 43 31 .. .. .. .. .. .. 19 .. .. .. .. .. 39 27 .. .. .. 
.. .. .. 15 .. .. .. .. .. 38 26 .. .. .. .. .. 39 27 .. .. .. .. .. .. 15 .. .. .. .. .. 
38 26 .. .. .. .. .. 39 27 .. .. .. .. .. .. 15 .. .. .. .. .. 27 15 .. .. .. .. .. 27 15 
.. .. .. .. .. 39 27 .. .. .. .. .. .. 15 .. .. .. .. .. 38 26 .. .. .. .. .. 27 15 .. .. 
.. .. .. 39 27 .. .. .. .. .. .. 15 .. .. .. .. .. 41 29 .. .. .. .. .. .. 17 .. .. .. .. 
.. 36 24 .. .. .. .. .. 41 29 .. .. .. .. .. .. 17 .. .. .. .. .. 36 24 .. .. .. .. .. 41 
29 .. .. .. .. .. .. 17 .. .. .. .. .. 29 17 .. .. .. .. .. 29 17 .. .. .. .. .. 41 29 .. 
.. .. .. .. .. 17 .. .. .. .. .. 36 24 .. .. .. .. .. 29 17 .. .. .. .. .. 41 29 .. .. .. 
.. .. .. 17 .. .. .. .. .. 43 31 .. .. .. .. .. .. 19 .. .. .. .. .. 38 26 .. .. .. .. .. 
43 31 .. .. .. .. .. .. 19 .. .. .. .. .. 38 26 .. .. .. .. .. 43 31 .. .. .. .. .. .. 19 
.. .. .. .. .. 31 19 .. .. .. .. .. 31 19 .. .. .. .. .. 43 31 .. .. .. .. .. 29 17 .. .. 
.. .. .. 41 29 .. .. .. .. .. 34 22 .. .. .. .. .. 43 31 .. .. .. .. .. 29 17 .. .. .. .. 
.. 43 31 .. .. .. .. .. .. 19 .. .. .. .. .. 41 29 .. .. .. .. .. 43 31 .. .. .. .. .. .. 
19 .. .. .. .. .. 41 29 .. .. .. .. .. 43 31 .. .. .. .. .. .. 19 .. .. .. .. .. 31 19 .. 
.. .. .. .. 31 19 .. .. .. .. .. 43 31 .. .. .. .. .. .. 19 .. .. .. .. .. 41 29 .. .. .. 
.. .. 31 19 .. .. .. .. .. 43 31 .. .. .. .. .. .. 19 .. .. .. .. .. 39 27 .. .. .. .. .. 
.. 15 .. .. .. .. .. 38 26 .. .. .. .. .. 39 27 .. .. .. .. .. .. 15 .. .. .. .. .. 38 26 
.. .. .. .. .. 39 27 .. .. .. .. .. .. 15 .. .. .. .. .. 27 15 .. .. .. .. .. 27 15 .. .. 
.. .. .. 39 27 .. .. .. .. .. .. 15 .. .. .. .. .. 38 26 .. .. .. .. .. 27 15 .. .. .. .. 
.. 39 27 .. .. .. .. .. .. 15 .. .. .. .. .. 41 29 .. .. .. .. .. .. 17 .. .. .. .. .. 36 
24 .. .. .. .. .. 41 29 .. .. .. .. .. .. 17 .. .. .. .. .. 36 24 .. .. .. .. .. 41 29 .. 
.. .. .. .. .. 17 .. .. .. .. .. 29 17 .. .. .. .. .. 29 17 .. .. .. .. .. 41 29 .. .. .. 
.. .. .. 17 .. .. .. .. .. 36 24 .. .. .. .. .. 29 17 .. .. .. .. .. 41 29 .. .. .. .. .. 
.. 17 .. .. .. .. .. 43 31 .. .. .. .. .. .. 19 .. .. .. .. .. 38 26 .. .. .. .. .. 43 31 
.. .. .. .. .. .. 19 .. .. .. .. .. 38 26 .. .. .. .. .. 43 31 .. .. .. .. .. .. 19 .. .. 
.. .. .. 31 19 .. .. .. .. .. 31 19 .. .. .. .. .. 43 31 .. .. .. .. .. 29 17 .. .. .. .. 
.. 41 29 .. .. .. .. .. 34 22 .. .. .. .. .. 43 31 .. .. .. .. .. 29 17 .. .. .. .. .. 39 
27 .. .. .. .. .. .. 15 .. .. .. .. .. 38 26 .. .. .. .. .. 39 27 .. .. .. .. .. .. 15 .. 
.. .. .. .. 38 26 .. .. .. .. .. 39 27 .. .. .. .. .. .. 15 .. .. .. .. .. 29 17 .. .. .. 
.. .. 29 17 .. .. .. .. .. 41 29 .. .. .. .. .. .. 17 .. .. .. .. .. 36 24 .. .. .. .. .. 
29 17 .. .. .. .. .. 41 29 .. .. .. .. .. .. 17 .. .. .. .. .. 46 34 33 34 .. .. .. .. 22 
.. .. .. .. .. 41 29 .. .. .. .. .. 46 34 33 34 .. .. .. .. 22 .. .. .. .. .. 41 29 .. .. 
.. .. .. 46 34 33 34 .. .. .. .. 22 .. .. .. .. .. 31 19 .. .. .. .. .. 31 19 .. .. .. .. 
.. 43 31 .. .. .. .. .. .. 19 .. .. .. .. .. 38 26 .. .. .. .. .. 31 19 .. .. .. .. .. 43 
31 .. .. .. .. .. .. 19 .. .. .. .. .. 39 27 .. .. .. .. .. .. 15 .. .. .. .. .. 38 26 .. 
.. .. .. .. 39 27 .. .. .. .. .. .. 15 .. .. .. .. .. 38 26 .. .. .. .. .. 39 27 .. .. .. 
.. .. .. 15 .. .. .. .. .. 41 29 .. .. .. .. .. .. 17 .. .. .. .. .. 36 24 .. .. .. .. .. 
41 29 .. .. .. .. .. .. 17 .. .. .. .. .. 36 24 .. .. .. .. .. 41 29 .. .. .. .. .. .. 17 
.. .. .. .. .. 43 31 .. .. .. .. .. .. 19 .. .. .. .. .. 41 29 .. .. .. .. .. 43 31 .. .. 
.. .. .. .. 19 .. .. .. .. .. 41 29 .. .. .. .. .. 43 31 .. .. .. .. .. .. 19 .. .. .. .. 
.. 31 19 .. .. .. .. .. 31 19 .. .. .. .. .. 43 31 .. .. .. .. .. .. 19 .. .. .. .. .. 41 
29 .. .. .. .. .. 31 19 .. .. .. .. .. 43 31 .. .. .. .. .. .. 19 .. .. .. .. .. 39 27 .. 
.. .. .. .. .. 15 .. .. .. .. .. 38 26 .. .. .. .. .. 39 27 .. .. .. .. .. .. 15 .. .. .. 
.. .. 38 26 .. .. .. .. .. 39 27 .. .. .. .. .. .. 15 .. .. .. .. .. 29 17 .. .. .. .. .. 
29 17 .. .. .. .. .. 41 29 .. .. .. .. .. .. 17 .. .. .. .. .. 36 24 .. .. .. .. .. 29 17 
.. .. .. .. .. 41 29 .. .. .. .. .. .. 17 .. .. .. .. .. 46 34 33 34 .. .. .. .. 22 .. .. 
.. .. .. 41 29 .. .. .. .. .. 46 34 33 34 .. .. .. .. 22 .. .. .. .. .. 41 29 .. .. .. .. 
.. 46 34 33 34 .. .. .. .. 22 .. .. .. .. .. 31 19 .. .. .. .. .. 31 19 .. .. .. .. .. 43 
31 .. .. .. .. .. .. 19 .. .. .. .. .. 38 26 .. .. .. .. .. 31 19 .. .. .. .. .. 43 31 .. 
.. .. .. .. .. 19 .. .. .. .. .. 39 27 .. .. .. .. .. .. 15 .. .. .. .. .. 38 26 .. .. .. 
.. .. 39 27 .. .. .. .. .. .. 15 .. .. .. .. .. 38 26 .. .. .. .. .. 39 27 .. .. .. .. .. 
.. 15 .. .. .. .. .. 41 29 .. .. .. .. .. .. 17 .. .. .. .. .. 36 24 .. .. .. .. .. 41 29 
.. .. .. .. .. .. 17 .. .. .. .. .. 36 24 .. .. .. .. .. 41 29 .. .. .. .. .. .. 17 .. .. 
.. .. .. 43 31 .. .. .. .. .. .. 19 .. .. .. .. .. 41 29 .. .. .. .. .. 43 31 .. .. .. .. 
.. .. 19 .. .. .. .. .. 41 29 .. .. .. .. .. 43 31 .. .. .. .. .. .. 19 .. .. .. .. .. 31 
19 .. .. .. .. .. 31 19 .. .. .. .. .. 43 31 .. .. .. .. .. .. 19 .. .. .. .. .. 41 29 .. 
.. .. .. .. 31 19 .. .. .. .. .. 43 31 .. .. .. .. .. .. 19 .. .. .. .. .. 41 29 .. .. .. 
.. .. .. 17 .. .. .. .. .. 39 27 .. .. .. .. .. 41 29 .. .. .. .. .. .. 17 .. .. .. .. .. 
39 27 .. .. .. .. .. 41 29 .. .. .. .. .. .. 17 .. .. .. .. .. 29 17 .. .. .. .. .. 29 17 
.. .. .. .. .. 41 29 .. .. .. .. .. .. 17 .. .. .. .. .. 42 30 .. .. .. .. .. 29 17 .. .. 
.. .. .. 41 29 .. .. .. .. .. .. 17 .. .. .. .. .. 41 29 .. .. .. .. .. .. 17 .. .. .. .. 
.. 39 27 .. .. .. .. .. 41 29 .. .. .. .. .. .. 17 .. .. .. .. .. 39 27 .. .. .. .. .. 41 
29 .. .. .. .. .. .. 17 .. .. .. .. .. 29 17 .. .. .. .. .. 29 17 .. .. .. .. .. 41 29 .. 
.. .. .. .. .. 17 .. .. .. .. .. 42 30 .. .. .. .. .. 29 17 .. .. .. .. .. 41 29 .. .. .. 
.. .. .. 17 .. .. .. .. .. 41 29 .. .. .. .. .. .. 17 .. .. .. .. .. 39 27 .. .. .. .. .. 
41 29 .. .. .. .. .. .. 17 .. .. .. .. .. 39 27 .. .. .. .. .. 41 29 .. .. .. .. .. .. 17 
.. .. .. .. .. 29 17 .. .. .. .. .. 29 17 .. .. .. .. .. 41 29 .. .. .. .. .. .. 17 .. .. 
.. .. .. 42 30 .. .. .. .. .. 29 17 .. .. .. .. .. 41 29 .. .. .. .. .. .. 17 .. .. .. .. 
.. 41 29 .. .. .. .. .. .. 17 .. .. .. .. .. 39 27 .. .. .. .. .. 41 29 .. .. .. .. .. .. 
17 .. .. .. .. .. 39 27 .. .. .. .. .. 41 29 .. .. .. .. .. .. 17 .. .. .. .. .. 29 17 .. 
.. .. .. .. 29 17 .. .. .. .. .. 41 29 .. .. .. .. .. .. 17 .. .. .. .. .. 42 30 .. .. .. 
.. .. 29 17 .. .. .. .. .. 41 29 .. .. .. .. .. .. 17 .. .. .. .. .. 43 31 .. .. .. .. .. 
.. 19 .. .. .. .. .. 41 29 .. .. .. .. .. 43 31 .. .. .. .. .. .. 19 .. .. .. .. .. 41 29 
.. .. .. .. .. 43 31 .. .. .. .. .. .. 19 .. .. .. .. .. 31 19 .. .. .. .. .. 31 19 .. .. 
.. .. .. 43 31 .. .. .. .. .. .. 19 .. .. .. .. .. 44 32 31 32 .. .. .. 31 19 .. .. .. .. 
.. 43 31 .. .. .. .. .. .. 19 .. .. .. .. .. 43 31 .. .. .. .. .. .. 19 .. .. .. .. .. 41 
29 .. .. .. .. .. 43 31 .. .. .. .. .. .. 19 .. .. .. .. .. 41 29 .. .. .. .. .. 43 31 .. 
.. .. .. .. .. 19 .. .. .. .. .. 31 19 .. .. .. .. .. 31 19 .. .. .. .. .. 43 31 .. .. .. 
.. .. .. 19 .. .. .. .. .. 44 32 31 32 .. .. .. 31 19 .. .. .. .. .. 43 31 .. .. .. .. .. 
.. 19 .. .. .. .. .. 43 31 .. .. .. .. .. .. 19 .. .. .. .. .. 41 29 .. .. .. .. .. 43 31 
.. .. .. .. .. .. 19 .. .. .. .. .. 41 29 .. .. .. .. .. 43 31 .. .. .. .. .. .. 19 .. .. 
.. .. .. 31 19 .. .. .. .. .. 31 19 .. .. .. .. .. 43 31 .. .. .. .. .. .. 19 .. .. .. .. 
.. 44 32 31 32 .. .. .. 31 19 .. .. .. .. .. 43 31 .. .. .. .. .. .. 19 .. .. .. .. .. 43 
31 .. .. .. .. .. .. 19 .. .. .. .. .. 41 29 .. .. .. .. .. 43 31 .. .. .. .. .. .. 19 .. 
.. .. .. .. 41 29 .. .. .. .. .. 43 31 .. .. .. .. .. .. 19 .. .. .. .. .. 31 19 .. .. .. 
.. .. 31 19 .. .. .. .. .. 43 31 .. .. .. .. .. .. 19 .. .. .. .. .. 44 32 31 32 .. .. .. 
31 19 .. .. .. .. .. 43 31 .. .. .. .. .. .. 19 .. .. .. .. .. 41 29 .. .. .. .. .. .. 17 
.. .. .. .. .. 39 27 .. .. .. .. .. 41 29 .. .. .. .. .. .. 17 .. .. .. .. .. 39 27 .. .. 
.. .. .. 41 29 .. .. .. .. .. .. 17 .. .. .. .. .. 29 17 .. .. .. .. .. 29 17 .. .. .. .. 
.. 41 29 .. .. .. .. .. .. 17 .. .. .. .. .. 42 30 .. .. .. .. .. 29 17 .. .. .. .. .. 41 
29 .. .. .. .. .. .. 17 .. .. .. .. .. 41 29 .. .. .. .. .. .. 17 .. .. .. .. .. 39 27 .. 
.. .. .. .. 41 29 .. .. .. .. .. .. 17 .. .. .. .. .. 39 27 .. .. .. .. .. 41 29 .. .. .. 
.. .. .. 17 .. .. .. .. .. 29 17 .. .. .. .. .. 29 17 .. .. .. .. .. 41 29 .. .. .. .. .. 
.. 17 .. .. .. .. .. 42 30 .. .. .. .. .. 29 17 .. .. .. .. .. 41 29 .. .. .. .. .. .. 17 
.. .. .. .. .. 41 29 .. .. .. .. .. .. 17 .. .. .. .. .. 39 27 .. .. .. .. .. 41 29 .. .. 
.. .. .. .. 17 .. .. .. .. .. 39 27 .. .. .. .. .. 41 29 .. .. .. .. .. .. 17 .. .. .. .. 
.. 29 17 .. .. .. .. .. 29 17 .. .. .. .. .. 41 29 .. .. .. .. .. .. 17 .. .. .. .. .. 42 
30 .. .. .. .. .. 29 17 .. .. .. .. .. 41 29 .. .. .. .. .. .. 17 .. .. .. .. .. 41 29 .. 
.. .. .. .. .. 17 .. .. .. .. .. 39 27 .. .. .. .. .. 41 29 .. .. .. .. .. .. 17 .. .. .. 
.. .. 39 27 .. .. .. .. .. 41 29 .. .. .. .. .. .. 17 .. .. .. .. .. 29 17 .. .. .. .. .. 
29 17 .. .. .. .. .. 41 29 .. .. .. .. .. .. 17 .. .. .. .. .. 42 30 .. .. .. .. .. 29 17 
.. .. .. .. .. 41 29 .. .. .. .. .. .. 17 .. .. .. .. .. 19 .. .. .. .. .. .. .. .. .. .. 
.. .. .. .. .. .. .. .. .. .. .. .. .. .. .. .. .. .. .. .. .. .. .. .. .. .. .. .. 
! Song 1
14 17 .. .. .. .. .. .. .. .. .. 62 17 46 17 24 18 17 18 87 18 52 19 54 19 88 19 35 20 27 
20 45 20 32 20 40 21 74 21 .. .. 71 21 23 21 35 22 77 22 19 22 26 22 62 22 95 22 25 22 29 
23 57 23 83 23 32 23 54 23 26 23 47 23 67 23 86 23 19 23 17 23 54 23 .. 24 37 24 50 24 63 
24 75 24 86 24 74 24 27 24 31 24 44 24 28 24 37 24 20 24 27 24 34 24 40 24 46 24 52 24 57 
24 62 24 67 24 71 24 75 24 79 24 83 24 86 24 90 24 93 24 74 24 47 24 28 24 19 24 27 24 32 
24 23 24 31 24 44 24 31 24 23 24 16 24 103 24 19 24 54 24 44 24 50 24 80 .. .. .. .. .. .. 
.. .. .. .. .. .. .. .. .. .. .. .. .. .. .. .. .. .. .. .. .. .. .. .. .. .. .. .. .. .. 
.. .. .. .. .. .. .. .. .. .. .. .. .. .. .. .. .. .. .. .. .. .. .. .. .. .. .. .. .. .. 
.. .. .. .. .. .. .. .. .. .. .. .. .. .. .. .. .. .. .. .. .. .. .. .. .. .. 62 17 46 17 
24 18 17 18 87 18 52 19 54 19 88 19 35 20 27 20 45 20 32 20 40 21 74 21 .. .. 71 21 23 21 
35 22 77 22 19 22 26 22 62 22 95 22 25 22 29 23 57 23 83 23 32 23 54 23 26 23 47 23 67 23 
86 23 19 23 17 23 54 23 .. 24 37 24 50 24 63 24 75 24 86 24 74 24 27 24 31 24 44 24 28 24 
37 24 20 24 27 24 34 24 40 24 46 24 52 24 57 24 62 24 67 24 71 24 75 24 79 24 83 24 86 24 
90 24 93 24 74 24 47 24 28 24 19 24 27 24 32 24 23 24 31 24 44 24 31 24 23 24 16 24 103 24 
19 24 54 24 44 24 50 24 80 .. .. .. .. .. .. .. .. .. .. .. .. .. .. .. .. .. .. .. .. .. 
.. .. .. .. .. .. .. .. .. .. .. .. .. .. .. .. .. .. .. .. .. .. .. .. .. .. .. .. .. .. 
.. .. .. .. .. .. .. .. .. .. .. .. .. .. .. .. .. .. .. .. .. .. .. .. .. .. .. .. .. .. 
.. .. .. .. .. .. .. .. .. .. .. 32 29 26 23 20 17 15 17 54 28 51 25 17 38 65 53 .. .. .. 
.. .. .. .. .. .. .. .. .. 32 29 26 23 20 17 15 17 54 28 51 25 17 38 53 41 .. .. .. .. .. 
53 41 .. .. .. .. .. 32 29 26 23 20 17 15 17 54 28 51 25 17 38 65 53 .. .. .. .. .. .. .. 
.. .. .. .. .. 32 29 26 23 20 17 15 17 54 28 51 25 17 38 53 41 .. .. .. .. .. .. .. .. .. 
.. .. .. 32 29 26 23 20 17 15 17 54 28 51 25 17 38 65 53 .. .. .. .. .. .. .. .. .. .. .. 
.. 32 29 26 23 20 17 15 17 54 28 51 25 17 38 53 41 .. .. .. .. .. 53 41 .. .. .. .. .. 32 
29 26 23 20 17 15 17 54 28 51 25 17 38 65 53 .. .. .. .. .. .. .. .. .. .. .. .. 32 29 26 
23 20 17 15 17 54 28 51 25 17 38 32 29 26 23 20 17 15 65 53 .. .. .. .. .. 32 29 26 23 20 
17 15 17 54 28 51 25 17 38 65 53 .. .. .. .. .. .. .. .. .. .. .. .. 32 29 26 23 20 17 15 
17 54 28 51 25 17 38 53 41 .. .. .. .. .. 53 41 .. .. .. .. .. 32 29 26 23 20 17 15 17 54 
28 51 25 17 38 65 53 .. .. .. .. .. .. .. .. .. .. .. .. 32 29 26 23 20 17 15 17 54 28 51 
25 17 38 53 41 .. .. .. .. .. .. .. .. .. .. .. .. 32 29 26 23 20 17 15 17 54 28 51 25 17 
38 65 53 .. .. .. .. .. .. .. .. .. .. .. .. 32 29 26 23 20 17 15 17 54 28 51 25 17 38 53 
41 .. .. .. .. .. 53 41 .. .. .. .. .. 32 29 26 23 20 17 15 17 54 28 51 25 17 38 65 53 .. 
.. .. .. .. .. .. .. .. .. .. .. 32 29 26 23 20 17 15 17 54 28 51 25 17 38 32 29 26 23 20 
17 15 65 53 .. .. .. .. .. 41 29 .. .. .. .. .. .. 17 .. .. .. .. .. 39 27 .. .. .. .. .. 
41 29 .. .. .. .. .. .. 17 .. .. .. .. .. 39 27 .. .. .. .. .. 41 29 .. .. .. .. .. .. 17 
.. .. .. .. .. 29 17 .. .. .. .. .. 29 17 .. .. .. .. .. 41 29 .. .. .. .. .. .. 17 .. .. 
.. .. .. 42 30 .. .. .. .. .. 29 17 .. .. .. .. .. 41 29 .. .. .. .. .. .. 17 .. .. .. .. 
.. 41 29 .. .. .. .. .. .. 17 .. .. .. .. .. 39 27 .. .. .. .. .. 41 29 .. .. .. .. .. .. 
17 .. .. .. .. .. 39 27 .. .. .. .. .. 41 29 .. .. .. .. .. .. 17 .. .. .. .. .. 29 17 .. 
.. .. .. .. 29 17 .. .. .. .. .. 41 29 .. .. .. .. .. .. 17 .. .. .. .. .. 42 30 .. .. .. 
.. .. 29 17 .. .. .. .. .. 41 29 .. .. .. .. .. .. 17 .. .. .. .. .. 41 29 .. .. .. .. .. 
.. 17 .. .. .. .. .. 39 27 .. .. .. .. .. 41 29 .. .. .. .. .. .. 17 .. .. .. .. .. 39 27 
.. .. .. .. .. 41 29 .. .. .. .. .. .. 17 .. .. .. .. .. 29 17 .. .. .. .. .. 29 17 .. .. 
.. .. .. 41 29 .. .. .. .. .. .. 17 .. .. .. .. .. 42 30 .. .. .. .. .. 29 17 .. .. .. .. 
.. 41 29 .. .. .. .. .. .. 17 .. .. .. .. .. 41 29 .. .. .. .. .. .. 17 .. .. .. .. .. 39 
27 .. .. .. .. .. 41 29 .. .. .. .. .. .. 17 .. .. .. .. .. 39 27 .. .. .. .. .. 41 29 .. 
.. .. .. .. .. 17 .. .. .. .. .. 29 17 .. .. .. .. .. 29 17 .. .. .. .. .. 41 29 .. .. .. 
.. .. .. 17 .. .. .. .. .. 42 30 .. .. .. .. .. 29 17 .. .. .. .. .. 41 29 .. .. .. .. .. 
.. 17 .. .. .. .. .. 41 29 .. .. .. .. .. .. 17 .. .. .. .. .. 39 27 .. .. .. .. .. 41 29 
.. .. .. .. .. .. 17 .. .. .. .. .. 39 27 .. .. .. .. .. 41 29 .. .. .. .. .. .. 17 .. .. 
.. .. .. 29 17 .. .. .. .. .. 29 17 .. .. .. .. .. 41 29 .. .. .. .. .. .. 17 .. .. .. .. 
.. 42 30 .. .. .. .. .. 29 17 .. .. .. .. .. 41 29 .. .. .. .. .. .. 17 .. .. .. .. .. 41 
29 .. .. .. .. .. .. 17 .. .. .. .. .. 39 27 .. .. .. .. .. 41 29 .. .. .. .. .. .. 17 .. 
.. .. .. .. 39 27 .. .. .. .. .. 41 29 .. .. .. .. .. .. 17 .. .. .. .. .. 29 17 .. .. .. 
.. .. 29 17 .. .. .. .. .. 41 29 .. .. .. .. .. .. 17 .. .. .. .. .. 42 30 .. .. .. .. .. 
29 17 .. .. .. .. .. 41 29 .. .. .. .. .. .. 17 .. .. .. .. .. 41 29 .. .. .. .. .. .. 17 
.. .. .. .. .. 39 27 .. .. .. .. .. 41 29 .. .. .. .. .. .. 17 .. .. .. .. .. 39 27 .. .. 
.. .. .. 41 29 .. .. .. .. .. .. 17 .. .. .. .. .. 29 17 .. .. .. .. .. 29 17 .. .. .. .. 
.. 41 29 .. .. .. .. .. .. 17 .. .. .. .. .. 42 30 .. .. .. .. .. 29 17 .. .. .. .. .. 41 
29 .. .. .. .. .. .. 17 .. .. .. .. .. 41 29 .. .. .. .. .. .. 17 .. .. .. .. .. 39 27 .. 
.. .. .. .. 41 29 .. .. .. .. .. .. 17 .. .. .. .. .. 39 27 .. .. .. .. .. 41 29 .. .. .. 
.. .. .. 17 .. .. .. .. .. 29 17 .. .. .. .. .. 29 17 .. .. .. .. .. 41 29 .. .. .. .. .. 
.. 17 .. .. .. .. .. 42 30 .. .. .. .. .. 29 17 .. .. .. .. .. 41 29 .. .. .. .. .. .. 17 
.. .. .. .. .. 43 31 .. .. .. .. .. .. 19 .. .. .. .. .. 41 29 .. .. .. .. .. 43 31 .. .. 
.. .. .. .. 19 .. .. .. .. .. 41 29 .. .. .. .. .. 43 31 .. .. .. .. .. .. 19 .. .. .. .. 
.. 31 19 .. .. .. .. .. 31 19 .. .. .. .. .. 43 31 .. .. .. .. .. .. 19 .. .. .. .. .. 44 
32 31 32 .. .. .. 31 19 .. .. .. .. .. 43 31 .. .. .. .. .. .. 19 .. .. .. .. .. 43 31 .. 
.. .. .. .. .. 19 .. .. .. .. .. 41 29 .. .. .. .. .. 43 31 .. .. .. .. .. .. 19 .. .. .. 
.. .. 41 29 .. .. .. .. .. 43 31 .. .. .. .. .. .. 19 .. .. .. .. .. 31 19 .. .. .. .. .. 
31 19 .. .. .. .. .. 43 31 .. .. .. .. .. .. 19 .. .. .. .. .. 44 32 31 32 .. .. .. 31 19 
.. .. .. .. .. 43 31 .. .. .. .. .. .. 19 .. .. .. .. .. 43 31 .. .. .. .. .. .. 19 .. .. 
.. .. .. 41 29 .. .. .. .. .. 43 31 .. .. .. .. .. .. 19 .. .. .. .. .. 41 29 .. .. .. .. 
.. 43 31 .. .. .. .. .. .. 19 .. .. .. .. .. 31 19 .. .. .. .. .. 31 19 .. .. .. .. .. 43 
31 .. .. .. .. .. .. 19 .. .. .. .. .. 44 32 31 32 .. .. .. 31 19 .. .. .. .. .. 43 31 .. 
.. .. .. .. .. 19 .. .. .. .. .. 43 31 .. .. .. .. .. .. 19 .. .. .. .. .. 41 29 .. .. .. 
.. .. 43 31 .. .. .. .. .. .. 19 .. .. .. .. .. 41 29 .. .. .. .. .. 43 31 .. .. .. .. .. 
.. 19 .. .. .. .. .. 31 19 .. .. .. .. .. 31 19 .. .. .. .. .. 43 31 .. .. .. .. .. .. 19 
.. .. .. .. .. 44 32 31 32 .. .. .. 31 19 .. .. .. .. .. 43 31 .. .. .. .. .. .. 19 .. .. 
.. .. .. 43 31 .. .. .. .. .. .. 19 .. .. .. .. .. 41 29 .. .. .. .. .. 43 31 .. .. .. .. 
.. .. 19 .. .. .. .. .. 41 29 .. .. .. .. .. 43 31 .. .. .. .. .. .. 19 .. .. .. .. .. 31 
19 .. .. .. .. .. 31 19 .. .. .. .. .. 43 31 .. .. .. .. .. .. 19 .. .. .. .. .. 41 29 .. 
.. .. .. .. 31 19 .. .. .. .. .. 43 31 .. .. .. .. .. .. 19 .. .. .. .. .. 39 27 .. .. .. 
.. .. .. 15 .. .. .. .. .. 38 26 .. .. .. .. .. 39 27 .. .. .. .. .. .. 15 .. .. .. .. .. 
38 26 .. .. .. .. .. 39 27 .. .. .. .. .. .. 15 .. .. .. .. .. 27 15 .. .. .. .. .. 27 15 
.. .. .. .. .. 39 27 .. .. .. .. .. .. 15 .. .. .. .. .. 38 26 .. .. .. .. .. 27 15 .. .. 
.. .. .. 39 27 .. .. .. .. .. .. 15 .. .. .. .. .. 41 29 .. .. .. .. .. .. 17 .. .. .. .. 
.. 36 24 .. .. .. .. .. 41 29 .. .. .. .. .. .. 17 .. .. .. .. .. 36 24 .. .. .. .. .. 41 
29 .. .. .. .. .. .. 17 .. .. .. .. .. 29 17 .. .. .. .. .. 29 17 .. .. .. .. .. 41 29 .. 
.. .. .. .. .. 17 .. .. .. .. .. 36 24 .. .. .. .. .. 29 17 .. .. .. .. .. 41 29 .. .. .. 
.. .. .. 17 .. .. .. .. .. 43 31 .. .. .. .. .. .. 19 .. .. .. .. .. 38 26 .. .. .. .. .. 
43 31 .. .. .. .. .. .. 19 .. .. .. .. .. 38 26 .. .. .. .. .. 43 31 .. .. .. .. .. .. 19 
.. .. .. .. .. 31 19 .. .. .. .. .. 31 19 .. .. .. .. .. 43 31 .. .. .. .. .. 29 17 .. .. 
.. .. .. 41 29 .. .. .. .. .. 34 22 .. .. .. .. .. 43 31 .. .. .. .. .. 29 17 .. .. .. .. 
.. 43 31 .. .. .. .. .. .. 19 .. .. .. .. .. 41 29 .. .. .. .. .. 43 31 .. .. .. .. .. .. 
19 .. .. .. .. .. 41 29 .. .. .. .. .. 43 31 .. .. .. .. .. .. 19 .. .. .. .. .. 31 19 .. 
.. .. .. .. 31 19 .. .. .. .. .. 43 31 .. .. .. .. .. .. 19 .. .. .. .. .. 41 29 .. .. .. 
.. .. 31 19 .. .. .. .. .. 43 31 .. .. .. .. .. .. 19 .. .. .. .. .. 39 27 .. .. .. .. .. 
.. 15 .. .. .. .. .. 38 26 .. .. .. .. .. 39 27 .. .. .. .. .. .. 15 .. .. .. .. .. 38 26 
.. .. .. .. .. 39 27 .. .. .. .. .. .. 15 .. .. .. .. .. 27 15 .. .. .. .. .. 27 15 .. .. 
.. .. .. 39 27 .. .. .. .. .. .. 15 .. .. .. .. .. 38 26 .. .. .. .. .. 27 15 .. .. .. .. 
.. 39 27 .. .. .. .. .. .. 15 .. .. .. .. .. 41 29 .. .. .. .. .. .. 17 .. .. .. .. .. 36 
24 .. .. .. .. .. 41 29 .. .. .. .. .. .. 17 .. .. .. .. .. 36 24 .. .. .. .. .. 41 29 .. 
.. .. .. .. .. 17 .. .. .. .. .. 29 17 .. .. .. .. .. 29 17 .. .. .. .. .. 41 29 .. .. .. 
.. .. .. 17 .. .. .. .. .. 36 24 .. .. .. .. .. 29 17 .. .. .. .. .. 41 29 .. .. .. .. .. 
.. 17 .. .. .. .. .. 43 31 .. .. .. .. .. .. 19 .. .. .. .. .. 38 26 .. .. .. .. .. 43 31 
.. .. .. .. .. .. 19 .. .. .. .. .. 38 26 .. .. .. .. .. 43 31 .. .. .. .. .. .. 19 .. .. 
.. .. .. 31 19 .. .. .. .. .. 31 19 .. .. .. .. .. 43 31 .. .. .. .. .. 29 17 .. .. .. .. 
.. 41 29 .. .. .. .. .. 34 22 .. .. .. .. .. 43 31 .. .. .. .. .. 29 17 .. .. .. .. .. 39 
27 .. .. .. .. .. .. 15 .. .. .. .. .. 38 26 .. .. .. .. .. 39 27 .. .. .. .. .. .. 15 .. 
.. .. .. .. 38 26 .. .. .. .. .. 39 27 .. .. .. .. .. .. 15 .. .. .. .. .. 29 17 .. .. .. 
.. .. 29 17 .. .. .. .. .. 41 29 .. .. .. .. .. .. 17 .. .. .. .. .. 36 24 .. .. .. .. .. 
29 17 .. .. .. .. .. 41 29 .. .. .. .. .. .. 17 .. .. .. .. .. 46 34 33 34 .. .. .. .. 22 
.. .. .. .. .. 41 29 .. .. .. .. .. 46 34 33 34 .. .. .. .. 22 .. .. .. .. .. 41 29 .. .. 
.. .. .. 46 34 33 34 .. .. .. .. 22 .. .. .. .. .. 31 19 .. .. .. .. .. 31 19 .. .. .. .. 
.. 43 31 .. .. .. .. .. .. 19 .. .. .. .. .. 38 26 .. .. .. .. .. 31 19 .. .. .. .. .. 43 
31 .. .. .. .. .. .. 19 .. .. .. .. .. 39 27 .. .. .. .. .. .. 15 .. .. .. .. .. 38 26 .. 
.. .. .. .. 39 27 .. .. .. .. .. .. 15 .. .. .. .. .. 38 26 .. .. .. .. .. 39 27 .. .. .. 
.. .. .. 15 .. .. .. .. .. 41 29 .. .. .. .. .. .. 17 .. .. .. .. .. 36 24 .. .. .. .. .. 
41 29 .. .. .. .. .. .. 17 .. .. .. .. .. 36 24 .. .. .. .. .. 41 29 .. .. .. .. .. .. 17 
.. .. .. .. .. 43 31 .. .. .. .. .. .. 19 .. .. .. .. .. 41 29 .. .. .. .. .. 43 31 .. .. 
.. .. .. .. 19 .. .. .. .. .. 41 29 .. .. .. .. .. 43 31 .. .. .. .. .. .. 19 .. .. .. .. 
.. 31 19 .. .. .. .. .. 31 19 .. .. .. .. .. 43 31 .. .. .. .. .. .. 19 .. .. .. .. .. 41 
29 .. .. .. .. .. 31 19 .. .. .. .. .. 43 31 .. .. .. .. .. .. 19 .. .. .. .. .. 39 27 .. 
.. .. .. .. .. 15 .. .. .. .. .. 38 26 .. .. .. .. .. 39 27 .. .. .. .. .. .. 15 .. .. .. 
.. .. 38 26 .. .. .. .. .. 39 27 .. .. .. .. .. .. 15 .. .. .. .. .. 29 17 .. .. .. .. .. 
29 17 .. .. .. .. .. 41 29 .. .. .. .. .. .. 17 .. .. .. .. .. 36 24 .. .. .. .. .. 29 17 
.. .. .. .. .. 41 29 .. .. .. .. .. .. 17 .. .. .. .. .. 46 34 33 34 .. .. .. .. 22 .. .. 
.. .. .. 41 29 .. .. .. .. .. 46 34 33 34 .. .. .. .. 22 .. .. .. .. .. 41 29 .. .. .. .. 
.. 46 34 33 34 .. .. .. .. 22 .. .. .. .. .. 31 19 .. .. .. .. .. 31 19 .. .. .. .. .. 43 
31 .. .. .. .. .. .. 19 .. .. .. .. .. 38 26 .. .. .. .. .. 31 19 .. .. .. .. .. 43 31 .. 
.. .. .. .. .. 19 .. .. .. .. .. 39 27 .. .. .. .. .. .. 15 .. .. .. .. .. 38 26 .. .. .. 
.. .. 39 27 .. .. .. .. .. .. 15 .. .. .. .. .. 38 26 .. .. .. .. .. 39 27 .. .. .. .. .. 
.. 15 .. .. .. .. .. 41 29 .. .. .. .. .. .. 17 .. .. .. .. .. 36 24 .. .. .. .. .. 41 29 
.. .. .. .. .. .. 17 .. .. .. .. .. 36 24 .. .. .. .. .. 41 29 .. .. .. .. .. .. 17 .. .. 
.. .. .. 43 31 .. .. .. .. .. .. 19 .. .. .. .. .. 41 29 .. .. .. .. .. 43 31 .. .. .. .. 
.. .. 19 .. .. .. .. .. 41 29 .. .. .. .. .. 43 31 .. .. .. .. .. .. 19 .. .. .. .. .. 31 
19 .. .. .. .. .. 31 19 .. .. .. .. .. 43 31 .. .. .. .. .. .. 19 .. .. .. .. .. 41 29 .. 
.. .. .. .. 31 19 .. .. .. .. .. 43 31 .. .. .. .. .. .. 19 .. .. .. .. .. 41 29 .. .. .. 
.. .. .. 17 .. .. .. .. .. 39 27 .. .. .. .. .. 41 29 .. .. .. .. .. .. 17 .. .. .. .. .. 
39 27 .. .. .. .. .. 41 29 .. .. .. .. .. .. 17 .. .. .. .. .. 29 17 .. .. .. .. .. 29 17 
.. .. .. .. .. 41 29 .. .. .. .. .. .. 17 .. .. .. .. .. 42 30 .. .. .. .. .. 29 17 .. .. 
.. .. .. 41 29 .. .. .. .. .. .. 17 .. .. .. .. .. 41 29 .. .. .. .. .. .. 17 .. .. .. .. 
.. 39 27 .. .. .. .. .. 41 29 .. .. .. .. .. .. 17 .. .. .. .. .. 39 27 .. .. .. .. .. 41 
29 .. .. .. .. .. .. 17 .. .. .. .. .. 29 17 .. .. .. .. .. 29 17 .. .. .. .. .. 41 29 .. 
.. .. .. .. .. 17 .. .. .. .. .. 42 30 .. .. .. .. .. 29 17 .. .. .. .. .. 41 29 .. .. .. 
.. .. .. 17 .. .. .. .. .. 41 29 .. .. .. .. .. .. 17 .. .. .. .. .. 39 27 .. .. .. .. .. 
41 29 .. .. .. .. .. .. 17 .. .. .. .. .. 39 27 .. .. .. .. .. 41 29 .. .. .. .. .. .. 17 
.. .. .. .. .. 29 17 .. .. .. .. .. 29 17 .. .. .. .. .. 41 29 .. .. .. .. .. .. 17 .. .. 
.. .. .. 42 30 .. .. .. .. .. 29 17 .. .. .. .. .. 41 29 .. .. .. .. .. .. 17 .. .. .. .. 
.. 41 29 .. .. .. .. .. .. 17 .. .. .. .. .. 39 27 .. .. .. .. .. 41 29 .. .. .. .. .. .. 
17 .. .. .. .. .. 39 27 .. .. .. .. .. 41 29 .. .. .. .. .. .. 17 .. .. .. .. .. 29 17 .. 
.. .. .. .. 29 17 .. .. .. .. .. 41 29 .. .. .. .. .. .. 17 .. .. .. .. .. 42 30 .. .. .. 
.. .. 29 17 .. .. .. .. .. 41 29 .. .. .. .. .. .. 17 .. .. .. .. .. 43 31 .. .. .. .. .. 
.. 19 .. .. .. .. .. 41 29 .. .. .. .. .. 43 31 .. .. .. .. .. .. 19 .. .. .. .. .. 41 29 
.. .. .. .. .. 43 31 .. .. .. .. .. .. 19 .. .. .. .. .. 31 19 .. .. .. .. .. 31 19 .. .. 
.. .. .. 43 31 .. .. .. .. .. .. 19 .. .. .. .. .. 44 32 31 32 .. .. .. 31 19 .. .. .. .. 
.. 43 31 .. .. .. .. .. .. 19 .. .. .. .. .. 43 31 .. .. .. .. .. .. 19 .. .. .. .. .. 41 
29 .. .. .. .. .. 43 31 .. .. .. .. .. .. 19 .. .. .. .. .. 41 29 .. .. .. .. .. 43 31 .. 
.. .. .. .. .. 19 .. .. .. .. .. 31 19 .. .. .. .. .. 31 19 .. .. .. .. .. 43 31 .. .. .. 
.. .. .. 19 .. .. .. .. .. 44 32 31 32 .. .. .. 31 19 .. .. .. .. .. 43 31 .. .. .. .. .. 
.. 19 .. .. .. .. .. 43 31 .. .. .. .. .. .. 19 .. .. .. .. .. 41 29 .. .. .. .. .. 43 31 
.. .. .. .. .. .. 19 .. .. .. .. .. 41 29 .. .. .. .. .. 43 31 .. .. .. .. .. .. 19 .. .. 
.. .. .. 31 19 .. .. .. .. .. 31 19 .. .. .. .. .. 43 31 .. .. .. .. .. .. 19 .. .. .. .. 
.. 44 32 31 32 .. .. .. 31 19 .. .. .. .. .. 43 31 .. .. .. .. .. .. 19 .. .. .. .. .. 43 
31 .. .. .. .. .. .. 19 .. .. .. .. .. 41 29 .. .. .. .. .. 43 31 .. .. .. .. .. .. 19 .. 
.. .. .. .. 41 29 .. .. .. .. .. 43 31 .. .. .. .. .. .. 19 .. .. .. .. .. 31 19 .. .. .. 
.. .. 31 19 .. .. .. .. .. 43 31 .. .. .. .. .. .. 19 .. .. .. .. .. 44 32 31 32 .. .. .. 
31 19 .. .. .. .. .. 43 31 .. .. .. .. .. .. 19 .. .. .. .. .. 41 29 .. .. .. .. .. .. 17 
.. .. .. .. .. 39 27 .. .. .. .. .. 41 29 .. .. .. .. .. .. 17 .. .. .. .. .. 39 27 .. .. 
.. .. .. 41 29 .. .. .. .. .. .. 17 .. .. .. .. .. 29 17 .. .. .. .. .. 29 17 .. .. .. .. 
.. 41 29 .. .. .. .. .. .. 17 .. .. .. .. .. 42 30 .. .. .. .. .. 29 17 .. .. .. .. .. 41 
29 .. .. .. .. .. .. 17 .. .. .. .. .. 41 29 .. .. .. .. .. .. 17 .. .. .. .. .. 39 27 .. 
.. .. .. .. 41 29 .. .. .. .. .. .. 17 .. .. .. .. .. 39 27 .. .. .. .. .. 41 29 .. .. .. 
.. .. .. 17 .. .. .. .. .. 29 17 .. .. .. .. .. 29 17 .. .. .. .. .. 41 29 .. .. .. .. .. 
.. 17 .. .. .. .. .. 42 30 .. .. .. .. .. 29 17 .. .. .. .. .. 41 29 .. .. .. .. .. .. 17 
.. .. .. .. .. 41 29 .. .. .. .. .. .. 17 .. .. .. .. .. 39 27 .. .. .. .. .. 41 29 .. .. 
.. .. .. .. 17 .. .. .. .. .. 39 27 .. .. .. .. .. 41 29 .. .. .. .. .. .. 17 .. .. .. .. 
.. 29 17 .. .. .. .. .. 29 17 .. .. .. .. .. 41 29 .. .. .. .. .. .. 17 .. .. .. .. .. 42 
30 .. .. .. .. .. 29 17 .. .. .. .. .. 41 29 .. .. .. .. .. .. 17 .. .. .. .. .. 41 29 .. 
.. .. .. .. .. 17 .. .. .. .. .. 39 27 .. .. .. .. .. 41 29 .. .. .. .. .. .. 17 .. .. .. 
.. .. 39 27 .. .. .. .. .. 41 29 .. .. .. .. .. .. 17 .. .. .. .. .. 29 17 .. .. .. .. .. 
29 17 .. .. .. .. .. 41 29 .. .. .. .. .. .. 17 .. .. .. .. .. 42 30 .. .. .. .. .. 29 17 
.. .. .. .. .. 41 29 .. .. .. .. .. .. 17 .. .. .. .. .. 19 .. .. .. .. .. .. .. .. .. .. 
.. .. .. .. .. .. .. .. .. .. .. .. .. .. .. .. .. .. .. .. .. .. .. .. .. .. .. .. .. .. 
.. .. .. .. .. .. .. .. .. .. .. .. .. .. .. .. .. .. .. .. .. .. .. .. .. .. .. .. .. .. 
.. .. .. .. .. .. .. .. .. .. .. .. .. .. .. .. .. .. .. .. .. .. .. .. .. .. .. .. .. .. 
.. .. .. .. .. .. .. .. .. .. .. .. .. .. .. .. .. .. .. .. .. .. .. .. .. .. .. .. .. .. 
.. .. .. .. .. .. .. .. .. .. .. .. .. .. .. .. .. .. .. .. .. .. .. .. .. .. .. .. .. .. 
.. .. .. .. .. .. .. .. .. .. .. .. .. .. .. .. .. .. .. .. .. .. .. .. .. .. .. .. .. .. 
.. .. .. .. .. .. .. .. .. .. .. .. .. .. .. .. .. .. .. .. .. .. .. .. .. .. .. .. .. .. 
.. .. .. .. .. .. .. .. .. .. .. .. .. .. .. .. .. .. .. .. .. .. .. .. .. .. .. .. .. .. 
.. .. .. .. .. .. .. .. .. .. .. .. .. .. .. .. .. .. .. .. .. .. .. .. .. .. .. .. .. .. 
.. .. .. .. .. .. .. .. .. .. .. .. .. .. .. .. .. .. .. .. .. .. .. .. .. .. .. .. .. .. 
.. .. .. .. .. .. .. .. .. .. .. .. .. .. .. .. .. .. .. .. .. .. .. .. .. .. .. .. .. .. 
.. .. .. .. .. .. .. .. .. .. .. .. .. .. .. .. .. .. .. .. .. .. .. .. .. .. .. .. .. .. 
.. .. .. .. .. .. .. .. .. .. .. .. .. .. .. .. .. .. .. .. .. .. .. .. .. .. .. .. .. .. 
.. .. .. .. .. .. .. .. .. .. .. .. .. .. .. .. .. .. .. .. .. .. .. .. .. .. .. .. .. .. 
.. .. .. .. .. .. .. .. .. .. .. .. .. .. .. .. .. 43 31 .. .. .. .. .. .. 19 .. .. .. .. 
.. 41 29 .. .. .. .. .. 43 31 .. .. .. .. .. .. 19 .. .. .. .. .. 41 29 .. .. .. .. .. 43 
31 .. .. .. .. .. .. 19 .. .. .. .. .. 31 19 .. .. .. .. .. 31 19 .. .. .. .. .. 43 31 .. 
.. .. .. .. .. 19 .. .. .. .. .. 41 29 .. .. .. .. .. 31 19 .. .. .. .. .. 43 31 .. .. .. 
.. .. .. 19 .. .. .. .. .. 39 27 .. .. .. .. .. .. 15 .. .. .. .. .. 38 26 .. .. .. .. .. 
39 27 .. .. .. .. .. .. 15 .. .. .. .. .. 38 26 .. .. .. .. .. 39 27 .. .. .. .. .. .. 15 
.. .. .. .. .. 27 15 .. .. .. .. .. 27 15 .. .. .. .. .. 39 27 .. .. .. .. .. .. 15 .. .. 
.. .. .. 38 26 .. .. .. .. .. 27 15 .. .. .. .. .. 39 27 .. .. .. .. .. .. 15 .. .. .. .. 
.. 41 29 .. .. .. .. .. .. 17 .. .. .. .. .. 36 24 .. .. .. .. .. 41 29 .. .. .. .. .. .. 
17 .. .. .. .. .. 36 24 .. .. .. .. .. 41 29 .. .. .. .. .. .. 17 .. .. .. .. .. 29 17 .. 
.. .. .. .. 29 17 .. .. .. .. .. 41 29 .. .. .. .. .. .. 17 .. .. .. .. .. 36 24 .. .. .. 
.. .. 29 17 .. .. .. .. .. 41 29 .. .. .. .. .. .. 17 .. .. .. .. .. 43 31 .. .. .. .. .. 
.. 19 .. .. .. .. .. 38 26 .. .. .. .. .. 43 31 .. .. .. .. .. .. 19 .. .. .. .. .. 38 26 
.. .. .. .. .. 43 31 .. .. .. .. .. .. 19 .. .. .. .. .. 31 19 .. .. .. .. .. 31 19 .. .. 
.. .. .. 43 31 .. .. .. .. .. 29 17 .. .. .. .. .. 41 29 .. .. .. .. .. 34 22 .. .. .. .. 
.. 43 31 .. .. .. .. .. 29 17 .. .. .. .. .. 43 31 .. .. .. .. .. .. 19 .. .. .. .. .. 41 
29 .. .. .. .. .. 43 31 .. .. .. .. .. .. 19 .. .. .. .. .. 41 29 .. .. .. .. .. 43 31 .. 
.. .. .. .. .. 19 .. .. .. .. .. 31 19 .. .. .. .. .. 31 19 .. .. .. .. .. 43 31 .. .. .. 
.. .. .. 19 .. .. .. .. .. 41 29 .. .. .. .. .. 31 19 .. .. .. .. .. 43 31 .. .. .. .. .. 
.. 19 .. .. .. .. .. 39 27 .. .. .. .. .. .. 15 .. .. .. .. .. 38 26 .. .. .. .. .. 39 27 
.. .. .. .. .. .. 15 .. .. .. .. .. 38 26 .. .. .. .. .. 39 27 .. .. .. .. .. .. 15 .. .. 
.. .. .. 27 15 .. .. .. .. .. 27 15 .. .. .. .. .. 39 27 .. .. .. .. .. .. 15 .. .. .. .. 
.. 38 26 .. .. .. .. .. 27 15 .. .. .. .. .. 39 27 .. .. .. .. .. .. 15 .. .. .. .. .. 41 
29 .. .. .. .. .. .. 17 .. .. .. .. .. 36 24 .. .. .. .. .. 41 29 .. .. .. .. .. .. 17 .. 
.. .. .. .. 36 24 .. .. .. .. .. 41 29 .. .. .. .. .. .. 17 .. .. .. .. .. 29 17 .. .. .. 
.. .. 29 17 .. .. .. .. .. 41 29 .. .. .. .. .. .. 17 .. .. .. .. .. 36 24 .. .. .. .. .. 
29 17 .. .. .. .. .. 41 29 .. .. .. .. .. .. 17 .. .. .. .. .. 43 31 .. .. .. .. .. .. 19 
.. .. .. .. .. 38 26 .. .. .. .. .. 43 31 .. .. .. .. .. .. 19 .. .. .. .. .. 38 26 .. .. 
.. .. .. 43 31 .. .. .. .. .. .. 19 .. .. .. .. .. 31 19 .. .. .. .. .. 31 19 .. .. .. .. 
.. 43 31 .. .. .. .. .. 29 17 .. .. .. .. .. 41 29 .. .. .. .. .. 34 22 .. .. .. .. .. 43 
31 .. .. .. .. .. 29 17 .. .. .. .. .. 39 27 .. .. .. .. .. .. 15 .. .. .. .. .. 38 26 .. 
.. .. .. .. 39 27 .. .. .. .. .. .. 15 .. .. .. .. .. 38 26 .. .. .. .. .. 39 27 .. .. .. 
.. .. .. 15 .. .. .. .. .. 29 17 .. .. .. .. .. 29 17 .. .. .. .. .. 41 29 .. .. .. .. .. 
.. 17 .. .. .. .. .. 36 24 .. .. .. .. .. 29 17 .. .. .. .. .. 41 29 .. .. .. .. .. .. 17 
.. .. .. .. .. 46 34 33 34 .. .. .. .. 22 .. .. .. .. .. 41 29 .. .. .. .. .. 46 34 33 34 
.. .. .. .. 22 .. .. .. .. .. 41 29 .. .. .. .. .. 46 34 33 34 .. .. .. .. 22 .. .. .. .. 
.. 31 19 .. .. .. .. .. 31 19 .. .. .. .. .. 43 31 .. .. .. .. .. .. 19 .. .. .. .. .. 38 
26 .. .. .. .. .. 31 19 .. .. .. .. .. 43 31 .. .. .. .. .. .. 19 .. .. .. .. .. 39 27 .. 
.. .. .. .. .. 15 .. .. .. .. .. 38 26 .. .. .. .. .. 39 27 .. .. .. .. .. .. 15 .. .. .. 
.. .. 38 26 .. .. .. .. .. 39 27 .. .. .. .. .. .. 15 .. .. .. .. .. 41 29 .. .. .. .. .. 
.. 17 .. .. .. .. .. 36 24 .. .. .. .. .. 41 29 .. .. .. .. .. .. 17 .. .. .. .. .. 36 24 
.. .. .. .. .. 41 29 .. .. .. .. .. .. 17 .. .. .. .. .. 43 31 .. .. .. .. .. .. 19 .. .. 
.. .. .. 41 29 .. .. .. .. .. 43 31 .. .. .. .. .. .. 19 .. .. .. .. .. 41 29 .. .. 
! Song 2
14 41 29 .. .. .. .. .. .. 17 .. .. .. .. .. 39 27 .. .. .. .. .. 41 29 .. .. .. .. .. 41 
29 .. .. .. .. .. .. 17 .. .. .. .. .. 39 27 .. .. .. .. .. 41 29 .. .. .. .. .. 41 29 .. 
.. .. .. .. .. 17 .. .. .. .. .. 39 27 .. .. .. .. .. 42 30 .. .. .. .. .. .. 18 .. .. .. 
.. .. 40 28 .. .. .. .. .. 42 30 .. .. .. .. .. .. 18 .. .. .. .. .. 41 29 .. .. .. .. .. 
.. 17 .. .. .. .. .. 39 27 .. .. .. .. .. 41 29 .. .. .. .. .. .. 17 .. .. .. .. .. 39 27 
.. .. .. .. .. 41 29 .. .. .. .. .. .. 17 .. .. .. .. .. 29 17 .. .. .. .. .. 29 17 .. .. 
.. .. .. 41 29 .. .. .. .. .. .. 17 .. .. .. .. .. 42 30 .. .. .. .. .. 29 17 .. .. .. .. 
.. 41 29 .. .. .. .. .. .. 17 .. .. .. .. .. 41 29 .. .. .. .. .. .. 17 .. .. .. .. .. 39 
27 .. .. .. .. .. 41 29 .. .. .. .. .. .. 17 .. .. .. .. .. 39 27 .. .. .. .. .. 41 29 .. 
.. .. .. .. .. 17 .. .. .. .. .. 29 17 .. .. .. .. .. 29 17 .. .. .. .. .. 41 29 .. .. .. 
.. .. .. 17 .. .. .. .. .. 42 30 .. .. .. .. .. 29 17 .. .. .. .. .. 41 29 .. .. .. .. .. 
.. 17 .. .. .. .. .. 41 29 .. .. .. .. .. .. 17 .. .. .. .. .. 39 27 .. .. .. .. .. 41 29 
.. .. .. .. .. .. 17 .. .. .. .. .. 39 27 .. .. .. .. .. 41 29 .. .. .. .. .. .. 17 .. .. 
.. .. .. 29 17 .. .. .. .. .. 29 17 .. .. .. .. .. 41 29 .. .. .. .. .. .. 17 .. .. .. .. 
.. 42 30 .. .. .. .. .. 29 17 .. .. .. .. .. 41 29 .. .. .. .. .. .. 17 .. .. .. .. .. 41 
29 .. .. .. .. .. .. 17 .. .. .. .. .. 39 27 .. .. .. .. .. 41 29 .. .. .. .. .. .. 17 .. 
.. .. .. .. 39 27 .. .. .. .. .. 41 29 .. .. .. .. .. .. 17 .. .. .. .. .. 29 17 .. .. .. 
.. .. 29 17 .. .. .. .. .. 41 29 .. .. .. .. .. .. 17 .. .. .. .. .. 42 30 .. .. .. .. .. 
29 17 .. .. .. .. .. 41 29 .. .. .. .. .. .. 17 .. .. .. .. .. 41 29 .. .. .. .. .. .. 17 
.. .. .. .. .. 39 27 .. .. .. .. .. 41 29 .. .. .. .. .. .. 17 .. .. .. .. .. 39 27 .. .. 
.. .. .. 41 29 .. .. .. .. .. .. 17 .. .. .. .. .. 29 17 .. .. .. .. .. 29 17 .. .. .. .. 
.. 41 29 .. .. .. .. .. .. 17 .. .. .. .. .. 42 30 .. .. .. .. .. 29 17 .. .. .. .. .. 41 
29 .. .. .. .. .. .. 17 .. .. .. .. .. 41 29 .. .. .. .. .. .. 17 .. .. .. .. .. 39 27 .. 
.. .. .. .. 41 29 .. .. .. .. .. .. 17 .. .. .. .. .. 39 27 .. .. .. .. .. 41 29 .. .. .. 
.. .. .. 17 .. .. .. .. .. 29 17 .. .. .. .. .. 29 17 .. .. .. .. .. 41 29 .. .. .. .. .. 
.. 17 .. .. .. .. .. 42 30 .. .. .. .. .. 29 17 .. .. .. .. .. 41 29 .. .. .. .. .. .. 17 
.. .. .. .. .. 41 29 .. .. .. .. .. .. 17 .. .. .. .. .. 39 27 .. .. .. .. .. 41 29 .. .. 
.. .. .. .. 17 .. .. .. .. .. 39 27 .. .. .. .. .. 41 29 .. .. .. .. .. .. 17 .. .. .. .. 
.. 29 17 .. .. .. .. .. 29 17 .. .. .. .. .. 41 29 .. .. .. .. .. .. 17 .. .. .. .. .. 42 
30 .. .. .. .. .. 29 17 .. .. .. .. .. 41 29 .. .. .. .. .. .. 17 .. .. .. .. .. 41 29 .. 
.. .. .. .. .. 17 .. .. .. .. .. 39 27 .. .. .. .. .. 41 29 .. .. .. .. .. .. 17 .. .. .. 
.. .. 39 27 .. .. .. .. .. 41 29 .. .. .. .. .. .. 17 .. .. .. .. .. 29 17 .. .. .. .. .. 
29 17 .. .. .. .. .. 41 29 .. .. .. .. .. .. 17 .. .. .. .. .. 42 30 .. .. .. .. .. 29 17 
.. .. .. .. .. 41 29 .. .. .. .. .. .. 17 .. .. .. .. .. 43 31 .. .. .. .. .. .. 19 .. .. 
.. .. .. 41 29 .. .. .. .. .. 43 31 .. .. .. .. .. .. 19 .. .. .. .. .. 41 29 .. .. .. .. 
.. 43 31 .. .. .. .. .. .. 19 .. .. .. .. .. 31 19 .. .. .. .. .. 31 19 .. .. .. .. .. 43 
31 .. .. .. .. .. .. 19 .. .. .. .. .. 44 32 31 32 .. .. .. 31 19 .. .. .. .. .. 43 31 .. 
.. .. .. .. .. 19 .. .. .. .. .. 43 31 .. .. .. .. .. .. 19 .. .. .. .. .. 41 29 .. .. .. 
.. .. 43 31 .. .. .. .. .. .. 19 .. .. .. .. .. 41 29 .. .. .. .. .. 43 31 .. .. .. .. .. 
.. 19 .. .. .. .. .. 31 19 .. .. .. .. .. 31 19 .. .. .. .. .. 43 31 .. .. .. .. .. .. 19 
.. .. .. .. .. 44 32 31 32 .. .. .. 31 19 .. .. .. .. .. 43 31 .. .. .. .. .. .. 19 .. .. 
.. .. .. 43 31 .. .. .. .. .. .. 19 .. .. .. .. .. 41 29 .. .. .. .. .. 43 31 .. .. .. .. 
.. .. 19 .. .. .. .. .. 41 29 .. .. .. .. .. 43 31 .. .. .. .. .. .. 19 .. .. .. .. .. 31 
19 .. .. .. .. .. 31 19 .. .. .. .. .. 43 31 .. .. .. .. .. .. 19 .. .. .. .. .. 44 32 31 
32 .. .. .. 31 19 .. .. .. .. .. 43 31 .. .. .. .. .. .. 19 .. .. .. .. .. 43 31 .. .. .. 
.. .. .. 19 .. .. .. .. .. 41 29 .. .. .. .. .. 43 31 .. .. .. .. .. .. 19 .. .. .. .. .. 
41 29 .. .. .. .. .. 43 31 .. .. .. .. .. .. 19 .. .. .. .. .. 31 19 .. .. .. .. .. 31 19 
.. .. .. .. .. 43 31 .. .. .. .. .. .. 19 .. .. .. .. .. 44 32 31 32 .. .. .. 31 19 .. .. 
.. .. .. 43 31 .. .. .. .. .. .. 19 .. .. .. .. .. 43 31 .. .. .. .. .. .. 19 .. .. .. .. 
.. 41 29 .. .. .. .. .. 43 31 .. .. .. .. .. .. 19 .. .. .. .. .. 41 29 .. .. .. .. .. 43 
31 .. .. .. .. .. .. 19 .. .. .. .. .. 31 19 .. .. .. .. .. 31 19 .. .. .. .. .. 43 31 .. 
.. .. .. .. .. 19 .. .. .. .. .. 41 29 .. .. .. .. .. 31 19 .. .. .. .. .. 43 31 .. .. .. 
.. .. .. 19 .. .. .. .. .. 39 27 .. .. .. .. .. .. 15 .. .. .. .. .. 38 26 .. .. .. .. .. 
39 27 .. .. .. .. .. .. 15 .. .. .. .. .. 38 26 .. .. .. .. .. 39 27 .. .. .. .. .. .. 15 
.. .. .. .. .. 27 15 .. .. .. .. .. 27 15 .. .. .. .. .. 39 27 .. .. .. .. .. .. 15 .. .. 
.. .. .. 38 26 .. .. .. .. .. 27 15 .. .. .. .. .. 39 27 .. .. .. .. .. .. 15 .. .. .. .. 
.. 41 29 .. .. .. .. .. .. 17 .. .. .. .. .. 36 24 .. .. .. .. .. 41 29 .. .. .. .. .. .. 
17 .. .. .. .. .. 36 24 .. .. .. .. .. 41 29 .. .. .. .. .. .. 17 .. .. .. .. .. 29 17 .. 
.. .. .. .. 29 17 .. .. .. .. .. 41 29 .. .. .. .. .. .. 17 .. .. .. .. .. 36 24 .. .. .. 
.. .. 29 17 .. .. .. .. .. 41 29 .. .. .. .. .. .. 17 .. .. .. .. .. 43 31 .. .. .. .. .. 
.. 19 .. .. .. .. .. 38 26 .. .. .. .. .. 43 31 .. .. .. .. .. .. 19 .. .. .. .. .. 38 26 
.. .. .. .. .. 43 31 .. .. .. .. .. .. 19 .. .. .. .. .. 31 19 .. .. .. .. .. 31 19 .. .. 
.. .. .. 43 31 .. .. .. .. .. 29 17 .. .. .. .. .. 41 29 .. .. .. .. .. 34 22 .. .. .. .. 
.. 43 31 .. .. .. .. .. 29 17 .. .. .. .. .. 43 31 .. .. .. .. .. .. 19 .. .. .. .. .. 41 
29 .. .. .. .. .. 43 31 .. .. .. .. .. .. 19 .. .. .. .. .. 41 29 .. .. .. .. .. 43 31 .. 
.. .. .. .. .. 19 .. .. .. .. .. 31 19 .. .. .. .. .. 31 19 .. .. .. .. .. 43 31 .. .. .. 
.. .. .. 19 .. .. .. .. .. 41 29 .. .. .. .. .. 31 19 .. .. .. .. .. 43 31 .. .. .. .. .. 
.. 19 .. .. .. .. .. 39 27 .. .. .. .. .. .. 15 .. .. .. .. .. 38 26 .. .. .. .. .. 39 27 
.. .. .. .. .. .. 15 .. .. .. .. .. 38 26 .. .. .. .. .. 39 27 .. .. .. .. .. .. 15 .. .. 
.. .. .. 27 15 .. .. .. .. .. 27 15 .. .. .. .. .. 39 27 .. .. .. .. .. .. 15 .. .. .. .. 
.. 38 26 .. .. .. .. .. 27 15 .. .. .. .. .. 39 27 .. .. .. .. .. .. 15 .. .. .. .. .. 41 
29 .. .. .. .. .. .. 17 .. .. .. .. .. 36 24 .. .. .. .. .. 41 29 .. .. .. .. .. .. 17 .. 
.. .. .. .. 36 24 .. .. .. .. .. 41 29 .. .. .. .. .. .. 17 .. .. .. .. .. 29 17 .. .. .. 
.. .. 29 17 .. .. .. .. .. 41 29 .. .. .. .. .. .. 17 .. .. .. .. .. 36 24 .. .. .. .. .. 
29 17 .. .. .. .. .. 41 29 .. .. .. .. .. .. 17 .. .. .. .. .. 43 31 .. .. .. .. .. .. 19 
.. .. .. .. .. 38 26 .. .. .. .. .. 43 31 .. .. .. .. .. .. 19 .. .. .. .. .. 38 26 .. .. 
.. .. .. 43 31 .. .. .. .. .. .. 19 .. .. .. .. .. 31 19 .. .. .. .. .. 31 19 .. .. .. .. 
.. 43 31 .. .. .. .. .. 29 17 .. .. .. .. .. 41 29 .. .. .. .. .. 34 22 .. .. .. .. .. 43 
31 .. .. .. .. .. 29 17 .. .. .. .. .. 39 27 .. .. .. .. .. .. 15 .. .. .. .. .. 38 26 .. 
.. .. .. .. 39 27 .. .. .. .. .. .. 15 .. .. .. .. .. 38 26 .. .. .. .. .. 39 27 .. .. .. 
.. .. .. 15 .. .. .. .. .. 29 17 .. .. .. .. .. 29 17 .. .. .. .. .. 41 29 .. .. .. .. .. 
.. 17 .. .. .. .. .. 36 24 .. .. .. .. .. 29 17 .. .. .. .. .. 41 29 .. .. .. .. .. .. 17 
.. .. .. .. .. 46 34 33 34 .. .. .. .. 22 .. .. .. .. .. 41 29 .. .. .. .. .. 46 34 33 34 
.. .. .. .. 22 .. .. .. .. .. 41 29 .. .. .. .. .. 46 34 33 34 .. .. .. .. 22 .. .. .. .. 
.. 31 19 .. .. .. .. .. 31 19 .. .. .. .. .. 43 31 .. .. .. .. .. .. 19 .. .. .. .. .. 38 
26 .. .. .. .. .. 31 19 .. .. .. .. .. 43 31 .. .. .. .. .. .. 19 .. .. .. .. .. 39 27 .. 
.. .. .. .. .. 15 .. .. .. .. .. 38 26 .. .. .. .. .. 39 27 .. .. .. .. .. .. 15 .. .. .. 
.. .. 38 26 .. .. .. .. .. 39 27 .. .. .. .. .. .. 15 .. .. .. .. .. 41 29 .. .. .. .. .. 
.. 17 .. .. .. .. .. 36 24 .. .. .. .. .. 41 29 .. .. .. .. .. .. 17 .. .. .. .. .. 36 24 
.. .. .. .. .. 41 29 .. .. .. .. .. .. 17 .. .. .. .. .. 43 31 .. .. .. .. .. .. 19 .. .. 
.. .. .. 41 29 .. .. .. .. .. 43 31 .. .. .. .. .. .. 19 .. .. .. .. .. 41 29 .. .. .. .. 
.. 43 31 .. .. .. .. .. .. 19 .. .. .. .. .. 31 19 .. .. .. .. .. 31 19 .. .. .. .. .. 43 
31 .. .. .. .. .. .. 19 .. .. .. .. .. 41 29 .. .. .. .. .. 31 19 .. .. .. .. .. 43 31 .. 
.. .. .. .. .. 19 .. .. .. .. .. 39 27 .. .. .. .. .. .. 15 .. .. .. .. .. 38 26 .. .. .. 
.. .. 39 27 .. .. .. .. .. .. 15 .. .. .. .. .. 38 26 .. .. .. .. .. 39 27 .. .. .. .. .. 
.. 15 .. .. .. .. .. 29 17 .. .. .. .. .. 29 17 .. .. .. .. .. 41 29 .. .. .. .. .. .. 17 
.. .. .. .. .. 36 24 .. .. .. .. .. 29 17 .. .. .. .. .. 41 29 .. .. .. .. .. .. 17 .. .. 
.. .. .. 46 34 33 34 .. .. .. .. 22 .. .. .. .. .. 41 29 .. .. .. .. .. 46 34 33 34 .. .. 
.. .. 22 .. .. .. .. .. 41 29 .. .. .. .. .. 46 34 33 34 .. .. .. .. 22 .. .. .. .. .. 31 
19 .. .. .. .. .. 31 19 .. .. .. .. .. 43 31 .. .. .. .. .. .. 19 .. .. .. .. .. 38 26 .. 
.. .. .. .. 31 19 .. .. .. .. .. 43 31 .. .. .. .. .. .. 19 .. .. .. .. .. 39 27 .. .. .. 
.. .. .. 15 .. .. .. .. .. 38 26 .. .. .. .. .. 39 27 .. .. .. .. .. .. 15 .. .. .. .. .. 
38 26 .. .. .. .. .. 39 27 .. .. .. .. .. .. 15 .. .. .. .. .. 41 29 .. .. .. .. .. .. 17 
.. .. .. .. .. 36 24 .. .. .. .. .. 41 29 .. .. .. .. .. .. 17 .. .. .. .. .. 36 24 .. .. 
.. .. .. 41 29 .. .. .. .. .. .. 17 .. .. .. .. .. 43 31 .. .. .. .. .. .. 19 .. .. .. .. 
.. 41 29 .. .. .. .. .. 43 31 .. .. .. .. .. .. 19 .. .. .. .. .. 41 29 .. .. .. .. .. 43 
31 .. .. .. .. .. .. 19 .. .. .. .. .. 31 19 .. .. .. .. .. 31 19 .. .. .. .. .. 43 31 .. 
.. .. .. .. .. 19 .. .. .. .. .. 41 29 .. .. .. .. .. 31 19 .. .. .. .. .. 43 31 .. .. .. 
.. .. .. 19 .. .. .. .. .. 41 29 .. .. .. .. .. .. 17 .. .. .. .. .. 39 27 .. .. .. .. .. 
41 29 .. .. .. .. .. .. 17 .. .. .. .. .. 39 27 .. .. .. .. .. 41 29 .. .. .. .. .. .. 17 
.. .. .. .. .. 29 17 .. .. .. .. .. 29 17 .. .. .. .. .. 41 29 .. .. .. .. .. .. 17 .. .. 
.. .. .. 42 30 .. .. .. .. .. 29 17 .. .. .. .. .. 41 29 .. .. .. .. .. .. 17 .. .. .. .. 
.. 41 29 .. .. .. .. .. .. 17 .. .. .. .. .. 39 27 .. .. .. .. .. 41 29 .. .. .. .. .. .. 
17 .. .. .. .. .. 39 27 .. .. .. .. .. 41 29 .. .. .. .. .. .. 17 .. .. .. .. .. 29 17 .. 
.. .. .. .. 29 17 .. .. .. .. .. 41 29 .. .. .. .. .. .. 17 .. .. .. .. .. 42 30 .. .. .. 
.. .. 29 17 .. .. .. .. .. 41 29 .. .. .. .. .. .. 17 .. .. .. .. .. 41 29 .. .. .. .. .. 
.. 17 .. .. .. .. .. 39 27 .. .. .. .. .. 41 29 .. .. .. .. .. .. 17 .. .. .. .. .. 39 27 
.. .. .. .. .. 41 29 .. .. .. .. .. .. 17 .. .. .. .. .. 29 17 .. .. .. .. .. 29 17 .. .. 
.. .. .. 41 29 .. .. .. .. .. .. 17 .. .. .. .. .. 42 30 .. .. .. .. .. 29 17 .. .. .. .. 
.. 41 29 .. .. .. .. .. .. 17 .. .. .. .. .. 41 29 .. .. .. .. .. .. 17 .. .. .. .. .. 39 
27 .. .. .. .. .. 41 29 .. .. .. .. .. .. 17 .. .. .. .. .. 39 27 .. .. .. .. .. 41 29 .. 
.. .. .. .. .. 17 .. .. .. .. .. 29 17 .. .. .. .. .. 29 17 .. .. .. .. .. 41 29 .. .. .. 
.. .. .. 17 .. .. .. .. .. 42 30 .. .. .. .. .. 29 17 .. .. .. .. .. 41 29 .. .. .. .. .. 
.. 17 .. .. .. .. .. 43 31 .. .. .. .. .. .. 19 .. .. .. .. .. 41 29 .. .. .. .. .. 43 31 
.. .. .. .. .. .. 19 .. .. .. .. .. 41 29 .. .. .. .. .. 43 31 .. .. .. .. .. .. 19 .. .. 
.. .. .. 31 19 .. .. .. .. .. 31 19 .. .. .. .. .. 43 31 .. .. .. .. .. .. 19 .. .. .. .. 
.. 44 32 31 32 .. .. .. 31 19 .. .. .. .. .. 43 31 .. .. .. .. .. .. 19 .. .. .. .. .. 43 
31 .. .. .. .. .. .. 19 .. .. .. .. .. 41 29 .. .. .. .. .. 43 31 .. .. .. .. .. .. 19 .. 
.. .. .. .. 41 29 .. .. .. .. .. 43 31 .. .. .. .. .. .. 19 .. .. .. .. .. 31 19 .. .. .. 
.. .. 31 19 .. .. .. .. .. 43 31 .. .. .. .. .. .. 19 .. .. .. .. .. 44 32 31 32 .. .. .. 
31 19 .. .. .. .. .. 43 31 .. .. .. .. .. .. 19 .. .. .. .. .. 43 31 .. .. .. .. .. .. 19 
.. .. .. .. .. 41 29 .. .. .. .. .. 43 31 .. .. .. .. .. .. 19 .. .. .. .. .. 41 29 .. .. 
.. .. .. 43 31 .. .. .. .. .. .. 19 .. .. .. .. .. 31 19 .. .. .. .. .. 31 19 .. .. .. .. 
.. 43 31 .. .. .. .. .. .. 19 .. .. .. .. .. 44 32 31 32 .. .. .. 31 19 .. .. .. .. .. 43 
31 .. .. .. .. .. .. 19 .. .. .. .. .. 43 31 .. .. .. .. .. .. 19 .. .. .. .. .. 41 29 .. 
.. .. .. .. 43 31 .. .. .. .. .. .. 19 .. .. .. .. .. 41 29 .. .. .. .. .. 43 31 .. .. .. 
.. .. .. 19 .. .. .. .. .. 31 19 .. .. .. .. .. 31 19 .. .. .. .. .. 43 31 .. .. .. .. .. 
.. 19 .. .. .. .. .. 44 32 31 32 .. .. .. 31 19 .. .. .. .. .. 43 31 .. .. .. .. .. .. 19 
.. .. .. .. .. 41 29 .. .. .. .. .. .. 17 .. .. .. .. .. 39 27 .. .. .. .. .. 41 29 .. .. 
.. .. .. .. 17 .. .. .. .. .. 39 27 .. .. .. .. .. 41 29 .. .. .. .. .. .. 17 .. .. .. .. 
.. 29 17 .. .. .. .. .. 29 17 .. .. .. .. .. 41 29 .. .. .. .. .. .. 17 .. .. .. .. .. 42 
30 .. .. .. .. .. 29 17 .. .. .. .. .. 41 29 .. .. .. .. .. .. 17 .. .. .. .. .. 41 29 .. 
.. .. .. .. .. 17 .. .. .. .. .. 39 27 .. .. .. .. .. 41 29 .. .. .. .. .. .. 17 .. .. .. 
.. .. 39 27 .. .. .. .. .. 41 29 .. .. .. .. .. .. 17 .. .. .. .. .. 29 17 .. .. .. .. .. 
29 17 .. .. .. .. .. 41 29 .. .. .. .. .. .. 17 .. .. .. .. .. 42 30 .. .. .. .. .. 29 17 
.. .. .. .. .. 41 29 .. .. .. .. .. .. 17 .. .. .. .. .. 41 29 .. .. .. .. .. .. 17 .. .. 
.. .. .. 39 27 .. .. .. .. .. 41 29 .. .. .. .. .. .. 17 .. .. .. .. .. 39 27 .. .. .. .. 
.. 41 29 .. .. .. .. .. .. 17 .. .. .. .. .. 29 17 .. .. .. .. .. 29 17 .. .. .. .. .. 41 
29 .. .. .. .. .. .. 17 .. .. .. .. .. 42 30 .. .. .. .. .. 29 17 .. .. .. .. .. 41 29 .. 
.. .. .. .. .. 17 .. .. .. .. .. 41 29 .. .. .. .. .. .. 17 .. .. .. .. .. 39 27 .. .. .. 
.. .. 41 29 .. .. .. .. .. .. 17 .. .. .. .. .. 39 27 .. .. .. .. .. 41 29 .. .. .. .. .. 
.. 17 .. .. .. .. .. 29 17 .. .. .. .. .. 29 17 .. .. .. .. .. 41 29 .. .. .. .. .. .. 17 
.. .. .. .. .. 42 30 .. .. .. .. .. 29 17 .. .. .. .. .. 41 29 .. .. .. .. .. .. 17 .. .. 
.. .. .. 19 .. .. .. .. .. .. .. .. .. .. .. .. .. .. .. .. .. .. .. .. .. .. .. .. .. .. 
.. .. .. .. .. .. .. .. .. .. .. .. .. .. .. .. .. .. .. .. .. .. .. .. .. .. .. .. .. .. 
.. .. .. .. .. .. .. .. .. .. .. .. .. .. .. .. .. .. .. .. .. .. .. .. .. .. .. .. .. .. 
.. .. .. .. .. .. .. .. .. .. .. .. .. .. .. .. .. .. .. .. .. .. .. .. .. .. .. .. .. .. 
.. .. .. .. .. .. .. .. .. .. .. .. .. .. .. .. .. .. .. .. .. .. .. .. .. .. .. .. .. .. 
.. .. .. .. .. .. .. .. .. .. .. .. .. .. .. .. .. .. .. .. .. .. .. .. .. .. .. .. .. .. 
.. .. .. .. .. .. .. .. .. .. .. .. .. .. .. .. .. .. .. .. .. .. .. .. .. .. .. .. .. .. 
.. .. .. .. .. .. .. .. .. .. .. .. .. .. .. .. .. .. .. .. .. .. .. .. .. .. .. .. .. .. 
.. .. .. .. .. .. .. .. .. .. .. .. .. .. .. .. .. .. .. .. .. .. .. .. .. .. .. .. .. .. 
.. .. .. .. .. .. .. .. .. .. .. .. .. .. .. .. .. .. .. .. .. .. .. .. .. .. .. .. .. .. 
.. .. .. .. .. .. .. .. .. .. .. .. .. .. .. .. .. .. .. .. .. .. .. .. .. .. .. .. .. .. 
.. .. .. .. .. .. .. .. .. .. .. .. .. .. .. .. .. .. .. .. .. .. .. .. .. .. .. .. .. .. 
.. .. .. .. .. .. .. .. .. .. .. .. .. .. .. .. .. .. .. .. .. .. .. .. .. .. .. .. .. .. 
.. .. .. .. .. .. .. .. .. .. .. .. .. .. .. .. .. .. .. .. .. .. .. .. .. .. .. .. .. .. 
.. .. .. .. .. .. .. .. .. .. .. .. .. .. .. .. .. .. .. .. .. .. .. .. .. .. .. .. .. .. 
.. 43 31 .. .. .. .. .. .. 19 .. .. .. .. .. 41 29 .. .. .. .. .. 43 31 .. .. .. .. .. .. 
19 .. .. .. .. .. 41 29 .. .. .. .. .. 43 31 .. .. .. .. .. .. 19 .. .. .. .. .. 31 19 .. 
.. .. .. .. 31 19 .. .. .. .. .. 43 31 .. .. .. .. .. .. 19 .. .. .. .. .. 41 29 .. .. .. 
.. .. 31 19 .. .. .. .. .. 43 31 .. .. .. .. .. .. 19 .. .. .. .. .. 39 27 .. .. .. .. .. 
.. 15 .. .. .. .. .. 38 26 .. .. .. .. .. 39 27 .. .. .. .. .. .. 15 .. .. .. .. .. 38 26 
.. .. .. .. .. 39 27 .. .. .. .. .. .. 15 .. .. .. .. .. 27 15 .. .. .. .. .. 27 15 .. .. 
.. .. .. 39 27 .. .. .. .. .. .. 15 .. .. .. .. .. 38 26 .. .. .. .. .. 27 15 .. .. .. .. 
.. 39 27 .. .. .. .. .. .. 15 .. .. .. .. .. 41 29 .. .. .. .. .. .. 17 .. .. .. .. .. 36 
24 .. .. .. .. .. 41 29 .. .. .. .. .. .. 17 .. .. .. .. .. 36 24 .. .. .. .. .. 41 29 .. 
.. .. .. .. .. 17 .. .. .. .. .. 29 17 .. .. .. .. .. 29 17 .. .. .. .. .. 41 29 .. .. .. 
.. .. .. 17 .. .. .. .. .. 36 24 .. .. .. .. .. 29 17 .. .. .. .. .. 41 29 .. .. .. .. .. 
.. 17 .. .. .. .. .. 43 31 .. .. .. .. .. .. 19 .. .. .. .. .. 38 26 .. .. .. .. .. 43 31 
.. .. .. .. .. .. 19 .. .. .. .. .. 38 26 .. .. .. .. .. 43 31 .. .. .. .. .. .. 19 .. .. 
.. .. .. 31 19 .. .. .. .. .. 31 19 .. .. .. .. .. 43 31 .. .. .. .. .. 29 17 .. .. .. .. 
.. 41 29 .. .. .. .. .. 34 22 .. .. .. .. .. 43 31 .. .. .. .. .. 29 17 .. .. .. .. .. 43 
31 .. .. .. .. .. .. 19 .. .. .. .. .. 41 29 .. .. .. .. .. 43 31 .. .. .. .. .. .. 19 .. 
.. .. .. .. 41 29 .. .. .. .. .. 43 31 .. .. .. .. .. .. 19 .. .. .. .. .. 31 19 .. .. .. 
.. .. 31 19 .. .. .. .. .. 43 31 .. .. .. .. .. .. 19 .. .. .. .. .. 41 29 .. .. .. .. .. 
31 19 .. .. .. .. .. 43 31 .. .. .. .. .. .. 19 .. .. .. .. .. 39 27 .. .. .. .. .. .. 15 
.. .. .. .. .. 38 26 .. .. .. .. .. 39 27 .. .. .. .. .. .. 15 .. .. .. .. .. 38 26 .. .. 
.. .. .. 39 27 .. .. .. .. .. .. 15 .. .. .. .. .. 27 15 .. .. .. .. .. 27 15 .. .. .. .. 
.. 39 27 .. .. .. .. .. .. 15 .. .. .. .. .. 38 26 .. .. .. .. .. 27 15 .. .. .. .. .. 39 
27 .. .. .. .. .. .. 15 .. .. .. .. .. 41 29 .. .. .. .. .. .. 17 .. .. .. .. .. 36 24 .. 
.. .. .. .. 41 29 .. .. .. .. .. .. 17 .. .. .. .. .. 36 24 .. .. .. .. .. 41 29 .. .. .. 
.. .. .. 17 .. .. .. .. .. 29 17 .. .. .. .. .. 29 17 .. .. .. .. .. 41 29 .. .. .. .. .. 
.. 17 .. .. .. .. .. 36 24 .. .. .. .. .. 29 17 .. .. .. .. .. 41 29 .. .. .. .. .. .. 17 
.. .. .. .. .. 43 31 .. .. .. .. .. .. 19 .. .. .. .. .. 38 26 .. .. .. .. .. 43 31 .. .. 
.. .. .. .. 19 .. .. .. .. .. 38 26 .. .. .. .. .. 43 31 .. .. .. .. .. .. 19 .. .. .. .. 
.. 31 19 .. .. .. .. .. 31 19 .. .. .. .. .. 43 31 .. .. .. .. .. 29 17 .. .. .. .. .. 41 
29 .. .. .. .. .. 34 22 .. .. .. .. .. 43 31 .. .. .. .. .. 29 17 .. .. .. .. .. 39 27 .. 
.. .. .. .. .. 15 .. .. .. .. .. 38 26 .. .. .. .. .. 39 27 .. .. .. .. .. .. 15 .. .. .. 
.. .. 38 26 .. .. .. .. .. 39 27 .. .. .. .. .. .. 15 .. .. .. .. .. 29 17 .. .. .. .. .. 
29 17 .. .. .. .. .. 41 29 .. .. .. .. .. .. 17 .. .. .. .. .. 36 24 .. .. .. .. .. 29 17 
.. .. .. .. .. 41 29 .. .. .. .. .. .. 17 .. .. .. .. .. 46 34 33 34 .. .. .. .. 22 .. .. 
.. .. .. 41 29 .. .. .. .. .. 46 34 33 34 .. .. .. .. 22 .. .. .. .. .. 41 29 .. .. .. .. 
.. 46 34 33 34 .. .. .. .. 22 .. .. .. .. .. 31 19 .. .. .. .. .. 31 19 .. .. .. .. .. 43 
31 .. .. .. .. .. .. 19 .. .. .. .. .. 38 26 .. .. .. .. .. 31 19 .. .. .. .. .. 43 31 .. 
.. .. .. .. .. 19 .. .. .. .. .. 39 27 .. .. .. .. .. .. 15 .. .. .. .. .. 38 26 .. .. .. 
.. .. 39 27 .. .. .. .. .. .. 15 .. .. .. .. .. 38 26 .. .. .. .. .. 39 27 .. .. .. .. .. 
.. 15 .. .. .. .. .. 41 29 .. .. .. .. .. .. 17 .. .. .. .. .. 36 24 .. .. .. .. .. 41 29 
.. .. .. .. .. .. 17 .. .. .. .. .. 36 24 .. .. .. .. .. 41 29 .. .. .. .. .. .. 17 .. .. 
.. .. .. 43 31 .. .. .. .. .. .. 19 .. .. .. .. .. 41 29 .. .. .. .. .. 43 31 .. .. .. .. 
.. .. 19 .. .. .. .. .. 41 29 .. .. .. .. .. 43 31 .. .. .. .. .. .. 19 .. .. .. .. .. 31 
19 .. .. .. .. .. 31 19 .. .. .. .. .. 43 31 .. .. .. .. .. .. 19 .. .. .. .. .. 41 29 .. 
.. .. .. .. 31 19 .. .. .. .. .. 43 31 .. .. .. .. .. .. 19 .. .. .. .. .. 39 27 .. .. .. 
.. .. .. 15 .. .. .. .. .. 38 26 .. .. .. .. .. 39 27 .. .. .. .. .. .. 15 .. .. .. .. .. 
38 26 .. .. .. .. .. 39 27 .. .. .. .. .. .. 15 .. .. .. .. .. 29 17 .. .. .. .. .. 29 17 
.. .. .. .. .. 41 29 .. .. .. .. .. .. 17 .. .. .. .. .. 36 24 .. .. .. .. .. 29 17 .. .. 
.. .. .. 41 29 .. .. .. .. .. .. 17 .. .. .. .. .. 46 34 33 34 .. .. .. .. 22 .. .. .. .. 
.. 41 29 .. .. .. .. .. 46 34 33 34 .. .. .. .. 22 .. .. .. .. .. 41 29 .. .. .. .. .. 46 
34 33 34 .. .. .. .. 22 .. .. .. .. .. 31 19 .. .. .. .. .. 31 19 .. .. .. .. .. 43 31 .. 
.. .. .. .. .. 19 .. .. .. .. .. 38 26 .. .. .. .. .. 31 19 .. .. .. .. .. 43 31 .. .. .. 
.. .. .. 19 .. .. .. .. .. 39 27 .. .. .. .. .. .. 15 .. .. .. .. .. 38 26 .. .. .. .. .. 
39 27 .. .. .. .. .. .. 15 .. .. .. .. .. 38 26 .. .. .. .. .. 39 27 .. .. .. .. .. .. 15 
.. .. .. .. .. 41 29 .. .. .. .. .. .. 17 .. .. .. .. .. 36 24 .. .. .. .. .. 41 29 .. .. 
.. .. .. .. 17 .. .. .. .. .. 36 24 .. .. .. .. .. 41 29 .. .. .. .. .. .. 17 .. .. .. .. 
.. 43 31 .. .. .. .. .. .. 19 .. .. .. .. .. 41 29 .. .. .. .. .. 43 31 .. .. .. .. .. .. 
19 .. .. .. .. .. 41 29 .. .. .. .. .. 43 31 .. .. .. .. .. .. 19 .. .. .. .. .. 31 19 .. 
.. .. .. .. 31 19 .. .. .. .. .. 43 31 .. .. .. .. .. .. 19 .. .. .. .. .. 41 29 .. .. .. 
.. .. 31 19 .. .. .. .. .. 43 31 .. .. .. .. .. .. 19 .. .. .. .. .. 41 29 .. .. .. .. .. 
.. 17 .. .. .. .. .. 39 27 .. .. .. .. .. 41 29 .. .. .. .. .. .. 17 .. .. .. .. .. 39 27 
.. .. .. .. .. 41 29 .. .. .. .. .. .. 17 .. .. .. .. .. 29 17 .. .. .. .. .. 29 17 .. .. 
.. .. .. 41 29 .. .. .. .. .. .. 17 .. .. .. .. .. 42 30 .. .. .. .. .. 29 17 .. .. .. .. 
.. 41 29 .. .. .. .. .. .. 17 .. .. .. .. .. 41 29 .. .. .. .. .. .. 17 .. .. .. .. .. 39 
27 .. .. .. .. .. 41 29 .. .. .. .. .. .. 17 .. .. .. .. .. 39 27 .. .. .. .. .. 41 29 .. 
.. .. .. .. .. 17 .. .. .. .. .. 29 17 .. .. .. .. .. 29 17 .. .. .. .. .. 41 29 .. .. .. 
.. .. .. 17 .. .. .. .. .. 42 30 .. .. .. .. .. 29 17 .. .. .. .. .. 41 29 .. .. .. .. .. 
.. 17 .. .. .. .. .. 41 29 .. .. .. .. .. .. 17 .. .. .. .. .. 39 27 .. .. .. .. .. 41 29 
.. .. .. .. .. .. 17 .. .. .. .. .. 39 27 .. .. .. .. .. 41 29 .. .. .. .. .. .. 17 .. .. 
.. .. .. 29 17 .. .. .. .. .. 29 17 .. .. .. .. .. 41 29 .. .. .. .. .. .. 17 .. .. .. .. 
.. 42 30 .. .. .. .. .. 29 17 .. .. .. .. .. 41 29 .. .. .. .. .. .. 17 .. .. .. .. 
! End
