! Simple
! Song 0
50 146 27 .. .. .. .. .. .. .. .. .. .. .. .. .. .. .. .. .. .. .. .. .. .. .. .. .. .. .. 
.. .. .. .. .. .. .. .. .. .. .. .. .. .. .. .. .. .. .. .. .. .. .. .. .. .. .. .. .. .. 
.. .. .. .. .. .. .. .. .. .. .. .. .. .. .. .. .. .. .. .. .. .. .. .. .. .. .. .. .. 29 
.. .. .. .. .. .. .. .. 30 .. .. .. .. .. .. .. .. 29 .. .. .. .. .. .. .. .. .. .. .. .. 
.. .. .. .. 27 .. .. .. .. .. .. .. .. .. .. .. .. .. .. .. .. .. 34 .. .. .. .. .. .. .. 
.. .. .. .. .. .. .. .. .. .. .. .. .. .. .. .. .. .. .. .. .. .. .. .. .. .. .. .. .. .. 
.. .. .. .. .. .. .. .. .. .. .. .. .. .. 35 .. .. .. .. .. .. .. .. .. .. .. .. .. .. .. 
.. .. .. .. .. .. .. .. .. .. .. .. .. .. .. .. .. .. .. 32 .. .. .. .. .. .. .. .. .. .. 
.. .. .. .. .. .. .. .. .. .. .. .. .. .. .. .. .. .. .. .. .. .. .. .. 34 .. .. .. .. .. 
.. .. .. .. .. .. .. .. .. .. .. .. .. .. .. .. .. .. .. .. .. .. .. .. .. .. .. .. .. 30 
.. .. .. .. .. .. .. .. .. .. .. .. .. .. .. .. .. .. .. .. .. .. .. .. .. .. .. .. .. .. 
.. .. .. .. 32 .. .. .. .. .. .. .. .. .. .. .. .. .. .. .. .. .. .. .. .. .. .. .. .. .. 
.. .. .. .. .. .. .. .. 29 .. .. .. .. .. .. .. .. .. .. .. .. .. .. .. .. .. .. .. .. .. 
.. .. .. .. .. .. .. .. .. .. .. .. .. 30 .. .. .. .. .. .. .. .. .. .. .. .. .. .. .. .. 
.. 29 .. .. .. .. .. .. .. .. .. .. .. .. .. .. .. .. 27 .. .. .. .. .. .. .. .. .. .. .. 
.. .. .. .. .. .. 26 .. .. .. .. .. .. .. .. .. .. .. .. .. .. .. .. .. .. .. .. .. .. .. 
.. .. .. .. .. .. .. .. .. .. .. 27 .. .. .. .. .. .. .. .. .. .. .. .. .. .. .. .. .. .. 
.. .. .. .. .. .. .. .. .. .. .. .. .. .. .. .. .. .. .. .. .. .. .. .. .. .. .. .. .. .. 
.. .. .. .. .. .. .. .. .. .. .. .. .. .. .. .. .. .. .. .. 28 .. .. .. .. .. .. .. .. .. 
.. .. .. .. .. .. .. .. .. .. .. .. .. .. .. .. .. .. .. .. .. .. .. .. .. .. .. .. .. .. 
.. .. .. .. .. .. .. .. .. .. .. .. .. 27 .. .. .. .. .. .. .. .. .. .. .. .. .. .. .. .. 
30 .. .. .. .. .. .. .. .. .. .. .. .. .. .. .. .. .. 29 .. .. .. .. .. .. .. 27 .. .. .. 
.. .. .. .. .. 34 .. .. .. .. .. .. .. .. .. .. .. .. .. .. .. .. .. .. .. .. .. .. .. .. 
.. .. .. .. .. .. .. .. .. .. .. .. .. .. .. .. .. .. .. .. .. .. .. .. .. .. .. .. .. .. 
.. .. .. .. .. .. .. .. .. .. .. .. .. .. .. .. .. .. .. .. .. .. .. .. .. .. .. .. .. .. 
.. .. 39 .. .. .. .. .. .. .. .. .. .. .. .. .. .. .. .. .. .. .. .. .. .. .. .. .. .. .. 
.. .. .. .. .. .. .. 34 .. .. .. .. .. .. .. .. .. .. .. .. .. .. .. .. .. 37 .. .. .. .. 
.. .. .. .. .. .. .. .. .. .. .. .. .. .. .. .. .. .. .. .. .. .. .. .. .. .. .. .. .. .. 
.. .. .. .. .. .. .. .. .. .. .. .. .. .. .. .. .. 35 .. .. .. .. .. .. .. .. 34 .. .. .. 
.. .. .. .. .. 35 .. .. .. .. .. .. .. .. .. .. .. .. .. .. .. .. 37 .. .. .. .. .. .. .. 
.. .. .. .. .. .. .. .. .. .. 35 .. .. .. .. .. .. .. .. .. .. .. .. .. .. .. .. 34 .. .. 
.. .. .. .. .. .. .. .. .. .. .. .. .. .. 32 .. .. .. .. .. .. .. .. .. .. .. .. .. .. .. 
.. .. 34 .. .. .. .. .. .. .. .. .. .. .. .. .. .. .. .. 30 .. .. .. .. .. .. .. .. .. .. 
.. .. .. .. .. .. .. .. .. .. .. .. .. .. .. .. .. .. .. .. .. .. .. .. .. .. .. .. .. .. 
.. .. .. .. .. .. .. .. .. .. .. .. 32 .. .. .. .. .. .. .. .. .. .. .. .. .. .. .. .. 29 
.. .. .. .. .. .. .. .. .. .. .. .. .. .. .. .. .. 30 .. .. .. .. .. .. .. .. .. .. .. .. 
.. .. .. .. 29 .. .. .. .. .. .. .. .. 27 .. .. .. .. .. .. .. .. 26 .. .. .. .. .. .. .. 
.. .. .. .. .. .. .. .. .. 27 .. .. .. .. .. .. .. .. .. .. .. .. .. .. .. .. 22 .. .. .. 
.. .. .. .. .. .. .. .. .. .. .. .. .. .. 27 .. .. .. .. .. .. .. .. .. .. .. .. .. .. .. 
.. .. .. .. .. .. .. .. .. .. .. .. .. .. .. .. .. .. .. 25 .. .. .. .. .. .. .. .. .. .. 
.. .. .. .. .. .. .. .. .. .. .. .. .. .. .. .. .. .. .. .. .. .. .. .. .. .. .. .. .. .. 
.. .. .. .. .. .. .. .. .. .. .. 23 .. .. .. .. .. .. .. .. 22 .. .. .. .. .. .. .. .. 23 
.. .. .. .. .. .. .. .. .. .. .. .. .. .. .. .. .. .. .. .. .. .. .. .. .. .. .. .. .. .. 
.. .. .. .. .. .. .. .. .. .. .. .. .. .. .. .. .. .. .. .. .. 22 .. .. .. .. .. .. .. .. 
.. .. .. .. .. .. .. .. .. .. .. .. .. .. .. .. .. .. .. .. .. .. .. .. .. .. 27 .. .. .. 
.. .. .. .. .. .. .. .. .. .. .. .. .. .. .. .. .. .. .. .. .. .. .. .. .. .. .. .. .. .. 
.. .. .. .. .. .. .. .. .. .. .. .. .. .. .. .. .. .. 22 .. .. .. .. .. .. .. .. .. .. .. 
.. .. .. .. .. .. .. .. .. .. .. .. .. .. .. .. .. .. .. .. .. .. .. .. .. .. .. .. .. .. 
.. .. .. .. .. .. .. .. .. .. .. 23 .. .. .. .. .. .. .. .. .. .. .. .. .. .. .. .. 21 .. 
.. .. .. .. .. .. .. .. .. .. .. .. .. .. .. .. .. .. .. .. .. .. .. .. .. .. .. .. .. .. 
.. .. .. 22 .. .. .. .. .. .. .. .. .. .. .. .. .. .. .. .. .. .. .. .. .. .. .. .. .. .. 
.. .. .. .. .. .. .. .. .. .. .. .. .. .. .. .. .. .. .. .. .. .. .. .. .. .. .. .. .. .. 
.. .. .. .. .. .. .. .. .. .. .. .. .. .. .. .. .. .. .. .. .. .. .. .. .. .. .. .. .. .. 
27 .. .. .. .. .. .. .. .. .. .. .. .. .. .. .. .. .. .. .. .. .. .. .. .. .. .. .. .. .. 
.. .. .. .. .. .. .. .. .. .. .. .. .. .. .. .. .. .. .. .. .. .. .. .. .. .. .. .. .. .. 
.. .. .. .. .. .. .. .. .. .. 29 .. .. .. .. .. .. .. .. 30 .. .. .. .. .. .. .. .. 29 .. 
.. .. .. .. .. .. .. .. .. .. .. .. .. .. .. 27 .. .. .. .. .. .. .. .. .. .. .. .. .. .. 
.. .. 34 .. .. .. .. .. .. .. .. .. .. .. .. .. .. .. .. .. .. .. .. .. .. .. .. .. .. .. 
.. .. .. .. .. .. .. .. .. .. .. .. .. .. .. .. .. .. .. .. .. .. .. .. .. 35 .. .. .. .. 
.. .. .. .. .. .. .. .. .. .. .. .. 34 .. .. .. .. .. .. .. .. 32 .. .. .. .. .. .. .. .. 
34 .. .. .. .. .. .. .. .. .. .. .. .. .. .. .. .. .. .. .. .. .. .. .. .. .. .. .. .. .. 
.. .. .. .. .. 32 .. .. .. .. .. .. .. 30 .. .. .. .. .. .. .. .. 32 .. .. .. .. .. .. .. 
.. .. .. .. .. .. .. .. .. .. 30 .. .. .. .. .. .. .. 29 .. .. .. .. .. .. .. .. 30 .. .. 
.. .. .. .. .. .. .. .. .. .. .. .. .. .. 29 .. .. .. .. .. .. .. .. 27 .. .. .. .. .. .. 
.. .. 29 .. .. .. .. .. .. .. .. .. .. .. .. .. .. .. .. 27 .. .. .. .. .. .. .. .. .. .. 
.. .. .. .. .. .. .. 26 .. .. .. .. .. .. .. .. .. .. .. .. .. .. .. .. .. .. .. .. .. .. 
.. .. .. .. .. .. .. .. .. .. .. .. .. .. .. .. .. .. .. .. .. .. .. .. .. .. .. .. .. 27 
.. .. .. .. .. .. .. .. .. .. .. .. .. .. .. .. .. 22 .. .. .. .. .. .. .. .. .. .. .. .. 
.. .. .. .. .. .. .. .. .. .. .. .. .. .. .. .. .. .. .. .. .. .. .. .. .. .. .. .. .. .. 
.. .. .. .. .. .. .. .. .. 20 .. .. .. .. .. .. .. .. .. .. .. .. .. .. .. .. 18 .. .. .. 
.. .. .. .. .. .. .. .. .. .. .. .. .. .. 17 .. .. .. .. .. .. .. .. .. .. .. .. .. .. .. 
.. 15 .. .. .. .. .. .. .. .. .. .. .. .. .. .. .. .. .. .. .. .. .. .. .. .. .. .. .. .. 
.. .. .. .. .. .. .. .. .. .. .. .. .. .. .. .. .. .. .. .. .. .. .. .. .. .. .. .. .. .. 
.. .. .. .. .. .. .. .. .. .. .. .. .. .. .. .. .. .. .. .. .. .. .. .. .. .. .. .. .. .. 
.. .. .. .. .. .. .. .. .. .. .. .. .. .. .. .. 46 .. .. .. .. .. .. .. .. .. .. .. .. .. 
.. .. .. .. .. .. .. .. .. .. .. .. .. .. .. .. .. .. .. .. .. 54 .. .. .. .. .. .. .. .. 
.. .. .. .. .. .. .. .. .. .. .. .. .. .. .. .. .. .. .. .. .. .. .. .. .. .. .. .. .. .. 
.. .. .. .. .. .. .. .. .. .. .. .. .. .. .. .. .. .. .. .. .. .. .. .. .. .. .. .. .. .. 
.. .. .. .. .. .. .. .. .. .. .. .. .. .. .. .. .. .. 46 .. .. .. .. .. .. .. .. .. .. .. 
.. .. .. .. .. .. 51 .. .. .. .. .. .. .. .. .. .. .. .. .. .. .. .. 49 .. .. .. .. .. .. 
.. .. .. .. .. .. .. .. .. .. .. 51 .. .. .. .. .. .. .. .. .. .. .. .. .. .. .. .. .. .. 
.. .. .. .. .. .. .. .. .. .. .. .. .. .. .. .. 49 .. .. .. .. .. .. .. .. .. .. .. .. .. 
.. .. .. .. .. .. .. .. .. .. .. .. .. .. .. .. .. .. .. .. 44 .. .. .. .. .. .. .. .. .. 
.. .. .. .. .. .. .. .. .. .. .. .. .. .. .. .. .. .. .. .. .. .. .. .. .. 46 .. .. .. .. 
.. .. .. .. .. .. .. .. .. .. .. .. .. .. .. .. .. .. .. .. .. .. .. .. .. .. .. .. .. .. 
54 .. .. .. .. .. .. .. .. .. .. .. .. .. .. .. .. .. .. .. .. .. .. .. .. .. .. .. .. .. 
.. .. .. .. .. .. .. .. .. .. .. .. .. .. .. .. .. .. .. .. .. .. .. .. .. .. .. .. .. .. 
.. .. .. .. .. .. .. .. .. .. .. .. .. .. .. .. .. .. .. .. .. .. .. .. .. .. .. .. 46 .. 
.. .. .. .. .. .. .. .. .. .. .. .. .. .. .. 51 .. .. .. .. .. .. .. .. .. .. .. .. .. .. 
.. .. 49 .. .. .. .. .. .. .. .. .. .. .. .. .. .. .. .. .. 51 .. .. .. .. .. .. .. .. .. 
.. .. .. .. .. .. .. 54 .. .. .. .. .. .. .. .. .. .. .. .. .. .. .. .. .. 51 .. .. .. .. 
.. .. .. .. .. .. .. .. .. .. .. .. .. .. .. .. .. .. .. .. .. .. .. .. .. .. .. .. .. .. 
.. .. .. .. .. .. .. .. .. .. .. .. .. .. .. .. .. .. .. .. .. .. .. .. .. .. .. .. .. .. 
.. .. .. .. .. 46 .. .. .. .. .. .. .. .. .. .. .. .. .. .. .. .. .. .. .. .. .. .. .. .. 
.. .. .. .. .. .. .. .. .. .. 54 .. .. .. .. .. .. .. .. .. .. .. .. .. .. .. .. .. .. .. 
.. .. .. .. .. .. .. .. .. .. .. .. .. .. .. .. .. .. .. .. .. .. .. .. .. .. .. .. .. .. 
.. .. .. .. .. .. .. .. .. .. .. .. .. .. .. .. .. .. .. .. .. .. .. .. .. .. .. .. .. .. 
.. .. .. .. .. .. .. 46 .. .. .. .. .. .. .. .. .. .. .. .. .. .. .. .. 51 .. .. .. .. .. 
.. .. .. .. .. .. .. .. .. .. .. .. 49 .. .. .. .. .. .. .. .. .. .. .. .. .. .. .. .. 51 
.. .. .. .. .. .. .. .. .. .. .. .. .. .. .. .. .. .. .. .. .. .. .. .. .. .. .. .. .. .. 
.. .. .. .. 49 .. .. .. .. .. .. .. .. .. .. .. .. .. .. .. .. .. .. .. .. .. .. .. .. .. 
.. .. .. .. .. .. .. .. .. 44 .. .. .. .. .. .. .. .. .. .. .. .. .. .. .. .. .. .. .. .. 
.. .. .. .. .. .. .. .. .. .. .. .. .. .. 47 .. .. .. .. .. .. .. .. .. .. .. .. .. .. .. 
.. .. .. .. .. .. .. .. .. .. .. .. .. .. .. .. .. .. .. .. .. .. .. .. .. .. .. .. .. .. 
.. .. .. .. .. .. 51 .. .. .. .. .. .. .. .. .. .. .. .. .. .. .. .. .. 53 .. .. .. .. .. 
.. .. .. .. .. .. .. .. .. .. .. .. .. .. .. .. .. .. .. .. .. .. .. .. .. .. .. .. .. 51 
.. .. .. .. .. .. .. .. .. .. .. .. .. .. .. .. 49 .. .. .. .. .. .. .. .. .. .. .. .. .. 
.. .. .. .. 46 .. .. .. .. .. .. .. .. .. .. .. .. .. .. .. .. .. .. .. .. .. .. .. .. .. 
.. .. .. .. .. .. .. .. .. .. .. .. .. .. .. .. .. .. .. .. .. .. .. .. .. .. .. .. .. .. 
.. .. .. .. .. .. .. .. .. .. .. .. .. .. .. .. .. .. .. .. .. .. .. .. .. .. .. .. .. .. 
.. .. .. .. .. .. .. .. .. .. .. .. .. .. .. .. .. .. .. .. .. .. .. .. .. .. .. .. .. .. 
.. .. .. .. .. .. .. .. .. .. .. .. .. .. .. .. .. .. .. .. .. .. .. 35 .. .. .. .. .. .. 
.. .. 35 .. .. .. .. .. .. .. .. 42 .. .. .. .. .. .. .. .. .. .. .. .. .. .. .. .. 38 .. 
.. .. .. .. .. .. .. .. .. .. .. .. .. .. .. .. 42 .. .. .. .. .. .. .. .. .. .. .. .. .. 
.. .. .. 35 .. .. .. .. .. .. .. .. 35 .. .. .. .. .. .. .. 42 .. .. .. .. .. .. .. .. .. 
.. .. .. .. .. .. .. .. 38 .. .. .. .. .. .. .. .. .. .. .. .. .. .. .. .. 42 .. .. .. .. 
.. .. .. .. 42 .. .. .. .. .. .. .. .. 35 .. .. .. .. .. .. .. .. 35 .. .. .. .. .. .. .. 
44 .. .. .. .. .. .. .. .. 44 .. .. .. .. .. .. .. .. 39 .. .. .. .. .. .. .. .. .. .. .. 
.. .. .. .. .. 44 .. .. .. .. .. .. .. .. 44 .. .. .. .. .. .. .. .. 35 .. .. .. .. .. .. 
.. .. .. .. .. .. .. .. .. .. 44 .. .. .. .. .. .. .. .. .. .. .. .. .. .. .. .. .. 39 .. 
.. .. .. .. .. .. .. .. .. .. .. .. .. .. .. 44 .. .. .. .. .. .. .. .. 44 .. .. .. .. .. 
.. .. 35 .. .. .. .. .. .. .. .. 35 .. .. .. .. .. .. .. .. 42 .. .. .. .. .. .. .. .. .. 
.. .. .. .. .. .. .. 38 .. .. .. .. .. .. .. .. .. .. .. .. .. .. .. .. .. 42 .. .. .. .. 
.. .. .. .. 42 .. .. .. .. .. .. .. 35 .. .. .. .. .. .. .. .. 35 .. .. .. .. .. .. .. .. 
42 .. .. .. .. .. .. .. .. .. .. .. .. .. .. .. .. 38 .. .. .. .. .. .. .. .. .. .. .. .. 
.. .. .. .. .. 42 .. .. .. .. .. .. .. .. .. .. .. .. .. .. .. .. 37 .. .. .. .. .. .. .. 
.. 37 .. .. .. .. .. .. .. .. 44 .. .. .. .. .. .. .. .. .. .. .. .. .. .. .. .. 41 .. .. 
.. .. .. .. .. .. .. .. .. .. .. .. .. .. 44 .. .. .. .. .. .. .. .. 44 .. .. .. .. .. .. 
.. .. 37 .. .. .. .. .. .. .. .. 37 .. .. .. .. .. .. .. 44 .. .. .. .. .. .. .. .. 44 .. 
.. .. .. .. .. .. .. 41 .. .. .. .. .. .. .. .. .. .. .. .. .. .. .. .. 44 .. .. .. .. .. 
.. .. .. 44 .. .. .. .. .. .. .. .. 35 .. .. .. .. .. .. .. .. .. .. .. .. .. .. .. .. 42 
.. .. .. .. .. .. .. .. 42 .. .. .. .. .. .. .. .. 38 .. .. .. .. .. .. .. .. .. .. .. .. 
.. .. .. .. 42 .. .. .. .. .. .. .. .. 42 .. .. .. .. .. .. .. .. 35 .. .. .. .. .. .. .. 
.. .. .. .. .. .. .. .. .. 42 .. .. .. .. .. .. .. .. 42 .. .. .. .. .. .. .. 38 .. .. .. 
.. .. .. .. .. .. .. .. .. .. .. .. .. .. 42 .. .. .. .. .. .. .. .. 42 .. .. .. .. .. .. 
.. 35 .. .. .. .. .. .. .. .. 35 .. .. .. .. .. .. .. .. 44 .. .. .. .. .. .. .. .. 44 .. 
.. .. .. .. .. .. 39 .. .. .. .. .. .. .. .. .. .. .. .. .. .. .. .. .. 44 .. .. .. .. .. 
.. .. .. .. .. .. .. .. .. .. .. 35 .. .. .. .. .. .. .. .. 35 .. .. .. .. .. .. .. .. 44 
.. .. .. .. .. .. .. .. .. .. .. .. .. .. .. .. 39 .. .. .. .. .. .. .. .. .. .. .. .. .. 
.. .. .. .. 44 .. .. .. .. .. .. .. .. .. .. .. .. .. .. .. .. 35 .. .. .. .. .. .. .. .. 
35 .. .. .. .. .. .. .. 42 .. .. .. .. .. .. .. .. 42 .. .. .. .. .. .. .. .. 38 .. .. .. 
.. .. .. .. .. .. .. .. .. .. .. .. .. 42 .. .. .. .. .. .. .. .. 42 .. .. .. .. .. .. .. 
.. 35 .. .. .. .. .. .. .. .. 35 .. .. .. .. .. .. .. 42 .. .. .. .. .. .. .. .. 42 .. .. 
.. .. .. .. .. .. 38 .. .. .. .. .. .. .. .. .. .. .. .. .. .. .. .. 42 .. .. .. .. .. .. 
.. .. 42 .. .. .. .. .. .. .. .. 37 .. .. .. .. .. .. .. .. .. .. .. .. .. .. .. .. 44 .. 
.. .. .. .. .. .. .. 44 .. .. .. .. .. .. .. .. 41 .. .. .. .. .. .. .. .. .. .. .. .. .. 
.. .. .. 44 .. .. .. .. .. .. .. .. 44 .. .. .. .. .. .. .. 37 .. .. .. .. .. .. .. .. 37 
.. .. .. .. .. .. .. .. 44 .. .. .. .. .. .. .. .. 44 .. .. .. .. .. .. .. 41 .. .. .. .. 
.. .. .. .. .. .. .. .. .. .. .. .. .. 44 .. .. .. .. .. .. .. .. 44 .. .. .. .. .. .. .. 
35 .. .. .. .. .. .. .. .. 35 .. .. .. .. .. .. .. .. 42 .. .. .. .. .. .. .. .. .. .. .. 
.. .. .. .. .. 38 .. .. .. .. .. .. .. .. .. .. .. .. .. .. .. .. .. 42 .. .. .. .. .. .. 
.. .. .. .. .. .. .. .. .. .. 35 .. .. .. .. .. .. .. .. 35 .. .. .. .. .. .. .. .. 42 .. 
.. .. .. .. .. .. .. .. .. .. .. .. .. .. .. 38 .. .. .. .. .. .. .. .. .. .. .. .. .. .. 
.. .. 42 .. .. .. .. .. .. .. .. .. .. .. .. .. .. .. .. .. 35 .. .. .. .. .. .. .. .. 35 
.. .. .. .. .. .. .. 44 .. .. .. .. .. .. .. .. 44 .. .. .. .. .. .. .. .. 39 .. .. .. .. 
.. .. .. .. .. .. .. .. .. .. .. .. 44 .. .. .. .. .. .. .. .. 44 .. .. .. .. .. .. .. .. 
35 .. .. .. .. .. .. .. .. .. .. .. .. .. .. .. .. 44 .. .. .. .. .. .. .. .. 44 .. .. .. 
.. .. .. .. .. 39 .. .. .. .. .. .. .. .. .. .. .. .. .. .. .. .. 44 .. .. .. .. .. .. .. 
.. 44 .. .. .. .. .. .. .. .. 35 .. .. .. .. .. .. .. .. .. .. .. .. .. .. .. .. 42 .. .. 
.. .. .. .. .. .. 42 .. .. .. .. .. .. .. 38 .. .. .. .. .. .. .. .. .. .. .. .. .. .. .. 
.. .. 42 .. .. .. .. .. .. .. .. 42 .. .. .. .. .. .. .. 35 .. .. .. .. .. .. .. .. 35 .. 
.. .. .. .. .. .. .. 42 .. .. .. .. .. .. .. .. 42 .. .. .. .. .. .. .. 38 .. .. .. .. .. 
.. .. .. .. .. .. .. .. .. .. .. .. 42 .. .. .. .. .. .. .. .. .. .. .. .. .. .. .. .. 37 
.. .. .. .. .. .. .. .. 37 .. .. .. .. .. .. .. .. 44 .. .. .. .. .. .. .. .. .. .. .. .. 
.. .. .. .. 41 .. .. .. .. .. .. .. .. .. .. .. .. .. .. .. .. .. 44 .. .. .. .. .. .. .. 
.. .. .. .. .. .. .. .. .. 37 .. .. .. .. .. .. .. .. 37 .. .. .. .. .. .. .. 44 .. .. .. 
.. .. .. .. .. 44 .. .. .. .. .. .. .. .. 41 .. .. .. .. .. .. .. .. .. .. .. .. .. .. .. 
.. 44 .. .. .. .. .. .. .. .. .. .. .. .. .. .. .. .. .. 35 .. .. .. .. .. .. .. .. 35 .. 
.. .. .. .. .. .. 42 .. .. .. .. .. .. .. .. 42 .. .. .. .. .. .. .. .. 38 .. .. .. .. .. 
.. .. .. .. .. .. .. .. .. .. .. 42 .. .. .. .. .. .. .. .. .. .. .. .. .. .. .. .. .. 35 
.. .. .. .. .. .. .. .. .. .. .. .. .. .. .. .. 42 .. .. .. .. .. .. .. .. 42 .. .. .. .. 
.. .. .. .. 38 .. .. .. .. .. .. .. .. .. .. .. .. .. .. .. .. 42 .. .. .. .. .. .. .. .. 
.. .. .. .. .. .. .. .. 35 .. .. .. .. .. .. .. .. 35 .. .. .. .. .. .. .. .. 44 .. .. .. 
.. .. .. .. .. 44 .. .. .. .. .. .. .. 39 .. .. .. .. .. .. .. .. .. .. .. .. .. .. .. .. 
.. 44 .. .. .. .. .. .. .. .. .. .. .. .. .. .. .. .. 35 .. .. .. .. .. .. .. .. 35 .. .. 
.. .. .. .. .. .. 44 .. .. .. .. .. .. .. .. .. .. .. .. .. .. .. .. 39 .. .. .. .. .. .. 
.. .. .. .. .. .. .. .. .. .. .. 44 .. .. .. .. .. .. .. .. .. .. .. .. .. .. .. .. 35 .. 
.. .. .. .. .. .. .. 35 .. .. .. .. .. .. .. .. 42 .. .. .. .. .. .. .. .. .. .. .. .. .. 
.. .. .. 38 .. .. .. .. .. .. .. .. .. .. .. .. .. .. .. .. 42 .. .. .. .. .. .. .. .. .. 
.. .. .. .. .. .. .. .. 35 .. .. .. .. .. .. .. .. 35 .. .. .. .. .. .. .. 42 .. .. .. .. 
.. .. .. .. 42 .. .. .. .. .. .. .. .. 38 .. .. .. .. .. .. .. .. .. .. .. .. .. .. .. .. 
42 .. .. .. .. .. .. .. .. .. .. .. .. .. .. .. .. .. 37 .. .. .. .. .. .. .. .. .. .. .. 
.. .. .. .. .. 44 .. .. .. .. .. .. .. .. 44 .. .. .. .. .. .. .. .. 41 .. .. .. .. .. .. 
.. .. .. .. .. .. .. .. .. .. 44 .. .. .. .. .. .. .. .. .. .. .. .. .. .. .. .. .. 37 .. 
.. .. .. .. .. .. .. .. .. .. .. .. .. .. .. 44 .. .. .. .. .. .. .. .. 44 .. .. .. .. .. 
.. .. 41 .. .. .. .. .. .. .. .. .. .. .. .. .. .. .. .. .. 44 .. .. .. .. .. .. .. .. .. 
.. .. .. .. .. .. .. 35 .. .. .. .. .. .. .. .. 35 .. .. .. .. .. .. .. .. 42 .. .. .. .. 
.. .. .. .. 42 .. .. .. .. .. .. .. 38 .. .. .. .. .. .. .. .. .. .. .. .. .. .. .. .. .. 
42 .. .. .. .. .. .. .. .. .. .. .. .. .. .. .. .. 35 .. .. .. .. .. .. .. .. 35 .. .. .. 
.. .. .. .. .. 42 .. .. .. .. .. .. .. .. .. .. .. .. .. .. .. .. 38 .. .. .. .. .. .. .. 
.. .. .. .. .. .. .. .. .. .. 42 .. .. .. .. .. .. .. .. .. .. .. .. .. .. .. .. 35 .. .. 
.. .. .. .. .. .. 35 .. .. .. .. .. .. .. 44 .. .. .. .. .. .. .. .. 44 .. .. .. .. .. .. 
.. .. 39 .. .. .. .. .. .. .. .. .. .. .. .. .. .. .. .. 44 .. .. .. .. .. .. .. .. .. .. 
.. .. .. .. .. .. .. 35 .. .. .. .. .. .. .. .. 35 .. .. .. .. .. .. .. 44 .. .. .. .. .. 
.. .. .. 44 .. .. .. .. .. .. .. .. 39 .. .. .. .. .. .. .. .. .. .. .. .. .. .. .. .. 44 
.. .. .. .. .. .. .. .. .. .. .. .. .. .. .. .. .. 35 .. .. .. .. .. .. .. .. .. .. .. .. 
.. .. .. .. 42 .. .. .. .. .. .. .. .. 42 .. .. .. .. .. .. .. .. 38 .. .. .. .. .. .. .. 
.. .. .. .. .. .. .. .. .. 42 .. .. .. .. .. .. .. .. .. .. .. .. .. .. .. .. 35 .. .. .. 
.. .. .. .. .. 35 .. .. .. .. .. .. .. .. 42 .. .. .. .. .. .. .. .. 42 .. .. .. .. .. .. 
.. 38 .. .. .. .. .. .. .. .. .. .. .. .. .. .. .. .. .. 42 .. .. .. .. .. .. .. .. .. .. 
.. .. .. .. .. .. 37 .. .. .. .. .. .. .. .. 37 .. .. .. .. .. .. .. .. 44 .. .. .. .. .. 
.. .. .. .. .. .. .. .. .. .. .. 41 .. .. .. .. .. .. .. .. .. .. .. .. .. .. .. .. .. 44 
.. .. .. .. .. .. .. .. .. .. .. .. .. .. .. .. 37 .. .. .. .. .. .. .. .. 37 .. .. .. .. 
.. .. .. .. 44 .. .. .. .. .. .. .. .. .. .. .. .. .. .. .. .. 41 .. .. .. .. .. .. .. .. 
.. .. .. .. .. .. .. .. 44 .. .. .. .. .. .. .. .. .. .. .. .. .. .. .. .. .. 35 .. .. .. 
.. .. .. .. .. 35 .. .. .. .. .. .. .. 42 .. .. .. .. .. .. .. .. 42 .. .. .. .. .. .. .. 
.. 38 .. .. .. .. .. .. .. .. .. .. .. .. .. .. .. .. 42 .. .. .. .. .. .. .. .. .. .. .. 
.. .. .. .. .. .. 35 .. .. .. .. .. .. .. .. .. .. .. .. .. .. .. .. 42 .. .. .. .. .. .. 
.. .. 42 .. .. .. .. .. .. .. .. 38 .. .. .. .. .. .. .. .. .. .. .. .. .. .. .. .. 42 .. 
.. .. .. .. .. .. .. .. .. .. .. .. .. .. .. .. 35 .. .. .. .. .. .. .. .. .. .. .. .. .. 
.. .. .. 44 .. .. .. .. .. .. .. .. 44 .. .. .. .. .. .. .. 39 .. .. .. .. .. .. .. .. .. 
.. .. .. .. .. .. .. .. 44 .. .. .. .. .. .. .. .. .. .. .. .. .. .. .. .. 35 .. .. .. .. 
.. .. .. .. 35 .. .. .. .. .. .. .. .. 44 .. .. .. .. .. .. .. .. 44 .. .. .. .. .. .. .. 
39 .. .. .. .. .. .. .. .. .. .. .. .. .. .. .. .. .. 44 .. .. .. .. .. .. .. .. .. .. .. 
.. .. .. .. .. 35 .. .. .. .. .. .. .. .. 35 .. .. .. .. .. .. .. .. 42 .. .. .. .. .. .. 
.. .. .. .. .. .. .. .. .. .. 38 .. .. .. .. .. .. .. .. .. .. .. .. .. .. .. .. .. 42 .. 
.. .. .. .. .. .. .. .. .. .. .. .. .. .. .. 35 .. .. .. .. .. .. .. .. 35 .. .. .. .. .. 
.. .. 42 .. .. .. .. .. .. .. .. 42 .. .. .. .. .. .. .. .. 38 .. .. .. .. .. .. .. .. .. 
.. .. .. .. .. .. .. 42 .. .. .. .. .. .. .. .. .. .. .. .. .. .. .. .. .. 37 .. .. .. .. 
.. .. .. .. 37 .. .. .. .. .. .. .. 44 .. .. .. .. .. .. .. .. 44 .. .. .. .. .. .. .. .. 
41 .. .. .. .. .. .. .. .. .. .. .. .. .. .. .. .. 44 .. .. .. .. .. .. .. .. .. .. .. .. 
.. .. .. .. .. 37 .. .. .. .. .. .. .. .. .. .. .. .. .. .. .. .. 44 .. .. .. .. .. .. .. 
.. 44 .. .. .. .. .. .. .. .. 41 .. .. .. .. .. .. .. .. .. .. .. .. .. .. .. .. 44 .. .. 
.. .. .. .. .. .. .. .. .. .. .. .. .. .. 27 .. .. .. .. .. .. .. .. .. .. .. .. .. .. .. 
.. .. .. .. .. .. .. .. .. .. .. .. .. .. .. .. .. .. .. .. .. .. .. .. .. .. .. .. .. .. 
.. .. .. .. .. .. .. .. .. .. .. .. .. .. .. .. .. .. .. .. .. .. .. .. .. .. .. .. .. .. 
.. .. .. .. .. .. .. .. .. .. .. .. 29 .. .. .. .. .. .. .. 30 .. .. .. .. .. .. .. .. 29 
.. .. .. .. .. .. .. .. .. .. .. .. .. .. .. .. .. 27 .. .. .. .. .. .. .. .. .. .. .. .. 
.. .. .. .. 34 .. .. .. .. .. .. .. .. .. .. .. .. .. .. .. .. .. .. .. .. .. .. .. .. .. 
.. .. .. .. .. .. .. .. .. .. .. .. .. .. .. .. .. .. .. .. .. .. .. .. .. .. 35 .. .. .. 
.. .. .. .. .. .. .. .. .. .. .. .. .. .. .. .. .. .. .. .. .. .. .. .. .. .. .. .. .. .. 
.. 32 .. .. .. .. .. .. .. .. .. .. .. .. .. .. .. .. .. .. .. .. .. .. .. .. .. .. .. .. 
.. .. .. .. .. .. 34 .. .. .. .. .. .. .. .. .. .. .. .. .. .. .. .. .. .. .. .. .. .. .. 
.. .. .. .. .. .. .. .. .. .. .. 30 .. .. .. .. .. .. .. .. .. .. .. .. .. .. .. .. .. .. 
.. .. .. .. .. .. .. .. .. .. .. .. .. .. .. .. 32 .. .. .. .. .. .. .. .. .. .. .. .. .. 
.. .. .. .. .. .. .. .. .. .. .. .. .. .. .. .. .. .. .. .. .. 29 .. .. .. .. .. .. .. .. 
.. .. .. .. .. .. .. .. .. .. .. .. .. .. .. .. .. .. .. .. .. .. .. .. .. .. 30 .. .. .. 
.. .. .. .. .. .. .. .. .. .. .. .. .. 29 .. .. .. .. .. .. .. .. .. .. .. .. .. .. .. .. 
.. 27 .. .. .. .. .. .. .. .. .. .. .. .. .. .. .. .. 26 .. .. .. .. .. .. .. .. .. 
! Song 1
50 146 14 .. .. .. .. .. .. .. .. .. .. .. .. .. .. .. .. .. .. .. .. .. .. .. .. .. .. .. 
.. .. .. .. .. .. .. .. .. .. .. .. .. .. .. .. .. .. .. .. .. .. .. .. .. .. .. .. .. .. 
.. .. .. .. .. .. .. .. .. .. .. .. .. .. .. .. .. .. .. .. .. .. .. .. .. .. .. .. .. .. 
.. .. .. .. .. .. .. .. .. .. .. .. .. .. .. .. .. .. .. .. .. .. .. .. .. .. .. .. .. .. 
.. .. .. .. .. .. .. .. .. .. .. .. .. .. .. .. .. .. .. .. .. .. .. .. .. .. .. .. .. .. 
.. .. .. .. .. .. .. .. .. .. .. .. .. .. .. .. .. .. .. .. .. .. .. .. .. .. .. .. .. .. 
.. .. .. .. .. .. .. .. .. .. .. .. .. .. .. .. .. .. .. .. .. .. .. .. .. .. .. .. .. .. 
.. .. .. .. .. .. .. .. .. .. .. .. .. .. .. .. .. .. .. .. .. .. .. .. .. .. .. .. .. .. 
.. .. .. .. .. .. .. .. .. .. .. .. .. .. .. .. .. .. .. .. .. .. .. .. .. .. .. .. .. .. 
.. .. .. .. .. .. .. .. .. .. .. .. .. .. .. .. .. .. .. .. .. .. .. .. .. .. .. .. .. .. 
.. .. .. .. .. .. .. .. .. .. .. .. .. .. .. .. .. .. .. .. .. .. .. .. .. .. .. .. .. .. 
.. .. .. .. .. .. .. .. .. .. .. .. .. .. .. .. .. .. .. .. .. .. .. .. .. .. .. .. .. .. 
.. .. .. .. .. .. .. .. .. .. .. .. .. .. .. .. .. .. .. .. .. .. .. .. .. .. .. .. .. .. 
.. .. .. .. .. .. .. .. .. .. .. .. .. .. .. .. .. .. .. .. .. .. .. .. .. .. .. .. .. .. 
.. .. .. .. .. .. .. .. .. .. .. .. .. .. .. .. .. .. .. .. .. .. .. .. .. .. .. .. .. .. 
.. .. .. .. .. .. .. .. .. .. .. .. .. .. .. .. .. .. .. .. .. .. .. .. .. .. .. .. .. .. 
.. .. .. .. .. .. .. .. .. .. .. .. .. .. .. .. .. .. .. .. .. .. .. .. .. .. .. .. .. .. 
.. .. .. .. .. .. .. .. .. .. .. .. .. .. .. .. .. .. .. .. .. .. .. .. .. .. .. .. .. .. 
.. .. .. .. .. .. .. .. .. .. .. .. .. .. .. .. .. .. .. .. .. .. .. .. .. .. .. .. .. .. 
.. .. .. .. .. .. .. .. .. .. .. .. .. .. .. .. .. .. .. .. .. .. .. .. .. .. .. .. .. .. 
.. .. .. .. .. .. .. .. .. .. .. .. .. .. .. .. .. .. .. .. .. .. .. .. .. .. .. .. .. .. 
.. .. .. .. .. .. .. .. .. .. .. .. .. .. .. .. .. .. .. .. .. .. .. .. .. .. .. .. .. .. 
.. .. .. .. .. .. .. .. .. .. .. .. .. .. .. .. .. .. .. .. .. .. .. .. .. .. .. .. .. .. 
.. .. .. .. .. .. .. .. .. .. .. .. .. .. .. .. .. .. .. .. .. .. .. .. .. .. .. .. .. .. 
.. .. .. .. .. .. .. .. .. .. .. .. .. .. .. .. .. .. .. .. .. .. .. .. .. .. .. .. .. .. 
.. .. .. .. .. .. .. .. .. .. .. .. .. .. .. .. .. .. .. .. .. .. .. .. .. .. .. .. .. .. 
.. .. .. .. .. .. .. .. .. .. .. .. .. .. .. .. .. .. .. .. .. .. .. .. .. .. .. .. .. .. 
.. .. .. .. .. .. .. .. .. .. .. .. .. .. .. .. .. .. .. .. .. .. .. .. .. .. .. .. .. .. 
.. .. .. .. .. .. .. .. .. .. .. .. .. .. .. .. .. .. .. .. .. .. .. .. .. .. .. .. .. .. 
.. .. .. .. .. .. .. .. .. .. .. .. .. .. .. .. .. .. .. .. .. .. .. .. .. .. .. .. .. .. 
.. .. .. .. .. .. .. .. .. .. .. .. .. .. .. .. .. .. .. .. .. .. .. .. .. .. .. .. .. .. 
.. .. .. .. .. .. .. .. .. .. .. .. .. .. .. .. .. .. .. .. .. .. .. .. .. .. .. .. .. .. 
.. .. .. .. .. .. .. .. .. .. .. .. .. .. .. .. .. .. .. .. .. .. .. .. .. .. .. .. .. .. 
.. .. .. .. .. .. .. .. .. .. .. .. .. .. .. .. .. .. .. .. .. .. .. .. .. .. .. .. .. .. 
.. .. .. .. .. .. 31 .. .. .. .. .. .. .. .. .. .. .. .. .. .. .. .. .. .. .. .. .. .. .. 
.. .. .. .. .. .. .. .. .. .. .. .. .. .. .. .. .. .. .. .. .. .. .. .. .. .. .. .. .. .. 
.. .. .. .. .. .. .. .. .. .. .. .. .. .. .. .. .. .. .. .. .. .. .. .. .. .. .. .. .. .. 
.. .. .. .. .. .. .. .. .. .. .. .. .. .. .. .. .. .. .. .. .. .. .. 26 .. .. .. .. .. .. 
.. .. .. .. .. .. .. .. .. .. .. .. .. .. 31 .. .. .. .. .. .. .. .. .. .. .. .. .. .. .. 
.. .. .. .. .. .. .. .. .. .. .. .. .. .. .. .. .. .. .. .. .. .. .. .. .. .. .. 29 .. .. 
.. .. .. .. .. .. .. .. .. .. .. .. .. .. .. .. .. .. .. .. .. .. .. .. .. .. .. .. .. .. 
.. .. .. .. .. .. .. .. .. .. .. .. .. .. .. .. .. .. .. .. .. .. .. .. .. .. .. .. .. .. 
.. .. .. .. .. .. .. .. .. .. .. .. .. .. .. .. .. .. .. .. .. .. 33 .. .. .. .. .. .. .. 
.. .. .. .. .. .. .. .. .. .. .. .. .. .. .. .. .. .. .. .. .. .. .. .. .. .. .. .. .. .. 
.. .. .. .. .. .. .. .. .. .. .. .. .. .. .. .. .. .. .. .. .. .. .. .. .. .. .. .. .. .. 
.. .. .. .. .. .. .. .. .. .. .. .. .. .. .. .. .. .. .. .. .. .. .. .. .. .. .. .. .. .. 
.. .. .. .. .. .. .. .. .. 31 .. .. .. .. .. .. .. .. .. .. .. .. .. .. .. .. .. .. .. .. 
38 .. .. .. .. .. .. .. .. .. .. .. .. .. .. .. .. .. .. .. .. .. .. .. .. .. .. .. .. .. 
.. .. .. .. .. .. .. .. .. .. .. .. .. .. .. .. .. .. .. .. .. .. .. .. .. .. .. .. .. .. 
.. .. .. .. 31 .. .. .. .. .. .. .. .. .. .. .. .. .. .. .. .. .. .. .. .. .. 38 .. .. .. 
.. .. .. .. .. .. .. .. .. .. .. .. .. .. .. .. .. .. .. .. .. .. .. .. .. .. .. .. 39 .. 
.. .. .. .. .. .. .. .. 38 .. .. .. .. .. .. .. .. .. .. .. .. .. .. .. .. .. .. .. .. .. 
.. .. .. .. .. .. .. .. .. .. .. .. .. .. .. .. .. .. .. .. .. .. .. .. .. .. .. .. .. .. 
.. .. .. .. .. .. .. .. .. .. .. .. 34 .. .. .. .. .. .. .. .. .. .. .. .. .. .. .. .. .. 
.. .. .. .. 36 .. .. .. .. .. .. .. .. .. .. .. .. .. .. .. .. .. .. .. .. .. .. .. .. .. 
.. .. .. .. .. .. .. .. .. .. .. .. .. .. .. .. .. .. .. .. .. .. .. .. .. .. .. .. .. .. 
.. .. .. .. .. .. .. .. .. .. .. .. .. .. .. .. .. .. .. .. .. .. .. .. .. .. .. .. .. .. 
.. .. .. .. .. .. .. .. .. .. .. .. .. .. .. .. .. .. .. .. .. .. .. .. .. .. .. .. .. .. 
.. .. .. .. .. .. .. .. .. .. .. .. 33 .. .. .. .. .. .. .. .. .. .. .. .. .. .. .. .. .. 
.. .. .. .. .. .. .. .. .. .. .. .. .. .. .. .. .. .. .. .. .. .. .. .. .. .. .. .. .. .. 
.. .. .. .. .. .. .. .. .. .. .. .. .. .. .. .. .. .. .. .. .. .. .. .. .. .. .. .. .. .. 
.. .. .. .. .. .. .. .. .. .. .. .. .. .. .. .. .. .. .. .. .. .. .. .. .. .. .. .. .. .. 
.. .. .. .. .. .. .. .. .. .. .. .. .. .. .. .. .. .. .. .. 34 .. .. .. .. .. .. .. .. .. 
.. .. .. .. .. .. .. .. .. .. .. .. .. .. .. .. .. .. .. .. .. .. .. .. .. .. .. .. .. .. 
.. .. .. .. .. .. .. .. .. .. .. .. .. .. .. .. .. .. .. .. .. .. .. .. .. .. .. .. .. .. 
.. .. .. .. .. .. .. .. .. .. .. .. .. .. .. .. .. .. .. .. .. .. .. .. .. .. .. .. .. .. 
.. .. .. .. .. .. .. .. .. .. .. .. .. .. .. .. .. .. .. .. .. .. .. .. .. .. .. .. .. .. 
.. .. .. .. .. .. .. .. .. .. .. .. .. .. .. .. .. .. .. .. .. .. .. .. .. .. .. .. .. .. 
.. .. .. .. .. .. .. .. .. .. 31 .. .. .. .. .. .. .. .. .. .. 38 .. .. .. .. .. .. .. .. 
.. .. 43 .. .. .. .. .. .. .. .. .. 31 .. .. .. .. .. .. .. .. .. .. 38 .. .. .. .. .. .. 
.. .. .. .. 43 .. .. .. .. .. .. .. .. .. 31 .. .. .. .. .. .. .. .. .. .. 38 .. .. .. .. 
.. .. .. .. .. .. 43 .. .. .. .. .. .. .. .. .. 31 .. .. .. .. .. .. .. .. .. .. 38 .. .. 
.. .. .. .. .. .. .. .. 43 .. .. .. .. .. .. .. .. .. 31 .. .. .. .. .. .. .. .. .. .. 38 
.. .. .. .. .. .. .. .. .. .. 31 .. .. .. .. .. .. .. .. .. 43 .. .. .. .. .. .. .. .. .. 
.. 34 .. .. .. .. .. .. .. .. .. .. 41 .. .. .. .. .. .. .. .. .. 46 .. .. .. .. .. .. .. 
.. .. .. 34 .. .. .. .. .. .. .. .. .. .. 41 .. .. .. .. .. .. .. .. .. 46 .. .. .. .. .. 
.. .. .. .. .. 34 .. .. .. .. .. .. .. .. .. .. 41 .. .. .. .. .. .. .. .. .. 46 .. .. .. 
.. .. .. .. .. .. .. 34 .. .. .. .. .. .. .. .. .. .. 41 .. .. .. .. .. .. .. .. .. 46 .. 
.. .. .. .. .. .. .. .. .. 34 .. .. .. .. .. .. .. .. .. .. 41 .. .. .. .. .. .. .. .. .. 
34 .. .. .. .. .. .. .. .. .. .. 46 .. .. .. .. .. .. .. .. .. .. 31 .. .. .. .. .. .. .. 
.. .. 38 .. .. .. .. .. .. .. .. .. .. 43 .. .. .. .. .. .. .. .. .. .. 31 .. .. .. .. .. 
.. .. .. .. 38 .. .. .. .. .. .. .. .. .. .. 43 .. .. .. .. .. .. .. .. .. .. 31 .. .. .. 
.. .. .. .. .. .. 38 .. .. .. .. .. .. .. .. .. .. 43 .. .. .. .. .. .. .. .. .. .. 31 .. 
.. .. .. .. .. .. .. .. 38 .. .. .. .. .. .. .. .. .. .. 43 .. .. .. .. .. .. .. .. .. .. 
31 .. .. .. .. .. .. .. .. .. 38 .. .. .. .. .. .. .. .. .. .. 31 .. .. .. .. .. .. .. .. 
.. .. 43 .. .. .. .. .. .. .. .. .. 27 .. .. .. .. .. .. .. .. .. .. 34 .. .. .. .. .. .. 
.. .. .. .. 39 .. .. .. .. .. .. .. .. .. 27 .. .. .. .. .. .. .. .. .. .. 34 .. .. .. .. 
.. .. .. .. .. .. 39 .. .. .. .. .. .. .. .. .. 27 .. .. .. .. .. .. .. .. .. .. 34 .. .. 
.. .. .. .. .. .. .. .. 39 .. .. .. .. .. .. .. .. .. 27 .. .. .. .. .. .. .. .. .. .. 34 
.. .. .. .. .. .. .. .. .. .. 39 .. .. .. .. .. .. .. .. .. 27 .. .. .. .. .. .. .. .. .. 
.. 34 .. .. .. .. .. .. .. .. .. .. 27 .. .. .. .. .. .. .. .. .. 39 .. .. .. .. .. .. .. 
.. .. .. 31 .. .. .. .. .. .. .. .. .. .. 38 .. .. .. .. .. .. .. .. .. 43 .. .. .. .. .. 
.. .. .. .. .. 31 .. .. .. .. .. .. .. .. .. .. 38 .. .. .. .. .. .. .. .. .. 43 .. .. .. 
.. .. .. .. .. .. .. 31 .. .. .. .. .. .. .. .. .. .. 38 .. .. .. .. .. .. .. .. .. 43 .. 
.. .. .. .. .. .. .. .. .. 31 .. .. .. .. .. .. .. .. .. .. 38 .. .. .. .. .. .. .. .. .. 
43 .. .. .. .. .. .. .. .. .. .. 31 .. .. .. .. .. .. .. .. .. .. 38 .. .. .. .. .. .. .. 
.. .. 31 .. .. .. .. .. .. .. .. .. .. 43 .. .. .. .. .. .. .. .. .. .. 34 .. .. .. .. .. 
.. .. .. .. 41 .. .. .. .. .. .. .. .. .. .. 46 .. .. .. .. .. .. .. .. .. .. 34 .. .. .. 
.. .. .. .. .. .. 41 .. .. .. .. .. .. .. .. .. .. 46 .. .. .. .. .. .. .. .. .. .. 34 .. 
.. .. .. .. .. .. .. .. 41 .. .. .. .. .. .. .. .. .. .. 46 .. .. .. .. .. .. .. .. .. .. 
34 .. .. .. .. .. .. .. .. .. 41 .. .. .. .. .. .. .. .. .. .. 46 .. .. .. .. .. .. .. .. 
.. .. 34 .. .. .. .. .. .. .. .. .. 41 .. .. .. .. .. .. .. .. .. .. 34 .. .. .. .. .. .. 
.. .. .. .. 46 .. .. .. .. .. .. .. .. .. 31 .. .. .. .. .. .. .. .. .. .. 38 .. .. .. .. 
.. .. .. .. .. .. 43 .. .. .. .. .. .. .. .. .. 31 .. .. .. .. .. .. .. .. .. .. 38 .. .. 
.. .. .. .. .. .. .. .. 43 .. .. .. .. .. .. .. .. .. 31 .. .. .. .. .. .. .. .. .. .. 38 
.. .. .. .. .. .. .. .. .. .. 43 .. .. .. .. .. .. .. .. .. 31 .. .. .. .. .. .. .. .. .. 
.. 38 .. .. .. .. .. .. .. .. .. .. 43 .. .. .. .. .. .. .. .. .. 31 .. .. .. .. .. .. .. 
.. .. .. 38 .. .. .. .. .. .. .. .. .. .. 31 .. .. .. .. .. .. .. .. .. 43 .. .. .. .. .. 
.. .. .. .. .. 27 .. .. .. .. .. .. .. .. .. .. 34 .. .. .. .. .. .. .. .. .. 39 .. .. .. 
.. .. .. .. .. .. .. 27 .. .. .. .. .. .. .. .. .. .. 34 .. .. .. .. .. .. .. .. .. 39 .. 
.. .. .. .. .. .. .. .. .. 27 .. .. .. .. .. .. .. .. .. .. 34 .. .. .. .. .. .. .. .. .. 
39 .. .. .. .. .. .. .. .. .. .. 27 .. .. .. .. .. .. .. .. .. .. 34 .. .. .. .. .. .. .. 
.. .. 39 .. .. .. .. .. .. .. .. .. .. 27 .. .. .. .. .. .. .. .. .. .. 34 .. .. .. .. .. 
.. .. .. .. 27 .. .. .. .. .. .. .. .. .. .. 39 .. .. .. .. .. .. .. .. .. .. 31 .. .. .. 
.. .. .. .. .. .. 38 .. .. .. .. .. .. .. .. .. .. 43 .. .. .. .. .. .. .. .. .. .. 31 .. 
.. .. .. .. .. .. .. .. 38 .. .. .. .. .. .. .. .. .. .. 43 .. .. .. .. .. .. .. .. .. .. 
31 .. .. .. .. .. .. .. .. .. 38 .. .. .. .. .. .. .. .. .. .. 43 .. .. .. .. .. .. .. .. 
.. .. 31 .. .. .. .. .. .. .. .. .. 38 .. .. .. .. .. .. .. .. .. .. 43 .. .. .. .. .. .. 
.. .. .. .. 31 .. .. .. .. .. .. .. .. .. 38 .. .. .. .. .. .. .. .. .. .. 31 .. .. .. .. 
.. .. .. .. .. .. 43 .. .. .. .. .. .. .. .. .. 34 .. .. .. .. .. .. .. .. .. .. 41 .. .. 
.. .. .. .. .. .. .. .. 46 .. .. .. .. .. .. .. .. .. 34 .. .. .. .. .. .. .. .. .. .. 41 
.. .. .. .. .. .. .. .. .. .. 46 .. .. .. .. .. .. .. .. .. 34 .. .. .. .. .. .. .. .. .. 
.. 41 .. .. .. .. .. .. .. .. .. .. 46 .. .. .. .. .. .. .. .. .. 34 .. .. .. .. .. .. .. 
.. .. .. 41 .. .. .. .. .. .. .. .. .. .. 46 .. .. .. .. .. .. .. .. .. 34 .. .. .. .. .. 
.. .. .. .. .. 41 .. .. .. .. .. .. .. .. .. .. 34 .. .. .. .. .. .. .. .. .. 46 .. .. .. 
.. .. .. .. .. .. .. 31 .. .. .. .. .. .. .. .. .. .. 38 .. .. .. .. .. .. .. .. .. 43 .. 
.. .. .. .. .. .. .. .. .. 31 .. .. .. .. .. .. .. .. .. .. 38 .. .. .. .. .. .. .. .. .. 
43 .. .. .. .. .. .. .. .. .. .. 31 .. .. .. .. .. .. .. .. .. .. 38 .. .. .. .. .. .. .. 
.. .. 43 .. .. .. .. .. .. .. .. .. .. 31 .. .. .. .. .. .. .. .. .. .. 38 .. .. .. .. .. 
.. .. .. .. 43 .. .. .. .. .. .. .. .. .. .. 31 .. .. .. .. .. .. .. .. .. .. 38 .. .. .. 
.. .. .. .. .. .. 31 .. .. .. .. .. .. .. .. .. .. 43 .. .. .. .. .. .. .. .. .. .. 27 .. 
.. .. .. .. .. .. .. .. 34 .. .. .. .. .. .. .. .. .. .. 39 .. .. .. .. .. .. .. .. .. .. 
27 .. .. .. .. .. .. .. .. .. 34 .. .. .. .. .. .. .. .. .. .. 39 .. .. .. .. .. .. .. .. 
.. .. 27 .. .. .. .. .. .. .. .. .. 34 .. .. .. .. .. .. .. .. .. .. 39 .. .. .. .. .. .. 
.. .. .. .. 27 .. .. .. .. .. .. .. .. .. 34 .. .. .. .. .. .. .. .. .. .. 39 .. .. .. .. 
.. .. .. .. .. .. 27 .. .. .. .. .. .. .. .. .. 34 .. .. .. .. .. .. .. .. .. .. 27 .. .. 
.. .. .. .. .. .. .. .. 39 .. .. .. .. .. .. .. .. .. 31 .. .. .. .. .. .. .. .. .. .. 38 
.. .. .. .. .. .. .. .. .. .. 43 .. .. .. .. .. .. .. .. .. 31 .. .. .. .. .. .. .. .. .. 
.. .. .. .. .. .. .. .. .. .. .. .. .. .. .. .. .. .. .. .. .. .. .. .. .. .. .. .. .. .. 
.. .. .. .. .. .. .. .. .. .. .. .. .. .. 31 .. .. .. .. .. .. .. .. .. 38 .. .. .. .. .. 
.. .. .. .. .. 43 .. .. .. .. .. .. .. .. .. .. 31 .. .. .. .. .. .. .. .. .. .. .. .. .. 
.. .. .. .. .. .. .. .. .. .. .. .. .. .. .. .. .. .. .. .. .. .. .. .. .. .. .. .. .. .. 
.. .. .. .. .. .. .. .. .. 31 .. .. .. .. .. .. .. .. .. .. 38 .. .. .. .. .. .. .. .. .. 
43 .. .. .. .. .. .. .. .. .. .. 31 .. .. .. .. .. .. .. .. .. .. .. .. .. .. .. .. .. .. 
.. .. .. .. .. .. .. .. .. .. .. .. .. .. .. .. .. .. .. .. .. .. .. .. .. .. .. .. .. .. 
.. .. .. .. 31 .. .. .. .. .. .. .. .. .. .. 38 .. .. .. .. .. .. .. .. .. .. 43 .. .. .. 
.. .. .. .. .. .. 31 .. .. .. .. .. .. .. .. .. .. .. .. .. .. .. .. .. .. .. .. .. .. .. 
.. .. .. .. .. .. .. .. .. .. .. .. .. .. .. .. .. .. .. .. .. .. .. .. .. .. .. .. .. .. 
.. .. .. .. .. .. .. .. .. .. .. .. .. .. .. .. .. .. .. .. .. .. .. .. .. .. .. .. .. .. 
.. .. .. .. .. .. .. .. .. .. .. .. .. .. .. .. .. .. .. .. .. .. .. .. .. .. .. .. .. .. 
.. .. .. .. .. .. .. .. .. .. .. .. .. .. .. .. .. .. .. .. .. .. .. .. .. .. .. .. .. .. 
.. .. .. .. .. .. .. .. .. .. .. .. .. .. .. .. .. .. .. .. .. .. .. .. .. .. .. .. .. .. 
.. .. .. .. .. .. .. .. .. .. .. .. .. .. .. .. .. .. .. .. .. .. .. .. .. .. .. .. .. .. 
.. .. .. .. .. .. .. .. .. .. .. .. .. .. .. .. .. .. .. .. .. .. .. .. .. .. .. .. .. .. 
.. .. .. .. .. .. .. .. .. .. .. .. .. .. .. .. .. .. .. .. .. .. .. .. .. .. .. .. .. .. 
.. .. .. .. .. .. .. .. .. .. .. .. .. .. .. .. .. .. .. .. .. .. .. .. .. .. .. .. .. .. 
.. .. .. .. .. .. .. .. .. .. .. .. .. .. .. .. .. .. .. .. .. .. .. .. .. .. .. .. .. .. 
.. .. .. .. .. .. .. .. .. .. .. .. .. .. .. .. .. .. .. .. .. .. .. .. .. .. .. .. .. .. 
.. .. .. .. .. .. .. .. .. .. .. .. .. .. .. .. .. .. .. .. .. .. .. .. .. .. .. .. .. .. 
.. .. .. .. .. .. .. .. .. .. .. .. .. .. .. .. .. .. .. .. .. .. .. .. .. .. .. .. .. .. 
.. .. .. .. .. .. .. .. .. .. .. .. .. .. .. .. .. .. .. .. .. .. .. .. .. .. .. .. .. .. 
.. .. .. .. .. .. .. .. .. .. .. .. .. .. .. .. .. .. .. .. .. .. .. .. .. .. .. .. .. .. 
.. .. .. .. .. .. .. .. .. .. .. .. .. .. .. .. .. .. .. .. .. .. .. .. .. .. .. .. .. .. 
.. .. .. .. .. .. .. .. .. .. .. .. .. .. .. .. .. .. .. .. .. .. .. .. .. .. .. .. .. .. 
.. .. .. .. .. .. .. .. .. .. .. .. .. .. .. .. .. .. .. .. .. .. .. .. .. .. .. .. .. .. 
.. .. .. .. .. .. .. .. .. .. .. .. .. .. .. .. .. .. .. .. .. .. .. .. .. .. .. .. .. .. 
.. .. .. .. .. .. .. .. .. .. .. .. .. .. .. .. .. .. .. .. .. .. .. .. .. .. .. .. .. .. 
.. .. .. .. .. .. .. .. .. .. .. .. .. .. .. .. .. .. .. .. .. .. .. .. .. .. .. .. .. .. 
.. .. .. .. .. .. .. .. .. .. .. .. .. .. .. .. .. .. .. .. .. .. .. .. .. .. .. .. .. .. 
.. .. .. .. .. .. .. .. .. .. .. .. .. .. .. .. .. .. .. .. .. .. .. .. .. .. .. .. .. .. 
.. .. .. .. .. .. .. .. .. .. .. .. .. .. .. .. .. .. .. .. .. .. .. .. .. .. .. .. .. .. 
.. .. .. .. .. .. .. .. .. .. .. .. .. .. .. .. .. .. .. .. .. .. .. .. .. .. .. .. .. .. 
.. .. .. .. .. .. .. .. .. .. .. .. .. .. .. .. .. .. .. .. .. .. .. .. .. .. .. .. .. .. 
.. .. .. .. .. .. .. .. .. .. .. .. .. .. .. .. .. .. .. .. .. .. .. .. .. .. .. .. .. .. 
.. .. .. .. .. .. .. .. .. .. .. .. .. .. .. .. .. .. .. .. .. .. .. .. .. .. .. .. .. .. 
.. .. .. .. .. .. .. .. .. .. .. .. .. .. .. .. .. .. .. .. .. .. .. .. .. .. .. .. .. .. 
.. .. .. .. .. .. .. .. .. .. .. .. .. .. .. .. .. .. .. .. .. .. .. .. .. .. .. .. .. .. 
.. .. .. .. .. .. .. .. .. .. .. .. .. .. .. .. .. .. .. .. .. .. .. .. .. .. .. .. .. .. 
.. .. .. .. .. .. .. .. .. .. .. .. .. .. .. .. .. .. .. .. .. .. .. .. .. .. .. .. .. .. 
.. .. .. .. .. .. .. .. .. .. .. .. .. .. .. .. .. .. .. .. .. .. .. .. .. .. .. .. .. .. 
.. .. .. .. .. .. .. .. .. .. .. .. .. .. .. .. .. .. .. .. .. .. .. .. .. .. .. .. .. .. 
.. .. .. .. .. .. .. .. .. .. .. .. .. .. .. .. .. .. .. .. .. .. .. .. .. .. .. .. .. .. 
.. .. .. .. 31 .. .. .. .. .. .. .. .. .. .. .. .. .. .. .. .. .. .. .. .. .. .. .. .. .. 
.. .. .. .. .. .. .. .. .. .. .. .. .. .. .. .. .. .. .. .. .. .. .. .. .. .. .. .. .. .. 
.. .. .. .. .. .. .. .. .. .. .. .. .. .. .. .. .. .. .. .. .. .. .. .. .. .. .. .. .. .. 
.. .. .. .. .. .. .. .. .. .. .. .. .. .. .. .. .. .. .. .. 26 .. .. .. .. .. .. .. .. .. 
.. .. .. .. .. .. .. .. .. .. .. .. 31 .. .. .. .. .. .. .. .. .. .. .. .. .. .. .. .. .. 
.. .. .. .. .. .. .. .. .. .. .. .. .. .. .. .. .. .. .. .. .. .. .. .. 29 .. .. .. .. .. 
.. .. .. .. .. .. .. .. .. .. .. .. .. .. .. .. .. .. .. .. .. .. .. .. .. .. .. .. .. .. 
.. .. .. .. .. .. .. .. .. .. .. .. .. .. .. .. .. .. .. .. .. .. .. .. .. .. .. .. .. .. 
.. .. .. .. .. .. .. .. .. .. .. .. .. .. .. .. .. .. .. .. 33 .. .. .. .. .. .. .. .. .. 
.. .. .. .. .. .. .. .. .. .. .. .. .. .. .. .. .. .. .. .. .. .. .. .. .. .. .. .. .. .. 
.. .. .. .. .. .. .. .. .. .. .. .. .. .. .. .. .. .. .. .. .. .. .. .. .. .. .. .. .. .. 
.. .. .. .. .. .. .. .. .. .. .. .. .. .. .. .. .. .. .. .. .. .. .. .. .. .. .. .. .. .. 
.. .. .. .. .. .. 31 .. .. .. .. .. .. .. .. .. .. .. .. .. .. .. .. .. .. .. .. .. 38 .. 
.. .. .. .. .. .. .. .. .. .. .. .. .. .. .. .. .. .. .. .. .. .. .. .. .. .. .. .. .. .. 
.. .. .. .. .. .. .. .. .. .. .. .. .. .. .. .. .. .. .. .. .. .. .. .. .. .. .. .. .. .. 
.. .. 31 .. .. .. .. .. .. .. .. .. .. .. .. .. .. .. .. .. .. .. .. 38 .. .. .. .. .. .. 
.. .. .. .. .. .. .. .. .. .. .. .. .. .. .. .. .. .. .. .. .. .. .. .. .. 39 .. .. .. .. 
.. .. .. .. .. .. 38 .. .. .. .. .. .. .. .. .. .. .. .. .. .. .. .. .. .. .. .. .. .. .. 
.. .. .. .. .. .. .. .. .. .. .. .. .. .. .. .. .. .. .. .. .. .. .. .. .. .. .. .. .. .. 
.. .. .. .. .. .. .. .. .. .. 34 .. .. .. .. .. .. .. .. .. .. .. .. .. .. .. .. .. .. .. 
.. 36 .. .. .. .. .. .. .. .. .. .. .. .. .. .. .. .. .. .. .. .. .. .. .. .. .. .. .. .. 
.. .. .. .. .. .. .. .. .. .. .. .. .. .. .. .. .. .. .. .. .. .. .. .. .. .. .. .. .. .. 
.. .. .. .. .. .. .. .. .. .. .. .. .. .. .. .. .. .. .. .. .. .. .. .. .. .. .. .. .. .. 
.. .. .. .. .. .. .. .. .. .. .. .. .. .. .. .. .. .. .. .. .. .. .. .. .. .. .. .. .. .. 
.. .. .. .. .. .. .. .. .. 33 .. .. .. .. .. .. .. .. .. .. .. .. .. .. .. .. .. .. .. .. 
.. .. .. .. .. .. .. .. .. .. .. .. .. .. .. .. .. .. .. .. .. .. .. .. .. .. .. .. .. .. 
.. .. .. .. .. .. .. .. .. .. .. .. .. .. .. .. .. .. .. .. .. .. .. .. .. .. .. .. .. .. 
.. .. .. .. .. .. .. .. .. .. .. .. .. .. .. .. .. .. .. .. .. .. .. .. .. .. .. .. .. .. 
.. .. .. .. .. .. .. .. .. .. .. .. .. .. .. .. .. 34 .. .. .. .. .. .. .. .. .. .. .. .. 
.. .. .. .. .. .. .. .. .. .. .. .. .. .. .. .. .. .. .. .. .. .. .. .. .. .. .. .. .. .. 
.. .. .. .. .. .. .. .. .. .. .. .. .. .. .. .. .. .. .. .. .. .. .. .. .. .. .. .. .. .. 
.. .. .. .. .. .. .. .. .. .. .. .. .. .. .. .. .. .. .. .. .. .. .. .. .. .. .. .. .. .. 
.. .. .. .. .. .. .. .. .. .. .. .. .. .. .. .. .. .. .. .. .. .. .. .. .. .. .. .. .. .. 
.. .. .. .. .. .. .. .. .. .. .. .. .. .. .. .. .. .. .. .. .. .. .. .. .. .. .. .. .. .. 
.. .. .. .. .. .. .. .. 31 .. .. .. .. .. .. .. .. .. 38 .. .. .. .. .. .. .. .. .. .. 43 
.. .. .. .. .. .. .. .. .. .. 31 .. .. .. .. .. .. .. .. .. 38 .. .. .. .. .. .. .. .. .. 
.. 43 .. .. .. .. .. .. .. .. .. .. 31 .. .. .. .. .. .. .. .. .. 38 .. .. .. .. .. .. .. 
.. .. .. 43 .. .. .. .. .. .. .. .. .. .. 31 .. .. .. .. .. .. .. .. .. 38 .. .. .. .. .. 
.. .. .. .. .. 43 .. .. .. .. .. .. .. .. .. .. 31 .. .. .. .. .. .. .. .. .. 38 .. .. .. 
.. .. .. .. .. .. .. 31 .. .. .. .. .. .. .. .. .. .. 43 .. .. .. .. .. .. .. .. .. 34 .. 
.. .. .. .. .. .. .. .. .. 41 .. .. .. .. .. .. .. .. .. .. 46 .. .. .. .. .. .. .. .. .. 
34 .. .. .. .. .. .. .. .. .. .. 41 .. .. .. .. .. .. .. .. .. .. 46 .. .. .. .. .. .. .. 
.. .. 34 .. .. .. .. .. .. .. .. .. .. 41 .. .. .. .. .. .. .. .. .. .. 46 .. .. .. .. .. 
.. .. .. .. 34 .. .. .. .. .. .. .. .. .. .. 41 .. .. .. .. .. .. .. .. .. .. 46 .. .. .. 
.. .. .. .. .. .. 34 .. .. .. .. .. .. .. .. .. .. 41 .. .. .. .. .. .. .. .. .. .. 34 .. 
.. .. .. .. .. .. .. .. 46 .. .. .. .. .. .. .. .. .. .. 31 .. .. .. .. .. .. .. .. .. .. 
38 .. .. .. .. .. .. .. .. .. 43 .. .. .. .. .. .. .. .. .. .. 31 .. .. .. .. .. .. .. .. 
.. .. 38 .. .. .. .. .. .. .. .. .. 43 .. .. .. .. .. .. .. .. .. .. 31 .. .. .. .. .. .. 
.. .. .. .. 38 .. .. .. .. .. .. .. .. .. 43 .. .. .. .. .. .. .. .. .. .. 31 .. .. .. .. 
.. .. .. .. .. .. 38 .. .. .. .. .. .. .. .. .. 43 .. .. .. .. .. .. .. .. .. .. 31 .. .. 
.. .. .. .. .. .. .. .. 38 .. .. .. .. .. .. .. .. .. 31 .. .. .. .. .. .. .. .. .. .. 43 
.. .. .. .. .. .. .. .. .. .. 27 .. .. .. .. .. .. .. .. .. 34 .. .. .. .. .. .. .. .. .. 
.. 39 .. .. .. .. .. .. .. .. .. .. 27 .. .. .. .. .. .. .. .. .. 34 .. .. .. .. .. .. .. 
.. .. .. 39 .. .. .. .. .. .. .. .. .. .. 27 .. .. .. .. .. .. .. .. .. 34 .. .. .. .. .. 
.. .. .. .. .. 39 .. .. .. .. .. .. .. .. .. .. 27 .. .. .. .. .. .. .. .. .. 34 .. .. .. 
.. .. .. .. .. .. .. 39 .. .. .. .. .. .. .. .. .. .. 27 .. .. .. .. .. .. .. .. .. 34 .. 
.. .. .. .. .. .. .. .. .. 27 .. .. .. .. .. .. .. .. .. .. 39 .. .. .. .. .. .. .. 
! Song 2
50 146 .. 14 .. .. .. .. .. .. .. .. .. .. .. .. .. .. .. .. .. .. .. .. .. .. .. .. .. .. 
.. .. .. .. .. .. .. .. .. .. .. .. .. .. .. .. .. .. .. .. .. .. .. .. .. .. .. .. .. .. 
.. .. .. .. .. .. .. .. .. .. .. .. .. .. .. .. .. .. .. .. .. .. .. .. .. .. .. .. .. .. 
.. .. .. .. .. .. .. .. .. .. .. .. .. .. .. .. .. .. .. .. .. .. .. .. .. .. .. .. .. .. 
.. .. .. .. .. .. .. .. .. .. .. .. .. .. .. .. .. .. .. .. .. .. .. .. .. .. .. .. .. .. 
.. .. .. .. .. .. .. .. .. .. .. .. .. .. .. .. .. .. .. .. .. .. .. .. .. .. .. .. .. .. 
.. .. .. .. .. .. .. .. .. .. .. .. .. .. .. .. .. .. .. .. .. .. .. .. .. .. .. .. .. .. 
.. .. .. .. .. .. .. .. .. .. .. .. .. .. .. .. .. .. .. .. .. .. .. .. .. .. .. .. .. .. 
.. .. .. .. .. .. .. .. .. .. .. .. .. .. .. .. .. .. .. .. .. .. .. .. .. .. .. .. .. .. 
.. .. .. .. .. .. .. .. .. .. .. .. .. .. .. .. .. .. .. .. .. .. .. .. .. .. .. .. .. .. 
.. .. .. .. .. .. .. .. .. .. .. .. .. .. .. .. .. .. .. .. .. .. .. .. .. .. .. .. .. .. 
.. .. .. .. .. .. .. .. .. .. .. .. .. .. .. .. .. .. .. .. .. .. .. .. .. .. .. .. .. .. 
.. .. .. .. .. .. .. .. .. .. .. .. .. .. .. .. .. .. .. .. .. .. .. .. .. .. .. .. .. .. 
.. .. .. .. .. .. .. .. .. .. .. .. .. .. .. .. .. .. .. .. .. .. .. .. .. .. .. .. .. .. 
.. .. .. .. .. .. .. .. .. .. .. .. .. .. .. .. 51 .. .. .. .. .. .. .. .. .. .. .. .. .. 
.. .. .. .. .. .. .. .. .. .. .. .. .. .. .. .. .. .. .. .. .. .. .. 47 .. .. .. .. .. .. 
.. .. .. .. .. .. .. .. .. .. .. .. .. .. .. .. .. .. .. .. .. .. .. .. .. .. .. .. .. .. 
.. .. .. .. .. .. .. .. .. .. .. .. .. .. .. .. .. .. .. .. .. .. .. .. .. .. .. .. .. .. 
.. .. .. .. .. .. .. .. 49 .. .. .. .. .. .. .. .. .. .. .. .. .. .. .. .. .. .. .. .. .. 
.. .. .. .. .. .. .. .. .. .. .. .. .. .. .. .. .. .. .. .. .. .. .. .. .. .. .. .. .. .. 
.. .. .. .. .. .. .. .. .. .. 27 .. .. .. .. .. .. .. .. .. .. .. 34 .. .. .. .. .. .. .. 
.. .. .. .. 27 .. .. .. .. .. .. .. .. .. .. .. .. 39 .. .. .. .. .. .. .. .. .. .. .. 27 
.. .. .. .. .. .. .. .. .. .. .. .. .. .. .. .. .. .. .. .. .. .. .. .. 27 .. .. .. .. .. 
.. .. .. .. .. .. 34 .. .. .. .. .. .. .. .. .. .. .. .. 27 .. .. .. .. .. .. .. .. .. .. 
.. 39 .. .. .. .. .. .. .. .. .. .. .. 27 .. .. .. .. .. .. .. .. .. .. .. .. 33 .. .. .. 
.. .. .. .. .. .. .. .. 27 .. .. .. .. .. .. .. .. .. .. .. .. 33 .. .. .. .. .. .. .. .. 
.. .. .. 34 .. .. .. .. .. .. .. .. .. .. .. .. .. .. .. .. .. .. .. .. .. .. .. .. 27 .. 
.. .. .. .. .. .. .. .. .. .. 34 .. .. .. .. .. .. .. .. .. .. .. 27 .. .. .. .. .. .. .. 
.. .. .. .. .. 39 .. .. .. .. .. .. .. .. .. .. .. 27 .. .. .. .. .. .. .. .. .. .. .. .. 
.. .. .. .. .. .. .. .. .. .. .. .. 27 .. .. .. .. .. .. .. .. .. .. .. 34 .. .. .. .. .. 
.. .. .. .. .. .. .. 27 .. .. .. .. .. .. .. .. .. .. .. 39 .. .. .. .. .. .. .. .. .. .. 
.. .. 27 .. .. .. .. .. .. .. .. .. .. .. 33 .. .. .. .. .. .. .. .. .. .. .. 27 .. .. .. 
.. .. .. .. .. .. .. .. .. 33 .. .. .. .. .. .. .. .. .. .. .. 34 .. .. .. .. .. .. .. .. 
.. .. .. .. 51 .. .. .. .. .. .. .. .. .. .. .. .. .. .. .. .. .. .. .. .. .. .. .. 46 .. 
.. .. .. .. .. .. .. .. .. .. .. 49 .. .. .. .. .. .. .. .. .. .. .. .. .. .. .. .. .. .. 
.. .. .. .. .. 47 .. .. .. .. .. .. 46 .. .. .. .. .. 47 .. .. .. .. .. .. .. .. .. .. .. 
42 .. .. .. .. .. .. .. .. .. .. .. .. 46 .. .. .. .. .. .. .. .. .. .. .. .. .. .. .. .. 
.. .. .. .. .. .. .. 41 .. .. .. .. .. .. .. .. .. .. .. .. 44 .. .. .. .. .. .. .. .. .. 
.. .. .. .. .. .. .. .. .. .. .. .. .. .. .. 42 .. .. .. .. .. 41 .. .. .. .. .. 39 .. .. 
.. .. .. .. .. .. .. .. .. .. .. .. .. .. .. .. .. .. .. .. .. .. 51 .. .. .. .. .. .. .. 
.. .. .. .. .. .. .. .. .. .. .. .. .. .. .. .. 46 .. .. .. .. .. .. .. .. .. .. .. .. 49 
.. .. .. .. .. .. .. .. .. .. .. .. .. .. .. .. .. .. .. .. .. .. .. .. 47 .. .. .. .. .. 
46 .. .. .. .. .. 47 .. .. .. .. .. .. .. .. .. .. .. 42 .. .. .. .. .. .. .. .. .. .. .. 
.. 46 .. .. .. .. .. .. .. .. .. .. .. .. .. .. .. .. .. .. .. .. .. .. .. .. 41 .. .. .. 
.. .. .. .. .. .. .. .. 44 .. .. .. .. .. .. .. .. .. .. .. .. .. .. .. .. .. .. .. .. .. 
.. .. .. 42 .. .. .. .. .. 41 .. .. .. .. .. 39 .. .. .. .. .. .. .. .. .. .. .. .. .. .. 
.. .. .. .. .. .. .. .. .. .. .. .. .. .. .. .. .. .. .. .. .. .. .. .. .. .. .. .. .. .. 
.. .. .. .. .. .. .. .. .. .. .. .. .. .. .. .. .. 51 .. .. .. .. .. .. .. .. .. .. .. .. 
.. .. .. .. .. .. .. .. .. .. .. .. .. .. .. .. .. .. .. .. .. .. .. .. 47 .. .. .. .. .. 
.. .. .. .. .. .. .. .. .. .. .. .. .. .. .. .. .. .. .. .. .. .. .. .. .. .. .. .. .. .. 
.. .. .. .. .. .. .. .. .. .. .. .. .. .. .. .. .. .. .. .. .. .. .. .. .. .. .. .. .. .. 
.. .. .. .. .. .. .. .. .. 49 .. .. .. .. .. .. .. .. .. .. .. .. .. .. .. .. .. .. .. .. 
.. .. .. .. .. .. .. .. .. .. .. .. .. .. .. .. .. .. .. .. .. .. .. .. .. .. .. .. .. .. 
.. .. .. .. .. .. .. .. .. .. 27 .. .. .. .. .. .. .. .. .. .. .. .. 34 .. .. .. .. .. .. 
.. .. .. .. .. 27 .. .. .. .. .. .. .. .. .. .. .. .. 39 .. .. .. .. .. .. .. .. .. .. .. 
27 .. .. .. .. .. .. .. .. .. .. .. .. .. .. .. .. .. .. .. .. .. .. .. .. 27 .. .. .. .. 
.. .. .. .. .. .. .. 34 .. .. .. .. .. .. .. .. .. .. .. .. 27 .. .. .. .. .. .. .. .. .. 
.. .. 39 .. .. .. .. .. .. .. .. .. .. .. 27 .. .. .. .. .. .. .. .. .. .. .. .. 33 .. .. 
.. .. .. .. .. .. .. .. .. 27 .. .. .. .. .. .. .. .. .. .. .. .. 33 .. .. .. .. .. .. .. 
.. .. .. .. 34 .. .. .. .. .. .. .. .. .. .. .. .. .. .. .. .. .. .. .. .. .. .. .. .. 27 
.. .. .. .. .. .. .. .. .. .. .. 34 .. .. .. .. .. .. .. .. .. .. .. 27 .. .. .. .. .. .. 
.. .. .. .. .. .. 39 .. .. .. .. .. .. .. .. .. .. .. 27 .. .. .. .. .. .. .. .. .. .. .. 
.. .. .. .. .. .. .. .. .. .. .. .. .. 27 .. .. .. .. .. .. .. .. .. .. .. 34 .. .. .. .. 
.. .. .. .. .. .. .. .. 27 .. .. .. .. .. .. .. .. .. .. .. 39 .. .. .. .. .. .. .. .. .. 
.. .. .. 27 .. .. .. .. .. .. .. .. .. .. .. 33 .. .. .. .. .. .. .. .. .. .. .. 27 .. .. 
.. .. .. .. .. .. .. .. .. .. 33 .. .. .. .. .. .. .. .. .. .. .. 34 .. .. .. .. .. .. .. 
.. .. .. .. .. .. .. .. .. .. .. .. .. .. .. .. .. 27 .. .. .. .. .. .. .. .. .. .. .. 34 
.. .. .. .. .. .. .. .. .. .. .. .. 25 .. .. .. .. .. .. .. .. .. .. .. 32 .. .. .. .. .. 
.. .. .. .. .. .. 25 .. .. .. .. .. .. .. .. .. .. .. .. 35 .. .. .. .. .. .. .. .. .. .. 
.. 28 .. .. .. .. .. .. .. .. .. .. .. .. 35 .. .. .. .. .. .. .. .. .. .. .. 25 .. .. .. 
.. .. .. .. .. .. .. .. 32 .. .. .. .. .. .. .. .. .. .. .. .. 25 .. .. .. .. .. .. .. .. 
.. .. .. 34 .. .. .. .. .. .. .. .. .. .. .. .. 27 .. .. .. .. .. .. .. .. .. .. .. 35 .. 
.. .. .. .. .. .. .. .. .. .. 28 .. .. .. .. .. .. .. .. .. .. .. .. 34 .. .. .. .. .. .. 
.. .. .. .. .. 27 .. .. .. .. .. .. .. .. .. .. .. 34 .. .. .. .. .. .. .. .. .. .. .. .. 
22 .. .. .. .. .. .. .. .. .. .. .. 34 .. .. .. .. .. .. .. .. .. .. .. .. 22 .. .. .. .. 
.. .. .. .. .. .. .. 34 .. .. .. .. .. .. .. .. .. .. .. 22 .. .. .. .. .. .. .. .. .. .. 
.. .. 29 .. .. .. .. .. .. .. .. .. .. .. 22 .. .. .. .. .. .. .. .. .. .. .. .. 34 .. .. 
.. .. .. .. .. .. .. .. .. 22 .. .. .. .. .. .. .. .. .. .. .. 28 .. .. .. .. .. .. .. .. 
.. .. .. .. 22 .. .. .. .. .. .. .. .. .. .. .. 28 .. .. .. .. .. .. .. .. .. .. .. 29 .. 
.. .. .. .. .. .. .. .. .. .. .. 34 .. .. .. .. .. .. .. .. .. .. .. 27 .. .. .. .. .. .. 
.. .. .. .. .. .. 34 .. .. .. .. .. .. .. .. .. .. .. 25 .. .. .. .. .. .. .. .. .. .. .. 
32 .. .. .. .. .. .. .. .. .. .. .. .. 25 .. .. .. .. .. .. .. .. .. .. .. 35 .. .. .. .. 
.. .. .. .. .. .. .. .. 28 .. .. .. .. .. .. .. .. .. .. .. 35 .. .. .. .. .. .. .. .. .. 
.. .. 25 .. .. .. .. .. .. .. .. .. .. .. .. 32 .. .. .. .. .. .. .. .. .. .. .. 25 .. .. 
.. .. .. .. .. .. .. .. .. .. 34 .. .. .. .. .. .. .. .. .. .. .. 27 .. .. .. .. .. .. .. 
.. .. .. .. 35 .. .. .. .. .. .. .. .. .. .. .. .. 28 .. .. .. .. .. .. .. .. .. .. .. 34 
.. .. .. .. .. .. .. .. .. .. .. 27 .. .. .. .. .. .. .. .. .. .. .. .. 34 .. .. .. .. .. 
.. .. .. .. .. .. 27 .. .. .. .. .. .. .. .. .. .. .. .. 39 .. .. .. .. .. .. .. .. .. .. 
.. 27 .. .. .. .. .. .. .. .. .. .. .. 39 .. .. .. .. .. .. .. .. .. .. .. .. 27 .. .. .. 
.. .. .. .. .. .. .. .. 34 .. .. .. .. .. .. .. .. .. .. .. .. 27 .. .. .. .. .. .. .. .. 
.. .. .. 39 .. .. .. .. .. .. .. .. .. .. .. 27 .. .. .. .. .. .. .. .. .. .. .. .. 33 .. 
.. .. .. .. .. .. .. .. .. .. 27 .. .. .. .. .. .. .. .. .. .. .. 33 .. .. .. .. .. .. .. 
.. .. .. .. .. 34 .. .. .. .. .. .. .. .. .. .. .. .. .. .. .. .. .. .. .. .. .. .. .. .. 
27 .. .. .. .. .. .. .. .. .. .. .. 34 .. .. .. .. .. .. .. .. .. .. .. 25 .. .. .. .. .. 
.. .. .. .. .. .. .. 32 .. .. .. .. .. .. .. .. .. .. .. 25 .. .. .. .. .. .. .. .. .. .. 
.. .. 35 .. .. .. .. .. .. .. .. .. .. .. 28 .. .. .. .. .. .. .. .. .. .. .. 35 .. .. .. 
.. .. .. .. .. .. .. .. .. 25 .. .. .. .. .. .. .. .. .. .. .. 32 .. .. .. .. .. .. .. .. 
.. .. .. .. 25 .. .. .. .. .. .. .. .. .. .. .. 34 .. .. .. .. .. .. .. .. .. .. .. 27 .. 
.. .. .. .. .. .. .. .. .. .. .. 35 .. .. .. .. .. .. .. .. .. .. .. 28 .. .. .. .. .. .. 
.. .. .. .. .. 34 .. .. .. .. .. .. .. .. .. .. .. .. 27 .. .. .. .. .. .. .. .. .. .. .. 
34 .. .. .. .. .. .. .. .. .. .. .. .. 22 .. .. .. .. .. .. .. .. .. .. .. 34 .. .. .. .. 
.. .. .. .. .. .. .. 22 .. .. .. .. .. .. .. .. .. .. .. .. 34 .. .. .. .. .. .. .. .. .. 
.. .. 22 .. .. .. .. .. .. .. .. .. .. .. .. 29 .. .. .. .. .. .. .. .. .. .. .. 22 .. .. 
.. .. .. .. .. .. .. .. .. 34 .. .. .. .. .. .. .. .. .. .. .. .. 22 .. .. .. .. .. .. .. 
.. .. .. .. 28 .. .. .. .. .. .. .. .. .. .. .. 22 .. .. .. .. .. .. .. .. .. .. .. .. 28 
.. .. .. .. .. .. .. .. .. .. .. 29 .. .. .. .. .. .. .. .. .. .. .. .. 34 .. .. .. .. .. 
.. .. .. .. .. .. 27 .. .. .. .. .. .. .. .. .. .. .. 34 .. .. .. .. .. .. .. .. .. .. .. 
.. 25 .. .. .. .. .. .. .. .. .. .. .. 32 .. .. .. .. .. .. .. .. .. .. .. .. 25 .. .. .. 
.. .. .. .. .. .. .. .. 35 .. .. .. .. .. .. .. .. .. .. .. 28 .. .. .. .. .. .. .. .. .. 
.. .. .. 35 .. .. .. .. .. .. .. .. .. .. .. 25 .. .. .. .. .. .. .. .. .. .. .. .. 32 .. 
.. .. .. .. .. .. .. .. .. .. 25 .. .. .. .. .. .. .. .. .. .. .. 34 .. .. .. .. .. .. .. 
.. .. .. .. .. 27 .. .. .. .. .. .. .. .. .. .. .. 35 .. .. .. .. .. .. .. .. .. .. .. 28 
.. .. .. .. .. .. .. .. .. .. .. .. 34 .. .. .. .. .. .. .. .. .. .. .. 27 .. .. .. .. .. 
.. .. .. .. .. .. .. 34 .. .. .. .. .. .. .. .. .. .. .. 27 .. .. .. .. .. .. .. .. .. .. 
.. 39 .. .. .. .. .. .. .. .. .. .. .. .. 27 .. .. .. .. .. .. .. .. .. .. .. 39 .. .. .. 
.. .. .. .. .. .. .. .. .. 27 .. .. .. .. .. .. .. .. .. .. .. 34 .. .. .. .. .. .. .. .. 
.. .. .. 27 .. .. .. .. .. .. .. .. .. .. .. .. 39 .. .. .. .. .. .. .. .. .. .. .. 27 .. 
.. .. .. .. .. .. .. .. .. .. 33 .. .. .. .. .. .. .. .. .. .. .. .. 27 .. .. .. .. .. .. 
.. .. .. .. .. 33 .. .. .. .. .. .. .. .. .. .. .. .. 34 .. .. .. .. .. .. .. .. .. .. .. 
51 .. .. .. .. .. .. .. .. .. .. .. .. .. .. .. .. .. .. .. .. .. .. .. .. 46 .. .. .. .. 
.. .. .. .. .. .. .. 49 .. .. .. .. .. .. .. .. .. .. .. .. .. .. .. .. .. .. .. .. .. .. 
.. .. 47 .. .. .. .. .. 46 .. .. .. .. .. 47 .. .. .. .. .. .. .. .. .. .. .. .. 42 .. .. 
.. .. .. .. .. .. .. .. .. 46 .. .. .. .. .. .. .. .. .. .. .. .. .. .. .. .. .. .. .. .. 
.. .. .. .. 41 .. .. .. .. .. .. .. .. .. .. .. 44 .. .. .. .. .. .. .. .. .. .. .. .. .. 
.. .. .. .. .. .. .. .. .. .. .. 42 .. .. .. .. .. 41 .. .. .. .. .. 39 .. .. .. .. .. .. 
.. .. .. .. .. .. .. .. .. .. .. .. .. .. .. .. .. .. 51 .. .. .. .. .. .. .. .. .. .. .. 
.. .. .. .. .. .. .. .. .. .. .. .. .. 46 .. .. .. .. .. .. .. .. .. .. .. 49 .. .. .. .. 
.. .. .. .. .. .. .. .. .. .. .. .. .. .. .. .. .. .. .. .. 47 .. .. .. .. .. 46 .. .. .. 
.. .. .. 47 .. .. .. .. .. .. .. .. .. .. .. 42 .. .. .. .. .. .. .. .. .. .. .. 46 .. .. 
.. .. .. .. .. .. .. .. .. .. .. .. .. .. .. .. .. .. .. .. .. .. 41 .. .. .. .. .. .. .. 
.. .. .. .. 44 .. .. .. .. .. .. .. .. .. .. .. .. .. .. .. .. .. .. .. .. .. .. .. .. 42 
.. .. .. .. .. 41 .. .. .. .. .. .. 39 .. .. .. .. .. .. .. .. .. .. .. .. .. .. .. .. .. 
.. .. .. .. .. .. .. .. .. .. .. .. .. .. .. .. .. .. .. .. .. .. .. .. .. .. .. .. .. .. 
.. .. .. .. .. .. .. .. .. .. .. .. .. .. 51 .. .. .. .. .. .. .. .. .. .. .. .. .. .. .. 
.. .. .. .. .. .. .. .. .. .. .. .. .. .. .. .. .. .. .. .. .. 47 .. .. .. .. .. .. .. .. 
.. .. .. .. .. .. .. .. .. .. .. .. .. .. .. .. .. .. .. .. .. .. .. .. .. .. .. .. .. .. 
.. .. .. .. .. .. .. .. .. .. .. .. .. .. .. .. .. .. .. .. .. .. .. .. .. .. .. .. .. .. 
.. .. .. .. .. 49 .. .. .. .. .. .. .. .. .. .. .. .. .. .. .. .. .. .. .. .. .. .. .. .. 
.. .. .. .. .. .. .. .. .. .. .. .. .. .. .. .. .. .. .. .. .. .. .. .. .. .. .. .. .. .. 
.. .. .. .. .. .. .. 27 .. .. .. .. .. .. .. .. .. .. .. 34 .. .. .. .. .. .. .. .. .. .. 
.. .. 27 .. .. .. .. .. .. .. .. .. .. .. 39 .. .. .. .. .. .. .. .. .. .. .. .. 27 .. .. 
.. .. .. .. .. .. .. .. .. .. .. .. .. .. .. .. .. .. .. .. .. 27 .. .. .. .. .. .. .. .. 
.. .. .. .. 34 .. .. .. .. .. .. .. .. .. .. .. 27 .. .. .. .. .. .. .. .. .. .. .. 39 .. 
.. .. .. .. .. .. .. .. .. .. .. 27 .. .. .. .. .. .. .. .. .. .. .. 33 .. .. .. .. .. .. 
.. .. .. .. .. .. 27 .. .. .. .. .. .. .. .. .. .. .. 33 .. .. .. .. .. .. .. .. .. .. .. 
34 .. .. .. .. .. .. .. .. .. .. .. .. .. .. .. .. .. .. .. .. .. .. .. .. 27 .. .. .. .. 
.. .. .. .. .. .. .. .. 34 .. .. .. .. .. .. .. .. .. .. .. 27 .. .. .. .. .. .. .. .. .. 
.. .. 39 .. .. .. .. .. .. .. .. .. .. .. .. 27 .. .. .. .. .. .. .. .. .. .. .. .. .. .. 
.. .. .. .. .. .. .. .. .. .. 27 .. .. .. .. .. .. .. .. .. .. .. 34 .. .. .. .. .. .. .. 
.. .. .. .. 27 .. .. .. .. .. .. .. .. .. .. .. .. 39 .. .. .. .. .. .. .. .. .. .. .. 27 
.. .. .. .. .. .. .. .. .. .. .. 33 .. .. .. .. .. .. .. .. .. .. .. .. 27 .. .. .. .. .. 
.. .. .. .. .. .. 33 .. .. .. .. .. .. .. .. .. .. .. .. 34 .. .. .. .. .. .. .. .. .. .. 
.. .. .. .. .. .. .. .. .. .. .. .. .. 27 .. .. .. .. .. .. .. .. .. .. .. .. 35 .. .. .. 
.. .. .. .. .. .. .. .. 27 .. .. .. .. .. .. .. .. .. .. .. .. 34 .. .. .. .. .. .. .. .. 
.. .. .. 27 .. .. .. .. .. .. .. .. .. .. .. 32 .. .. .. .. .. .. .. .. .. .. .. .. 27 .. 
.. .. .. .. .. .. .. .. .. .. 34 .. .. .. .. .. .. .. .. .. .. .. 27 .. .. .. .. .. .. .. 
.. .. .. .. .. 35 .. .. .. .. .. .. .. .. .. .. .. 27 .. .. .. .. .. .. .. .. .. .. .. .. 
34 .. .. .. .. .. .. .. .. .. .. .. 27 .. .. .. .. .. .. .. .. .. .. .. 32 .. .. .. .. .. 
.. .. .. .. .. .. .. 27 .. .. .. .. .. .. .. .. .. .. .. 34 .. .. .. .. .. .. .. .. .. .. 
.. .. 27 .. .. .. .. .. .. .. .. .. .. .. 35 .. .. .. .. .. .. .. .. .. .. .. 27 .. .. .. 
.. .. .. .. .. .. .. .. .. 34 .. .. .. .. .. .. .. .. .. .. .. 27 .. .. .. .. .. .. .. .. 
.. .. .. .. 32 .. .. .. .. .. .. .. .. .. .. .. 27 .. .. .. .. .. .. .. .. .. .. .. 35 .. 
.. .. .. .. .. .. .. .. .. .. .. 26 .. .. .. .. .. .. .. .. .. .. .. 30 .. .. .. .. .. .. 
.. .. .. .. .. 26 .. .. .. .. .. .. .. .. .. .. .. .. 35 .. .. .. .. .. .. .. .. .. .. .. 
26 .. .. .. .. .. .. .. .. .. .. .. .. 38 .. .. .. .. .. .. .. .. .. .. .. 26 .. .. .. .. 
.. .. .. .. .. .. .. 34 .. .. .. .. .. .. .. .. .. .. .. .. 27 .. .. .. .. .. .. .. .. .. 
.. .. 35 .. .. .. .. .. .. .. .. .. .. .. .. 27 .. .. .. .. .. .. .. .. .. .. .. 34 .. .. 
.. .. .. .. .. .. .. .. .. 27 .. .. .. .. .. .. .. .. .. .. .. .. 32 .. .. .. .. .. .. .. 
.. .. .. .. 27 .. .. .. .. .. .. .. .. .. .. .. 34 .. .. .. .. .. .. .. .. .. .. .. .. 27 
.. .. .. .. .. .. .. .. .. .. .. 35 .. .. .. .. .. .. .. .. .. .. .. .. 27 .. .. .. .. .. 
.. .. .. .. .. .. 34 .. .. .. .. .. .. .. .. .. .. .. 27 .. .. .. .. .. .. .. .. .. .. .. 
.. 32 .. .. .. .. .. .. .. .. .. .. .. 27 .. .. .. .. .. .. .. .. .. .. .. .. 34 .. .. .. 
.. .. .. .. .. .. .. .. 27 .. .. .. .. .. .. .. .. .. .. .. 35 .. .. .. .. .. .. .. .. .. 
.. .. .. 27 .. .. .. .. .. .. .. .. .. .. .. 34 .. .. .. .. .. .. .. .. .. .. .. .. 27 .. 
.. .. .. .. .. .. .. .. .. .. 32 .. .. .. .. .. .. .. .. .. .. .. 27 .. .. .. .. .. .. .. 
.. .. .. .. .. 33 .. .. .. .. .. .. .. .. .. .. .. 25 .. .. .. .. .. .. .. .. .. .. .. 28 
.. .. .. .. .. .. .. .. .. .. .. .. 25 .. .. .. .. .. .. .. .. .. .. .. 33 .. .. .. .. .. 
.. .. .. .. .. .. .. 25 .. .. .. .. .. .. .. .. .. .. .. 37 .. .. .. .. .. .. .. .. .. .. 
.. 25 .. .. .. .. .. .. .. .. .. .. .. .. 34 .. .. .. .. .. .. .. .. .. .. .. 27 .. .. .. 
.. .. .. .. .. .. .. .. .. 35 .. .. .. .. .. .. .. .. .. .. .. 27 .. .. .. .. .. .. .. .. 
.. .. .. 34 .. .. .. .. .. .. .. .. .. .. .. .. 27 .. .. .. .. .. .. .. .. .. .. .. 32 .. 
.. .. .. .. .. .. .. .. .. .. 27 .. .. .. .. .. .. .. .. .. .. .. .. 34 .. .. .. .. .. .. 
.. .. .. .. .. 27 .. .. .. .. .. .. .. .. .. .. .. .. 35 .. .. .. .. .. .. .. .. .. .. .. 
27 .. .. .. .. .. .. .. .. .. .. .. 34 .. .. .. .. .. .. .. .. .. .. .. .. 27 .. .. .. .. 
.. .. .. .. .. .. .. 32 .. .. .. .. .. .. .. .. .. .. .. .. 27 .. .. .. .. .. .. .. .. .. 
.. .. 34 .. .. .. .. .. .. .. .. .. .. .. 27 .. .. .. .. .. .. .. .. .. .. .. .. 35 .. .. 
.. .. .. .. .. .. .. .. .. 27 .. .. .. .. .. .. .. .. .. .. .. .. 34 .. .. .. .. .. .. .. 
.. .. .. .. 27 .. .. .. .. .. .. .. .. .. .. .. 32 .. .. .. .. .. .. .. .. .. .. .. .. 27 
.. .. .. .. .. .. .. .. .. .. .. 35 .. .. .. .. .. .. .. .. .. .. .. 26 .. .. .. .. .. .. 
.. .. .. .. .. .. 30 .. .. .. .. .. .. .. .. .. .. .. 26 .. .. .. .. .. .. .. .. .. .. .. 
.. 35 .. .. .. .. .. .. .. .. .. .. .. 26 .. .. .. .. .. .. .. .. .. .. .. 38 .. .. .. .. 
.. .. .. .. .. .. .. .. 26 .. .. .. .. .. .. .. .. .. .. .. 34 .. .. .. .. .. .. .. .. .. 
.. .. .. 27 .. .. .. .. .. .. .. .. .. .. .. 35 .. .. .. .. .. .. .. .. .. .. .. 27 .. .. 
.. .. .. .. .. .. .. .. .. .. 34 .. .. .. .. .. .. .. .. .. .. .. 27 .. .. .. .. .. .. .. 
.. .. .. .. 32 .. .. .. .. .. .. .. .. .. .. .. .. 27 .. .. .. .. .. .. .. .. .. .. .. 34 
.. .. .. .. .. .. .. .. .. .. .. .. 27 .. .. .. .. .. .. .. .. .. .. .. 35 .. .. .. .. .. 
.. .. .. .. .. .. 27 .. .. .. .. .. .. .. .. .. .. .. .. 34 .. .. .. .. .. .. .. .. .. .. 
.. 27 .. .. .. .. .. .. .. .. .. .. .. .. 32 .. .. .. .. .. .. .. .. .. .. .. 27 .. .. .. 
.. .. .. .. .. .. .. .. 34 .. .. .. .. .. .. .. .. .. .. .. .. 27 .. .. .. .. .. .. .. .. 
.. .. .. 35 .. .. .. .. .. .. .. .. .. .. .. .. 27 .. .. .. .. .. .. .. .. .. .. .. 34 .. 
.. .. .. .. .. .. .. .. .. .. 27 .. .. .. .. .. .. .. .. .. .. .. .. 32 .. .. .. .. .. .. 
.. .. .. .. .. 27 .. .. .. .. .. .. .. .. .. .. .. 33 .. .. .. .. .. .. .. .. .. .. .. .. 
25 .. .. .. .. .. .. .. .. .. .. .. 28 .. .. .. .. .. .. .. .. .. .. .. .. 25 .. .. .. .. 
.. .. .. .. .. .. .. 33 .. .. .. .. .. .. .. .. .. .. .. 25 .. .. .. .. .. .. .. .. .. .. 
.. .. 37 .. .. .. .. .. .. .. .. .. .. .. 25 .. .. .. .. .. .. .. .. .. .. .. .. 34 .. .. 
.. .. .. .. .. .. .. .. .. 27 .. .. .. .. .. .. .. .. .. .. .. 35 .. .. .. .. .. .. .. .. 
.. .. .. .. 27 .. .. .. .. .. .. .. .. .. .. .. 34 .. .. .. .. .. .. .. .. .. .. .. 27 .. 
.. .. .. .. .. .. .. .. .. .. .. 32 .. .. .. .. .. .. .. .. .. .. .. 27 .. .. .. .. .. .. 
.. .. .. .. .. .. 34 .. .. .. .. .. .. .. .. .. .. .. 27 .. .. .. .. .. .. .. .. .. .. .. 
35 .. .. .. .. .. .. .. .. .. .. .. .. 27 .. .. .. .. .. .. .. .. .. .. .. 34 .. .. .. .. 
.. .. .. .. .. .. .. .. 27 .. .. .. .. .. .. .. .. .. .. .. 32 .. .. .. .. .. .. .. .. .. 
.. .. 27 .. .. .. .. .. .. .. .. .. .. .. .. 34 .. .. .. .. .. .. .. .. .. .. .. 27 .. .. 
.. .. .. .. .. .. .. .. .. .. 35 .. .. .. .. .. .. .. .. .. .. .. 27 .. .. .. .. .. .. .. 
.. .. .. .. 34 .. .. .. .. .. .. .. .. .. .. .. .. 27 .. .. .. .. .. .. .. .. .. .. .. 32 
.. .. .. .. .. .. .. .. .. .. .. 27 .. .. .. .. .. .. .. .. .. .. .. .. 35 .. .. .. .. .. 
.. .. .. .. .. .. 26 .. .. .. .. .. .. .. .. .. .. .. .. 30 .. .. .. .. .. .. .. .. .. .. 
.. 26 .. .. .. .. .. .. .. .. .. .. .. 35 .. .. .. .. .. .. .. .. .. .. .. .. 26 .. .. .. 
.. .. .. .. .. .. .. .. 38 .. .. .. .. .. .. .. .. .. .. .. .. 26 .. .. .. .. .. .. .. .. 
.. .. .. 34 .. .. .. .. .. .. .. .. .. .. .. 27 .. .. .. .. .. .. .. .. .. .. .. .. 35 .. 
.. .. .. .. .. .. .. .. .. .. 27 .. .. .. .. .. .. .. .. .. .. .. 34 .. .. .. .. .. .. .. 
.. .. .. .. .. 27 .. .. .. .. .. .. .. .. .. .. .. 32 .. .. .. .. .. .. .. .. .. .. .. .. 
27 .. .. .. .. .. .. .. .. .. .. .. 34 .. .. .. .. .. .. .. .. .. .. .. 27 .. .. .. .. .. 
.. .. .. .. .. .. .. 35 .. .. .. .. .. .. .. .. .. .. .. 27 .. .. .. .. .. .. .. .. .. .. 
.. .. 34 .. .. .. .. .. .. .. .. .. .. .. 27 .. .. .. .. .. .. .. .. .. .. .. 32 .. .. .. 
.. .. .. .. .. .. .. .. .. 27 .. .. .. .. .. .. .. .. .. .. .. 34 .. .. .. .. .. .. .. .. 
.. .. .. .. 27 .. .. .. .. .. .. .. .. .. .. .. 35 .. .. .. .. .. .. .. .. .. .. .. 27 .. 
.. .. .. .. .. .. .. .. .. .. .. 34 .. .. .. .. .. .. .. .. .. .. .. 27 .. .. .. .. .. .. 
.. .. .. .. .. 32 .. .. .. .. .. .. .. .. .. .. .. .. 27 .. .. .. .. .. .. .. .. .. .. .. 
33 .. .. .. .. .. .. .. .. .. .. .. .. 25 .. .. .. .. .. .. .. .. .. .. .. 28 .. .. .. .. 
.. .. .. .. .. .. .. 25 .. .. .. .. .. .. .. .. .. .. .. .. 33 .. .. .. .. .. .. .. .. .. 
.. .. 25 .. .. .. .. .. .. .. .. .. .. .. .. 37 .. .. .. .. .. .. .. .. .. .. .. 25 .. .. 
.. .. .. .. .. .. .. .. .. .. .. .. .. .. .. .. .. .. .. .. .. .. .. .. .. .. .. .. .. .. 
.. .. .. .. .. .. .. .. .. .. .. .. .. .. .. .. .. .. .. .. .. .. .. .. .. .. .. .. .. .. 
.. .. .. .. .. .. .. .. .. .. .. .. .. .. .. .. .. .. .. .. .. .. .. .. .. .. .. .. .. .. 
.. .. .. .. .. .. .. .. .. .. .. .. .. .. .. .. .. .. .. .. .. .. .. .. .. .. .. .. .. .. 
.. .. .. .. .. .. .. .. .. .. .. .. .. .. .. .. .. .. .. .. .. .. .. .. .. .. .. .. .. .. 
.. .. .. .. .. .. .. .. .. .. .. .. .. .. .. .. .. .. .. .. .. .. .. .. .. .. .. .. .. .. 
.. .. .. .. .. .. .. .. .. .. .. .. .. .. .. .. .. .. .. .. .. .. .. .. .. .. .. .. .. .. 
.. .. .. .. .. .. .. .. .. .. .. .. .. .. .. .. .. .. .. .. .. .. .. .. .. .. .. .. 
! End
