! Simple
! Song 0
50 .. .. .. .. .. .. .. .. .. .. .. .. .. .. .. .. .. .. .. .. .. .. .. .. .. .. .. .. .. 
.. .. 19 .. .. .. .. .. .. .. .. .. .. .. .. .. .. .. .. .. .. .. .. .. .. .. .. 19 .. .. 
.. .. .. .. .. .. .. .. .. .. .. .. .. .. .. .. .. .. .. .. .. .. .. .. .. .. .. .. .. .. 
.. .. .. .. .. .. .. .. .. .. .. .. .. .. .. .. .. .. .. .. .. .. .. .. .. .. .. .. .. .. 
.. .. .. .. .. .. .. .. .. .. .. .. .. .. .. .. .. .. .. .. .. .. .. .. .. .. .. .. .. .. 
.. .. .. .. .. .. .. .. .. .. .. .. .. .. .. .. .. .. .. .. .. .. .. .. .. .. .. .. .. .. 
.. .. .. .. .. .. .. .. .. .. .. .. .. .. .. .. .. .. .. .. .. .. .. .. .. .. .. .. .. .. 
.. .. .. .. .. .. .. .. .. .. .. .. .. .. .. .. .. .. .. .. .. .. .. .. .. .. .. .. .. .. 
.. .. .. .. .. .. .. .. .. .. .. .. .. .. .. .. .. .. .. .. .. .. .. .. .. .. .. .. .. .. 
.. .. .. .. .. .. .. .. .. .. .. .. .. .. .. .. .. .. .. .. .. .. .. .. .. .. .. .. .. .. 
.. .. .. .. .. .. .. .. .. .. .. .. .. .. .. .. .. .. .. .. .. .. .. .. .. .. .. .. .. .. 
.. .. .. .. .. .. .. .. .. .. .. .. .. .. .. .. .. .. .. .. .. .. .. .. .. .. .. .. .. .. 
.. .. .. .. .. .. .. .. .. .. .. .. .. .. .. .. .. .. .. .. .. .. .. .. .. .. .. .. .. .. 
.. .. .. .. .. .. .. .. .. .. .. .. .. .. .. .. .. .. .. .. .. .. .. .. .. .. .. .. .. .. 
.. .. .. .. .. .. .. .. .. .. .. .. .. .. .. .. .. .. .. .. .. 24 .. .. .. .. .. .. .. .. 
.. .. .. 36 .. .. .. .. .. 24 .. .. .. .. .. 39 36 33 31 29 27 25 24 23 21 20 19 36 .. .. 
.. .. .. .. .. .. .. .. .. 24 .. .. .. .. .. .. .. .. .. .. .. 36 .. .. .. .. .. 24 .. .. 
.. .. .. 39 36 33 31 29 27 25 24 23 21 20 19 36 .. .. .. .. .. .. .. .. .. .. .. 24 .. .. 
.. .. .. .. .. .. .. .. .. 36 .. .. .. .. .. 24 .. .. .. .. .. 39 36 33 31 29 27 25 24 23 
21 20 19 36 .. .. .. .. .. .. .. .. .. .. .. 24 .. .. .. .. .. .. .. .. .. .. .. 36 .. .. 
.. .. .. 24 .. .. .. .. .. 39 36 33 31 29 27 25 24 23 21 20 19 36 .. .. .. .. .. .. .. .. 
.. .. .. 22 .. .. .. .. .. .. .. .. .. .. .. 34 .. .. .. .. .. 22 .. .. .. .. .. 39 36 33 
31 29 27 25 24 23 21 20 19 34 .. .. .. .. .. .. .. .. .. .. .. 22 .. .. .. .. .. .. .. .. 
.. .. .. 34 .. .. .. .. .. 22 .. .. .. .. .. 39 36 33 31 29 27 25 24 23 21 20 19 23 .. .. 
.. .. .. .. .. .. .. .. .. 24 .. .. .. .. .. .. .. .. .. .. .. 36 .. .. .. .. .. 24 .. .. 
.. .. .. 39 36 33 31 29 27 25 24 23 21 20 19 36 .. .. .. .. .. .. .. .. .. .. .. 24 .. .. 
.. .. .. 39 36 33 31 29 27 36 .. .. .. .. .. 24 .. .. .. .. .. 39 36 33 31 29 27 25 24 23 
21 20 19 36 .. .. .. .. .. .. .. .. .. .. .. 24 .. .. .. .. .. .. .. .. .. .. .. 36 .. .. 
.. .. .. 24 .. .. .. .. .. 39 36 33 31 29 27 25 24 23 21 20 19 36 .. .. .. .. .. .. .. .. 
.. .. .. 24 .. .. .. .. .. .. .. .. .. .. .. 36 .. .. .. .. .. 24 .. .. .. .. .. 39 36 33 
31 29 27 25 24 23 21 20 19 36 .. .. .. .. .. .. .. .. .. .. .. 24 .. .. .. .. .. .. .. .. 
.. .. .. 36 .. .. .. .. .. 24 .. .. .. .. .. 39 36 33 31 29 27 25 24 23 21 20 19 36 .. .. 
.. .. .. .. .. .. .. .. .. 24 .. .. .. .. .. .. .. .. .. .. .. 36 .. .. .. .. .. 24 .. .. 
.. .. .. 39 36 33 31 29 27 25 24 23 21 20 19 36 .. .. .. .. .. .. .. .. .. .. .. 22 .. .. 
.. .. .. .. .. .. .. .. .. 34 .. .. .. .. .. 22 .. .. .. .. .. 39 36 33 31 29 27 25 24 23 
21 20 19 34 .. .. .. .. .. .. .. .. .. .. .. 22 .. .. .. .. .. .. .. .. .. .. .. 34 .. .. 
.. .. .. 22 .. .. .. .. .. 39 36 33 31 29 27 25 24 23 21 20 19 23 .. .. .. .. .. .. .. .. 
.. .. .. 24 .. .. .. .. .. .. .. .. .. .. .. 36 .. .. .. .. .. 24 .. .. .. .. .. 39 36 33 
31 29 27 25 24 23 21 20 19 36 .. .. .. .. .. .. .. .. .. .. .. 24 .. .. .. .. .. 39 36 33 
31 29 27 36 .. .. .. .. .. 24 .. .. .. .. .. 39 36 33 31 29 27 25 24 23 21 20 19 36 .. .. 
.. .. .. .. .. .. .. .. .. 24 .. .. .. .. .. .. .. .. .. .. .. 36 .. .. .. .. .. 24 .. .. 
.. .. .. 39 36 33 31 29 27 25 24 23 21 20 19 36 .. .. .. .. .. .. .. .. .. .. .. 24 .. .. 
.. .. .. .. .. .. .. .. .. 36 .. .. .. .. .. 24 .. .. .. .. .. 39 36 33 31 29 27 25 24 23 
21 20 19 36 .. .. .. .. .. .. .. .. .. .. .. 24 .. .. .. .. .. .. .. .. .. .. .. 36 .. .. 
.. .. .. 24 .. .. .. .. .. 39 36 33 31 29 27 25 24 23 21 20 19 36 .. .. .. .. .. .. .. .. 
.. .. .. 24 .. .. .. .. .. .. .. .. .. .. .. 36 .. .. .. .. .. 24 .. .. .. .. .. 39 36 33 
31 29 27 25 24 23 21 20 19 36 .. .. .. .. .. .. .. .. .. .. .. 22 .. .. .. .. .. .. .. .. 
.. .. .. 34 .. .. .. .. .. 22 .. .. .. .. .. 39 36 33 31 29 27 25 24 23 21 20 19 34 .. .. 
.. .. .. .. .. .. .. .. .. 22 .. .. .. .. .. .. .. .. .. .. .. 34 .. .. .. .. .. 22 .. .. 
.. .. .. 39 36 33 31 29 27 25 24 23 21 20 19 23 .. .. .. .. .. .. .. .. .. .. .. 24 .. .. 
.. .. .. .. .. .. .. .. .. 36 .. .. .. .. .. 24 .. .. .. .. .. 39 36 33 31 29 27 25 24 23 
21 20 19 36 .. .. .. .. .. .. .. .. .. .. .. 24 .. .. .. .. .. 39 36 33 31 29 27 36 .. .. 
.. .. .. 24 .. .. .. .. .. 39 36 33 31 29 27 25 24 23 21 20 19 36 .. .. .. .. .. .. .. .. 
.. .. .. 24 .. .. .. .. .. .. .. .. .. .. .. 36 .. .. .. .. .. 24 .. .. .. .. .. 39 36 33 
31 29 27 25 24 23 21 20 19 36 .. .. .. .. .. .. .. .. .. .. .. 24 .. .. .. .. .. .. .. .. 
.. .. .. 36 .. .. .. .. .. 24 .. .. .. .. .. 39 36 33 31 29 27 25 24 23 21 20 19 36 .. .. 
.. .. .. .. .. .. .. .. .. 24 .. .. .. .. .. .. .. .. .. .. .. 36 .. .. .. .. .. 24 .. .. 
.. .. .. 39 36 33 31 29 27 25 24 23 21 20 19 36 .. .. .. .. .. .. .. .. .. .. .. 24 .. .. 
.. .. .. .. .. .. .. .. .. 36 .. .. .. .. .. 24 .. .. .. .. .. 39 36 33 31 29 27 25 24 23 
21 20 19 36 .. .. .. .. .. .. .. .. .. .. .. 22 .. .. .. .. .. .. .. .. .. .. .. 34 .. .. 
.. .. .. 22 .. .. .. .. .. 39 36 33 31 29 27 25 24 23 21 20 19 34 .. .. .. .. .. .. .. .. 
.. .. .. 22 .. .. .. .. .. .. .. .. .. .. .. 34 .. .. .. .. .. 22 .. .. .. .. .. 39 36 33 
31 29 27 25 24 23 21 20 19 34 .. .. .. .. .. .. .. .. .. .. .. 20 .. .. .. .. .. .. .. .. 
.. .. .. 32 .. .. .. .. .. 20 .. .. .. .. .. 39 36 33 31 29 27 25 24 23 21 20 19 32 .. .. 
.. .. .. .. .. .. .. .. .. 19 .. .. .. .. .. 39 36 33 31 29 27 31 .. .. .. .. .. 19 .. .. 
.. .. .. 39 36 33 31 29 27 25 24 23 21 20 19 31 .. .. .. .. .. .. .. .. .. .. .. 24 .. .. 
.. .. .. .. .. .. .. .. .. 36 .. .. .. .. .. 24 .. .. .. .. .. 39 36 33 31 29 27 25 24 23 
21 20 19 36 .. .. .. .. .. .. .. .. .. .. .. 24 .. .. .. .. .. .. .. .. .. .. .. 36 .. .. 
.. .. .. 24 .. .. .. .. .. 39 36 33 31 29 27 25 24 23 21 20 19 36 .. .. .. .. .. .. .. .. 
.. .. .. 24 .. .. .. .. .. .. .. .. .. .. .. 36 .. .. .. .. .. 24 .. .. .. .. .. 39 36 33 
31 29 27 25 24 23 21 20 19 36 .. .. .. .. .. .. .. .. .. .. .. 24 .. .. .. .. .. .. .. .. 
.. .. .. 36 .. .. .. .. .. 24 .. .. .. .. .. 39 36 33 31 29 27 25 24 23 21 20 19 36 .. .. 
.. .. .. .. .. .. .. .. .. 22 .. .. .. .. .. .. .. .. .. .. .. 34 .. .. .. .. .. 22 .. .. 
.. .. .. 39 36 33 31 29 27 25 24 23 21 20 19 34 .. .. .. .. .. .. .. .. .. .. .. 22 .. .. 
.. .. .. .. .. .. .. .. .. 34 .. .. .. .. .. 22 .. .. .. .. .. 39 36 33 31 29 27 25 24 23 
21 20 19 34 .. .. .. .. .. .. .. .. .. .. .. 20 .. .. .. .. .. .. .. .. .. .. .. 32 .. .. 
.. .. .. 20 .. .. .. .. .. 39 36 33 31 29 27 25 24 23 21 20 19 32 .. .. .. .. .. .. .. .. 
.. .. .. 19 .. .. .. .. .. 39 36 33 31 29 27 31 .. .. .. .. .. 19 .. .. .. .. .. 39 36 33 
31 29 27 25 24 23 21 20 19 31 .. .. .. .. .. .. .. .. .. .. .. 24 .. .. .. .. .. .. .. .. 
.. .. .. 36 .. .. .. .. .. 24 .. .. .. .. .. 39 36 33 31 29 27 25 24 23 21 20 19 36 .. .. 
.. .. .. .. .. .. .. .. .. 24 .. .. .. .. .. .. .. .. .. .. .. 36 .. .. .. .. .. 24 .. .. 
.. .. .. 39 36 33 31 29 27 25 24 23 21 20 19 36 .. .. .. .. .. .. .. .. .. .. .. 24 .. .. 
.. .. .. .. .. .. .. .. .. 36 .. .. .. .. .. 24 .. .. .. .. .. 39 36 33 31 29 27 25 24 23 
21 20 19 36 .. .. .. .. .. .. .. .. .. .. .. 24 .. .. .. .. .. .. .. .. .. .. .. 36 .. .. 
.. .. .. 24 .. .. .. .. .. 39 36 33 31 29 27 25 24 23 21 20 19 36 .. .. .. .. .. .. .. .. 
.. .. .. 22 .. .. .. .. .. .. .. .. .. .. .. 34 .. .. .. .. .. 22 .. .. .. .. .. 39 36 33 
31 29 27 25 24 23 21 20 19 34 .. .. .. .. .. .. .. .. .. .. .. 22 .. .. .. .. .. .. .. .. 
.. .. .. 34 .. .. .. .. .. 22 .. .. .. .. .. 39 36 33 31 29 27 25 24 23 21 20 19 34 .. .. 
.. .. .. .. .. .. .. .. .. 20 .. .. .. .. .. .. .. .. .. .. .. 32 .. .. .. .. .. 20 .. .. 
.. .. .. 39 36 33 31 29 27 25 24 23 21 20 19 32 .. .. .. .. .. .. .. .. .. .. .. 19 .. .. 
.. .. .. 39 36 33 31 29 27 31 .. .. .. .. .. 19 .. .. .. .. .. 39 36 33 31 29 27 25 24 23 
21 20 19 31 .. .. .. .. .. .. .. .. .. .. .. 24 .. .. .. .. .. .. .. .. .. .. .. 36 .. .. 
.. .. .. 24 .. .. .. .. .. 39 36 33 31 29 27 25 24 23 21 20 19 36 .. .. .. .. .. .. .. .. 
.. .. .. 24 .. .. .. .. .. .. .. .. .. .. .. 36 .. .. .. .. .. 24 .. .. .. .. .. 39 36 33 
31 29 27 25 24 23 21 20 19 36 .. .. .. .. .. .. .. .. .. .. .. 24 .. .. .. .. .. .. .. .. 
.. .. .. 36 .. .. .. .. .. 24 .. .. .. .. .. 39 36 33 31 29 27 25 24 23 21 20 19 36 .. .. 
.. .. .. .. .. .. .. .. .. 24 .. .. .. .. .. .. .. .. .. .. .. 36 .. .. .. .. .. 24 .. .. 
.. .. .. 39 36 33 31 29 27 25 24 23 21 20 19 36 .. .. .. .. .. .. .. .. .. .. .. 22 .. .. 
.. .. .. .. .. .. .. .. .. 34 .. .. .. .. .. 22 .. .. .. .. .. 39 36 33 31 29 27 25 24 23 
21 20 19 34 .. .. .. .. .. .. .. .. .. .. .. 22 .. .. .. .. .. .. .. .. .. .. .. 34 .. .. 
.. .. .. 22 .. .. .. .. .. 39 36 33 31 29 27 25 24 23 21 20 19 34 .. .. .. .. .. .. .. .. 
.. .. .. 20 .. .. .. .. .. .. .. .. .. .. .. 32 .. .. .. .. .. 20 .. .. .. .. .. 39 36 33 
31 29 27 25 24 23 21 20 19 32 .. .. .. .. .. .. .. .. .. .. .. 19 .. .. .. .. .. 39 36 33 
31 29 27 31 .. .. .. .. .. 19 .. .. .. .. .. 39 36 33 31 29 27 25 24 23 21 20 19 31 .. .. 
.. .. .. .. .. .. .. .. .. 36 .. .. .. .. .. .. .. .. .. .. .. .. .. .. .. .. .. .. .. .. 
.. .. .. 39 36 33 31 29 27 36 .. .. .. .. .. 34 .. .. .. .. .. .. .. .. .. .. .. 36 .. .. 
.. .. .. .. .. .. .. .. .. 31 .. .. .. .. .. .. .. .. .. .. .. 39 36 33 31 29 27 25 24 23 
21 20 19 36 .. .. .. .. .. .. .. .. .. .. .. .. .. .. .. .. .. .. .. .. .. .. .. .. .. .. 
.. .. .. .. .. .. .. .. .. 39 36 33 31 29 27 36 .. .. .. .. .. 34 .. .. .. .. .. .. .. .. 
.. .. .. 36 .. .. .. .. .. .. .. .. .. .. .. 31 .. .. .. .. .. .. .. .. .. .. .. 39 36 33 
31 29 27 25 24 23 21 20 19 36 .. .. .. .. .. .. .. .. .. .. .. 31 .. .. .. .. .. .. .. .. 
.. .. .. .. .. .. .. .. .. .. .. .. .. .. .. 39 36 33 31 29 27 31 .. .. .. .. .. 29 .. .. 
.. .. .. .. .. .. .. .. .. 31 .. .. .. .. .. .. .. .. .. .. .. 26 .. .. .. .. .. .. .. .. 
.. .. .. 39 36 33 31 29 27 25 24 23 21 20 19 31 .. .. .. .. .. .. .. .. .. .. .. .. .. .. 
.. .. .. .. .. .. .. .. .. .. .. .. .. .. .. .. .. .. .. .. .. 39 36 33 31 29 27 31 .. .. 
.. .. .. 29 .. .. .. .. .. .. .. .. .. .. .. 31 .. .. .. .. .. .. .. .. .. .. .. 26 .. .. 
.. .. .. .. .. .. .. .. .. 39 36 33 31 29 27 25 24 23 21 20 19 31 .. .. .. .. .. .. .. .. 
.. .. .. 34 .. .. .. .. .. .. .. .. .. .. .. .. .. .. .. .. .. .. .. .. .. .. .. 39 36 33 
31 29 27 34 .. .. .. .. .. 32 .. .. .. .. .. .. .. .. .. .. .. 34 .. .. .. .. .. .. .. .. 
.. .. .. 29 .. .. .. .. .. .. .. .. .. .. .. 39 36 33 31 29 27 25 24 23 21 20 19 34 .. .. 
.. .. .. .. .. .. .. .. .. .. .. .. .. .. .. .. .. .. .. .. .. .. .. .. .. .. .. .. .. .. 
.. .. .. 39 36 33 31 29 27 34 .. .. .. .. .. 32 .. .. .. .. .. .. .. .. .. .. .. 34 .. .. 
.. .. .. .. .. .. .. .. .. 29 .. .. .. .. .. .. .. .. .. .. .. 39 36 33 31 29 27 25 24 23 
21 20 19 34 .. .. .. .. .. .. .. .. .. .. .. 29 .. .. .. .. .. .. .. .. .. .. .. .. .. .. 
.. .. .. .. .. .. .. .. .. 39 36 33 31 29 27 29 .. .. .. .. .. 27 .. .. .. .. .. .. .. .. 
.. .. .. 29 .. .. .. .. .. .. .. .. .. .. .. 24 .. .. .. .. .. .. .. .. .. .. .. 39 36 33 
31 29 27 25 24 23 21 20 19 29 .. .. .. .. .. .. .. .. .. .. .. .. .. .. .. .. .. .. .. .. 
.. .. .. .. .. .. .. .. .. .. .. .. .. .. .. 39 36 33 31 29 27 29 .. .. .. .. .. 27 .. .. 
.. .. .. .. .. .. .. .. .. 29 .. .. .. .. .. 39 36 33 31 29 27 24 .. .. .. .. .. .. .. .. 
.. .. .. 39 36 33 31 29 27 25 24 23 21 20 19 39 36 33 31 29 27 25 24 23 21 20 19 36 .. .. 
.. .. .. .. .. .. .. .. .. .. .. .. .. .. .. .. .. .. .. .. .. 39 36 33 31 29 27 36 .. .. 
.. .. .. 34 .. .. .. .. .. .. .. .. .. .. .. 36 .. .. .. .. .. .. .. .. .. .. .. 31 .. .. 
.. .. .. .. .. .. .. .. .. 39 36 33 31 29 27 25 24 23 21 20 19 36 .. .. .. .. .. .. .. .. 
.. .. .. .. .. .. .. .. .. .. .. .. .. .. .. .. .. .. .. .. .. .. .. .. .. .. .. 39 36 33 
31 29 27 36 .. .. .. .. .. 34 .. .. .. .. .. .. .. .. .. .. .. 36 .. .. .. .. .. .. .. .. 
.. .. .. 31 .. .. .. .. .. .. .. .. .. .. .. 39 36 33 31 29 27 25 24 23 21 20 19 36 .. .. 
.. .. .. .. .. .. .. .. .. 31 .. .. .. .. .. .. .. .. .. .. .. .. .. .. .. .. .. .. .. .. 
.. .. .. 39 36 33 31 29 27 31 .. .. .. .. .. 29 .. .. .. .. .. .. .. .. .. .. .. 31 .. .. 
.. .. .. .. .. .. .. .. .. 26 .. .. .. .. .. .. .. .. .. .. .. 39 36 33 31 29 27 25 24 23 
21 20 19 31 .. .. .. .. .. .. .. .. .. .. .. .. .. .. .. .. .. .. .. .. .. .. .. .. .. .. 
.. .. .. .. .. .. .. .. .. 39 36 33 31 29 27 31 .. .. .. .. .. 29 .. .. .. .. .. .. .. .. 
.. .. .. 31 .. .. .. .. .. .. .. .. .. .. .. 26 .. .. .. .. .. .. .. .. .. .. .. 39 36 33 
31 29 27 25 24 23 21 20 19 31 .. .. .. .. .. .. .. .. .. .. .. 34 .. .. .. .. .. .. .. .. 
.. .. .. .. .. .. .. .. .. .. .. .. .. .. .. 39 36 33 31 29 27 34 .. .. .. .. .. 32 .. .. 
.. .. .. .. .. .. .. .. .. 34 .. .. .. .. .. .. .. .. .. .. .. 29 .. .. .. .. .. .. .. .. 
.. .. .. 39 36 33 31 29 27 25 24 23 21 20 19 34 .. .. .. .. .. .. .. .. .. .. .. .. .. .. 
.. .. .. .. .. .. .. .. .. .. .. .. .. .. .. .. .. .. .. .. .. 39 36 33 31 29 27 34 .. .. 
.. .. .. 32 .. .. .. .. .. .. .. .. .. .. .. 34 .. .. .. .. .. .. .. .. .. .. .. 29 .. .. 
.. .. .. .. .. .. .. .. .. 39 36 33 31 29 27 25 24 23 21 20 19 34 .. .. .. .. .. .. .. .. 
.. .. .. 29 .. .. .. .. .. .. .. .. .. .. .. .. .. .. .. .. .. .. .. .. .. .. .. 39 36 33 
31 29 27 29 .. .. .. .. .. 27 .. .. .. .. .. .. .. .. .. .. .. 29 .. .. .. .. .. .. .. .. 
.. .. .. 24 .. .. .. .. .. .. .. .. .. .. .. 39 36 33 31 29 27 25 24 23 21 20 19 29 .. .. 
.. .. .. .. .. .. .. .. .. .. .. .. .. .. .. .. .. .. .. .. .. .. .. .. .. .. .. .. .. .. 
.. .. .. 39 36 33 31 29 27 29 .. .. .. .. .. 27 .. .. .. .. .. .. .. .. .. .. .. 29 .. .. 
.. .. .. 39 36 33 31 29 27 24 .. .. .. .. .. .. .. .. .. .. .. 39 36 33 31 29 27 25 24 23 
21 20 19 39 36 33 31 29 27 25 24 23 21 20 19 26 .. .. .. .. .. .. .. .. .. .. .. 38 .. .. 
.. .. .. 26 .. .. .. .. .. 39 36 33 31 29 27 25 24 23 21 20 19 38 .. .. .. .. .. .. .. .. 
.. .. .. 26 .. .. .. .. .. .. .. .. .. .. .. 38 .. .. .. .. .. 26 .. .. .. .. .. 39 36 33 
31 29 27 25 24 23 21 20 19 38 .. .. .. .. .. .. .. .. .. .. .. 29 .. .. .. .. .. .. .. .. 
.. .. .. 41 .. .. .. .. .. 29 .. .. .. .. .. 39 36 33 31 29 27 25 24 23 21 20 19 41 .. .. 
.. .. .. .. .. .. .. .. .. 29 .. .. .. .. .. .. .. .. .. .. .. 41 .. .. .. .. .. 29 .. .. 
.. .. .. 39 36 33 31 29 27 25 24 23 21 20 19 41 .. .. .. .. .. .. .. .. .. .. .. 24 .. .. 
.. .. .. .. .. .. .. .. .. 36 .. .. .. .. .. 24 .. .. .. .. .. 39 36 33 31 29 27 25 24 23 
21 20 19 36 .. .. .. .. .. .. .. .. .. .. .. 24 .. .. .. .. .. .. .. .. .. .. .. 36 .. .. 
.. .. .. 24 .. .. .. .. .. 39 36 33 31 29 27 25 24 23 21 20 19 36 .. .. .. .. .. .. .. .. 
.. .. .. 26 .. .. .. .. .. .. .. .. .. .. .. 38 .. .. .. .. .. 26 .. .. .. .. .. 39 36 33 
31 29 27 25 24 23 21 20 19 38 .. .. .. .. .. .. .. .. .. .. .. 26 .. .. .. .. .. 39 36 33 
31 29 27 38 .. .. .. .. .. 26 .. .. .. .. .. 39 36 33 31 29 27 25 24 23 21 20 19 38 .. .. 
.. .. .. .. .. .. .. .. .. 26 .. .. .. .. .. .. .. .. .. .. .. 38 .. .. .. .. .. 26 .. .. 
.. .. .. 39 36 33 31 29 27 25 24 23 21 20 19 38 .. .. .. .. .. .. .. .. .. .. .. 26 .. .. 
.. .. .. .. .. .. .. .. .. 38 .. .. .. .. .. 26 .. .. .. .. .. 39 36 33 31 29 27 25 24 23 
21 20 19 38 .. .. .. .. .. .. .. .. .. .. .. 29 .. .. .. .. .. .. .. .. .. .. .. 41 .. .. 
.. .. .. 29 .. .. .. .. .. 39 36 33 31 29 27 25 24 23 21 20 19 41 .. .. .. .. .. .. .. .. 
.. .. .. 29 .. .. .. .. .. .. .. .. .. .. .. 41 .. .. .. .. .. 29 .. .. .. .. .. 39 36 33 
31 29 27 25 24 23 21 20 19 41 .. .. .. .. .. .. .. .. .. .. .. 24 .. .. .. .. .. .. .. .. 
.. .. .. 36 .. .. .. .. .. 24 .. .. .. .. .. 39 36 33 31 29 27 25 24 23 21 20 19 36 .. .. 
.. .. .. .. .. .. .. .. .. 24 .. .. .. .. .. .. .. .. .. .. .. 36 .. .. .. .. .. 24 .. .. 
.. .. .. 39 36 33 31 29 27 25 24 23 21 20 19 36 .. .. .. .. .. .. .. .. .. .. .. 26 .. .. 
.. .. .. .. .. .. .. .. .. 38 .. .. .. .. .. 26 .. .. .. .. .. 39 36 33 31 29 27 25 24 23 
21 20 19 38 .. .. .. .. .. .. .. .. .. .. .. 26 .. .. .. .. .. 39 36 33 31 29 27 38 .. .. 
.. .. .. 26 .. .. .. .. .. 39 36 33 31 29 27 25 24 23 21 20 19 38 .. .. .. .. .. .. .. .. 
.. .. .. 26 .. .. .. .. .. .. .. .. .. .. .. 38 .. .. .. .. .. 26 .. .. .. .. .. 39 36 33 
31 29 27 25 24 23 21 20 19 38 .. .. .. .. .. .. .. .. .. .. .. 26 .. .. .. .. .. .. .. .. 
.. .. .. 38 .. .. .. .. .. 26 .. .. .. .. .. 39 36 33 31 29 27 25 24 23 21 20 19 38 .. .. 
.. .. .. .. .. .. .. .. .. 29 .. .. .. .. .. .. .. .. .. .. .. 41 .. .. .. .. .. 29 .. .. 
.. .. .. 39 36 33 31 29 27 25 24 23 21 20 19 41 .. .. .. .. .. .. .. .. .. .. .. 29 .. .. 
.. .. .. .. .. .. .. .. .. 41 .. .. .. .. .. 29 .. .. .. .. .. 39 36 33 31 29 27 25 24 23 
21 20 19 41 .. .. .. .. .. .. .. .. .. .. .. 24 .. .. .. .. .. .. .. .. .. .. .. 36 .. .. 
.. .. .. 24 .. .. .. .. .. 39 36 33 31 29 27 25 24 23 21 20 19 36 .. .. .. .. .. .. .. .. 
.. .. .. 24 .. .. .. .. .. .. .. .. .. .. .. 36 .. .. .. .. .. 24 .. .. .. .. .. 39 36 33 
31 29 27 25 24 23 21 20 19 36 .. .. .. .. .. .. .. .. .. .. .. 26 .. .. .. .. .. .. .. .. 
.. .. .. 38 .. .. .. .. .. 26 .. .. .. .. .. 39 36 33 31 29 27 25 24 23 21 20 19 38 .. .. 
.. .. .. .. .. .. .. .. .. 26 .. .. .. .. .. 39 36 33 31 29 27 38 .. .. .. .. .. 26 .. .. 
.. .. .. 39 36 33 31 29 27 25 24 23 21 20 19 38 .. .. .. .. .. .. .. .. .. .. .. 26 .. .. 
.. .. .. .. .. .. .. .. .. 38 .. .. .. .. .. 26 .. .. .. .. .. 39 36 33 31 29 27 25 24 23 
21 20 19 38 .. .. .. .. .. .. .. .. .. .. .. 26 .. .. .. .. .. .. .. .. .. .. .. 38 .. .. 
.. .. .. 26 .. .. .. .. .. 39 36 33 31 29 27 25 24 23 21 20 19 38 .. .. .. .. .. .. .. .. 
.. .. .. 29 .. .. .. .. .. .. .. .. .. .. .. 41 .. .. .. .. .. 29 .. .. .. .. .. 39 36 33 
31 29 27 25 24 23 21 20 19 41 .. .. .. .. .. .. .. .. .. .. .. 29 .. .. .. .. .. .. .. .. 
.. .. .. 41 .. .. .. .. .. 29 .. .. .. .. .. 39 36 33 31 29 27 25 24 23 21 20 19 41 .. .. 
.. .. .. .. .. .. .. .. .. 24 .. .. .. .. .. .. .. .. .. .. .. 36 .. .. .. .. .. 24 .. .. 
.. .. .. 39 36 33 31 29 27 25 24 23 21 20 19 36 .. .. .. .. .. .. .. .. .. .. .. 24 .. .. 
.. .. .. .. .. .. .. .. .. 36 .. .. .. .. .. 24 .. .. .. .. .. 39 36 33 31 29 27 25 24 23 
21 20 19 36 .. .. .. .. .. .. .. .. .. .. .. 26 .. .. .. .. .. .. .. .. .. .. .. 38 .. .. 
.. .. .. 26 .. .. .. .. .. 39 36 33 31 29 27 25 24 23 21 20 19 38 .. .. .. .. .. .. .. .. 
.. .. .. 26 .. .. .. .. .. 39 36 33 31 29 27 38 .. .. .. .. .. 26 .. .. .. .. .. 39 36 33 
31 29 27 25 24 23 21 20 19 38 .. .. .. .. .. .. .. .. .. .. .. 26 .. .. .. .. .. .. .. .. 
.. .. .. 38 .. .. .. .. .. 26 .. .. .. .. .. 39 36 33 31 29 27 25 24 23 21 20 19 38 .. .. 
.. .. .. .. .. .. .. .. .. 26 .. .. .. .. .. .. .. .. .. .. .. 38 .. .. .. .. .. 26 .. .. 
.. .. .. 39 36 33 31 29 27 25 24 23 21 20 19 38 .. .. .. .. .. .. .. .. .. .. .. 29 .. .. 
.. .. .. .. .. .. .. .. .. 41 .. .. .. .. .. 29 .. .. .. .. .. 39 36 33 31 29 27 25 24 23 
21 20 19 41 .. .. .. .. .. .. .. .. .. .. .. 29 .. .. .. .. .. .. .. .. .. .. .. 41 .. .. 
.. .. .. 29 .. .. .. .. .. 39 36 33 31 29 27 25 24 23 21 20 19 41 .. .. .. .. .. .. .. .. 
.. .. .. 24 .. .. .. .. .. .. .. .. .. .. .. 36 .. .. .. .. .. 24 .. .. .. .. .. 39 36 33 
31 29 27 25 24 23 21 20 19 36 .. .. .. .. .. .. .. .. .. .. .. 24 .. .. .. .. .. .. .. .. 
.. .. .. 36 .. .. .. .. .. 24 .. .. .. .. .. 39 36 33 31 29 27 25 24 23 21 20 19 36 .. .. 
.. .. .. .. .. .. .. .. .. 26 .. .. .. .. .. .. .. .. .. .. .. 38 .. .. .. .. .. 26 .. .. 
.. .. .. 39 36 33 31 29 27 25 24 23 21 20 19 38 .. .. .. .. .. .. .. .. .. .. .. 26 .. .. 
.. .. .. 39 36 33 31 29 27 38 .. .. .. .. .. 26 .. .. .. .. .. 39 36 33 31 29 27 25 24 23 
21 20 19 38 .. .. .. .. .. .. .. .. .. .. .. 26 .. .. .. .. .. .. .. .. .. .. .. 38 .. .. 
.. .. .. 26 .. .. .. .. .. 39 36 33 31 29 27 25 24 23 21 20 19 38 .. .. .. .. .. .. .. .. 
.. .. .. 26 .. .. .. .. .. .. .. .. .. .. .. 38 .. .. .. .. .. 26 .. .. .. .. .. 39 36 33 
31 29 27 25 24 23 21 20 19 38 .. .. .. .. .. .. .. .. .. .. .. 29 .. .. .. .. .. .. .. .. 
.. .. .. 41 .. .. .. .. .. 29 .. .. .. .. .. 39 36 33 31 29 27 25 24 23 21 20 19 41 .. .. 
.. .. .. .. .. .. .. .. .. 29 .. .. .. .. .. .. .. .. .. .. .. 41 .. .. .. .. .. 29 .. .. 
.. .. .. 39 36 33 31 29 27 25 24 23 21 20 19 41 .. .. .. .. .. .. .. .. .. .. .. 24 .. .. 
.. .. .. .. .. .. .. .. .. 36 .. .. .. .. .. 24 .. .. .. .. .. 39 36 33 31 29 27 25 24 23 
21 20 19 36 .. .. .. .. .. .. .. .. .. .. .. 24 .. .. .. .. .. .. .. .. .. .. .. 36 .. .. 
.. .. .. 24 .. .. .. .. .. 39 36 33 31 29 27 25 24 23 21 20 19 36 .. .. .. .. .. .. .. .. 
.. .. .. 26 .. .. .. .. .. .. .. .. .. .. .. 38 .. .. .. .. .. 26 .. .. .. .. .. 39 36 33 
31 29 27 25 24 23 21 20 19 38 .. .. .. .. .. .. .. .. .. .. .. 26 .. .. .. .. .. 39 36 33 
31 29 27 38 .. .. .. .. .. 26 .. .. .. .. .. 39 36 33 31 29 27 25 24 23 21 20 19 38 .. .. 
.. .. .. .. .. .. .. .. .. 26 .. .. .. .. .. .. .. .. .. .. .. 38 .. .. .. .. .. 26 .. .. 
.. .. .. 39 36 33 31 29 27 25 24 23 21 20 19 38 .. .. .. .. .. .. .. .. .. .. .. 26 .. .. 
.. .. .. .. .. .. .. .. .. 38 .. .. .. .. .. 26 .. .. .. .. .. 39 36 33 31 29 27 25 24 23 
21 20 19 38 .. .. .. .. .. .. .. .. .. .. .. 29 .. .. .. .. .. .. .. .. .. .. .. 41 .. .. 
.. .. .. 29 .. .. .. .. .. 39 36 33 31 29 27 25 24 23 21 20 19 41 .. .. .. .. .. .. .. .. 
.. .. .. 29 .. .. .. .. .. .. .. .. .. .. .. 41 .. .. .. .. .. 29 .. .. .. .. .. 39 36 33 
31 29 27 25 24 23 21 20 19 41 .. .. .. .. .. .. .. .. .. .. .. 24 .. .. .. .. .. .. 
! End
