! Simple
! Song 0
14 57 45 .. .. .. .. .. 58 46 .. .. .. .. .. 57 45 .. .. .. .. .. 53 41 .. .. .. .. .. 50 
38 .. .. .. .. .. 53 41 .. .. .. .. .. 57 45 .. .. .. .. .. 58 46 .. .. .. .. .. 57 45 .. 
.. .. .. .. 53 41 .. .. .. .. .. 50 38 .. .. .. .. .. 53 41 .. .. .. .. .. 57 45 .. .. .. 
.. .. 58 46 .. .. .. .. .. 60 48 .. .. .. .. .. 58 46 .. .. .. .. .. 57 45 .. .. .. .. .. 
58 46 .. .. .. .. .. 57 45 .. .. .. .. .. 53 41 .. .. .. .. .. 50 38 .. .. .. .. .. 53 41 
.. .. .. .. .. 57 45 .. .. .. .. .. 58 46 .. .. .. .. .. 57 45 .. .. .. .. .. 53 41 .. .. 
.. .. .. 50 38 .. .. .. .. .. 53 41 .. .. .. .. .. 57 45 .. .. .. .. .. 58 46 .. .. .. .. 
.. 60 48 .. .. .. .. .. 58 46 .. .. .. .. .. 69 55 43 .. .. .. .. 68 56 44 .. .. .. .. 67 
55 43 .. .. .. .. 63 51 39 .. .. .. .. 60 48 36 .. .. .. .. 63 51 39 .. .. .. .. 67 55 43 
.. .. .. .. 68 56 44 .. .. .. .. 67 55 43 .. .. .. .. 63 51 39 .. .. .. .. 60 48 36 .. .. 
.. .. 63 51 39 .. .. .. .. 67 55 43 .. .. .. .. 68 56 44 .. .. .. .. 70 58 46 .. .. .. .. 
68 56 44 .. .. .. .. 67 55 43 .. .. .. .. 68 56 44 .. .. .. .. 67 55 43 .. .. .. .. 63 51 
39 .. .. .. .. 60 48 36 .. .. .. .. 63 51 39 .. .. .. .. 67 55 43 .. .. .. .. 68 56 44 .. 
.. .. .. 67 55 43 .. .. .. .. 63 51 39 .. .. .. .. 60 48 36 .. .. .. .. 63 51 39 .. .. .. 
.. 67 55 43 .. .. .. .. 68 56 44 .. .. .. .. 70 58 46 .. .. .. .. 68 56 44 .. .. .. .. 79 
66 54 .. .. .. .. 79 67 55 .. .. .. .. 78 66 54 .. .. .. .. 74 62 50 .. .. .. .. 71 59 47 
.. .. .. .. 74 62 50 .. .. .. .. 78 66 54 .. .. .. .. 79 67 55 .. .. .. .. 78 66 54 .. .. 
.. .. 74 62 50 .. .. .. .. 71 59 47 .. .. .. .. 74 62 50 .. .. .. .. 78 66 54 .. .. .. .. 
79 67 55 .. .. .. .. 81 69 57 .. .. .. .. 79 67 55 .. .. .. .. 78 66 54 .. .. .. .. 79 67 
55 .. .. .. .. 78 66 54 .. .. .. .. 74 62 50 .. .. .. .. 71 59 47 .. .. .. .. 74 62 50 .. 
.. .. .. 78 66 54 .. .. .. .. 79 67 55 .. .. .. .. 78 66 54 .. .. .. .. 74 62 50 .. .. .. 
.. 71 59 47 .. .. .. .. 74 62 50 .. .. .. .. 78 66 54 .. .. .. .. 79 67 55 .. .. .. .. 81 
69 57 .. .. .. .. 79 67 55 .. .. .. .. 52 50 .. .. .. .. .. .. .. .. .. .. .. .. .. .. .. 
.. .. .. .. 53 56 59 62 .. .. .. .. .. .. .. .. .. .. .. .. .. .. .. .. .. 59 57 .. .. .. 
.. .. .. .. .. .. .. .. .. .. .. .. .. .. .. .. 59 .. .. .. .. .. .. .. .. .. .. .. .. .. 
.. .. .. .. .. .. .. 56 53 50 .. .. .. .. .. .. .. .. .. .. .. 47 .. .. .. .. .. .. .. .. 
.. .. .. .. .. 50 .. .. .. .. .. .. .. .. .. .. .. .. .. .. .. .. .. .. .. .. 53 56 59 62 
.. .. .. .. .. .. .. .. .. .. .. .. .. .. .. .. .. 59 57 .. .. .. .. .. .. .. .. .. .. .. 
.. .. .. .. .. .. .. .. 60 63 66 69 .. .. .. .. .. .. .. .. .. .. .. .. .. .. .. .. .. 66 
63 62 .. .. .. .. .. .. .. .. .. .. .. 50 .. .. .. .. .. .. 52 .. .. .. .. .. .. 54 .. .. 
.. .. .. .. .. .. .. .. .. .. .. .. .. .. .. .. .. .. .. .. .. .. .. .. .. .. .. .. .. .. 
.. .. .. .. .. .. .. .. .. .. .. .. .. .. .. .. .. .. .. .. .. .. .. .. .. .. .. .. .. .. 
57 .. .. .. .. .. .. 55 .. .. .. .. .. .. 54 .. .. .. .. .. .. .. .. .. .. .. .. .. 52 .. 
.. .. .. .. .. 47 .. .. .. .. .. .. .. .. .. .. .. .. .. 50 .. .. .. .. .. .. .. .. .. .. 
.. .. .. 52 .. .. .. .. .. .. .. .. .. .. .. .. .. 54 .. .. .. .. .. .. .. .. .. .. .. .. 
.. 52 .. .. .. .. .. .. .. .. .. .. .. .. .. 54 .. .. .. .. .. .. .. .. .. .. .. .. .. .. 
.. .. .. .. .. .. 51 .. .. .. .. .. .. .. .. .. .. .. .. .. .. .. .. .. .. .. .. 52 .. .. 
.. .. .. .. .. .. .. .. .. .. .. 55 .. .. .. .. .. .. .. .. .. .. .. .. .. .. .. .. .. .. 
.. .. .. .. .. .. .. .. .. .. .. .. .. .. .. .. .. .. .. .. .. .. .. .. .. .. .. .. .. .. 
.. .. .. .. .. .. .. .. .. .. .. .. .. .. 50 .. .. .. .. .. .. 52 .. .. .. .. .. .. 55 .. 
.. .. .. .. .. 57 .. .. .. .. .. .. 59 .. .. .. .. .. .. 57 .. .. .. .. .. .. 55 .. .. .. 
.. .. .. 57 .. .. .. .. .. .. .. .. .. .. .. .. .. 54 .. .. .. .. .. .. .. .. .. .. .. .. 
.. 55 .. .. .. .. .. .. .. .. .. .. .. .. .. 54 .. .. .. .. .. .. .. .. .. .. .. .. .. 55 
.. .. .. .. .. .. .. .. .. .. .. .. .. .. .. .. .. .. .. .. 52 .. .. .. .. .. .. .. .. .. 
.. .. .. .. .. .. .. .. .. .. .. 54 .. .. .. .. .. .. .. .. .. .. .. .. .. 57 .. .. .. .. 
.. .. .. .. .. .. .. .. .. .. .. .. .. .. .. .. .. .. .. .. .. .. .. .. .. .. .. .. .. .. 
.. .. .. .. .. .. .. .. .. .. .. .. .. .. .. .. .. .. .. .. .. .. .. .. .. .. .. .. .. .. 
.. .. .. .. .. 54 .. .. .. .. .. .. .. .. .. .. .. .. .. 57 60 62 .. .. .. .. .. .. .. .. 
.. .. .. 61 .. .. .. .. .. .. .. .. .. .. .. .. .. 60 .. .. .. .. .. .. .. .. .. .. .. .. 
.. .. .. .. .. .. .. .. 57 54 51 .. .. .. .. .. .. .. .. .. .. .. .. .. .. .. .. .. .. 52 
.. .. .. .. .. .. .. .. .. .. .. .. .. 55 58 59 .. .. .. .. .. .. .. .. .. .. .. .. .. .. 
.. .. .. .. 57 .. .. .. .. .. .. .. .. .. .. .. .. .. .. .. .. .. .. .. .. 54 .. .. .. .. 
.. .. .. .. .. .. .. .. .. 52 .. .. .. .. .. .. .. .. .. .. .. .. .. .. .. .. .. .. .. .. 
51 .. .. .. .. .. .. .. .. .. .. .. .. .. .. .. .. .. .. .. .. 50 .. .. .. .. .. .. .. .. 
.. .. .. .. .. .. .. .. .. .. .. .. .. .. .. .. .. .. .. 52 .. .. .. .. .. .. 55 .. .. .. 
.. .. .. 57 .. .. .. .. .. .. 59 .. .. .. .. .. .. 57 .. .. .. .. .. .. 55 .. .. .. .. .. 
.. 57 .. .. .. .. .. .. .. .. .. .. .. .. .. .. .. .. .. .. .. .. 54 52 .. .. .. .. .. .. 
.. .. .. .. .. .. .. .. .. .. .. .. .. 55 58 61 62 .. .. .. .. .. .. .. .. .. .. .. .. .. 
.. .. .. .. 59 .. .. .. .. .. .. 57 .. .. .. .. .. .. 54 52 .. .. .. .. .. 55 58 61 62 .. 
.. .. 59 .. .. .. .. .. .. 57 .. .. .. .. .. .. 54 52 .. .. .. .. .. 54 .. .. .. .. .. .. 
.. .. .. .. .. .. .. .. .. .. .. .. .. .. .. .. .. .. .. .. .. .. .. .. .. .. .. .. .. .. 
.. .. .. .. .. .. .. .. .. .. .. .. .. .. .. .. .. .. .. .. .. .. .. .. .. .. 57 .. .. .. 
.. .. .. 55 .. .. .. .. .. .. 54 .. .. .. .. .. .. .. .. .. .. .. .. .. 52 .. .. .. .. .. 
.. 47 .. .. .. .. .. .. .. .. .. .. .. .. .. 50 .. .. .. .. .. .. .. .. .. .. .. .. .. 52 
.. .. .. .. .. .. .. .. .. .. .. .. .. 54 .. .. .. .. .. .. .. .. .. .. .. .. .. 52 .. .. 
.. .. .. .. .. .. .. .. .. .. .. 54 .. .. .. .. .. .. .. .. .. .. .. .. .. .. .. .. .. .. 
.. .. 51 .. .. .. .. .. .. .. .. .. .. .. .. .. .. .. .. .. .. .. .. 52 .. .. .. .. .. .. 
.. .. .. .. .. .. .. 55 .. .. .. .. .. .. .. .. .. .. .. .. .. .. .. .. .. .. .. .. .. .. 
.. .. .. .. .. .. .. .. .. .. .. .. .. .. .. .. .. .. .. .. .. .. .. .. .. .. .. .. .. .. 
.. .. .. .. .. .. .. .. .. .. 50 .. .. .. .. .. .. 52 .. .. .. .. .. .. 55 .. .. .. .. .. 
.. 57 .. .. .. .. .. .. 59 .. .. .. .. .. .. 57 .. .. .. .. .. .. 55 .. .. .. .. .. .. 57 
.. .. .. .. .. .. .. .. .. .. .. .. .. 54 .. .. .. .. .. .. .. .. .. .. .. .. .. 55 .. .. 
.. .. .. .. .. .. .. .. .. .. .. 54 .. .. .. .. .. .. .. .. .. .. .. .. .. 55 .. .. .. .. 
.. .. .. .. .. .. .. .. .. .. .. .. .. .. .. .. 52 .. .. .. .. .. .. .. .. .. .. .. .. .. 
.. .. .. .. .. .. .. 54 .. .. .. .. .. .. .. .. .. .. .. .. .. 57 .. .. .. .. .. .. .. .. 
.. .. .. .. .. .. .. .. .. .. .. .. .. .. .. .. .. .. .. .. .. .. .. .. .. .. .. .. .. .. 
.. .. .. .. .. .. .. .. .. .. .. .. .. .. .. .. .. .. .. .. .. .. .. .. .. .. .. .. .. .. 
.. 54 .. .. .. .. .. .. .. .. .. .. .. .. .. 57 60 62 .. .. .. .. .. .. .. .. .. .. .. 61 
.. .. .. .. .. .. .. .. .. .. .. .. .. 60 .. .. .. .. .. .. .. .. .. .. .. .. .. .. .. .. 
.. .. .. .. 57 54 51 .. .. .. .. .. .. .. .. .. .. .. .. .. .. .. .. .. .. 52 .. .. .. .. 
.. .. .. .. .. .. .. .. .. 55 58 59 .. .. .. .. .. .. .. .. .. .. .. .. .. .. .. .. .. .. 
57 .. .. .. .. .. .. .. .. .. .. .. .. .. .. .. .. .. .. .. .. 54 .. .. .. .. .. .. .. .. 
.. .. .. .. .. 52 .. .. .. .. .. .. .. .. .. .. .. .. .. .. .. .. .. .. .. .. 51 .. .. .. 
.. .. .. .. .. .. .. .. .. .. .. .. .. .. .. .. .. 50 .. .. .. .. .. .. .. .. .. .. .. .. 
.. .. .. .. .. .. .. .. .. .. .. .. .. .. .. 52 .. .. .. .. .. .. 55 .. .. .. .. .. .. 57 
.. .. .. .. .. .. 59 .. .. .. .. .. .. 57 .. .. .. .. .. .. 55 .. .. .. .. .. .. 57 .. .. 
.. .. .. .. .. .. .. .. .. .. .. .. .. .. .. .. .. .. .. .. .. .. .. .. .. .. .. .. .. .. 
.. .. 60 62 .. .. .. .. .. .. .. .. .. .. .. .. .. .. .. .. .. .. .. 65 67 .. .. .. .. .. 
.. .. .. .. .. .. .. .. .. .. .. .. .. .. .. .. .. .. .. .. .. .. .. .. .. .. .. .. .. .. 
.. .. .. .. .. 55 .. .. .. .. .. .. .. .. .. .. .. .. .. 58 61 64 .. .. .. .. .. .. .. .. 
.. .. .. .. .. .. .. .. .. .. 61 60 .. .. .. .. .. .. .. .. .. .. .. .. .. .. .. .. .. .. 
.. 57 55 .. .. .. .. .. .. .. .. .. .. .. .. 58 61 64 .. .. .. .. .. .. .. .. .. .. .. .. 
.. .. .. .. .. .. 61 60 .. .. .. .. .. .. .. .. .. .. .. .. .. .. .. .. .. .. .. 57 55 .. 
.. .. .. .. .. .. .. .. .. .. .. .. .. .. .. .. .. .. .. .. .. .. .. .. .. 58 61 64 .. .. 
.. .. 66 .. .. .. .. .. .. 67 .. .. .. .. .. .. .. .. .. .. .. .. .. .. .. .. .. .. .. .. 
.. .. .. .. .. .. .. .. .. .. .. .. .. .. .. .. .. .. .. .. .. .. .. .. .. .. .. .. .. .. 
.. .. .. .. .. 66 .. .. .. .. .. .. .. .. .. .. .. .. .. 64 .. .. .. .. .. .. .. .. .. .. 
.. .. .. 62 .. .. .. .. .. .. .. .. .. .. .. .. .. .. .. .. .. .. .. .. 59 .. .. .. .. .. 
.. .. .. .. .. .. .. .. .. .. .. .. .. .. .. 56 55 .. .. .. .. .. .. .. .. .. .. .. .. 58 
61 62 .. .. .. .. .. .. .. .. .. .. .. .. .. .. .. .. .. .. 59 .. .. .. .. .. .. .. .. .. 
.. .. .. .. .. .. .. .. .. .. .. 56 55 .. .. .. .. .. .. .. .. .. .. .. .. .. .. .. .. .. 
.. .. .. .. .. .. .. .. .. 58 61 64 .. .. .. .. 66 .. .. .. .. .. .. 67 .. .. .. .. .. .. 
.. .. .. .. .. .. .. .. .. .. .. .. .. .. .. .. .. .. .. .. .. .. .. .. .. .. .. .. 66 .. 
.. .. .. .. .. 64 .. .. .. .. .. .. .. .. .. .. .. .. .. 62 .. .. .. .. .. .. .. .. .. .. 
.. .. .. 59 56 55 .. .. .. .. .. .. .. .. .. .. .. 58 61 64 .. .. .. .. .. .. .. .. .. .. 
.. .. .. .. .. .. .. .. 61 60 .. .. .. .. .. .. .. .. .. .. .. .. .. .. .. .. .. .. .. 57 
55 .. .. .. .. .. .. .. .. .. .. .. .. 58 61 64 .. .. .. .. .. .. .. .. .. .. .. .. .. .. 
.. .. .. .. 61 60 .. .. .. .. .. .. .. .. .. .. .. .. .. .. .. .. .. .. .. 57 55 .. .. .. 
.. .. .. .. .. .. .. .. .. .. .. .. .. .. .. .. .. .. .. .. .. .. .. 58 61 64 .. .. .. .. 
66 .. .. .. .. .. .. 67 .. .. .. .. .. .. .. .. .. .. .. .. .. .. .. .. .. .. .. .. .. .. 
.. .. .. .. .. .. .. .. .. .. .. .. .. .. .. .. .. .. .. .. .. .. .. .. .. .. .. .. .. .. 
.. .. .. 66 .. .. .. .. .. .. .. .. .. .. .. .. .. 64 .. .. .. .. .. .. .. .. .. .. .. .. 
.. .. .. .. .. .. .. .. .. .. .. .. .. .. .. .. .. .. .. .. .. .. 61 .. .. .. .. .. .. .. 
.. .. .. .. .. .. .. .. .. .. .. .. .. 58 57 .. .. .. .. .. .. .. .. .. .. .. .. 60 63 64 
.. .. .. .. .. .. .. .. .. .. .. .. .. .. .. .. .. .. 61 .. .. .. .. .. .. .. .. .. .. .. 
.. .. .. .. .. .. .. .. .. 58 57 .. .. .. .. .. .. .. .. .. .. .. .. 60 63 66 67 .. .. .. 
.. .. .. .. .. .. .. 69 .. .. .. .. .. .. 67 .. .. .. .. .. .. .. .. .. .. .. .. .. 66 .. 
.. .. .. .. .. 64 .. .. .. .. .. .. .. .. .. .. .. .. .. 62 .. .. .. .. .. .. .. .. .. .. 
.. .. .. .. .. .. .. .. .. .. .. .. .. .. .. .. .. .. .. .. .. .. .. .. .. .. .. .. .. .. 
.. 50 .. .. .. .. .. .. 52 .. .. .. .. .. .. 54 .. .. .. .. .. .. .. .. .. .. .. .. .. .. 
.. .. .. .. .. .. .. .. .. .. .. .. .. .. .. .. .. .. .. .. .. .. .. .. .. .. .. .. .. .. 
.. .. .. .. .. .. .. .. .. .. .. .. .. .. .. .. .. .. 57 .. .. .. .. .. .. 55 .. .. .. .. 
.. .. 54 .. .. .. .. .. .. .. .. .. .. .. .. .. 52 .. .. .. .. .. .. 47 .. .. .. .. .. .. 
.. .. .. .. .. .. .. 50 .. .. .. .. .. .. .. .. .. .. .. .. .. 52 .. .. .. .. .. .. .. .. 
.. .. .. .. .. 54 .. .. .. .. .. .. .. .. .. .. .. .. .. 52 .. .. .. .. .. .. .. .. .. .. 
.. .. .. 54 .. .. .. .. .. .. .. .. .. .. .. .. .. .. .. .. .. .. .. .. 51 .. .. .. .. .. 
.. .. .. .. .. .. .. .. .. .. .. .. .. .. .. 52 .. .. .. .. .. .. .. .. .. .. .. .. .. 55 
.. .. .. .. .. .. .. .. .. .. .. .. .. .. .. .. .. .. .. .. .. .. .. .. .. .. .. .. .. .. 
.. .. .. .. .. .. .. .. .. .. .. .. .. .. .. .. .. .. .. .. .. .. .. .. .. .. .. .. .. .. 
.. .. 50 .. .. .. .. .. .. 52 .. .. .. .. .. .. 55 .. .. .. .. .. .. 57 .. .. .. .. .. .. 
59 .. .. .. .. .. .. 57 .. .. .. .. .. .. 55 .. .. .. .. .. .. 57 .. .. .. .. .. .. .. .. 
.. .. .. .. .. 54 .. .. .. .. .. .. .. .. .. .. .. .. .. 55 .. .. .. .. .. .. .. .. .. .. 
.. .. .. 54 .. .. .. .. .. .. .. .. .. .. .. .. .. 55 .. .. .. .. .. .. .. .. .. .. .. .. 
.. .. .. .. .. .. .. .. 52 .. .. .. .. .. .. .. .. .. .. .. .. .. .. .. .. .. .. .. .. 54 
.. .. .. .. .. .. .. .. .. .. .. .. .. 57 .. .. .. .. .. .. .. .. .. .. .. .. .. .. .. .. 
.. .. .. .. .. .. .. .. .. .. .. .. .. .. .. .. .. .. .. .. .. .. .. .. .. .. .. .. .. .. 
.. .. .. .. .. .. .. .. .. .. .. .. .. .. .. .. .. .. .. .. .. .. .. 54 .. .. .. .. .. .. 
.. .. .. .. .. .. .. 57 60 62 .. .. .. .. .. .. .. .. .. .. .. 61 .. .. .. .. .. .. .. .. 
.. .. .. .. .. 60 .. .. .. .. .. .. .. .. .. .. .. .. .. .. .. .. .. .. .. .. 57 54 51 .. 
.. .. .. .. .. .. .. .. .. .. .. .. .. .. .. .. .. 52 .. .. .. .. .. .. .. .. .. .. .. .. 
.. 55 58 59 .. .. .. .. .. .. .. .. .. .. .. .. .. .. .. .. .. .. .. .. .. .. .. .. .. .. 
.. .. .. .. .. .. .. .. .. .. .. .. .. .. .. .. .. .. .. .. 57 .. .. .. .. .. .. 55 .. .. 
.. .. .. .. .. .. .. .. .. .. .. .. .. .. .. .. .. .. .. .. .. .. .. .. .. .. .. .. .. .. 
.. .. .. .. .. .. .. .. .. .. .. .. .. .. .. .. .. .. .. .. .. .. .. .. .. .. .. .. .. .. 
52 50 .. .. .. .. .. 52 .. .. .. .. .. .. 55 .. .. .. .. .. .. 57 .. .. .. .. .. .. 59 .. 
.. .. .. .. .. 57 .. .. .. .. .. .. 55 .. .. .. .. .. .. 57 .. .. .. .. .. .. .. .. .. .. 
.. .. .. .. .. .. .. .. .. .. .. .. .. .. .. .. .. .. .. .. .. .. .. .. 60 62 .. .. .. .. 
.. .. .. .. .. .. .. .. .. .. .. .. .. .. .. 65 67 .. .. .. .. .. .. .. .. .. .. .. .. .. 
.. .. .. .. .. .. .. .. .. .. .. .. .. .. .. .. .. .. .. .. .. .. .. .. .. .. .. .. .. .. 
.. .. .. .. .. .. .. .. .. .. .. 54 45 .. .. .. .. .. 58 46 .. .. .. .. .. 57 45 .. .. .. 
.. .. 53 41 .. .. .. .. .. 50 38 .. .. .. .. .. 53 41 .. .. .. .. .. 57 45 .. .. .. .. .. 
58 46 .. .. .. .. .. 57 45 .. .. .. .. .. 53 41 .. .. .. .. .. 50 38 .. .. .. .. .. 53 41 
.. .. .. .. .. 57 45 .. .. .. .. .. 58 46 .. .. .. .. .. 60 48 .. .. .. .. .. 58 46 .. .. 
.. .. .. 57 45 .. .. .. .. .. 58 46 .. .. .. .. .. 57 45 .. .. .. .. .. 53 41 .. .. .. .. 
.. 50 38 .. .. .. .. .. 53 41 .. .. .. .. .. 57 45 .. .. .. .. .. 58 46 .. .. .. .. .. 57 
45 .. .. .. .. .. 53 41 .. .. .. .. .. 50 38 .. .. .. .. .. 53 41 .. .. .. .. .. 57 45 .. 
.. .. .. .. 58 46 .. .. .. .. .. 60 48 .. .. .. .. .. 58 46 .. .. .. .. .. 69 55 43 .. .. 
.. .. 68 56 44 .. .. .. .. 67 55 43 .. .. .. .. 63 51 39 .. .. .. .. 60 48 36 .. .. .. .. 
63 51 39 .. .. .. .. 67 55 43 .. .. .. .. 68 56 44 .. .. .. .. 67 55 43 .. .. .. .. 63 51 
39 .. .. .. .. 60 48 36 .. .. .. .. 63 51 39 .. .. .. .. 67 55 43 .. .. .. .. 68 56 44 .. 
.. .. .. 70 58 46 .. .. .. .. 68 56 44 .. .. .. .. 67 55 43 .. .. .. .. 68 56 44 .. .. .. 
.. 67 55 43 .. .. .. .. 63 51 39 .. .. .. .. 60 48 36 .. .. .. .. 63 51 39 .. .. .. .. 67 
55 43 .. .. .. .. 68 56 44 .. .. .. .. 67 55 43 .. .. .. .. 63 51 39 .. .. .. .. 60 48 36 
.. .. .. .. 63 51 39 .. .. .. .. 67 55 43 .. .. .. .. 68 56 44 .. .. .. .. 70 58 46 .. .. 
.. .. 68 56 44 .. .. .. .. 79 66 54 .. .. .. .. 79 67 55 .. .. .. .. 78 66 54 .. .. .. .. 
74 62 50 .. .. .. .. 71 59 47 .. .. .. .. 74 62 50 .. .. .. .. 78 66 54 .. .. .. .. 79 67 
55 .. .. .. .. 78 66 54 .. .. .. .. 74 62 50 .. .. .. .. 71 59 47 .. .. .. .. 74 62 50 .. 
.. .. .. 78 66 54 .. .. .. .. 79 67 55 .. .. .. .. 81 69 57 .. .. .. .. 79 67 55 .. .. .. 
.. 78 66 54 .. .. .. .. 79 67 55 .. .. .. .. 78 66 54 .. .. .. .. 74 62 50 .. .. .. .. 71 
59 47 .. .. .. .. 74 62 50 .. .. .. .. 78 66 54 .. .. .. .. 79 67 55 .. .. .. .. 78 66 54 
.. .. .. .. 74 62 50 .. .. .. .. 71 59 47 .. .. .. .. 74 62 50 .. .. .. .. 78 66 54 .. .. 
.. .. 79 67 55 .. .. .. .. 81 69 57 .. .. .. .. 79 67 55 .. .. .. .. 52 50 .. .. .. .. .. 
.. .. .. .. .. .. .. .. .. .. .. .. .. .. 53 56 59 62 .. .. .. .. .. .. .. .. .. .. .. .. 
.. .. .. .. .. 59 57 .. .. .. .. .. .. .. .. .. .. .. .. .. .. .. .. .. .. .. 59 .. .. .. 
.. .. .. .. .. .. .. .. .. .. .. .. .. .. .. .. .. 56 53 50 .. .. .. .. .. .. .. .. .. .. 
.. 47 .. .. .. .. .. .. .. .. .. .. .. .. .. 50 .. .. .. .. .. .. .. .. .. .. .. .. .. .. 
.. .. .. .. .. .. 53 56 59 62 .. .. .. .. .. .. .. .. .. .. .. .. .. .. .. .. .. 59 57 .. 
.. .. .. .. .. .. .. .. .. .. .. .. .. .. .. .. .. .. 60 63 66 69 .. .. .. .. .. .. .. .. 
.. .. .. .. .. .. .. .. .. 66 63 62 .. .. .. .. .. .. .. .. .. .. .. 50 .. .. .. .. .. .. 
52 .. .. .. .. .. .. 54 .. .. .. .. .. .. .. .. .. .. .. .. .. .. .. .. .. .. .. .. .. .. 
.. .. .. .. .. .. .. .. .. .. .. .. .. .. .. .. .. .. .. .. .. .. .. .. .. .. .. .. .. .. 
.. .. .. .. .. .. .. .. .. .. 57 .. .. .. .. .. .. 55 .. .. .. .. .. .. 54 .. .. .. .. .. 
.. .. .. .. .. .. .. .. 52 .. .. .. .. .. .. 47 .. .. .. .. .. .. .. .. .. .. .. .. .. 50 
.. .. .. .. .. .. .. .. .. .. .. .. .. 52 .. .. .. .. .. .. .. .. .. .. .. .. .. 54 .. .. 
.. .. .. .. .. .. .. .. .. .. .. 52 .. .. .. .. .. .. .. .. .. .. .. .. .. 54 .. .. .. .. 
.. .. .. .. .. .. .. .. .. .. .. .. .. .. .. .. 51 .. .. .. .. .. .. .. .. .. .. .. .. .. 
.. .. .. .. .. .. .. 52 .. .. .. .. .. .. .. .. .. .. .. .. .. 55 .. .. .. .. .. .. .. .. 
.. .. .. .. .. .. .. .. .. .. .. .. .. .. .. .. .. .. .. .. .. .. .. .. .. .. .. .. .. .. 
.. .. .. .. .. .. .. .. .. .. .. .. .. .. .. .. .. .. .. .. .. .. .. .. 50 .. .. .. .. .. 
.. 52 .. .. .. .. .. .. 55 .. .. .. .. .. .. 57 .. .. .. .. .. .. 59 .. .. .. .. .. .. 57 
.. .. .. .. .. .. 55 .. .. .. .. .. .. 57 .. .. .. .. .. .. .. .. .. .. .. .. .. 54 .. .. 
.. .. .. .. .. .. .. .. .. .. .. 55 .. .. .. .. .. .. .. .. .. .. .. .. .. 54 .. .. .. .. 
.. .. .. .. .. .. .. .. .. 55 .. .. .. .. .. .. .. .. .. .. .. .. .. .. .. .. .. .. .. .. 
52 .. .. .. .. .. .. .. .. .. .. .. .. .. .. .. .. .. .. .. .. 54 .. .. .. .. .. .. .. .. 
.. .. .. .. .. 57 .. .. .. .. .. .. .. .. .. .. .. .. .. .. .. .. .. .. .. .. .. .. .. .. 
.. .. .. .. .. .. .. .. .. .. .. .. .. .. .. .. .. .. .. .. .. .. .. .. .. .. .. .. .. .. 
.. .. .. .. .. .. .. .. .. .. .. .. .. .. .. 54 .. .. .. .. .. .. .. .. .. .. .. .. .. 57 
60 62 .. .. .. .. .. .. .. .. .. .. .. 61 .. .. .. .. .. .. .. .. .. .. .. .. .. 60 .. .. 
.. .. .. .. .. .. .. .. .. .. .. .. .. .. .. .. .. .. 57 54 51 .. .. .. .. .. .. .. .. .. 
.. .. .. .. .. .. .. .. .. 52 .. .. .. .. .. .. .. .. .. .. .. .. .. 55 58 59 .. .. .. .. 
.. .. .. .. .. .. .. .. .. .. .. .. .. .. 57 .. .. .. .. .. .. .. .. .. .. .. .. .. .. .. 
.. .. .. .. .. 54 .. .. .. .. .. .. .. .. .. .. .. .. .. 52 .. .. .. .. .. .. .. .. .. .. 
.. .. .. .. .. .. .. .. .. .. 51 .. .. .. .. .. .. .. .. .. .. .. .. .. .. .. .. .. .. .. 
.. 50 .. .. .. .. .. .. .. .. .. .. .. .. .. .. .. .. .. .. .. .. .. .. .. .. .. .. .. 52 
.. .. .. .. .. .. 55 .. .. .. .. .. .. 57 .. .. .. .. .. .. 59 .. .. .. .. .. .. 57 .. .. 
.. .. .. .. 55 .. .. .. .. .. .. 57 .. .. .. .. .. .. .. .. .. .. .. .. .. .. .. .. .. .. 
.. .. 54 52 .. .. .. .. .. .. .. .. .. .. .. .. .. .. .. .. .. .. .. 55 58 61 62 .. .. .. 
.. .. .. .. .. .. .. .. .. .. .. .. .. .. 59 .. .. .. .. .. .. 57 .. .. .. .. .. .. 54 52 
.. .. .. .. .. 55 58 61 62 .. .. .. 59 .. .. .. .. .. .. 57 .. .. .. .. .. .. 54 52 .. .. 
.. .. .. 54 .. .. .. .. .. .. .. .. .. .. .. .. .. .. .. .. .. .. .. .. .. .. .. .. .. .. 
.. .. .. .. .. .. .. .. .. .. .. .. .. .. .. .. .. .. .. .. .. .. .. .. .. .. .. .. .. .. 
.. .. .. .. .. .. 57 .. .. .. .. .. .. 55 .. .. .. .. .. .. 54 .. .. .. .. .. .. .. .. .. 
.. .. .. .. 52 .. .. .. .. .. .. 47 .. .. .. .. .. .. .. .. .. .. .. .. .. 50 .. .. .. .. 
.. .. .. .. .. .. .. .. .. 52 .. .. .. .. .. .. .. .. .. .. .. .. .. 54 .. .. .. .. .. .. 
.. .. .. .. .. .. .. 52 .. .. .. .. .. .. .. .. .. .. .. .. .. 54 .. .. .. .. .. .. .. .. 
.. .. .. .. .. .. .. .. .. .. .. .. 51 .. .. .. .. .. .. .. .. .. .. .. .. .. .. .. .. .. 
.. .. .. 52 .. .. .. .. .. .. .. .. .. .. .. .. .. 55 .. .. .. .. .. .. .. .. .. .. .. .. 
.. .. .. .. .. .. .. .. .. .. .. .. .. .. .. .. .. .. .. .. .. .. .. .. .. .. .. .. .. .. 
.. .. .. .. .. .. .. .. .. .. .. .. .. .. .. .. .. .. .. .. 50 .. .. .. .. .. .. 52 .. .. 
.. .. .. .. 55 .. .. .. .. .. .. 57 .. .. .. .. .. .. 59 .. .. .. .. .. .. 57 .. .. .. .. 
.. .. 55 .. .. .. .. .. .. 57 .. .. .. .. .. .. .. .. .. .. .. .. .. 54 .. .. .. .. .. .. 
.. .. .. .. .. .. .. 55 .. .. .. .. .. .. .. .. .. .. .. .. .. 54 .. .. .. .. .. .. .. .. 
.. .. .. .. .. 55 .. .. .. .. .. .. .. .. .. .. .. .. .. .. .. .. .. .. .. .. 52 .. .. .. 
.. .. .. .. .. .. .. .. .. .. .. .. .. .. .. .. .. 54 .. .. .. .. .. .. .. .. .. .. .. .. 
.. 57 .. .. .. .. .. .. .. .. .. .. .. .. .. .. .. .. .. .. .. .. .. .. .. .. .. .. .. .. 
.. .. .. .. .. .. .. .. .. .. .. .. .. .. .. .. .. .. .. .. .. .. .. .. .. .. .. .. .. .. 
.. .. .. .. .. .. .. .. .. .. .. 54 .. .. .. .. .. .. .. .. .. .. .. .. .. 57 60 62 .. .. 
.. .. .. .. .. .. .. .. .. 61 .. .. .. .. .. .. .. .. .. .. .. .. .. 60 .. .. .. .. .. .. 
.. .. .. .. .. .. .. .. .. .. .. .. .. .. 57 54 51 .. .. .. .. .. .. .. .. .. .. .. .. .. 
.. .. .. .. .. 52 .. .. .. .. .. .. .. .. .. .. .. .. .. 55 58 59 .. .. .. .. .. .. .. .. 
.. .. .. .. .. .. .. .. .. .. 57 .. .. .. .. .. .. .. .. .. .. .. .. .. .. .. .. .. .. .. 
.. 54 .. .. .. .. .. .. .. .. .. .. .. .. .. 52 .. .. .. .. .. .. .. .. .. .. .. .. .. .. 
.. .. .. .. .. .. 51 .. .. .. .. .. .. .. .. .. .. .. .. .. .. .. .. .. .. .. .. 50 .. .. 
.. .. .. .. .. .. .. .. .. .. .. .. .. .. .. .. .. .. .. .. .. .. .. .. .. 52 .. .. .. .. 
.. .. 55 .. .. .. .. .. .. 57 .. .. .. .. .. .. 59 .. .. .. .. .. .. 57 .. .. .. .. .. .. 
55 .. .. .. .. .. .. 57 .. .. .. .. .. .. .. .. .. .. .. .. .. .. .. .. .. .. .. .. .. .. 
.. .. .. .. .. .. .. .. .. .. .. .. 60 62 .. .. .. .. .. .. .. .. .. .. .. .. .. .. .. .. 
.. .. .. 65 67 .. .. .. .. .. .. .. .. .. .. .. .. .. .. .. .. .. .. .. .. .. .. .. .. .. 
.. .. .. .. .. .. .. .. .. .. .. .. .. .. .. 55 .. .. .. .. .. .. .. .. .. .. .. .. 
! Song 1
14 62 63 .. .. .. .. .. .. .. .. .. .. .. .. 62 61 .. .. .. .. .. 62 63 .. .. .. .. .. .. 
.. .. .. .. .. .. 64 .. .. .. .. .. .. .. .. .. .. .. .. .. 65 66 .. .. .. .. .. .. .. .. 
.. .. .. .. 65 64 .. .. .. .. .. .. .. .. .. .. .. .. 63 .. .. .. .. .. .. 62 61 .. .. .. 
.. .. .. .. .. .. .. .. .. 60 59 .. .. .. .. .. .. .. .. .. .. .. .. 58 .. .. .. .. .. .. 
.. .. .. .. .. .. .. 61 64 66 .. .. .. .. 63 60 57 56 .. .. .. .. .. .. .. .. .. .. 59 62 
64 .. .. .. .. .. .. .. .. .. .. .. 61 58 55 54 .. .. .. .. .. .. .. .. .. .. 57 60 63 .. 
.. .. .. .. .. .. .. .. .. .. 60 59 .. .. .. .. .. 56 54 .. .. .. .. .. .. .. .. .. .. .. 
.. 39 .. .. .. .. .. .. 40 .. .. .. .. .. .. 42 .. .. .. .. .. .. .. .. .. .. .. .. .. 41 
.. .. .. .. .. .. 43 44 .. .. .. .. .. .. .. .. .. .. .. .. 42 .. .. .. .. .. .. .. .. .. 
.. .. .. .. 44 46 47 .. .. .. .. .. .. .. .. .. .. .. 46 .. .. .. .. .. .. 47 .. .. .. .. 
.. .. 49 .. .. .. .. .. .. 51 .. .. .. .. .. .. 49 .. .. .. .. .. .. 51 .. .. .. .. .. .. 
52 .. .. .. .. .. .. 54 .. .. .. .. .. .. .. .. .. .. .. .. .. .. .. .. .. .. .. .. .. .. 
.. .. .. .. .. .. .. .. .. .. .. .. .. .. .. .. .. .. .. .. .. .. .. .. .. .. 52 50 48 47 
.. .. .. .. .. .. .. .. .. .. 49 51 .. .. .. .. .. .. .. .. .. .. .. .. 53 54 .. .. .. .. 
.. 56 58 59 .. .. .. .. .. .. .. .. .. .. .. .. .. .. .. .. .. .. .. .. .. .. .. .. .. 58 
.. .. .. .. .. .. .. .. .. .. .. .. .. .. .. .. .. .. .. .. .. .. .. .. .. .. .. .. .. .. 
.. .. .. .. .. .. .. .. .. .. .. .. .. .. .. .. .. .. .. .. .. .. .. .. .. .. .. .. .. .. 
.. .. .. .. .. .. .. .. .. .. .. .. .. .. .. .. .. .. .. .. .. .. .. .. .. .. .. .. .. .. 
.. .. .. .. .. .. .. .. .. .. .. .. .. .. .. .. .. .. .. .. .. .. .. .. .. .. .. .. .. .. 
.. .. .. .. .. .. .. .. .. .. .. 
! Song 2
14 47 50 .. .. .. .. .. .. .. .. .. .. .. .. .. .. .. .. .. .. .. .. .. .. .. .. .. .. .. 
.. .. .. .. .. .. .. .. .. .. .. .. .. .. .. .. .. .. .. .. .. .. .. .. .. .. .. .. .. .. 
.. .. .. .. .. .. .. .. .. .. .. .. .. .. .. .. .. .. .. .. .. .. 38 .. .. .. .. .. .. .. 
.. .. .. .. .. .. .. .. .. .. 46 .. .. .. .. .. .. .. .. .. .. .. .. .. .. .. .. .. 53 .. 
.. .. .. .. .. .. .. .. .. .. .. .. .. .. .. .. 50 .. .. .. .. .. .. .. .. 48 .. .. .. .. 
.. .. .. .. .. .. .. .. .. .. .. .. .. .. .. .. .. .. .. .. .. .. .. .. .. .. .. .. .. .. 
.. .. .. .. .. .. .. .. .. .. .. .. .. .. .. .. .. .. .. .. .. .. .. .. .. .. .. .. .. .. 
.. .. .. .. .. .. .. .. .. .. .. .. .. .. .. .. 36 .. .. .. .. .. .. .. .. .. .. .. .. .. 
.. .. .. .. 44 .. .. .. .. .. .. .. .. 48 .. .. .. .. .. .. .. .. 51 .. .. .. .. .. .. .. 
.. .. .. .. .. .. .. .. .. .. 48 .. .. .. .. .. .. .. .. 46 .. .. .. .. .. .. .. .. .. .. 
.. .. .. .. .. .. .. .. .. .. .. .. .. .. .. .. .. .. .. .. .. .. .. .. .. .. .. .. .. .. 
.. .. .. .. 49 .. .. .. .. .. .. .. .. 46 .. .. .. .. .. .. .. .. .. .. .. .. .. .. .. .. 
.. 48 .. .. .. .. .. .. .. .. .. .. .. .. .. .. .. .. .. .. .. .. .. .. .. .. .. .. 49 .. 
.. .. .. .. .. .. .. .. .. .. .. .. .. .. .. .. 48 .. .. .. .. .. .. .. .. .. .. .. .. .. 
.. .. .. .. 36 .. .. .. .. .. .. .. .. 46 .. .. .. .. .. .. .. .. .. .. .. .. .. .. .. .. 
.. .. .. .. .. .. .. .. .. .. .. .. .. .. .. .. .. .. .. .. .. .. .. .. .. .. .. .. .. .. 
.. .. .. .. .. .. .. .. .. .. .. .. .. .. .. .. .. .. .. .. .. .. .. .. .. .. .. .. .. .. 
.. .. .. .. .. .. .. .. .. .. .. .. .. .. .. .. .. .. .. .. .. .. .. .. .. .. .. .. .. .. 
.. .. .. .. .. .. .. .. .. .. .. .. .. .. .. .. .. .. .. .. .. .. .. .. .. .. .. .. .. .. 
.. .. .. .. .. .. .. 43 .. .. .. .. .. .. .. .. .. .. .. .. .. .. .. .. .. .. .. .. .. .. 
.. .. .. .. .. .. .. .. .. .. .. .. .. .. .. .. .. .. .. .. .. .. .. .. .. .. .. .. .. .. 
.. .. .. .. .. .. .. .. .. .. .. .. .. .. .. .. .. .. .. .. .. .. .. .. .. .. .. .. .. .. 
.. .. 
! Song 3
14 38 26 .. .. .. .. .. .. .. .. .. .. .. .. 50 38 .. .. .. .. .. .. .. .. .. .. .. .. 38 
26 .. .. .. .. .. .. .. .. .. .. .. .. 50 38 .. .. .. .. .. .. .. .. .. .. .. .. .. .. .. 
.. .. .. .. .. .. .. .. .. .. .. .. .. .. .. .. .. .. .. .. .. .. .. .. .. .. .. .. .. .. 
.. .. .. .. .. .. .. .. .. .. .. .. .. .. .. .. .. .. .. .. .. .. .. 38 26 .. .. .. .. .. 
.. .. .. .. .. .. .. 50 38 .. .. .. .. .. .. .. .. .. .. .. .. 38 26 .. .. .. .. .. .. .. 
.. .. .. .. .. 50 38 .. .. .. .. .. .. .. .. .. .. .. .. .. .. .. .. .. .. .. .. .. .. .. 
.. .. .. .. .. .. .. .. .. .. .. .. .. .. .. .. .. .. .. .. .. .. .. .. .. .. .. .. .. .. 
.. .. .. .. .. .. .. .. .. .. .. .. .. .. .. 38 26 .. .. .. .. .. .. .. .. .. .. .. .. 50 
38 .. .. .. .. .. .. .. .. .. .. .. .. 38 26 .. .. .. .. .. .. .. .. .. .. .. .. 50 38 .. 
.. .. .. .. .. .. .. .. .. .. .. .. .. .. .. .. .. .. .. .. .. .. .. .. .. .. .. .. .. .. 
.. .. .. .. .. .. .. .. .. .. .. .. .. .. .. .. .. .. .. .. .. .. .. .. .. .. .. .. .. .. 
.. .. .. .. .. .. .. 38 26 .. .. .. .. .. .. .. .. .. .. .. .. 50 38 .. .. .. .. .. .. .. 
.. .. .. .. .. 38 26 .. .. .. .. .. .. .. .. .. .. .. .. 50 38 .. .. .. .. .. .. .. .. .. 
.. .. .. .. .. .. .. .. .. .. .. .. .. .. .. .. .. .. .. .. .. .. .. .. .. .. .. .. .. .. 
.. .. .. .. .. .. .. .. .. .. .. .. .. .. .. .. .. .. .. .. .. .. .. .. .. .. .. .. .. 38 
26 .. .. .. .. .. .. .. .. .. .. .. .. 50 38 .. .. .. .. .. .. .. .. .. .. .. .. 38 26 .. 
.. .. .. .. .. .. .. .. .. .. .. 50 38 .. .. .. .. .. .. .. .. .. .. .. .. .. .. .. .. .. 
.. .. .. .. .. .. .. .. .. .. .. .. .. .. .. .. .. .. .. .. .. .. .. .. .. .. .. .. .. .. 
.. .. .. .. .. .. .. .. .. .. .. .. .. .. .. .. .. .. .. .. .. 38 26 .. .. .. .. .. .. .. 
.. .. .. .. .. 50 38 .. .. .. .. .. .. .. .. .. .. .. .. 38 26 .. .. .. .. .. .. .. .. .. 
.. .. .. 50 38 .. .. .. .. .. .. .. .. .. .. .. .. .. .. .. .. .. .. .. .. .. .. .. .. .. 
.. .. .. .. .. .. .. .. .. .. .. .. .. .. .. .. .. .. .. .. .. .. .. .. .. .. .. .. .. .. 
.. .. .. .. .. .. .. .. .. .. .. .. .. 38 26 .. .. .. .. .. .. .. .. .. .. .. .. 50 38 .. 
.. .. .. .. .. .. .. .. .. .. .. 38 26 .. .. .. .. .. .. .. .. .. .. .. .. 50 38 .. .. .. 
.. .. .. .. .. .. .. .. .. .. .. .. .. .. .. .. .. .. .. .. .. .. .. .. .. .. .. .. .. .. 
.. .. .. .. .. .. .. .. .. .. .. .. .. .. .. .. .. .. .. .. .. .. .. .. .. .. .. .. .. .. 
.. .. .. .. .. 38 26 .. .. .. .. .. .. .. .. .. .. .. .. 50 38 .. .. .. .. .. .. .. .. .. 
.. .. .. 38 26 .. .. .. .. .. .. .. .. .. .. .. .. 50 38 .. .. .. .. .. .. .. .. .. .. .. 
.. .. .. .. .. .. .. .. .. .. .. .. .. .. .. .. .. .. .. .. .. .. .. .. .. .. .. .. .. .. 
.. .. .. .. .. .. .. .. .. .. .. .. .. .. .. .. .. .. .. .. .. .. .. .. .. .. .. 64 40 44 
.. 47 .. 52 64 40 44 .. 47 .. 52 64 40 44 .. 47 .. 52 64 40 44 .. 47 .. 52 64 40 44 .. 47 
.. 52 64 40 44 .. 47 .. 52 64 40 44 .. 47 .. 52 64 40 44 .. 47 .. 52 64 40 44 .. 47 .. 52 
64 40 44 .. 47 .. 52 64 40 44 .. 47 .. 52 64 40 44 .. 47 .. 52 64 40 44 .. 47 .. 52 64 40 
44 .. 47 .. 52 64 40 44 .. 47 .. 52 64 40 44 .. 47 .. 52 67 43 47 .. 50 .. 55 67 43 47 .. 
50 .. 55 67 43 47 .. 50 .. 55 67 43 47 .. 50 .. 55 67 43 47 .. 50 .. 55 67 43 47 .. 50 .. 
55 67 43 47 .. 50 .. 55 67 43 47 .. 50 .. 55 66 42 46 .. 49 .. 54 66 42 46 .. 49 .. 54 66 
42 46 .. 49 .. 54 66 42 46 .. 49 .. 54 66 42 46 .. 49 .. 54 66 42 46 .. 49 .. 54 66 42 46 
.. 49 .. 54 66 42 46 .. 49 .. 54 64 40 44 .. 47 .. 52 64 40 44 .. 47 .. 52 64 40 44 .. 47 
.. 52 64 40 44 .. 47 .. 52 64 40 44 .. 47 .. 52 64 40 44 .. 47 .. 52 64 40 44 .. 47 .. 52 
64 40 44 .. 47 .. 52 64 40 44 .. 47 .. 52 64 40 44 .. 47 .. 52 64 40 44 .. 47 .. 52 64 40 
44 .. 47 .. 52 64 40 44 .. 47 .. 52 64 40 44 .. 47 .. 52 64 40 44 .. 47 .. 52 64 40 44 .. 
47 .. 52 67 43 47 .. 50 .. 55 67 43 47 .. 50 .. 55 67 43 47 .. 50 .. 55 67 43 47 .. 50 .. 
55 67 43 47 .. 50 .. 55 67 43 47 .. 50 .. 55 67 43 47 .. 50 .. 55 67 43 47 .. 50 .. 55 69 
45 49 .. 52 .. 57 69 45 49 .. 52 .. 57 69 45 49 .. 52 .. 57 69 45 49 .. 52 .. 57 69 45 49 
.. 52 .. 57 69 45 49 .. 52 .. 57 69 45 49 .. 52 .. 57 69 45 49 .. 52 .. 57 64 40 44 .. 47 
.. 52 64 40 44 .. 47 .. 52 64 40 44 .. 47 .. 52 64 40 44 .. 47 .. 52 64 40 44 .. 47 .. 52 
64 40 44 .. 47 .. 52 64 40 44 .. 47 .. 52 64 40 44 .. 47 .. 52 64 40 44 .. 47 .. 52 64 40 
44 .. 47 .. 52 64 40 44 .. 47 .. 52 64 40 44 .. 47 .. 52 64 40 44 .. 47 .. 52 64 40 44 .. 
47 .. 52 64 40 44 .. 47 .. 52 64 40 44 .. 47 .. 52 67 43 47 .. 50 .. 55 67 43 47 .. 50 .. 
55 67 43 47 .. 50 .. 55 67 43 47 .. 50 .. 55 67 43 47 .. 50 .. 55 67 43 47 .. 50 .. 55 67 
43 47 .. 50 .. 55 67 43 47 .. 50 .. 55 66 42 46 .. 49 .. 54 66 42 46 .. 49 .. 54 66 42 46 
.. 49 .. 54 66 42 46 .. 49 .. 54 66 42 46 .. 49 .. 54 66 42 46 .. 49 .. 54 66 42 46 .. 49 
.. 54 66 42 46 .. 49 .. 54 64 40 44 .. 47 .. 52 64 40 44 .. 47 .. 52 64 40 44 .. 47 .. 52 
64 40 44 .. 47 .. 52 64 40 44 .. 47 .. 52 64 40 44 .. 47 .. 52 64 40 44 .. 47 .. 52 64 40 
44 .. 47 .. 52 64 40 44 .. 47 .. 52 64 40 44 .. 47 .. 52 64 40 44 .. 47 .. 52 64 40 44 .. 
47 .. 52 64 40 44 .. 47 .. 52 64 40 44 .. 47 .. 52 64 40 44 .. 47 .. 52 64 40 44 .. 47 .. 
52 67 43 47 .. 50 .. 55 67 43 47 .. 50 .. 55 67 43 47 .. 50 .. 55 67 43 47 .. 50 .. 55 67 
43 47 .. 50 .. 55 67 43 47 .. 50 .. 55 67 43 47 .. 50 .. 55 67 43 47 .. 50 .. 55 69 45 49 
.. 52 .. 57 69 45 49 .. 52 .. 57 69 45 49 .. 52 .. 57 69 45 49 .. 52 .. 57 69 45 49 .. 52 
.. 57 69 45 49 .. 52 .. 57 69 45 49 .. 52 .. 57 69 45 49 .. 52 .. 57 50 .. .. .. .. .. .. 
57 .. .. .. .. .. .. 62 .. .. .. .. .. .. 50 .. .. .. .. .. .. .. .. .. .. .. .. .. 62 .. 
.. .. .. .. .. .. .. .. .. .. .. .. 60 .. .. .. .. .. .. 62 .. .. .. .. .. .. 60 .. .. .. 
.. .. .. 59 .. .. .. .. .. .. 60 .. .. .. .. .. .. 57 .. .. .. .. .. .. 59 .. .. .. .. .. 
.. 60 .. .. .. .. .. .. 57 .. .. .. .. .. .. 50 .. .. .. .. .. .. 60 .. .. .. .. .. .. 62 
.. .. .. .. .. .. 60 .. .. .. .. .. .. 50 .. .. .. .. .. .. 62 .. .. .. .. .. .. .. .. .. 
.. .. .. .. 60 .. .. .. .. .. .. 62 .. .. .. .. .. .. 60 .. .. .. .. .. .. 59 .. .. .. .. 
.. .. 62 .. .. .. .. .. .. 57 .. .. .. .. .. .. 59 .. .. .. .. .. .. 53 .. .. .. .. .. .. 
52 .. .. .. .. .. .. 50 .. .. .. .. .. .. 53 .. .. .. .. .. .. 62 .. .. .. .. .. .. 50 .. 
.. .. .. .. .. .. .. .. .. .. .. .. 62 .. .. .. .. .. .. .. .. .. .. .. .. .. 60 .. .. .. 
.. .. .. 62 .. .. .. .. .. .. 60 .. .. .. .. .. .. 59 .. .. .. .. .. .. 62 .. .. .. .. .. 
.. 57 .. .. .. .. .. .. 60 .. .. .. .. .. .. .. .. .. .. .. .. .. 57 .. .. .. .. .. .. 50 
.. .. .. .. .. .. 60 .. .. .. .. .. .. 62 .. .. .. .. .. .. 50 .. .. .. .. .. .. .. .. .. 
.. .. .. .. 62 .. .. .. .. .. .. .. .. .. .. .. .. .. 67 .. .. .. .. .. .. 62 .. .. .. .. 
.. .. 67 .. .. .. .. .. .. 65 .. .. .. .. .. .. 67 .. .. .. .. .. .. 60 .. .. .. .. .. .. 
65 .. .. .. .. .. .. 57 .. .. .. .. .. .. 60 .. .. .. .. .. .. 50 .. .. .. .. .. .. 57 .. 
.. .. .. .. .. 62 .. .. .. .. .. .. 50 .. .. .. .. .. .. .. .. .. .. .. .. .. 62 .. .. .. 
.. .. .. .. .. .. .. .. .. .. 60 .. .. .. .. .. .. 62 .. .. .. .. .. .. 60 .. .. .. .. .. 
.. 59 .. .. .. .. .. .. 60 .. .. .. .. .. .. 57 .. .. .. .. .. .. 59 .. .. .. .. .. .. 60 
.. .. .. .. .. .. 57 .. .. .. .. .. .. 50 .. .. .. .. .. .. 60 .. .. .. .. .. .. 62 .. .. 
.. .. .. .. 60 .. .. .. .. .. .. 50 .. .. .. .. .. .. 62 .. .. .. .. .. .. .. .. .. .. .. 
.. .. 60 .. .. .. .. .. .. 62 .. .. .. .. .. .. 60 .. .. .. .. .. .. 59 .. .. .. .. .. .. 
62 .. .. .. .. .. .. 57 .. .. .. .. .. .. 59 .. .. .. .. .. .. 53 .. .. .. .. .. .. 52 .. 
.. .. .. .. .. 50 .. .. .. .. .. .. 53 .. .. .. .. .. .. 62 .. .. .. .. .. .. 50 .. .. .. 
.. .. .. .. .. .. .. .. .. .. 62 .. .. .. .. .. .. .. .. .. .. .. .. .. 60 .. .. .. .. .. 
.. 62 .. .. .. .. .. .. 60 .. .. .. .. .. .. 59 .. .. .. .. .. .. 62 .. .. .. .. .. .. 57 
.. .. .. .. .. .. 60 .. .. .. .. .. .. .. .. .. .. .. .. .. 57 .. .. .. .. .. .. 50 .. .. 
.. .. .. .. 60 .. .. .. .. .. .. 62 .. .. .. .. .. .. 50 .. .. .. .. .. .. .. .. .. .. .. 
.. .. 62 .. .. .. .. .. .. .. .. .. .. .. .. .. 67 .. .. .. .. .. .. 62 .. .. .. .. .. .. 
67 .. .. .. .. .. .. 65 .. .. .. .. .. .. 67 .. .. .. .. .. .. 60 .. .. .. .. .. .. 65 .. 
.. .. .. .. .. 57 .. .. .. .. .. .. 60 .. .. .. .. .. .. 64 40 44 .. 47 .. 52 64 40 44 .. 
47 .. 52 64 40 44 .. 47 .. 52 64 40 44 .. 47 .. 52 64 40 44 .. 47 .. 52 64 40 44 .. 47 .. 
52 64 40 44 .. 47 .. 52 64 40 44 .. 47 .. 52 64 40 44 .. 47 .. 52 64 40 44 .. 47 .. 52 64 
40 44 .. 47 .. 52 64 40 44 .. 47 .. 52 64 40 44 .. 47 .. 52 64 40 44 .. 47 .. 52 64 40 44 
.. 47 .. 52 64 40 44 .. 47 .. 52 67 43 47 .. 50 .. 55 67 43 47 .. 50 .. 55 67 43 47 .. 50 
.. 55 67 43 47 .. 50 .. 55 67 43 47 .. 50 .. 55 67 43 47 .. 50 .. 55 67 43 47 .. 50 .. 55 
67 43 47 .. 50 .. 55 66 42 46 .. 49 .. 54 66 42 46 .. 49 .. 54 66 42 46 .. 49 .. 54 66 42 
46 .. 49 .. 54 66 42 46 .. 49 .. 54 66 42 46 .. 49 .. 54 66 42 46 .. 49 .. 54 66 42 46 .. 
49 .. 54 64 40 44 .. 47 .. 52 64 40 44 .. 47 .. 52 64 40 44 .. 47 .. 52 64 40 44 .. 47 .. 
52 64 40 44 .. 47 .. 52 64 40 44 .. 47 .. 52 64 40 44 .. 47 .. 52 64 40 44 .. 47 .. 52 64 
40 44 .. 47 .. 52 64 40 44 .. 47 .. 52 64 40 44 .. 47 .. 52 64 40 44 .. 47 .. 52 64 40 44 
.. 47 .. 52 64 40 44 .. 47 .. 52 64 40 44 .. 47 .. 52 64 40 44 .. 47 .. 52 67 43 47 .. 50 
.. 55 67 43 47 .. 50 .. 55 67 43 47 .. 50 .. 55 67 43 47 .. 50 .. 55 67 43 47 .. 50 .. 55 
67 43 47 .. 50 .. 55 67 43 47 .. 50 .. 55 67 43 47 .. 50 .. 55 69 45 49 .. 52 .. 57 69 45 
49 .. 52 .. 57 69 45 49 .. 52 .. 57 69 45 49 .. 52 .. 57 69 45 49 .. 52 .. 57 69 45 49 .. 
52 .. 57 69 45 49 .. 52 .. 57 69 45 49 .. 52 .. 57 64 40 44 .. 47 .. 52 64 40 44 .. 47 .. 
52 64 40 44 .. 47 .. 52 64 40 44 .. 47 .. 52 64 40 44 .. 47 .. 52 64 40 44 .. 47 .. 52 64 
40 44 .. 47 .. 52 64 40 44 .. 47 .. 52 64 40 44 .. 47 .. 52 64 40 44 .. 47 .. 52 64 40 44 
.. 47 .. 52 64 40 44 .. 47 .. 52 64 40 44 .. 47 .. 52 64 40 44 .. 47 .. 52 64 40 44 .. 47 
.. 52 64 40 44 .. 47 .. 52 67 43 47 .. 50 .. 55 67 43 47 .. 50 .. 55 67 43 47 .. 50 .. 55 
67 43 47 .. 50 .. 55 67 43 47 .. 50 .. 55 67 43 47 .. 50 .. 55 67 43 47 .. 50 .. 55 67 43 
47 .. 50 .. 55 66 42 46 .. 49 .. 54 66 42 46 .. 49 .. 54 66 42 46 .. 49 .. 54 66 42 46 .. 
49 .. 54 66 42 46 .. 49 .. 54 66 42 46 .. 49 .. 54 66 42 46 .. 49 .. 54 66 42 46 .. 49 .. 
54 64 40 44 .. 47 .. 52 64 40 44 .. 47 .. 52 64 40 44 .. 47 .. 52 64 40 44 .. 47 .. 52 64 
40 44 .. 47 .. 52 64 40 44 .. 47 .. 52 64 40 44 .. 47 .. 52 64 40 44 .. 47 .. 52 64 40 44 
.. 47 .. 52 64 40 44 .. 47 .. 52 64 40 44 .. 47 .. 52 64 40 44 .. 47 .. 52 64 40 44 .. 47 
.. 52 64 40 44 .. 47 .. 52 64 40 44 .. 47 .. 52 64 40 44 .. 47 .. 52 67 43 47 .. 50 .. 55 
67 43 47 .. 50 .. 55 67 43 47 .. 50 .. 55 67 43 47 .. 50 .. 55 67 43 47 .. 50 .. 55 67 43 
47 .. 50 .. 55 67 43 47 .. 50 .. 55 67 43 47 .. 50 .. 55 69 45 49 .. 52 .. 57 69 45 49 .. 
52 .. 57 69 45 49 .. 52 .. 57 69 45 49 .. 52 .. 57 69 45 49 .. 52 .. 57 69 45 49 .. 52 .. 
57 69 45 49 .. 52 .. 57 69 45 49 .. 52 .. 57 38 26 .. .. .. .. .. .. .. .. .. .. .. .. 50 
38 .. .. .. .. .. .. .. .. .. .. .. .. 38 26 .. .. .. .. .. .. .. .. .. .. .. .. 50 38 .. 
.. .. .. .. .. .. .. .. .. .. .. .. .. .. .. .. .. .. .. .. .. .. .. .. .. .. .. .. .. .. 
.. .. .. .. .. .. .. .. .. .. .. .. .. .. .. .. .. .. .. .. .. .. .. .. .. .. .. .. .. .. 
.. .. .. .. .. .. .. 38 26 .. .. .. .. .. .. .. .. .. .. .. .. 50 38 .. .. .. .. .. .. .. 
.. .. .. .. .. 38 26 .. .. .. .. .. .. .. .. .. .. .. .. 50 38 .. .. .. .. .. .. .. .. .. 
.. .. .. .. .. .. .. .. .. .. .. .. .. .. .. .. .. .. .. .. .. .. .. .. .. .. .. .. .. .. 
.. .. .. .. .. .. .. .. .. .. .. .. .. .. .. .. .. .. .. .. .. .. .. .. .. .. .. .. .. 38 
26 .. .. .. .. .. .. .. .. .. .. .. .. 50 38 .. .. .. .. .. .. .. .. .. .. .. .. 38 26 .. 
.. .. .. .. .. .. .. .. .. .. .. 50 38 .. .. .. .. .. .. .. .. .. .. .. .. .. .. .. .. .. 
.. .. .. .. .. .. .. .. .. .. .. .. .. .. .. .. .. .. .. .. .. .. .. .. .. .. .. .. .. .. 
.. .. .. .. .. .. .. .. .. .. .. .. .. .. .. .. .. .. .. .. .. 38 26 .. .. .. .. .. .. .. 
.. .. .. .. .. 50 38 .. .. .. .. .. .. .. .. .. .. .. .. 38 26 .. .. .. .. .. .. .. .. .. 
.. .. .. 50 38 .. .. .. .. .. .. .. .. .. .. .. .. .. .. .. .. .. .. .. .. .. .. .. .. .. 
.. .. .. .. .. .. .. .. .. .. .. .. .. .. .. .. .. .. .. .. .. .. .. .. .. .. .. .. .. .. 
.. .. .. .. .. .. .. .. .. .. .. .. .. 38 26 .. .. .. .. .. .. .. .. .. .. .. .. 50 38 .. 
.. .. .. .. .. .. .. .. .. .. .. 38 26 .. .. .. .. .. .. .. .. .. .. .. .. 50 38 .. .. .. 
.. .. .. .. .. .. .. .. .. .. .. .. .. .. .. .. .. .. .. .. .. .. .. .. .. .. .. .. .. .. 
.. .. .. .. .. .. .. .. .. .. .. .. .. .. .. .. .. .. .. .. .. .. .. .. .. .. .. .. .. .. 
.. .. .. .. .. 38 26 .. .. .. .. .. .. .. .. .. .. .. .. 50 38 .. .. .. .. .. .. .. .. .. 
.. .. .. 38 26 .. .. .. .. .. .. .. .. .. .. .. .. 50 38 .. .. .. .. .. .. .. .. .. .. .. 
.. .. .. .. .. .. .. .. .. .. .. .. .. .. .. .. .. .. .. .. .. .. .. .. .. .. .. .. .. .. 
.. .. .. .. .. .. .. .. .. .. .. .. .. .. .. .. .. .. .. .. .. .. .. .. .. .. .. 38 26 .. 
.. .. .. .. .. .. .. .. .. .. .. 50 38 .. .. .. .. .. .. .. .. .. .. .. .. 38 26 .. .. .. 
.. .. .. .. .. .. .. .. .. 50 38 .. .. .. .. .. .. .. .. .. .. .. .. .. .. .. .. .. .. .. 
.. .. .. .. .. .. .. .. .. .. .. .. .. .. .. .. .. .. .. .. .. .. .. .. .. .. .. .. .. .. 
.. .. .. .. .. .. .. .. .. .. .. .. .. .. .. .. .. .. .. 38 26 .. .. .. .. .. .. .. .. .. 
.. .. .. 50 38 .. .. .. .. .. .. .. .. .. .. .. .. 38 26 .. .. .. .. .. .. .. .. .. .. .. 
.. 50 38 .. .. .. .. .. .. .. .. .. .. .. .. .. .. .. .. .. .. .. .. .. .. .. .. .. .. .. 
.. .. .. .. .. .. .. .. .. .. .. .. .. .. .. .. .. .. .. .. .. .. .. .. .. .. .. .. .. .. 
.. .. .. .. .. .. .. .. .. .. .. 64 40 44 .. 47 .. 52 64 40 44 .. 47 .. 52 64 40 44 .. 47 
.. 52 64 40 44 .. 47 .. 52 64 40 44 .. 47 .. 52 64 40 44 .. 47 .. 52 64 40 44 .. 47 .. 52 
64 40 44 .. 47 .. 52 64 40 44 .. 47 .. 52 64 40 44 .. 47 .. 52 64 40 44 .. 47 .. 52 64 40 
44 .. 47 .. 52 64 40 44 .. 47 .. 52 64 40 44 .. 47 .. 52 64 40 44 .. 47 .. 52 64 40 44 .. 
47 .. 52 67 43 47 .. 50 .. 55 67 43 47 .. 50 .. 55 67 43 47 .. 50 .. 55 67 43 47 .. 50 .. 
55 67 43 47 .. 50 .. 55 67 43 47 .. 50 .. 55 67 43 47 .. 50 .. 55 67 43 47 .. 50 .. 55 66 
42 46 .. 49 .. 54 66 42 46 .. 49 .. 54 66 42 46 .. 49 .. 54 66 42 46 .. 49 .. 54 66 42 46 
.. 49 .. 54 66 42 46 .. 49 .. 54 66 42 46 .. 49 .. 54 66 42 46 .. 49 .. 54 64 40 44 .. 47 
.. 52 64 40 44 .. 47 .. 52 64 40 44 .. 47 .. 52 64 40 44 .. 47 .. 52 64 40 44 .. 47 .. 52 
64 40 44 .. 47 .. 52 64 40 44 .. 47 .. 52 64 40 44 .. 47 .. 52 64 40 44 .. 47 .. 52 64 40 
44 .. 47 .. 52 64 40 44 .. 47 .. 52 64 40 44 .. 47 .. 52 64 40 44 .. 47 .. 52 64 40 44 .. 
47 .. 52 64 40 44 .. 47 .. 52 64 40 44 .. 47 .. 52 67 43 47 .. 50 .. 55 67 43 47 .. 50 .. 
55 67 43 47 .. 50 .. 55 67 43 47 .. 50 .. 55 67 43 47 .. 50 .. 55 67 43 47 .. 50 .. 55 67 
43 47 .. 50 .. 55 67 43 47 .. 50 .. 55 69 45 49 .. 52 .. 57 69 45 49 .. 52 .. 57 69 45 49 
.. 52 .. 57 69 45 49 .. 52 .. 57 69 45 49 .. 52 .. 57 69 45 49 .. 52 .. 57 69 45 49 .. 52 
.. 57 69 45 49 .. 52 .. 57 64 40 44 .. 47 .. 52 64 40 44 .. 47 .. 52 64 40 44 .. 47 .. 52 
64 40 44 .. 47 .. 52 64 40 44 .. 47 .. 52 64 40 44 .. 47 .. 52 64 40 44 .. 47 .. 52 64 40 
44 .. 47 .. 52 64 40 44 .. 47 .. 52 64 40 44 .. 47 .. 52 64 40 44 .. 47 .. 52 64 40 44 .. 
47 .. 52 64 40 44 .. 47 .. 52 64 40 44 .. 47 .. 52 64 40 44 .. 47 .. 52 64 40 44 .. 47 .. 
52 67 43 47 .. 50 .. 55 67 43 47 .. 50 .. 55 67 43 47 .. 50 .. 55 67 43 47 .. 50 .. 55 67 
43 47 .. 50 .. 55 67 43 47 .. 50 .. 55 67 43 47 .. 50 .. 55 67 43 47 .. 50 .. 55 66 42 46 
.. 49 .. 54 66 42 46 .. 49 .. 54 66 42 46 .. 49 .. 54 66 42 46 .. 49 .. 54 66 42 46 .. 49 
.. 54 66 42 46 .. 49 .. 54 66 42 46 .. 49 .. 54 66 42 46 .. 49 .. 54 64 40 44 .. 47 .. 52 
64 40 44 .. 47 .. 52 64 40 44 .. 47 .. 52 64 40 44 .. 47 .. 52 64 40 44 .. 47 .. 52 64 40 
44 .. 47 .. 52 64 40 44 .. 47 .. 52 64 40 44 .. 47 .. 52 64 40 44 .. 47 .. 52 64 40 44 .. 
47 .. 52 64 40 44 .. 47 .. 52 64 40 44 .. 47 .. 52 64 40 44 .. 47 .. 52 64 40 44 .. 47 .. 
52 64 40 44 .. 47 .. 52 64 40 44 .. 47 .. 52 67 43 47 .. 50 .. 55 67 43 47 .. 50 .. 55 67 
43 47 .. 50 .. 55 67 43 47 .. 50 .. 55 67 43 47 .. 50 .. 55 67 43 47 .. 50 .. 55 67 43 47 
.. 50 .. 55 67 43 47 .. 50 .. 55 69 45 49 .. 52 .. 57 69 45 49 .. 52 .. 57 69 45 49 .. 52 
.. 57 69 45 49 .. 52 .. 57 69 45 49 .. 52 .. 57 69 45 49 .. 52 .. 57 69 45 49 .. 52 .. 57 
69 45 49 .. 52 .. 57 50 .. .. .. .. .. .. 57 .. .. .. .. .. .. 62 .. .. .. .. .. .. 50 .. 
.. .. .. .. .. .. .. .. .. .. .. .. 62 .. .. .. .. .. .. .. .. .. .. .. .. .. 60 .. .. .. 
.. .. .. 62 .. .. .. .. .. .. 60 .. .. .. .. .. .. 59 .. .. .. .. .. .. 60 .. .. .. .. .. 
.. 57 .. .. .. .. .. .. 59 .. .. .. .. .. .. 60 .. .. .. .. .. .. 57 .. .. .. .. .. .. 50 
.. .. .. .. .. .. 60 .. .. .. .. .. .. 62 .. .. .. .. .. .. 60 .. .. .. .. .. .. 50 .. .. 
.. .. .. .. 62 .. .. .. .. .. .. .. .. .. .. .. .. .. 60 .. .. .. .. .. .. 62 .. .. .. .. 
.. .. 60 .. .. .. .. .. .. 59 .. .. .. .. .. .. 62 .. .. .. .. .. .. 57 .. .. .. .. .. .. 
59 .. .. .. .. .. .. 53 .. .. .. .. .. .. 52 .. .. .. .. .. .. 50 .. .. .. .. .. .. 53 .. 
.. .. .. .. .. 62 .. .. .. .. .. .. 50 .. .. .. .. .. .. .. .. .. .. .. .. .. 62 .. .. .. 
.. .. .. .. .. .. .. .. .. .. 60 .. .. .. .. .. .. 62 .. .. .. .. .. .. 60 .. .. .. .. .. 
.. 59 .. .. .. .. .. .. 62 .. .. .. .. .. .. 57 .. .. .. .. .. .. 60 .. .. .. .. .. .. .. 
.. .. .. .. .. .. 57 .. .. .. .. .. .. 50 .. .. .. .. .. .. 60 .. .. .. .. .. .. 62 .. .. 
.. .. .. .. 50 .. .. .. .. .. .. .. .. .. .. .. .. .. 62 .. .. .. .. .. .. .. .. .. .. .. 
.. .. 67 .. .. .. .. .. .. 62 .. .. .. .. .. .. 67 .. .. .. .. .. .. 65 .. .. .. .. .. .. 
67 .. .. .. .. .. .. 60 .. .. .. .. .. .. 65 .. .. .. .. .. .. 57 .. .. .. .. .. .. 60 .. 
.. .. .. .. .. 50 .. .. .. .. .. .. 57 .. .. .. .. .. .. 62 .. .. .. .. .. .. 50 .. .. .. 
.. .. .. .. .. .. .. .. .. .. 62 .. .. .. .. .. .. .. .. .. .. .. .. .. 60 .. .. .. .. .. 
.. 62 .. .. .. .. .. .. 60 .. .. .. .. .. .. 59 .. .. .. .. .. .. 60 .. .. .. .. .. .. 57 
.. .. .. .. .. .. 59 .. .. .. .. .. .. 60 .. .. .. .. .. .. 57 .. .. .. .. .. .. 50 .. .. 
.. .. .. .. 60 .. .. .. .. .. .. 62 .. .. .. .. .. .. 60 .. .. .. .. .. .. 50 .. .. .. .. 
.. .. 62 .. .. .. .. .. .. .. .. .. .. .. .. .. 60 .. .. .. .. .. .. 62 .. .. .. .. .. .. 
60 .. .. .. .. .. .. 59 .. .. .. .. .. .. 62 .. .. .. .. .. .. 57 .. .. .. .. .. .. 59 .. 
.. .. .. .. .. 53 .. .. .. .. .. .. 52 .. .. .. .. .. .. 50 .. .. .. .. .. .. 53 .. .. .. 
.. .. .. 62 .. .. .. .. .. .. 50 .. .. .. .. .. .. .. .. .. .. .. .. .. 62 .. .. .. .. .. 
.. .. .. .. .. .. .. .. 60 .. .. .. .. .. .. 62 .. .. .. .. .. .. 60 .. .. .. .. .. .. 59 
.. .. .. .. .. .. 62 .. .. .. .. .. .. 57 .. .. .. .. .. .. 60 .. .. .. .. .. .. .. .. .. 
.. .. .. .. 57 .. .. .. .. .. .. 50 .. .. .. .. .. .. 60 .. .. .. .. .. .. 62 .. .. .. .. 
.. .. 50 .. .. .. .. .. .. .. .. .. .. .. .. .. 62 .. .. .. .. .. .. .. .. .. .. .. .. .. 
67 .. .. .. .. .. .. 62 .. .. .. .. .. .. 67 .. .. .. .. .. .. 65 .. .. .. .. .. .. 67 .. 
.. .. .. .. .. 60 .. .. .. .. .. .. 65 .. .. .. .. .. .. 57 .. .. .. .. .. .. 60 .. .. .. 
.. .. .. 64 40 44 .. 47 .. 52 64 40 44 .. 47 .. 52 64 40 44 .. 47 .. 52 64 40 44 .. 47 .. 
52 64 40 44 .. 47 .. 52 64 40 44 .. 47 .. 52 64 40 44 .. 47 .. 52 64 40 44 .. 47 .. 52 64 
40 44 .. 47 .. 52 64 40 44 .. 47 .. 52 64 40 44 .. 47 .. 52 64 40 44 .. 47 .. 52 64 40 44 
.. 47 .. 52 64 40 44 .. 47 .. 52 64 40 44 .. 47 .. 52 64 40 44 .. 47 .. 52 67 43 47 .. 50 
.. 55 67 43 47 .. 50 .. 55 67 43 47 .. 50 .. 55 67 43 47 .. 50 .. 55 67 43 47 .. 50 .. 55 
67 43 47 .. 50 .. 55 67 43 47 .. 50 .. 55 67 43 47 .. 50 .. 55 66 42 46 .. 49 .. 54 66 42 
46 .. 49 .. 54 66 42 46 .. 49 .. 54 66 42 46 .. 49 .. 54 66 42 46 .. 49 .. 54 66 42 46 .. 
49 .. 54 66 42 46 .. 49 .. 54 66 42 46 .. 49 .. 54 64 40 44 .. 47 .. 52 64 40 44 .. 47 .. 
52 64 40 44 .. 47 .. 52 64 40 44 .. 47 .. 52 64 40 44 .. 47 .. 52 64 40 44 .. 47 .. 52 64 
40 44 .. 47 .. 52 64 40 44 .. 47 .. 52 64 40 44 .. 47 .. 52 64 40 44 .. 47 .. 52 64 40 44 
.. 47 .. 52 64 40 44 .. 47 .. 52 64 40 44 .. 47 .. 52 64 40 44 .. 47 .. 52 64 40 44 .. 47 
.. 52 64 40 44 .. 47 .. 52 67 43 47 .. 50 .. 55 67 43 47 .. 50 .. 55 67 43 47 .. 50 .. 55 
67 43 47 .. 50 .. 55 67 43 47 .. 50 .. 55 67 43 47 .. 50 .. 55 67 43 47 .. 50 .. 55 67 43 
47 .. 50 .. 55 69 45 49 .. 52 .. 57 69 45 49 .. 52 .. 57 69 45 49 .. 52 .. 57 69 45 49 .. 
52 .. 57 69 45 49 .. 52 .. 57 69 45 49 .. 52 .. 57 69 45 49 .. 52 .. 57 69 45 49 .. 52 .. 
57 64 40 44 .. 47 .. 52 64 40 44 .. 47 .. 52 64 40 44 .. 47 .. 52 64 40 44 .. 47 .. 52 64 
40 44 .. 47 .. 52 64 40 44 .. 47 .. 52 64 40 44 .. 47 .. 52 64 40 44 .. 47 .. 52 64 40 44 
.. 47 .. 52 64 40 44 .. 47 .. 52 64 40 44 .. 47 .. 52 64 40 44 .. 47 .. 52 64 40 44 .. 47 
.. 52 64 40 44 .. 47 .. 52 64 40 44 .. 47 .. 52 64 40 44 .. 47 .. 52 67 43 47 .. 50 .. 55 
67 43 47 .. 50 .. 55 67 43 47 .. 50 .. 55 67 43 47 .. 50 .. 55 67 43 47 .. 50 .. 55 67 43 
47 .. 50 .. 55 67 43 47 .. 50 .. 55 67 43 47 .. 50 .. 55 66 42 46 .. 49 .. 54 66 42 46 .. 
49 .. 54 66 42 46 .. 49 .. 54 66 42 46 .. 49 .. 54 66 42 46 .. 49 .. 54 66 42 46 .. 49 .. 
54 66 42 46 .. 49 .. 54 66 42 46 .. 49 .. 54 64 40 44 .. 47 .. 52 64 40 44 .. 47 .. 52 64 
40 44 .. 47 .. 52 64 40 44 .. 47 .. 52 64 40 44 .. 47 .. 52 64 40 44 .. 47 .. 52 64 40 44 
.. 47 .. 52 64 40 44 .. 47 .. 52 64 40 44 .. 47 .. 52 64 40 44 .. 47 .. 52 64 40 44 .. 47 
.. 52 64 40 44 .. 47 .. 52 64 40 44 .. 47 .. 52 64 40 44 .. 47 .. 52 64 40 44 .. 47 .. 52 
64 40 44 .. 47 .. 52 67 43 47 .. 50 .. 55 67 43 47 .. 50 .. 55 67 43 47 .. 50 .. 55 67 43 
47 .. 50 .. 55 67 43 47 .. 50 .. 55 67 43 47 .. 50 .. 55 67 43 47 .. 50 .. 55 67 43 47 .. 
50 .. 55 69 45 49 .. 52 .. 57 69 45 49 .. 52 .. 57 69 45 49 .. 52 .. 57 69 45 49 .. 52 .. 
57 69 45 49 .. 52 .. 57 69 45 49 .. 52 .. 57 69 45 49 .. 52 .. 57 69 45 49 .. 52 .. 
! Song 4
14 44 46 53 .. 50 .. 46 .. 53 .. 50 .. 46 .. 53 .. 50 .. 46 .. 53 .. 50 .. 46 .. 53 .. 50 
.. 46 .. 53 .. 50 .. 46 .. 53 .. 50 .. 46 .. 53 .. 50 .. 46 .. 53 .. 50 .. 46 .. 53 .. 50 
.. 46 .. 53 .. 50 .. 46 .. 53 .. 50 .. 46 .. 53 .. 50 .. 46 .. 48 .. 55 .. 52 .. 48 .. 55 
.. 52 .. 48 .. 55 .. 52 .. 48 .. 55 .. 52 .. 48 .. 55 .. 52 .. 48 .. 55 .. 52 .. 48 .. 55 
.. 52 .. 48 .. 55 .. 52 .. 48 .. 55 .. 52 .. 48 .. 55 .. 52 .. 48 .. 55 .. 52 .. 48 .. 55 
.. 52 .. 48 .. 55 .. 52 .. 48 .. 49 .. 56 .. 53 .. 49 .. 56 .. 53 .. 49 .. 56 .. 53 .. 49 
.. 56 .. 53 .. 49 .. 56 .. 53 .. 49 .. 56 .. 53 .. 49 .. 56 .. 53 .. 49 .. 56 .. 53 .. 49 
.. 56 .. 53 .. 49 .. 56 .. 53 .. 49 .. 56 .. 53 .. 49 .. 56 .. 53 .. 49 .. 56 .. 53 .. 49 
.. 51 .. 58 .. 55 .. 51 .. 58 .. 55 .. 51 .. 58 .. 55 .. 51 .. 58 .. 55 .. 51 .. 58 .. 55 
.. 51 .. 58 .. 55 .. 51 .. 58 .. 55 .. 51 .. 58 .. 55 .. 51 .. 58 .. 55 .. 51 .. 58 .. 55 
.. 51 .. 58 .. 55 .. 51 .. 58 .. 55 .. 51 .. 58 .. 55 .. 51 .. 46 .. 53 .. 50 .. 46 .. 53 
.. 50 .. 46 .. 53 .. 50 .. 46 .. 53 .. 50 .. 46 .. 53 .. 50 .. 46 .. 53 .. 50 .. 46 .. 53 
.. 50 .. 46 .. 53 .. 50 .. 46 .. 53 .. 50 .. 46 .. 53 .. 50 .. 46 .. 53 .. 50 .. 46 .. 53 
.. 50 .. 46 .. 53 .. 50 .. 46 .. 48 .. 55 .. 52 .. 48 .. 55 .. 52 .. 48 .. 55 .. 52 .. 48 
.. 55 .. 52 .. 48 .. 55 .. 52 .. 48 .. 55 .. 52 .. 48 .. 55 .. 52 .. 48 .. 55 .. 52 .. 48 
.. 55 .. 52 .. 48 .. 55 .. 52 .. 48 .. 55 .. 52 .. 48 .. 55 .. 52 .. 48 .. 55 .. 52 .. 48 
.. 49 .. 56 .. 53 .. 49 .. 56 .. 53 .. 49 .. 56 .. 53 .. 49 .. 56 .. 53 .. 49 .. 56 .. 53 
.. 49 .. 56 .. 53 .. 49 .. 56 .. 53 .. 49 .. 56 .. 53 .. 49 .. 56 .. 53 .. 49 .. 56 .. 53 
.. 49 .. 56 .. 53 .. 49 .. 56 .. 53 .. 49 .. 56 .. 53 .. 49 .. 51 .. 58 .. 55 .. 51 .. 58 
.. 55 .. 51 .. 58 .. 55 .. 51 .. 58 .. 55 .. 51 .. 58 .. 55 .. 51 .. 58 .. 55 .. 51 .. 58 
.. 55 .. 51 .. 58 .. 55 .. 51 .. 58 .. 55 .. 51 .. 58 .. 55 .. 51 .. 58 .. 55 .. 51 .. 58 
.. 55 .. 51 .. 58 .. 55 .. 51 .. 58 .. 65 .. 62 .. 58 .. 65 .. 62 .. 58 .. 65 .. 62 .. 58 
.. 65 .. 62 .. 58 .. 64 .. 62 .. 58 .. 65 .. 62 .. 58 .. 65 .. 62 .. 58 .. 65 .. 62 .. 58 
.. 64 .. 62 .. 58 .. 65 .. 62 .. 58 .. 65 .. 62 .. 58 .. 65 .. 62 .. 58 .. 64 .. 62 .. 58 
.. 65 .. 62 .. 58 .. 65 .. 62 .. 58 .. 65 .. 62 .. 58 .. 64 .. 62 .. 58 .. 65 .. 62 .. 58 
.. 65 .. 62 .. 58 .. 65 .. 62 .. 58 .. 64 .. 62 .. 58 .. 65 .. 62 .. 58 .. 65 .. 62 .. 58 
.. 65 .. 62 .. 58 .. 64 .. 62 .. 58 .. 65 .. 62 .. 58 .. 65 .. 46 34 .. .. .. .. .. .. .. 
.. 51 39 .. .. .. .. .. .. .. .. 58 46 .. .. .. .. .. .. .. .. 51 39 .. .. .. .. .. .. .. 
.. 56 44 .. .. .. .. .. .. .. .. 51 39 .. .. .. .. .. .. .. .. 55 43 .. .. .. .. .. .. .. 
.. 51 39 .. .. .. .. .. .. .. .. 46 34 .. .. .. .. .. .. .. .. 51 39 .. .. .. .. .. .. .. 
.. 58 46 .. .. .. .. .. .. .. .. 51 39 .. .. .. .. .. .. .. .. 56 44 .. .. .. .. .. .. .. 
.. 51 39 .. .. .. .. .. .. .. .. 55 43 .. .. .. .. .. .. .. .. 51 39 .. .. .. .. .. .. .. 
.. 46 34 .. .. .. .. .. .. .. .. 53 41 .. .. .. .. .. .. .. .. 58 46 .. .. .. .. .. .. .. 
.. 53 41 .. .. .. .. .. .. .. .. 56 44 .. .. .. .. .. .. .. .. 53 41 .. .. .. .. .. .. .. 
.. 55 43 .. .. .. .. .. .. .. .. 53 41 .. .. .. .. .. .. .. .. 46 34 .. .. .. .. .. .. .. 
.. 53 41 .. .. .. .. .. .. .. .. 58 46 .. .. .. .. .. .. .. .. 53 41 .. .. .. .. .. .. .. 
.. 56 44 .. .. .. .. .. .. .. .. 53 41 .. .. .. .. .. .. .. .. 55 43 .. .. .. .. .. .. .. 
.. 53 41 .. .. .. .. .. .. .. .. 46 34 .. .. .. .. .. .. .. .. 51 39 .. .. .. 51 39 .. .. 
.. 58 46 .. .. .. .. .. .. .. .. 51 39 .. .. .. .. .. .. .. .. 56 44 .. .. .. .. .. .. .. 
.. 51 39 .. .. .. .. .. .. .. .. 55 43 .. .. .. .. .. .. .. .. 51 39 .. .. .. .. .. .. .. 
.. 46 34 .. .. .. .. .. .. .. .. 51 39 .. .. .. 51 39 .. .. .. 58 46 .. .. .. .. .. .. .. 
.. 51 39 .. .. .. .. .. .. .. .. 56 44 .. .. .. .. .. .. .. .. 51 39 .. .. .. .. .. .. .. 
.. 55 43 .. .. .. .. .. .. .. .. 51 39 .. .. .. .. .. .. .. .. 50 .. .. .. .. .. .. .. .. 
.. .. .. .. .. .. .. .. .. .. .. 51 .. .. .. .. .. .. .. .. .. 50 .. .. .. .. .. .. .. .. 
.. 53 .. .. .. .. .. .. .. .. .. 51 .. .. .. .. .. .. .. .. .. 50 .. .. .. .. .. .. .. .. 
.. 48 .. .. .. .. .. .. .. .. .. .. .. .. .. .. .. .. .. .. .. .. .. .. .. .. .. .. .. .. 
.. 50 .. .. .. .. .. .. .. .. .. 48 .. .. .. .. .. .. .. .. .. 51 .. .. .. .. .. .. .. .. 
.. .. .. .. .. .. 50 .. .. .. .. .. .. .. .. .. .. .. .. .. .. 48 .. .. .. .. .. .. .. .. 
.. 46 .. .. .. .. .. .. .. .. .. .. .. .. .. .. .. .. .. .. .. .. .. .. .. .. .. .. .. .. 
.. .. .. .. .. .. .. .. .. .. .. .. .. .. .. .. .. .. .. .. .. .. .. .. .. .. .. .. .. .. 
.. .. .. .. .. .. .. .. .. .. .. .. .. .. .. .. 48 .. .. .. .. 49 .. .. .. .. .. .. .. .. 
.. .. .. .. .. .. .. .. .. .. .. 48 .. .. .. .. .. .. .. .. .. .. .. .. .. .. .. .. .. .. 
.. 46 .. .. .. .. .. .. .. .. .. 44 .. .. .. .. .. .. .. .. .. .. .. .. .. .. .. .. .. .. 
.. 46 .. .. .. .. .. .. .. .. .. .. .. .. .. .. .. .. .. .. .. 50 .. .. .. .. .. .. .. .. 
.. 51 .. .. .. .. .. .. .. .. .. 50 .. .. .. .. .. .. .. .. .. 53 .. .. .. .. .. .. .. .. 
.. 51 .. .. .. .. .. .. .. .. .. 50 .. .. .. .. .. .. .. .. .. 48 .. .. .. .. .. .. .. .. 
.. .. .. .. .. .. .. .. .. .. .. .. .. .. .. .. .. .. .. .. .. 50 .. .. .. .. .. .. .. .. 
.. 48 .. .. .. .. .. .. .. .. .. 51 .. .. .. .. .. .. .. .. .. 50 .. .. .. .. .. .. .. .. 
.. 48 .. .. .. .. .. .. .. .. .. 50 .. .. .. .. .. .. .. .. .. 46 .. .. .. .. .. .. .. .. 
.. .. .. .. .. .. .. .. .. .. .. 43 .. .. .. .. .. .. .. .. .. 46 .. .. .. .. .. .. .. .. 
.. .. .. .. .. .. .. .. .. .. .. 43 .. .. .. .. .. .. .. .. .. .. .. .. .. .. .. .. .. .. 
.. 42 .. .. .. .. 44 .. .. .. .. 46 .. .. .. .. .. .. .. .. .. .. .. .. .. .. .. .. .. .. 
.. 48 .. .. .. .. .. .. .. .. .. 49 .. .. .. .. .. .. .. .. .. .. .. .. .. .. .. .. .. .. 
.. 48 .. .. .. .. .. .. .. .. .. 46 .. .. .. .. .. .. .. .. .. 44 .. .. .. .. .. .. .. .. 
.. 48 .. .. .. .. .. .. .. .. .. 46 .. .. .. .. .. .. .. .. .. .. .. .. .. .. .. .. .. .. 
.. .. .. .. .. .. .. .. .. .. .. .. .. .. .. .. .. .. .. .. .. .. .. .. .. .. .. .. .. .. 
.. .. .. .. .. .. .. .. .. .. .. .. .. .. .. .. .. .. .. .. .. .. .. .. .. .. .. .. .. .. 
.. .. .. .. .. .. .. .. .. .. .. .. .. .. .. .. .. .. .. .. .. .. .. .. .. .. .. .. .. .. 
.. .. .. .. .. .. .. .. .. .. .. .. .. .. .. .. .. .. .. .. .. .. .. .. .. .. .. .. .. .. 
.. .. .. .. .. .. .. .. .. 46 .. .. 34 .. .. .. .. .. .. .. .. 51 39 .. .. .. .. .. .. .. 
.. 58 46 .. .. .. .. .. .. .. .. 51 39 .. .. .. .. .. .. .. .. 56 44 .. .. .. .. .. .. .. 
.. 51 39 .. .. .. .. .. .. .. .. 55 43 .. .. .. .. .. .. .. .. 51 39 .. .. .. .. .. .. .. 
.. 46 34 .. .. .. .. .. .. .. .. 51 39 .. .. .. .. .. .. .. .. 58 46 .. .. .. .. .. .. .. 
.. 51 39 .. .. .. .. .. .. .. .. 56 44 .. .. .. .. .. .. .. .. 51 39 .. .. .. .. .. .. .. 
.. 55 43 .. .. .. .. .. .. .. .. 51 39 .. .. .. .. .. .. .. .. 50 .. .. .. .. .. .. .. .. 
.. .. .. .. .. .. .. .. .. .. .. 51 .. .. .. .. .. .. .. .. .. 50 .. .. .. .. .. .. .. .. 
.. 53 .. .. .. .. .. .. .. .. .. 51 .. .. .. .. .. .. .. .. .. 50 .. .. .. .. .. .. .. .. 
.. 48 .. .. .. .. .. .. .. .. .. .. .. .. .. .. .. .. .. .. .. .. .. .. .. .. .. .. .. .. 
.. 50 .. .. .. .. .. .. .. .. .. 48 .. .. .. .. .. .. .. .. .. 51 .. .. .. .. .. .. .. .. 
.. .. .. .. .. .. 50 .. .. .. .. .. .. .. .. .. .. .. .. .. .. 48 .. .. .. .. .. .. .. .. 
.. 46 .. .. .. .. .. .. .. .. .. .. .. .. .. .. .. .. .. .. .. .. .. .. .. .. .. .. .. .. 
.. .. .. .. .. .. .. .. .. .. .. .. .. .. .. .. .. .. .. .. .. .. .. .. .. .. .. .. .. .. 
.. .. .. .. .. .. .. .. .. .. .. .. .. .. .. .. 48 .. .. .. .. 49 .. .. .. .. .. .. .. .. 
.. .. .. .. .. .. .. .. .. .. .. 48 .. .. .. .. .. .. .. .. .. .. .. .. .. .. .. .. .. .. 
.. 46 .. .. .. .. .. .. .. .. .. 44 .. .. .. .. .. .. .. .. .. .. .. .. .. .. .. .. .. .. 
.. 46 .. .. .. .. .. .. .. .. .. .. .. .. .. .. .. .. .. .. .. 50 .. .. .. .. .. .. .. .. 
.. 51 .. .. .. .. .. .. .. .. .. 50 .. .. .. .. .. .. .. .. .. 53 .. .. .. .. .. .. .. .. 
.. 51 .. .. .. .. .. .. .. .. .. 50 .. .. .. .. .. .. .. .. .. 48 .. .. .. .. .. .. .. .. 
.. .. .. .. .. .. .. .. .. .. .. .. .. .. .. .. .. .. .. .. .. 50 .. .. .. .. .. .. .. .. 
.. 48 .. .. .. .. .. .. .. .. .. 51 .. .. .. .. .. .. .. .. .. 50 .. .. .. .. .. .. .. .. 
.. 48 .. .. .. .. .. .. .. .. .. 50 .. .. .. .. .. .. .. .. .. 46 .. .. .. .. .. .. .. .. 
.. .. .. .. .. .. .. .. .. .. .. 43 .. .. .. .. .. .. .. .. .. 46 .. .. .. .. .. .. .. .. 
.. .. .. .. .. .. .. .. .. .. .. 43 .. .. .. .. .. .. .. .. .. .. .. .. .. .. .. .. .. .. 
.. 42 .. .. .. .. 44 .. .. .. .. 46 .. .. .. .. .. .. .. .. .. .. .. .. .. .. .. .. .. .. 
.. 48 .. .. .. .. .. .. .. .. .. 49 .. .. .. .. .. .. .. .. .. .. .. .. .. .. .. .. .. .. 
.. 48 .. .. .. .. .. .. .. .. .. 46 .. .. .. .. .. .. .. .. .. 44 .. .. .. .. .. .. .. .. 
.. 48 .. .. .. .. .. .. .. .. .. 46 .. .. .. .. .. .. .. .. .. .. .. .. .. .. .. .. .. .. 
.. .. .. .. .. .. .. .. .. .. .. .. .. .. .. .. .. .. .. .. .. .. .. .. .. .. .. .. .. .. 
.. .. .. .. .. .. .. .. .. .. .. .. .. .. .. .. .. .. .. .. .. .. .. .. .. .. .. .. .. .. 
.. .. .. .. .. .. .. .. .. .. .. .. .. .. .. .. .. .. .. .. .. .. .. .. .. .. .. .. .. .. 
.. .. .. .. .. .. .. .. .. .. .. .. .. .. .. .. .. .. .. .. .. .. .. .. .. .. .. .. .. .. 
.. .. .. .. .. .. .. .. .. 46 .. .. 34 .. .. .. .. .. .. .. .. 51 39 .. .. .. .. .. .. .. 
.. 58 46 .. .. .. .. .. .. .. .. 51 39 .. .. .. .. .. .. .. .. 56 44 .. .. .. .. .. .. .. 
.. 51 39 .. .. .. .. .. .. .. .. 55 43 .. .. .. .. .. .. .. .. 51 39 .. .. .. .. .. .. .. 
.. 46 34 .. .. .. .. .. .. .. .. 51 39 .. .. .. .. .. .. .. .. 58 46 .. .. .. .. .. .. .. 
.. 51 39 .. .. .. .. .. .. .. .. 56 44 .. .. .. .. .. .. .. .. 51 39 .. .. .. .. .. .. .. 
.. 55 43 .. .. .. .. .. .. .. .. 51 39 .. .. .. .. .. .. .. .. 46 34 .. .. .. .. .. .. .. 
.. 53 41 .. .. .. .. .. .. .. .. 58 46 .. .. .. .. .. .. .. .. 53 41 .. .. .. .. .. .. .. 
.. 56 44 .. .. .. .. .. .. .. .. 53 41 .. .. .. .. .. .. .. .. 55 43 .. .. .. .. .. .. .. 
.. 53 41 .. .. .. .. .. .. .. .. 46 34 .. .. .. .. .. .. .. .. 53 41 .. .. .. .. .. .. .. 
.. 58 46 .. .. .. .. .. .. .. .. 53 41 .. .. .. .. .. .. .. .. 56 44 .. .. .. .. .. .. .. 
.. 53 41 .. .. .. .. .. .. .. .. 55 43 .. .. .. .. .. .. .. .. 53 41 .. .. .. .. .. .. .. 
.. 46 34 .. .. .. .. .. .. .. .. 51 39 .. .. .. 51 39 .. .. .. 58 46 .. .. .. .. .. .. .. 
.. 51 39 .. .. .. .. .. .. .. .. 56 44 .. .. .. .. .. .. .. .. 51 39 .. .. .. .. .. .. .. 
.. 55 43 .. .. .. .. .. .. .. .. 51 39 .. .. .. .. .. .. .. .. 46 34 .. .. .. .. .. .. .. 
.. 51 39 .. .. .. 51 39 .. .. .. 58 46 .. .. .. .. .. .. .. .. 51 39 .. .. .. .. .. .. .. 
.. 56 44 .. .. .. .. .. .. .. .. 51 39 .. .. .. .. .. .. .. .. 55 43 .. .. .. .. .. .. .. 
.. 51 39 .. .. .. .. .. .. .. .. 46 .. 53 .. 50 .. 46 .. 53 .. 50 .. 46 .. 53 .. 50 .. 46 
.. 53 .. 50 .. 46 .. 53 .. 50 .. 46 .. 53 .. 50 .. 46 .. 53 .. 50 .. 46 .. 53 .. 50 .. 46 
.. 53 .. 50 .. 46 .. 53 .. 50 .. 46 .. 53 .. 50 .. 46 .. 53 .. 50 .. 46 .. 53 .. 50 .. 46 
.. 48 .. 55 .. 52 .. 48 .. 55 .. 52 .. 48 .. 55 .. 52 .. 48 .. 55 .. 52 .. 48 .. 55 .. 52 
.. 48 .. 55 .. 52 .. 48 .. 55 .. 52 .. 48 .. 55 .. 52 .. 48 .. 55 .. 52 .. 48 .. 55 .. 52 
.. 48 .. 55 .. 52 .. 48 .. 55 .. 52 .. 48 .. 55 .. 52 .. 48 .. 49 .. 56 .. 53 .. 49 .. 56 
.. 53 .. 49 .. 56 .. 53 .. 49 .. 56 .. 53 .. 49 .. 56 .. 53 .. 49 .. 56 .. 53 .. 49 .. 56 
.. 53 .. 49 .. 56 .. 53 .. 49 .. 56 .. 53 .. 49 .. 56 .. 53 .. 49 .. 56 .. 53 .. 49 .. 56 
.. 53 .. 49 .. 56 .. 53 .. 49 .. 51 .. 58 .. 55 .. 51 .. 58 .. 55 .. 51 .. 58 .. 55 .. 51 
.. 58 .. 55 .. 51 .. 58 .. 55 .. 51 .. 58 .. 55 .. 51 .. 58 .. 55 .. 51 .. 58 .. 55 .. 51 
.. 58 .. 55 .. 51 .. 58 .. 55 .. 51 .. 58 .. 55 .. 51 .. 58 .. 55 .. 51 .. 58 .. 55 .. 51 
.. 46 .. 53 .. 50 .. 46 .. 53 .. 50 .. 46 .. 53 .. 50 .. 46 .. 53 .. 50 .. 46 .. 53 .. 50 
.. 46 .. 53 .. 50 .. 46 .. 53 .. 50 .. 46 .. 53 .. 50 .. 46 .. 53 .. 50 .. 46 .. 53 .. 50 
.. 46 .. 53 .. 50 .. 46 .. 53 .. 50 .. 46 .. 53 .. 50 .. 46 .. 48 .. 55 .. 52 .. 48 .. 55 
.. 52 .. 48 .. 55 .. 52 .. 48 .. 55 .. 52 .. 48 .. 55 .. 52 .. 48 .. 55 .. 52 .. 48 .. 55 
.. 52 .. 48 .. 55 .. 52 .. 48 .. 55 .. 52 .. 48 .. 55 .. 52 .. 48 .. 55 .. 52 .. 48 .. 55 
.. 52 .. 48 .. 55 .. 52 .. 48 .. 49 .. 56 .. 53 .. 49 .. 56 .. 53 .. 49 .. 56 .. 53 .. 49 
.. 56 .. 53 .. 49 .. 56 .. 53 .. 49 .. 56 .. 53 .. 49 .. 56 .. 53 .. 49 .. 56 .. 53 .. 49 
.. 56 .. 53 .. 49 .. 56 .. 53 .. 49 .. 56 .. 53 .. 49 .. 56 .. 53 .. 49 .. 56 .. 53 .. 49 
.. 51 .. 58 .. 55 .. 51 .. 58 .. 55 .. 51 .. 58 .. 55 .. 51 .. 58 .. 55 .. 51 .. 58 .. 55 
.. 51 .. 58 .. 55 .. 51 .. 58 .. 55 .. 51 .. 58 .. 55 .. 51 .. 58 .. 55 .. 51 .. 58 .. 55 
.. 51 .. 58 .. 55 .. 51 .. 58 .. 55 .. 51 .. 58 .. 55 .. 51 .. 58 .. 65 .. 62 .. 58 .. 65 
.. 62 .. 58 .. 65 .. 62 .. 58 .. 65 .. 62 .. 58 .. 64 .. 62 .. 58 .. 65 .. 62 .. 58 .. 65 
.. 62 .. 58 .. 65 .. 62 .. 58 .. 64 .. 62 .. 58 .. 65 .. 62 .. 58 .. 65 .. 62 .. 58 .. 65 
.. 62 .. 58 .. 64 .. 62 .. 58 .. 65 .. 62 .. 58 .. 65 .. 62 .. 58 .. 65 .. 62 .. 58 .. 64 
.. 62 .. 58 .. 65 .. 62 .. 58 .. 65 .. 62 .. 58 .. 65 .. 62 .. 58 .. 64 .. 62 .. 58 .. 65 
.. 62 .. 58 .. 65 .. 62 .. 58 .. 65 .. 62 .. 58 .. 64 .. 62 .. 58 .. 65 .. 62 .. 58 .. 65 
.. 46 34 .. .. .. .. .. .. .. .. 51 39 .. .. .. .. .. .. .. .. 58 46 .. .. .. .. .. .. .. 
.. 51 39 .. .. .. .. .. .. .. .. 56 44 .. .. .. .. .. .. .. .. 51 39 .. .. .. .. .. .. .. 
.. 55 43 .. .. .. .. .. .. .. .. 51 39 .. .. .. .. .. .. .. .. 46 34 .. .. .. .. .. .. .. 
.. 51 39 .. .. .. .. .. .. .. .. 58 46 .. .. .. .. .. .. .. .. 51 39 .. .. .. .. .. .. .. 
.. 56 44 .. .. .. .. .. .. .. .. 51 39 .. .. .. .. .. .. .. .. 55 43 .. .. .. .. .. .. .. 
.. 51 39 .. .. .. .. .. .. .. .. 46 34 .. .. .. .. .. .. .. .. 53 41 .. .. .. .. .. .. .. 
.. 58 46 .. .. .. .. .. .. .. .. 53 41 .. .. .. .. .. .. .. .. 56 44 .. .. .. .. .. .. .. 
.. 53 41 .. .. .. .. .. .. .. .. 55 43 .. .. .. .. .. .. .. .. 53 41 .. .. .. .. .. .. .. 
.. 46 34 .. .. .. .. .. .. .. .. 53 41 .. .. .. .. .. .. .. .. 58 46 .. .. .. .. .. .. .. 
.. 53 41 .. .. .. .. .. .. .. .. 56 44 .. .. .. .. .. .. .. .. 53 41 .. .. .. .. .. .. .. 
.. 55 43 .. .. .. .. .. .. .. .. 53 41 .. .. .. .. .. .. .. .. 46 34 .. .. .. .. .. .. .. 
.. 51 39 .. .. .. 51 39 .. .. .. 58 46 .. .. .. .. .. .. .. .. 51 39 .. .. .. .. .. .. .. 
.. 56 44 .. .. .. .. .. .. .. .. 51 39 .. .. .. .. .. .. .. .. 55 43 .. .. .. .. .. .. .. 
.. 51 39 .. .. .. .. .. .. .. .. 46 34 .. .. .. .. .. .. .. .. 51 39 .. .. .. 51 39 .. .. 
.. 58 46 .. .. .. .. .. .. .. .. 51 39 .. .. .. .. .. .. .. .. 56 44 .. .. .. .. .. .. .. 
.. 51 39 .. .. .. .. .. .. .. .. 55 43 .. .. .. .. .. .. .. .. 51 39 .. .. .. .. .. .. .. 
.. 50 .. .. .. .. .. .. .. .. .. .. .. .. .. .. .. .. .. .. .. 51 .. .. .. .. .. .. .. .. 
.. 50 .. .. .. .. .. .. .. .. .. 53 .. .. .. .. .. .. .. .. .. 51 .. .. .. .. .. .. .. .. 
.. 50 .. .. .. .. .. .. .. .. .. 48 .. .. .. .. .. .. .. .. .. .. .. .. .. .. .. .. .. .. 
.. .. .. .. .. .. .. .. .. .. .. 50 .. .. .. .. .. .. .. .. .. 48 .. .. .. .. .. .. .. .. 
.. 51 .. .. .. .. .. .. .. .. .. .. .. .. .. .. 50 .. .. .. .. .. .. .. .. .. .. .. .. .. 
.. 48 .. .. .. .. .. .. .. .. .. 46 .. .. .. .. .. .. .. .. .. .. .. .. .. .. .. .. .. .. 
.. .. .. .. .. .. .. .. .. .. .. .. .. .. .. .. .. .. .. .. .. .. .. .. .. .. .. .. .. .. 
.. .. .. .. .. .. .. .. .. .. .. .. .. .. .. .. .. .. .. .. .. .. .. .. .. .. 48 .. .. .. 
.. 49 .. .. .. .. .. .. .. .. .. .. .. .. .. .. .. .. .. .. .. 48 .. .. .. .. .. .. .. .. 
.. .. .. .. .. .. .. .. .. .. .. 46 .. .. .. .. .. .. .. .. .. 44 .. .. .. .. .. .. .. .. 
.. .. .. .. .. .. .. .. .. .. .. 46 .. .. .. .. .. .. .. .. .. .. .. .. .. .. .. .. .. .. 
.. 50 .. .. .. .. .. .. .. .. .. 51 .. .. .. .. .. .. .. .. .. 50 .. .. .. .. .. .. .. .. 
.. 53 .. .. .. .. .. .. .. .. .. 51 .. .. .. .. .. .. .. .. .. 50 .. .. .. .. .. .. .. .. 
.. 48 .. .. .. .. .. .. .. .. .. .. .. .. .. .. .. .. .. .. .. .. .. .. .. .. .. .. .. .. 
.. 50 .. .. .. .. .. .. .. .. .. 48 .. .. .. .. .. .. .. .. .. 51 .. .. .. .. .. .. .. .. 
.. 50 .. .. .. .. .. .. .. .. .. 48 .. .. .. .. .. .. .. .. .. 50 .. .. .. .. .. .. .. .. 
.. 46 .. .. .. .. .. .. .. .. .. .. .. .. .. .. .. .. .. .. .. 43 .. .. .. .. .. .. .. .. 
.. 46 .. .. .. .. .. .. .. .. .. .. .. .. .. .. .. .. .. .. .. 43 .. .. .. .. .. .. .. .. 
.. .. .. .. .. .. .. .. .. .. .. 42 .. .. .. .. 44 .. .. .. .. 46 .. .. .. .. .. .. .. .. 
.. .. .. .. .. .. .. .. .. .. .. 48 .. .. .. .. .. .. .. .. .. 49 .. .. .. .. .. .. .. .. 
.. .. .. .. .. .. .. .. .. .. .. 48 .. .. .. .. .. .. .. .. .. 46 .. .. .. .. .. .. .. .. 
.. 44 .. .. .. .. .. .. .. .. .. 48 .. .. .. .. .. .. .. .. .. 46 .. .. .. .. .. .. .. .. 
.. .. .. .. .. .. .. .. .. .. .. .. .. .. .. .. .. .. .. .. .. .. .. .. .. .. .. .. .. .. 
.. .. .. .. .. .. .. .. .. .. .. .. .. .. .. .. .. .. .. .. .. .. .. .. .. .. .. .. .. .. 
.. .. .. .. .. .. .. .. .. .. .. .. .. .. .. .. .. .. .. .. .. .. .. .. .. .. .. .. .. .. 
.. .. .. .. .. .. .. .. .. .. .. .. .. .. .. .. .. .. .. .. .. .. .. .. .. .. .. .. .. .. 
.. .. .. .. .. .. .. .. .. .. .. .. .. .. .. .. .. .. .. 46 .. .. 34 .. .. .. .. .. .. .. 
.. 51 39 .. .. .. .. .. .. .. .. 58 46 .. .. .. .. .. .. .. .. 51 39 .. .. .. .. .. .. .. 
.. 56 44 .. .. .. .. .. .. .. .. 51 39 .. .. .. .. .. .. .. .. 55 43 .. .. .. .. .. .. .. 
.. 51 39 .. .. .. .. .. .. .. .. 46 34 .. .. .. .. .. .. .. .. 51 39 .. .. .. .. .. .. .. 
.. 58 46 .. .. .. .. .. .. .. .. 51 39 .. .. .. .. .. .. .. .. 56 44 .. .. .. .. .. .. .. 
.. 51 39 .. .. .. .. .. .. .. .. 55 43 .. .. .. .. .. .. .. .. 51 39 .. .. .. .. .. .. .. 
.. 50 .. .. .. .. .. .. .. .. .. .. .. .. .. .. .. .. .. .. .. 51 .. .. .. .. .. .. .. .. 
.. 50 .. .. .. .. .. .. .. .. .. 53 .. .. .. .. .. .. .. .. .. 51 .. .. .. .. .. .. .. .. 
.. 50 .. .. .. .. .. .. .. .. .. 48 .. .. .. .. .. .. .. .. .. .. .. .. .. .. .. .. .. .. 
.. .. .. .. .. .. .. .. .. .. .. 50 .. .. .. .. .. .. .. .. .. 48 .. .. .. .. .. .. .. .. 
.. 51 .. .. .. .. .. .. .. .. .. .. .. .. .. .. 50 .. .. .. .. .. .. .. .. .. .. .. .. .. 
.. 48 .. .. .. .. .. .. .. .. .. 46 .. .. .. .. .. .. .. .. .. .. .. .. .. .. .. .. .. .. 
.. .. .. .. .. .. .. .. .. .. .. .. .. .. .. .. .. .. .. .. .. .. .. .. .. .. .. .. .. .. 
.. .. .. .. .. .. .. .. .. .. .. .. .. .. .. .. .. .. .. .. .. .. .. .. .. .. 48 .. .. .. 
.. 49 .. .. .. .. .. .. .. .. .. .. .. .. .. .. .. .. .. .. .. 48 .. .. .. .. .. .. .. .. 
.. .. .. .. .. .. .. .. .. .. .. 46 .. .. .. .. .. .. .. .. .. 44 .. .. .. .. .. .. .. .. 
.. .. .. .. .. .. .. .. .. .. .. 46 .. .. .. .. .. .. .. .. .. .. .. .. .. .. .. .. .. .. 
.. 50 .. .. .. .. .. .. .. .. .. 51 .. .. .. .. .. .. .. .. .. 50 .. .. .. .. .. .. .. .. 
.. 53 .. .. .. .. .. .. .. .. .. 51 .. .. .. .. .. .. .. .. .. 50 .. .. .. .. .. .. .. .. 
.. 48 .. .. .. .. .. .. .. .. .. .. .. .. .. .. .. .. .. .. .. .. .. .. .. .. .. .. .. .. 
.. 50 .. .. .. .. .. .. .. .. .. 48 .. .. .. .. .. .. .. .. .. 51 .. .. .. .. .. .. .. .. 
.. 50 .. .. .. .. .. .. .. .. .. 48 .. .. .. .. .. .. .. .. .. 50 .. .. .. .. .. .. .. .. 
.. 46 .. .. .. .. .. .. .. .. .. .. .. .. .. .. .. .. .. .. .. 43 .. .. .. .. .. .. .. .. 
.. 46 .. .. .. .. .. .. .. .. .. .. .. .. .. .. .. .. .. .. .. 43 .. .. .. .. .. .. .. .. 
.. .. .. .. .. .. .. .. .. .. .. 42 .. .. .. .. 44 .. .. .. .. 46 .. .. .. .. .. .. .. .. 
.. .. .. .. .. .. .. .. .. .. .. 48 .. .. .. .. .. .. .. .. .. 49 .. .. .. .. .. .. .. .. 
.. .. .. .. .. .. .. .. .. .. .. 48 .. .. .. .. .. .. .. .. .. 46 .. .. .. .. .. .. .. .. 
.. 44 .. .. .. .. .. .. .. .. .. 48 .. .. .. .. .. .. .. .. .. 46 .. .. .. .. .. .. .. .. 
.. .. .. .. .. .. .. .. .. .. .. .. .. .. .. .. .. .. .. .. .. .. .. .. .. .. .. .. .. .. 
.. .. .. .. .. .. .. .. .. .. .. .. .. .. .. .. .. .. .. .. .. .. .. .. .. .. .. .. .. .. 
.. .. .. .. .. .. .. .. .. .. .. .. .. .. .. .. .. .. .. .. .. .. .. .. .. .. .. .. .. .. 
.. .. .. .. .. .. .. .. .. .. .. .. .. .. .. .. .. .. .. .. .. .. .. .. .. .. .. .. .. .. 
.. .. .. .. .. .. .. .. .. .. .. .. .. .. .. .. .. .. .. 46 .. .. 34 .. .. .. .. .. .. .. 
.. 51 39 .. .. .. .. .. .. .. .. 58 46 .. .. .. .. .. .. .. .. 51 39 .. .. .. .. .. .. .. 
.. 56 44 .. .. .. .. .. .. .. .. 51 39 .. .. .. .. .. .. .. .. 55 43 .. .. .. .. .. .. .. 
.. 51 39 .. .. .. .. .. .. .. .. 46 34 .. .. .. .. .. .. .. .. 51 39 .. .. .. .. .. .. .. 
.. 58 46 .. .. .. .. .. .. .. .. 51 39 .. .. .. .. .. .. .. .. 56 44 .. .. .. .. .. .. .. 
.. 51 39 .. .. .. .. .. .. .. .. 55 43 .. .. .. .. .. .. .. .. 51 39 .. .. .. .. .. .. .. 
.. 46 34 .. .. .. .. .. .. .. .. 53 41 .. .. .. .. .. .. .. .. 58 46 .. .. .. .. .. .. .. 
.. 53 41 .. .. .. .. .. .. .. .. 56 44 .. .. .. .. .. .. .. .. 53 41 .. .. .. .. .. .. .. 
.. 55 43 .. .. .. .. .. .. .. .. 53 41 .. .. .. .. .. .. .. .. 46 34 .. .. .. .. .. .. .. 
.. 53 41 .. .. .. .. .. .. .. .. 58 46 .. .. .. .. .. .. .. .. 53 41 .. .. .. .. .. .. .. 
.. 56 44 .. .. .. .. .. .. .. .. 53 41 .. .. .. .. .. .. .. .. 55 43 .. .. .. .. .. .. .. 
.. 53 41 .. .. .. .. .. .. .. .. 46 34 .. .. .. .. .. .. .. .. 51 39 .. .. .. 51 39 .. .. 
.. 58 46 .. .. .. .. .. .. .. .. 51 39 .. .. .. .. .. .. .. .. 56 44 .. .. .. .. .. .. .. 
.. 51 39 .. .. .. .. .. .. .. .. 55 43 .. .. .. .. .. .. .. .. 51 39 .. .. .. .. .. .. .. 
.. 46 34 .. .. .. .. .. .. .. .. 51 39 .. .. .. 51 39 .. .. .. 58 46 .. .. .. .. .. .. .. 
.. 51 39 .. .. .. .. .. .. .. .. 56 44 .. .. .. .. .. .. .. .. 51 39 .. .. .. .. .. .. .. 
.. 55 43 .. .. .. .. .. .. .. .. 51 39 .. .. .. .. .. .. .. .. 46 .. 53 .. 50 .. 46 .. 53 
.. 50 .. 46 .. 53 .. 50 .. 46 .. 53 .. 50 .. 46 .. 53 .. 50 .. 46 .. 53 .. 50 .. 46 .. 53 
.. 50 .. 46 .. 53 .. 50 .. 46 .. 53 .. 50 .. 46 .. 53 .. 50 .. 46 .. 53 .. 50 .. 46 .. 53 
.. 50 .. 46 .. 53 .. 50 .. 46 .. 48 .. 55 .. 52 .. 48 .. 55 .. 52 .. 48 .. 55 .. 52 .. 48 
.. 55 .. 52 .. 48 .. 55 .. 52 .. 48 .. 55 .. 52 .. 48 .. 55 .. 52 .. 48 .. 55 .. 52 
! Song 5
14 82 70 58 .. .. .. .. .. .. .. .. .. .. .. 70 58 46 .. .. .. .. .. .. .. .. .. .. .. 80 
68 56 .. .. .. .. .. .. .. .. .. .. .. 70 58 46 .. .. .. .. 79 67 55 .. .. .. .. .. .. .. 
.. .. .. .. 70 58 46 .. .. .. .. 77 65 53 .. .. .. .. .. .. .. .. .. .. .. 73 61 49 .. .. 
.. .. 75 63 51 .. .. .. .. 63 51 39 .. .. .. .. 64 52 40 .. .. .. .. 65 53 41 .. .. .. .. 
68 56 44 .. .. .. .. 70 58 46 .. .. .. .. 68 56 44 .. .. .. .. 73 61 49 .. .. .. .. 70 58 
46 .. .. .. .. .. .. .. .. .. .. .. 70 58 46 .. .. .. .. .. .. .. .. .. .. .. .. .. .. .. 
.. .. .. .. .. .. .. .. .. .. .. .. .. .. .. .. .. .. .. .. .. .. .. .. .. .. .. .. .. .. 
.. .. .. .. .. .. .. .. .. .. .. .. .. .. .. .. .. .. .. .. .. .. .. .. .. .. .. .. .. .. 
.. .. .. .. .. .. .. .. .. .. .. .. .. .. .. .. .. .. .. .. .. .. .. .. .. .. .. .. .. .. 
.. .. .. .. .. .. .. .. .. .. .. .. .. .. .. .. .. .. .. .. .. .. .. .. .. .. .. .. .. .. 
.. .. .. .. .. .. .. .. .. .. .. .. .. .. .. .. .. .. .. .. .. .. .. .. .. .. .. 
! End
