! Simple
! Song 0
14 .. 51 .. .. .. .. .. .. .. .. .. .. .. .. .. .. .. .. .. .. .. .. 46 .. .. .. .. .. .. 
.. .. .. .. .. .. .. .. .. .. .. .. .. .. 44 .. .. .. .. .. .. .. .. .. .. .. .. .. .. .. 
.. .. .. .. .. .. .. .. .. .. .. .. .. .. .. .. .. .. .. 46 .. .. .. .. .. .. 51 .. .. .. 
.. .. .. .. .. .. .. .. .. .. 46 .. .. .. .. .. .. 44 .. .. .. .. .. .. 49 .. .. .. .. .. 
.. .. .. .. .. .. .. .. .. .. .. .. .. .. .. 44 .. .. .. .. .. .. .. .. .. .. .. .. .. .. 
.. .. .. .. .. .. 42 .. .. .. .. .. .. .. .. .. .. .. .. .. .. .. .. .. .. .. .. .. .. .. 
.. .. .. .. .. .. .. .. .. .. .. 44 .. .. .. .. .. .. 49 .. .. .. .. .. .. .. .. .. .. .. 
.. .. 44 .. .. .. .. .. .. 42 .. .. .. .. .. .. 49 .. .. .. .. .. .. .. .. .. .. .. .. .. 
.. .. .. .. .. .. .. 46 .. .. .. .. .. .. .. .. .. .. .. .. .. .. .. .. .. .. .. .. 44 .. 
.. .. .. .. .. .. .. .. .. .. .. .. .. .. .. .. .. .. .. .. .. .. .. .. .. .. .. .. .. .. 
.. .. .. 46 .. .. .. .. .. .. 49 .. .. .. .. .. .. .. .. .. .. .. .. .. 46 .. .. .. .. .. 
.. 44 .. .. .. .. .. .. 48 .. .. .. .. .. .. .. .. .. .. .. .. .. .. .. .. .. .. .. .. 44 
.. .. .. .. .. .. .. .. .. .. .. .. .. .. .. .. .. .. .. .. 39 .. .. .. .. .. .. .. .. .. 
.. .. .. .. .. .. .. .. .. .. .. .. .. .. .. .. .. .. .. .. .. .. .. .. .. 44 .. .. .. .. 
.. .. 48 .. .. .. .. .. .. .. .. .. .. .. .. .. 44 .. .. .. .. .. .. 39 .. .. .. .. .. .. 
51 .. .. .. .. .. .. .. .. .. .. .. .. .. .. .. .. .. .. .. .. 46 .. .. .. .. .. .. .. .. 
.. .. .. .. .. .. .. .. .. .. .. .. 44 .. .. .. .. .. .. .. .. .. .. .. .. .. .. .. .. .. 
.. .. .. .. .. .. .. .. .. .. .. .. .. .. .. .. .. 46 .. .. .. .. .. .. 51 .. .. .. .. .. 
.. .. .. .. .. .. .. .. 46 .. .. .. .. .. .. 44 .. .. .. .. .. .. 49 .. .. .. .. .. .. .. 
.. .. .. .. .. .. .. .. .. .. .. .. .. 44 .. .. .. .. .. .. .. .. .. .. .. .. .. .. .. .. 
.. .. .. .. 42 .. .. .. .. .. .. .. .. .. .. .. .. .. .. .. .. .. .. .. .. .. .. .. .. .. 
.. .. .. .. .. .. .. .. .. 44 .. .. .. .. .. .. 49 .. .. .. .. .. .. .. .. .. .. .. .. .. 
44 .. .. .. .. .. .. 42 .. .. .. .. .. .. 49 .. .. .. .. .. .. .. .. .. .. .. .. .. .. .. 
.. .. .. .. .. 46 .. .. .. .. .. .. .. .. .. .. .. .. .. .. .. .. .. .. .. .. 44 .. .. .. 
.. .. .. .. .. .. .. .. .. .. .. .. .. .. .. .. .. .. .. .. .. .. .. .. .. .. .. .. .. .. 
.. 46 .. .. .. .. .. .. 49 .. .. .. .. .. .. .. .. .. .. .. .. .. 46 .. .. .. .. .. .. 44 
.. .. .. .. .. .. 48 .. .. .. .. .. .. .. .. .. .. .. .. .. .. .. .. .. .. .. .. 44 .. .. 
.. .. .. .. .. .. .. .. .. .. .. .. .. .. .. .. .. .. 39 .. .. .. .. .. .. .. .. .. .. .. 
.. .. .. .. .. .. .. .. .. .. .. .. .. .. .. .. .. .. .. .. .. .. .. 44 .. .. .. .. .. .. 
48 .. .. .. .. .. .. .. .. .. .. .. .. .. 44 .. .. .. .. .. .. 39 .. .. .. .. .. .. 51 .. 
.. .. .. .. .. .. .. .. .. .. .. .. .. .. .. .. .. .. .. 46 .. .. .. .. .. .. .. .. .. .. 
.. .. .. .. .. .. .. .. .. .. 44 .. .. .. .. .. .. .. .. .. .. .. .. .. .. .. .. .. .. .. 
.. .. .. .. .. .. .. .. .. .. .. .. .. .. .. 46 .. .. .. .. .. .. 51 .. .. .. .. .. .. .. 
.. .. .. .. .. .. 46 .. .. .. .. .. .. 44 .. .. .. .. .. .. 49 .. .. .. .. .. .. .. .. .. 
.. .. .. .. .. .. .. .. .. .. .. 44 .. .. .. .. .. .. .. .. .. .. .. .. .. .. .. .. .. .. 
.. .. 42 .. .. .. .. .. .. .. .. .. .. .. .. .. .. .. .. .. .. .. .. .. .. .. .. .. .. .. 
.. .. .. .. .. .. .. 44 .. .. .. .. .. .. 49 .. .. .. .. .. .. .. .. .. .. .. .. .. 44 .. 
.. .. .. .. .. 42 .. .. .. .. .. .. 49 .. .. .. .. .. .. .. .. .. .. .. .. .. .. .. .. .. 
.. .. .. 46 .. .. .. .. .. .. .. .. .. .. .. .. .. .. .. .. .. .. .. .. 44 .. .. .. .. .. 
.. .. .. .. .. .. .. .. .. .. .. .. .. .. .. .. .. .. .. .. .. .. .. .. .. .. .. .. .. 46 
.. .. .. .. .. .. 49 .. .. .. .. .. .. .. .. .. .. .. .. .. 46 .. .. .. .. .. .. 44 .. .. 
.. .. .. .. 48 .. .. .. .. .. .. .. .. .. .. .. .. .. .. .. .. .. .. .. .. 44 .. .. .. .. 
.. .. .. .. .. .. .. .. .. .. .. .. .. .. .. .. 39 .. .. .. .. .. .. .. .. .. .. .. .. .. 
.. .. .. .. .. .. .. .. .. .. .. .. .. .. .. .. .. .. .. .. .. 44 .. .. .. .. .. .. 48 .. 
.. .. .. .. .. .. .. .. .. .. .. .. 44 .. .. .. .. .. .. 39 .. .. .. .. .. .. 46 .. .. .. 
.. .. .. .. .. .. 16 .. .. .. .. .. .. .. .. .. .. .. .. .. .. .. .. .. .. .. .. .. .. .. 
.. .. .. .. .. .. .. .. 44 .. .. .. .. .. .. .. .. .. .. .. .. .. .. .. .. .. .. .. .. .. 
.. .. .. .. .. .. .. .. .. .. .. .. .. .. .. .. .. .. 16 .. 39 .. .. .. .. .. .. .. .. .. 
.. .. .. .. 41 .. .. .. .. .. .. .. .. .. .. .. .. .. 49 .. .. .. .. .. .. .. .. .. .. .. 
.. .. .. .. .. .. .. .. .. .. .. .. .. .. .. .. .. .. .. .. .. .. .. .. .. .. .. .. 16 .. 
48 .. .. .. .. .. .. .. .. .. .. .. .. .. .. .. .. .. .. .. .. .. .. .. .. .. .. .. .. .. 
.. .. .. .. .. .. .. .. .. .. 16 .. 48 .. .. .. .. .. .. .. .. .. .. .. .. .. .. .. .. .. 
.. .. .. 49 .. .. .. .. .. .. 46 .. .. .. .. .. .. .. .. .. 16 .. .. .. .. .. .. .. .. .. 
.. .. .. .. .. .. .. .. .. .. .. .. .. .. .. .. .. .. .. .. .. .. 44 .. .. .. .. .. .. .. 
.. .. .. .. .. .. .. .. .. .. .. .. .. .. .. .. .. .. .. .. .. .. .. .. .. .. .. .. .. .. 
.. .. 16 .. 39 .. .. .. .. .. .. .. .. .. .. .. .. .. 41 .. .. .. .. .. .. .. .. .. .. .. 
.. .. 49 .. .. .. .. .. .. .. .. .. .. .. .. .. .. .. .. .. .. .. .. .. .. .. .. .. .. .. 
.. .. .. .. .. .. .. .. .. .. .. .. 16 .. 48 .. .. .. .. .. .. .. .. .. .. .. .. .. .. .. 
.. .. .. .. .. .. .. .. .. .. .. .. .. .. .. .. .. .. .. .. .. .. .. .. 16 .. 48 .. .. .. 
.. .. .. .. .. .. .. .. .. .. .. .. .. .. .. .. .. 49 .. .. .. .. .. .. 51 .. .. .. .. .. 
.. .. .. .. .. .. .. .. .. .. .. .. .. .. .. 46 .. .. .. .. .. .. .. .. .. .. .. .. .. .. 
.. .. .. .. .. .. 44 .. .. .. .. .. .. .. .. .. .. .. .. .. .. .. .. .. .. .. .. .. .. .. 
.. .. .. .. .. .. .. .. .. .. .. 46 .. .. .. .. .. .. 51 .. .. .. .. .. .. .. .. .. .. .. 
.. .. 46 .. .. .. .. .. .. 44 .. .. .. .. .. .. 49 .. .. .. .. .. .. .. .. .. .. .. .. .. 
.. .. .. .. .. .. .. 44 .. .. .. .. .. .. .. .. .. .. .. .. .. .. .. .. .. .. .. .. 42 .. 
.. .. .. .. .. .. .. .. .. .. .. .. .. .. .. .. .. .. .. .. .. .. .. .. .. .. .. .. .. .. 
.. .. .. 44 .. .. .. .. .. .. 49 .. .. .. .. .. .. .. .. .. .. .. .. .. 44 .. .. .. .. .. 
.. 42 .. .. .. .. .. .. 49 .. .. .. .. .. .. .. .. .. .. .. .. .. .. .. .. .. .. .. .. 46 
.. .. .. .. .. .. .. .. .. .. .. .. .. .. .. .. .. .. .. .. 44 .. .. .. .. .. .. .. .. .. 
.. .. .. .. .. .. .. .. .. .. .. .. .. .. .. .. .. .. .. .. .. .. .. .. .. 46 .. .. .. .. 
.. .. 49 .. .. .. .. .. .. .. .. .. .. .. .. .. 46 .. .. .. .. .. .. 44 .. .. .. .. .. .. 
48 .. .. .. .. .. .. .. .. .. .. .. .. .. .. .. .. .. .. .. .. 44 .. .. .. .. .. .. .. .. 
.. .. .. .. .. .. .. .. .. .. .. .. 39 .. .. .. .. .. .. .. .. .. .. .. .. .. .. .. .. .. 
.. .. .. .. .. .. .. .. .. .. .. .. .. .. .. .. .. 44 .. .. .. .. .. .. 48 .. .. .. .. .. 
.. .. .. .. .. .. .. .. 44 .. .. .. .. .. .. 39 .. .. .. .. .. .. 51 .. .. .. .. .. .. .. 
.. .. .. .. .. .. .. .. .. .. .. .. .. 46 .. .. .. .. .. .. .. .. .. .. .. .. .. .. .. .. 
.. .. .. .. 44 .. .. .. .. .. .. .. .. .. .. .. .. .. .. .. .. .. .. .. .. .. .. .. .. .. 
.. .. .. .. .. .. .. .. .. 46 .. .. .. .. .. .. 51 .. .. .. .. .. .. .. .. .. .. .. .. .. 
46 .. .. .. .. .. .. 44 .. .. .. .. .. .. 49 .. .. .. .. .. .. .. .. .. .. .. .. .. .. .. 
.. .. .. .. .. 44 .. .. .. .. .. .. .. .. .. .. .. .. .. .. .. .. .. .. .. .. 42 .. .. .. 
.. .. .. .. .. .. .. .. .. .. .. .. .. .. .. .. .. .. .. .. .. .. .. .. .. .. .. .. .. .. 
.. 44 .. .. .. .. .. .. 49 .. .. .. .. .. .. .. .. .. .. .. .. .. 44 .. .. .. .. .. .. 42 
.. .. .. .. .. .. 49 .. .. .. .. .. .. .. .. .. .. .. .. .. .. .. .. .. .. .. .. 46 .. .. 
.. .. .. .. .. .. .. .. .. .. .. .. .. .. .. .. .. .. 44 .. .. .. .. .. .. .. .. .. .. .. 
.. .. .. .. .. .. .. .. .. .. .. .. .. .. .. .. .. .. .. .. .. .. .. 46 .. .. .. .. .. .. 
49 .. .. .. .. .. .. .. .. .. .. .. .. .. 46 .. .. .. .. .. .. 44 .. .. .. .. .. .. 48 .. 
.. .. .. .. .. .. .. .. .. .. .. .. .. .. .. .. .. .. .. 44 .. .. .. .. .. .. .. .. .. .. 
.. .. .. .. .. .. .. .. .. .. 39 .. .. .. .. .. .. .. .. .. .. .. .. .. .. .. .. .. .. .. 
.. .. .. .. .. .. .. .. .. .. .. .. .. .. .. 44 .. .. .. .. .. .. 48 .. .. .. .. .. .. .. 
.. .. .. .. .. .. 44 .. .. .. .. .. .. 39 .. .. .. .. .. .. 51 .. .. .. .. .. .. .. .. .. 
.. .. .. .. .. .. .. .. .. .. .. 50 49 48 47 .. 46 45 .. 44 43 .. 42 .. 41 .. 40 .. 39 .. 
38 .. 49 .. .. .. .. .. .. .. .. .. .. .. .. .. .. .. .. .. 48 .. .. 49 .. .. .. .. 48 .. 
49 .. .. .. .. .. .. .. .. .. .. .. .. .. .. .. .. .. .. .. .. 48 .. .. .. .. .. .. 44 .. 
.. .. .. .. .. 48 .. .. .. .. .. .. 44 .. .. .. .. .. .. .. .. .. .. .. .. .. .. .. .. .. 
.. .. .. 43 .. 42 41 .. 40 .. 39 .. .. 38 .. 37 .. 36 .. .. 35 .. .. 34 44 .. .. .. .. .. 
.. .. .. .. .. .. .. .. 22 .. .. .. 26 .. .. 29 .. .. .. 34 .. .. 38 .. .. .. 41 .. .. 46 
.. .. .. 50 .. .. 53 .. .. .. 58 .. .. 62 .. .. .. 65 .. .. 70 .. .. .. 74 .. .. 77 .. .. 
.. 82 .. .. 51 .. .. .. .. .. .. .. .. .. .. .. .. .. .. .. .. .. .. .. .. 50 49 48 47 .. 
46 45 .. 44 43 .. 42 .. 41 .. 40 .. 39 .. 38 .. 49 .. .. .. .. .. .. .. .. .. .. .. .. .. 
.. .. .. .. 48 .. .. 49 .. .. .. .. 48 .. 49 .. .. .. .. .. .. .. .. .. .. .. .. .. .. .. 
.. .. .. .. .. 48 .. .. .. .. .. .. 44 .. .. .. .. .. .. 48 .. .. .. .. .. .. 51 .. .. .. 
.. .. .. .. .. .. .. .. .. .. .. .. .. .. .. .. .. 50 49 48 47 .. 46 45 .. 44 43 .. 42 .. 
41 .. 40 .. 39 .. 38 .. 54 .. .. .. .. .. .. 53 .. .. .. .. .. .. 73 .. .. .. 68 .. .. 65 
.. .. .. 61 .. .. 56 .. .. .. 53 .. .. 49 .. .. .. 44 .. .. 41 .. .. .. 37 .. .. 32 .. .. 
.. 29 .. .. 25 .. .. .. 20 .. .. 17 .. .. .. .. .. .. 51 .. .. .. .. .. .. .. .. .. .. .. 
.. .. .. .. .. .. .. .. .. 50 49 48 47 .. 46 45 .. 44 43 .. 42 .. 41 .. 40 .. 39 .. 38 .. 
49 .. .. .. .. .. .. .. .. .. .. .. .. .. .. .. .. .. 48 .. .. 49 .. .. .. .. 48 .. 49 .. 
.. .. .. .. .. .. .. .. .. .. .. .. .. .. .. .. .. .. .. 48 .. .. .. .. .. .. 44 .. .. .. 
.. .. .. 48 .. .. .. .. .. .. 44 .. .. .. .. .. .. .. .. .. .. .. .. .. .. .. .. .. .. .. 
.. 43 .. 42 41 .. 40 .. 39 .. .. 38 .. 37 .. 36 .. .. 35 .. .. 34 44 .. .. .. .. .. .. .. 
.. .. .. .. .. .. 22 .. .. .. 26 .. .. 29 .. .. .. 34 .. .. 38 .. .. .. 41 .. .. 46 .. .. 
.. 50 .. .. 53 .. .. .. 58 .. .. 62 .. .. .. 65 .. .. 70 .. .. .. 74 .. .. 77 .. .. .. 82 
.. .. 51 .. .. .. .. .. .. .. .. .. .. .. .. .. .. .. .. .. .. .. .. 50 49 48 47 .. 46 45 
.. 44 43 .. 42 .. 41 .. 40 .. 39 .. 38 .. 49 .. .. .. .. .. .. .. .. .. .. .. .. .. .. .. 
.. .. 48 .. .. 49 .. .. .. .. 48 .. 49 .. .. .. .. .. .. .. .. .. .. .. .. .. .. .. .. .. 
.. .. .. 48 .. .. .. .. .. .. 44 .. .. .. .. .. .. 48 .. .. .. .. .. .. 51 .. .. .. .. .. 
.. .. .. .. .. .. .. .. .. .. .. .. .. .. .. 50 49 48 47 .. 46 45 .. 44 43 .. 42 .. 41 .. 
40 .. 39 .. 38 .. 54 .. .. .. .. .. .. 53 .. .. .. .. .. .. 73 .. .. .. 68 .. .. 65 .. .. 
.. 61 .. .. 56 .. .. .. 53 .. .. 49 .. .. .. 44 .. .. 41 .. .. .. 37 .. .. 32 .. .. .. 29 
.. .. 25 .. .. .. 20 .. .. 17 .. .. .. .. .. .. 51 .. .. .. .. .. .. .. .. .. .. .. .. .. 
.. .. .. .. .. .. .. 46 .. .. .. .. .. .. .. .. .. .. .. .. .. .. .. .. .. .. .. .. 44 .. 
.. .. .. .. .. .. .. .. .. .. .. .. .. .. .. .. .. .. .. .. .. .. .. .. .. .. .. .. .. .. 
.. .. .. 46 .. .. .. .. .. .. 51 .. .. .. .. .. .. .. .. .. .. .. .. .. 46 .. .. .. .. .. 
.. 44 .. .. .. .. .. .. 49 .. .. .. .. .. .. .. .. .. .. .. .. .. .. .. .. .. .. .. .. 44 
.. .. .. .. .. .. .. .. .. .. .. .. .. .. .. .. .. .. .. .. 42 .. .. .. .. .. .. .. .. .. 
.. .. .. .. .. .. .. .. .. .. .. .. .. .. .. .. .. .. .. .. .. .. .. .. .. 44 .. .. .. .. 
.. .. 49 .. .. .. .. .. .. .. .. .. .. .. .. .. 44 .. .. .. .. .. .. 42 .. .. .. .. .. .. 
49 .. .. .. .. .. .. .. .. .. .. .. .. .. .. .. .. .. .. .. .. 46 .. .. .. .. .. .. .. .. 
.. .. .. .. .. .. .. .. .. .. .. .. 44 .. .. .. .. .. .. .. .. .. .. .. .. .. .. .. .. .. 
.. .. .. .. .. .. .. .. .. .. .. .. .. .. .. .. .. 46 .. .. .. .. .. .. 49 .. .. .. .. .. 
.. .. .. .. .. .. .. .. 46 .. .. .. .. .. .. 44 .. .. .. .. .. .. 48 .. .. .. .. .. .. .. 
.. .. .. .. .. .. .. .. .. .. .. .. .. 44 .. .. .. .. .. .. .. .. .. .. .. .. .. .. .. .. 
.. .. .. .. 39 .. .. .. .. .. .. .. .. .. .. .. .. .. .. .. .. .. .. .. .. .. .. .. .. .. 
.. .. .. .. .. .. .. .. .. 44 .. .. .. .. .. .. 48 .. .. .. .. .. .. .. .. .. .. .. .. .. 
44 .. .. .. .. .. .. 39 .. .. .. .. .. .. 51 .. .. .. .. .. .. .. .. .. .. .. .. .. .. .. 
.. .. .. .. .. 46 .. .. .. .. .. .. .. .. .. .. .. .. .. .. .. .. .. .. .. .. 44 .. .. .. 
.. .. .. .. .. .. .. .. .. .. .. .. .. .. .. .. .. .. .. .. .. .. .. .. .. .. .. .. .. .. 
.. 46 .. .. .. .. .. .. 51 .. .. .. .. .. .. .. .. .. .. .. .. .. 46 .. .. .. .. .. .. 44 
.. .. .. .. .. .. 49 .. .. .. .. .. .. .. .. .. .. .. .. .. .. .. .. .. .. .. .. 44 .. .. 
.. .. .. .. .. .. .. .. .. .. .. .. .. .. .. .. .. .. 42 .. .. .. .. .. .. .. .. .. .. .. 
.. .. .. .. .. .. .. .. .. .. .. .. .. .. .. .. .. .. .. .. .. .. .. 44 .. .. .. .. .. .. 
49 .. .. .. .. .. .. .. .. .. .. .. .. .. 44 .. .. .. .. .. .. 42 .. .. .. .. .. .. 49 .. 
.. .. .. .. .. .. .. .. .. .. .. .. .. .. .. .. .. .. .. 46 .. .. .. .. .. .. .. .. .. .. 
.. .. .. .. .. .. .. .. .. .. 44 .. .. .. .. .. .. .. .. .. .. .. .. .. .. .. .. .. .. .. 
.. .. .. .. .. .. .. .. .. .. .. .. .. .. .. 46 .. .. .. .. .. .. 49 .. .. .. .. .. .. .. 
.. .. .. .. .. .. 46 .. .. .. .. .. .. 44 .. .. .. .. .. .. 48 .. .. .. .. .. .. .. .. .. 
.. .. .. .. .. .. .. .. .. .. .. 44 .. .. .. .. .. .. .. .. .. .. .. .. .. .. .. .. .. .. 
.. .. 39 .. .. .. .. .. .. .. .. .. .. .. .. .. .. .. .. .. .. .. .. .. .. .. .. .. .. .. 
.. .. .. .. .. .. .. 44 .. .. .. .. .. .. 48 .. .. .. .. .. .. .. .. .. .. .. .. .. 44 .. 
.. .. .. .. .. 39 .. .. .. .. .. .. 46 .. .. .. .. .. .. .. .. .. 16 .. .. .. .. 46 .. .. 
.. .. .. .. .. .. .. 16 .. .. .. .. 46 .. .. .. .. .. .. .. .. .. .. .. .. .. .. .. .. .. 
.. .. 16 .. .. .. .. 46 .. .. .. .. .. .. .. .. .. 16 .. .. .. .. 46 .. .. .. .. .. .. .. 
.. .. 47 .. .. .. .. .. .. .. .. .. 16 .. .. .. .. 47 .. .. .. .. .. .. .. .. .. 16 .. .. 
.. .. 47 .. .. .. .. .. .. .. .. .. .. .. .. .. .. .. .. .. .. .. 16 .. .. .. .. 47 .. .. 
.. .. .. .. .. .. .. 16 .. .. .. .. 47 .. .. .. .. .. .. .. .. .. 49 .. .. .. .. .. .. .. 
.. .. 16 .. .. .. .. 49 .. .. .. .. .. .. .. .. .. 16 .. .. .. .. 49 .. .. .. .. .. .. .. 
.. .. .. .. .. .. .. .. .. .. .. .. 16 .. .. .. .. 49 .. .. .. .. .. .. .. .. .. 16 .. .. 
.. .. 49 .. .. .. .. .. .. .. .. .. .. .. .. .. .. .. .. .. .. .. 16 .. .. .. .. 49 .. .. 
.. .. .. .. .. .. .. 16 .. .. .. .. 49 .. .. .. .. .. .. .. .. .. .. .. .. .. .. .. .. .. 
.. .. 16 .. .. .. .. 49 .. .. .. .. .. .. .. .. .. 16 .. .. .. .. 49 .. .. .. .. .. .. .. 
.. .. 46 .. .. .. .. .. .. .. .. .. 16 .. .. .. .. 46 .. .. .. .. .. .. .. .. .. 16 .. .. 
.. .. 46 .. .. .. .. .. .. .. .. .. .. .. .. .. .. .. .. .. .. .. 16 .. .. .. .. 46 .. .. 
.. .. .. .. .. .. .. 16 .. .. .. .. 46 .. .. .. .. .. .. .. .. .. 47 .. .. .. .. .. .. .. 
.. .. 16 .. .. .. .. 47 .. .. .. .. .. .. .. .. .. 16 .. .. .. .. 47 .. .. .. .. .. .. .. 
.. .. .. .. .. .. .. .. .. .. .. .. 16 .. .. .. .. 47 .. .. .. .. .. .. .. .. .. 16 .. .. 
.. .. 47 .. .. .. .. .. .. .. .. .. 49 .. .. .. .. .. .. .. .. .. 16 .. .. .. .. 49 .. .. 
.. .. .. .. .. .. .. 16 .. .. .. .. 49 .. .. .. .. .. .. .. .. .. .. .. .. .. .. .. .. .. 
.. .. 16 .. .. .. .. 49 .. .. .. .. .. .. .. .. .. 16 .. .. .. .. 49 .. .. .. .. .. .. .. 
.. .. .. .. .. .. .. .. .. .. .. .. 16 .. .. .. .. 49 .. .. .. .. .. .. .. .. .. 16 .. .. 
.. .. 49 .. .. .. .. .. .. .. .. .. .. .. .. .. .. .. .. .. .. .. 16 .. .. .. .. 49 .. .. 
.. .. .. .. .. .. .. 16 .. .. .. .. 49 .. .. .. .. .. .. .. .. .. 46 .. .. .. .. .. .. .. 
.. .. 16 .. .. .. .. 46 .. .. .. .. 15 .. .. .. .. .. .. .. .. .. 46 .. .. .. .. 15 .. .. 
.. .. 46 .. .. .. .. 15 .. .. .. .. .. .. .. .. .. 46 .. .. .. .. .. .. .. .. .. 16 .. .. 
.. .. 46 .. .. .. .. 15 .. .. .. .. 47 .. .. .. .. .. .. .. .. .. 18 .. .. .. .. 47 .. .. 
.. .. .. .. .. .. .. 18 .. .. .. .. 47 .. .. .. .. .. .. .. .. .. .. .. .. .. .. .. .. .. 
.. .. 18 .. .. .. .. 47 .. .. .. .. .. .. .. .. .. 16 .. .. .. .. 47 .. .. .. .. 18 .. .. 
.. .. 49 .. .. .. .. 20 .. .. .. .. .. .. .. .. .. 49 .. .. .. .. 20 .. .. .. .. .. .. .. 
.. .. 49 .. .. .. .. 20 .. .. .. .. 49 .. .. .. .. .. .. .. .. .. 20 .. .. .. .. 49 .. .. 
.. .. .. .. .. .. .. 20 .. .. .. .. 49 .. .. .. .. 20 .. .. .. .. 49 .. .. .. .. 20 .. .. 
.. .. .. .. .. .. .. 49 .. .. .. .. 20 .. .. .. .. .. .. .. .. .. 49 .. .. .. .. 20 .. .. 
.. .. 49 .. .. .. .. 20 .. .. .. .. .. .. .. .. .. 49 .. .. .. .. 20 .. .. .. .. .. .. .. 
.. .. 49 .. .. .. .. .. .. .. .. .. 46 .. .. .. .. .. .. .. .. .. 16 .. .. .. .. 46 .. .. 
.. .. 15 .. .. .. .. .. .. .. .. .. 46 .. .. .. .. 15 .. .. .. .. 46 .. .. .. .. 15 .. .. 
.. .. .. .. .. .. .. 46 .. .. .. .. .. .. .. .. .. 16 .. .. .. .. 46 .. .. .. .. 15 .. .. 
.. .. 47 .. .. .. .. .. .. .. .. .. 18 .. .. .. .. 47 .. .. .. .. .. .. .. .. .. 18 .. .. 
.. .. 47 .. .. .. .. .. .. .. .. .. .. .. .. .. .. .. .. .. .. .. 18 .. .. .. .. 47 .. .. 
.. .. .. .. .. .. .. 16 .. .. .. .. 47 .. .. .. .. 18 .. .. .. .. 49 .. .. .. .. 20 .. .. 
.. .. .. .. .. .. .. 49 .. .. .. .. 20 .. .. .. .. .. .. .. .. .. 49 .. .. .. .. 20 .. .. 
.. .. 49 .. .. .. .. .. .. .. .. .. 20 .. .. .. .. 49 .. .. .. .. .. .. .. .. .. 20 .. .. 
.. .. 49 .. .. .. .. 20 .. .. .. .. 49 .. .. .. .. 20 .. .. .. .. .. .. .. .. .. 49 .. .. 
.. .. 20 .. .. .. .. .. .. .. .. .. 49 .. .. .. .. 20 .. .. .. .. 49 .. .. .. .. 20 .. .. 
.. .. .. .. .. .. .. 49 .. .. .. .. 20 .. .. .. .. .. .. .. .. .. 49 .. .. .. .. .. .. .. 
.. .. 46 .. .. .. .. .. .. .. .. .. 16 .. .. .. .. 46 .. .. .. .. 15 .. .. .. .. .. .. .. 
.. .. 46 .. .. .. .. 15 .. .. .. .. 46 .. .. .. .. 15 .. .. .. .. .. .. .. .. .. 46 .. .. 
.. .. .. .. .. .. .. 16 .. .. .. .. 46 .. .. .. .. 15 .. .. .. .. 47 .. .. .. .. .. .. .. 
.. .. 18 .. .. .. .. 47 .. .. .. .. .. .. .. .. .. 18 .. .. .. .. 47 .. .. .. .. .. .. .. 
.. .. .. .. .. .. .. .. .. .. .. .. 18 .. .. .. .. 47 .. .. .. .. .. .. .. .. .. 16 .. .. 
.. .. 47 .. .. .. .. 18 .. .. .. .. 49 .. .. .. .. 20 .. .. .. .. .. .. .. .. .. 49 .. .. 
.. .. 20 .. .. .. .. .. .. .. .. .. 49 .. .. .. .. 20 .. .. .. .. 49 .. .. .. .. .. .. .. 
.. .. 20 .. .. .. .. 49 .. .. .. .. .. .. .. .. .. 20 .. .. .. .. 49 .. .. .. .. 20 .. .. 
.. .. 49 .. .. .. .. 20 .. .. .. .. .. .. .. .. .. 49 .. .. .. .. 20 .. .. .. .. .. .. .. 
.. .. 49 .. .. .. .. 20 .. .. .. .. 49 .. .. .. .. 20 .. .. .. .. .. .. .. .. .. 49 .. .. 
.. .. 20 .. .. .. .. .. .. .. .. .. 49 .. .. .. .. .. .. .. .. .. 46 .. .. .. .. .. .. .. 
.. .. 16 .. .. .. .. 46 .. .. .. .. 15 .. .. .. .. .. .. .. .. .. 46 .. .. .. .. 15 .. .. 
.. .. 46 .. .. .. .. 15 .. .. .. .. .. .. .. .. .. 46 .. .. .. .. .. .. .. .. .. 16 .. .. 
.. .. 46 .. .. .. .. 15 .. .. .. .. 47 .. .. .. .. .. .. .. .. .. 18 .. .. .. .. 47 .. .. 
.. .. .. .. .. .. .. 18 .. .. .. .. 47 .. .. .. .. .. .. .. .. .. .. .. .. .. .. .. .. .. 
.. .. 18 .. .. .. .. 47 .. .. .. .. .. .. .. .. .. 16 .. .. .. .. 47 .. .. .. .. 18 .. .. 
.. .. 49 .. .. .. .. 20 .. .. .. .. .. .. .. .. .. 49 .. .. .. .. 20 .. .. .. .. .. .. .. 
.. .. 49 .. .. .. .. 20 .. .. .. .. 49 .. .. .. .. .. .. .. .. .. 20 .. .. .. .. 49 .. .. 
.. .. .. .. .. .. .. 20 .. .. .. .. 49 .. .. .. .. 20 .. .. .. .. 49 .. .. .. .. 20 .. .. 
.. .. .. .. .. .. .. 49 .. .. .. .. 20 .. .. .. .. .. .. .. .. .. 49 .. .. .. .. 20 .. .. 
.. .. 49 .. .. .. .. 20 .. .. .. .. .. .. .. .. .. 49 .. .. .. .. 20 .. .. .. .. .. .. .. 
.. .. 49 .. .. .. .. .. .. .. .. .. 46 .. .. .. .. .. .. .. .. .. 16 .. .. .. .. 46 .. .. 
.. .. 15 .. .. .. .. .. .. .. .. .. 46 .. .. .. .. 15 .. .. .. .. 46 .. .. .. .. 15 .. .. 
.. .. .. .. .. .. .. 46 .. .. .. .. .. .. .. .. .. 16 .. .. .. .. 46 .. .. .. .. 15 .. .. 
.. .. 47 .. .. .. .. .. .. .. .. .. 18 .. .. .. .. 47 .. .. .. .. .. .. .. .. .. 18 .. .. 
.. .. 47 .. .. .. .. .. .. .. .. .. .. .. .. .. .. .. .. .. .. .. 18 .. .. .. .. 47 .. .. 
.. .. .. .. .. .. .. 16 .. .. .. .. 47 .. .. .. .. 18 .. .. .. .. 49 .. .. .. .. 20 .. .. 
.. .. .. .. .. .. .. 49 .. .. .. .. 20 .. .. .. .. .. .. .. .. .. 49 .. .. .. .. 20 .. .. 
.. .. 49 .. .. .. .. .. .. .. .. .. 20 .. .. .. .. 49 .. .. .. .. .. .. .. .. .. 20 .. .. 
.. .. 49 .. .. .. .. 20 .. .. .. .. 49 .. .. .. .. 20 .. .. .. .. .. .. .. .. .. 49 .. .. 
.. .. 20 .. .. .. .. .. .. .. .. .. 49 .. .. .. .. 20 .. .. .. .. 49 .. .. .. .. 20 .. .. 
.. .. .. .. .. .. .. 49 .. .. .. .. 20 .. .. .. .. .. .. .. .. .. 49 .. .. .. .. .. .. .. 
.. .. 46 .. .. .. .. .. .. .. .. .. 16 .. .. .. .. 46 .. .. .. .. 15 .. .. .. .. .. .. .. 
.. .. 46 .. .. .. .. 15 .. .. .. .. 46 .. .. .. .. 15 .. .. .. .. .. .. .. .. .. 46 .. .. 
.. .. .. .. .. .. .. 16 .. .. .. .. 46 .. .. .. .. 15 .. .. .. .. 47 .. .. .. .. .. .. .. 
.. .. 18 .. .. .. .. 47 .. .. .. .. .. .. .. .. .. 18 .. .. .. .. 47 .. .. .. .. .. .. .. 
.. .. .. .. .. .. .. .. .. .. .. .. 18 .. .. .. .. 47 .. .. .. .. .. .. .. .. .. 16 .. .. 
.. .. 47 .. .. .. .. 18 .. .. .. .. 49 .. .. .. .. 20 .. .. .. .. .. .. .. .. .. 49 .. .. 
.. .. 20 .. .. .. .. .. .. .. .. .. 49 .. .. .. .. 20 .. .. .. .. 49 .. .. .. .. .. .. .. 
.. .. 20 .. .. .. .. 49 .. .. .. .. .. .. .. .. .. 20 .. .. .. .. 49 .. .. .. .. 20 .. .. 
.. .. 49 .. .. .. .. 20 .. .. .. .. .. .. .. .. .. 49 .. .. .. .. 20 .. .. .. .. .. .. .. 
.. .. 49 .. .. .. .. 20 .. .. .. .. 49 .. .. .. .. 20 .. .. .. .. .. .. .. .. .. 49 .. .. 
.. .. 20 .. .. .. .. .. .. .. .. .. 49 .. .. .. .. .. .. .. .. .. 46 .. .. .. .. .. .. .. 
.. .. 16 .. .. .. .. 46 .. .. .. .. 15 .. .. .. .. .. .. .. .. .. 46 .. .. .. .. 15 .. .. 
.. .. 46 .. .. .. .. 15 .. .. .. .. .. .. .. .. .. 46 .. .. .. .. .. .. .. .. .. 16 .. .. 
.. .. 46 .. .. .. .. 15 .. .. .. .. 47 .. .. .. .. .. .. .. .. .. 18 .. .. .. .. 47 .. .. 
.. .. .. .. .. .. .. 18 .. .. .. .. 47 .. .. .. .. .. .. .. .. .. .. .. .. .. .. .. 
! End
