! Simple
! Song 0
50 .. .. 55 .. .. .. .. .. .. .. 43 .. .. .. .. .. .. .. .. .. .. .. .. .. 55 .. .. .. .. 
.. 43 .. .. .. .. .. .. .. .. .. .. .. .. .. 55 .. .. .. .. .. .. .. 43 .. .. .. .. .. .. 
.. .. .. .. .. .. .. .. .. .. .. .. .. .. .. .. .. .. .. .. .. .. .. .. .. .. .. .. .. .. 
.. .. .. .. .. .. .. .. .. .. .. 53 .. .. .. .. .. .. .. 53 .. .. .. .. .. 55 .. .. .. .. 
.. .. .. 43 .. .. .. .. .. 53 .. .. .. .. .. .. .. 55 .. .. .. .. .. 43 .. .. .. .. .. .. 
.. 53 .. .. .. .. .. 55 .. .. .. .. .. .. .. 43 .. .. .. .. .. .. .. .. .. .. .. .. .. .. 
.. .. .. .. .. .. .. .. .. .. .. .. .. .. .. .. .. .. .. .. .. .. .. .. .. .. .. .. .. .. 
.. .. .. .. .. .. .. .. .. .. .. .. .. .. .. .. .. 55 .. .. .. .. .. .. .. 43 .. .. .. .. 
.. .. .. .. .. .. .. .. .. 55 .. .. .. .. .. 43 .. .. .. .. .. .. .. .. .. .. .. .. .. 55 
.. .. .. .. .. .. .. 43 .. .. .. .. .. .. .. .. .. .. .. .. .. .. .. .. .. .. .. .. .. .. 
.. .. .. .. .. .. .. .. .. .. .. .. .. .. .. .. .. .. .. .. .. .. .. .. .. 53 .. .. .. .. 
.. .. .. 53 .. .. .. .. .. 55 .. .. .. .. .. .. .. 43 .. .. .. .. .. 53 .. .. .. .. .. .. 
.. 55 .. .. .. .. .. 43 .. .. .. .. .. .. .. 53 .. .. .. .. .. 55 .. .. .. .. .. .. .. 43 
.. .. .. .. .. .. .. .. .. .. .. .. .. .. .. .. .. .. .. .. .. .. .. .. .. .. .. .. .. .. 
.. .. .. .. .. .. .. .. .. .. .. .. .. .. .. .. .. .. .. .. .. .. .. .. .. .. .. .. .. .. 
.. 55 .. .. .. .. .. .. .. 43 .. .. .. .. .. .. .. .. .. .. .. .. .. 55 .. .. .. .. .. 43 
.. .. .. .. .. .. .. .. .. .. .. .. .. 55 .. .. .. .. .. .. .. 43 .. .. .. .. .. .. .. .. 
.. .. .. .. .. .. .. .. .. .. .. .. .. .. .. .. .. .. .. .. .. .. .. .. .. .. .. .. .. .. 
.. .. .. .. .. .. .. .. .. 53 .. .. .. .. .. .. .. 53 .. .. .. .. .. 55 .. .. .. .. .. .. 
.. 43 .. .. .. .. .. 53 .. .. .. .. .. .. .. 55 .. .. .. .. .. 43 .. .. .. .. .. .. .. 53 
.. .. .. .. .. 55 .. .. .. .. .. .. .. 43 .. .. .. .. .. .. .. .. .. .. .. .. .. .. .. .. 
.. .. .. .. .. .. .. .. .. .. .. .. .. .. .. .. .. .. .. .. .. .. .. .. .. .. .. .. .. .. 
.. .. .. .. .. .. .. .. .. .. .. .. .. .. .. 55 .. .. .. .. .. .. .. 43 .. .. .. .. .. .. 
.. .. .. .. .. .. .. 55 .. .. .. .. .. 43 .. .. .. .. .. .. .. .. .. .. .. .. .. 55 .. .. 
.. .. .. .. .. 43 .. .. .. .. .. .. .. .. .. .. .. .. .. .. .. .. .. .. .. .. .. .. .. .. 
.. .. .. .. .. .. .. .. .. .. .. .. .. .. .. .. .. .. .. .. .. .. .. 53 .. .. .. .. .. .. 
.. 53 .. .. .. .. .. 55 .. .. .. .. .. .. .. 43 .. .. .. .. .. 53 .. .. .. .. .. .. .. 55 
.. .. .. .. .. 43 .. .. .. .. .. .. .. 53 .. .. .. .. .. 55 .. .. .. .. .. .. .. 43 .. .. 
.. .. .. .. .. .. .. .. .. .. .. .. .. .. .. .. .. .. .. .. .. .. .. .. .. .. .. .. .. .. 
.. .. .. .. .. .. .. .. .. .. .. .. .. .. .. .. .. .. .. .. .. .. .. .. .. .. .. .. .. 55 
.. .. .. .. .. .. .. 43 .. .. .. .. .. .. .. .. .. .. .. .. .. 55 .. .. .. .. .. 43 .. .. 
.. .. .. .. .. .. .. .. .. .. .. 55 .. .. .. .. .. .. .. 43 .. .. .. .. .. .. .. .. .. .. 
.. .. .. .. .. .. .. .. .. .. .. .. .. .. .. .. .. .. .. .. .. .. .. .. .. .. .. .. .. .. 
.. .. .. .. .. .. .. 53 .. .. .. .. .. .. .. 53 .. .. .. .. .. 55 .. .. .. .. .. .. .. 43 
.. .. .. .. .. 53 .. .. .. .. .. .. .. 55 .. .. .. .. .. 43 .. .. .. .. .. .. .. 53 .. .. 
.. .. .. 55 .. .. .. .. .. .. .. 43 .. .. .. .. .. .. .. .. .. .. .. .. .. .. .. .. .. .. 
.. .. .. .. .. .. .. .. .. .. .. .. .. .. .. .. .. .. .. .. .. .. .. .. .. .. .. .. .. .. 
.. .. .. .. .. .. .. .. .. .. .. .. .. 55 .. .. .. .. .. .. .. 43 .. .. .. .. .. .. .. .. 
.. .. .. .. .. 55 .. .. .. .. .. 43 .. .. .. .. .. .. .. .. .. .. .. .. .. 55 .. .. .. .. 
.. .. .. 43 .. .. .. .. .. .. .. .. .. .. .. .. .. .. .. .. .. .. .. .. .. .. .. .. .. .. 
.. .. .. .. .. .. .. .. .. .. .. .. .. .. .. .. .. .. .. .. .. 53 .. .. .. .. .. .. .. 53 
.. .. .. .. .. 55 .. .. .. .. .. .. .. 43 .. .. .. .. .. 53 .. .. .. .. .. .. .. 55 .. .. 
.. .. .. 43 .. .. .. .. .. .. .. 53 .. .. .. .. .. 55 .. .. .. .. .. .. .. 43 .. .. .. .. 
.. .. .. .. .. .. .. .. .. .. .. .. .. .. .. .. .. .. .. .. .. .. .. .. .. .. .. .. .. .. 
.. .. .. .. .. .. .. .. .. .. .. .. .. .. .. .. .. .. .. .. .. .. .. .. .. .. .. 43 .. .. 
.. .. .. .. .. 31 .. .. .. .. .. .. .. .. .. .. .. .. .. 43 .. .. .. .. .. 31 .. .. .. .. 
.. .. .. .. .. .. .. .. .. 43 .. .. .. .. .. .. .. 31 .. .. .. .. .. .. .. .. .. .. .. .. 
.. .. .. .. .. .. .. .. .. .. .. .. .. .. .. .. .. .. .. .. .. .. .. .. .. .. .. .. .. .. 
.. .. .. .. .. 41 .. .. .. .. .. .. .. 41 .. .. .. .. .. 43 .. .. .. .. .. .. .. 31 .. .. 
.. .. .. 41 .. .. .. .. .. .. .. 43 .. .. .. .. .. 31 .. .. .. .. .. .. .. 41 .. .. .. .. 
.. 43 .. .. .. .. .. .. .. 31 .. .. .. .. .. .. .. .. .. .. .. .. .. .. .. .. .. .. .. .. 
.. .. .. .. .. .. .. .. .. .. .. .. .. .. .. .. .. .. .. .. .. .. .. .. .. .. .. 41 .. .. 
.. .. .. .. .. 43 .. .. .. .. .. 46 .. .. .. .. .. .. .. 39 .. .. .. .. .. 43 .. .. .. .. 
.. .. .. 46 .. .. .. .. .. 39 .. .. .. .. .. .. .. 43 .. .. .. .. .. 46 .. .. .. .. .. .. 
.. 39 .. .. .. .. .. 45 .. .. .. .. .. .. .. 36 .. .. .. .. .. .. .. .. .. .. .. .. .. 45 
.. .. .. .. .. 36 .. .. .. .. .. .. .. .. .. .. .. .. .. 36 .. .. .. .. .. .. .. 41 .. .. 
.. .. .. 43 .. .. .. .. .. .. .. 31 .. .. .. .. .. 41 .. .. .. .. .. .. .. 43 .. .. .. .. 
.. 31 .. .. .. .. .. .. .. 41 .. .. .. .. .. 43 .. .. .. .. .. .. .. 31 .. .. .. .. .. .. 
.. .. .. .. .. .. .. .. .. .. .. .. .. .. .. .. .. .. .. .. .. .. .. .. .. .. .. .. .. .. 
.. .. .. .. .. .. .. .. .. .. .. .. .. .. .. .. .. .. .. .. .. .. .. .. .. 43 .. .. .. .. 
.. .. .. 31 .. .. .. .. .. .. .. .. .. .. .. .. .. 43 .. .. .. .. .. 31 .. .. .. .. .. .. 
.. .. .. .. .. .. .. 43 .. .. .. .. .. .. .. 31 .. .. .. .. .. .. .. .. .. .. .. .. .. .. 
.. .. .. .. .. .. .. .. .. .. .. .. .. .. .. .. .. .. .. .. .. .. .. .. .. .. .. .. .. .. 
.. .. .. 41 .. .. .. .. .. .. .. 41 .. .. .. .. .. 43 .. .. .. .. .. .. .. 31 .. .. .. .. 
.. 41 .. .. .. .. .. .. .. 43 .. .. .. .. .. 31 .. .. .. .. .. .. .. 41 .. .. .. .. .. 43 
.. .. .. .. .. .. .. 31 .. .. .. .. .. .. .. .. .. .. .. .. .. .. .. .. .. .. .. .. .. .. 
.. .. .. .. .. .. .. .. .. .. .. .. .. .. .. .. .. .. .. .. .. .. .. .. .. 41 .. .. .. .. 
.. .. .. 43 .. .. .. .. .. 46 .. .. .. .. .. .. .. 39 .. .. .. .. .. 43 .. .. .. .. .. .. 
.. 46 .. .. .. .. .. 39 .. .. .. .. .. .. .. 43 .. .. .. .. .. 46 .. .. .. .. .. .. .. 39 
.. .. .. .. .. 45 .. .. .. .. .. .. .. 36 .. .. .. .. .. .. .. .. .. .. .. .. .. 45 .. .. 
.. .. .. 36 .. .. .. .. .. .. .. .. .. .. .. .. .. 36 .. .. .. .. .. .. .. 41 .. .. .. .. 
.. 43 .. .. .. .. .. .. .. 31 .. .. .. .. .. 41 .. .. .. .. .. .. .. 43 .. .. .. .. .. 31 
.. .. .. .. .. .. .. 41 .. .. .. .. .. 43 .. .. .. .. .. .. .. 31 .. .. .. .. .. .. .. .. 
.. .. .. .. .. .. .. .. .. .. .. .. .. .. .. .. .. .. .. .. .. .. .. .. .. .. .. .. .. .. 
.. .. .. .. .. .. .. .. .. .. .. .. .. .. .. .. .. .. .. .. .. .. .. 19 .. .. .. .. .. .. 
.. 31 .. .. .. .. .. .. .. .. .. .. .. .. .. 31 .. .. .. .. .. .. .. .. .. .. .. .. .. 31 
.. .. .. .. .. 17 .. .. .. .. .. .. .. .. .. .. .. .. .. 19 .. .. .. .. .. .. .. 29 .. .. 
.. .. .. .. .. .. .. .. .. .. .. 29 .. .. .. .. .. 31 .. .. .. .. .. .. .. .. .. .. .. .. 
.. 22 .. .. .. .. .. .. .. .. .. .. .. .. .. 19 .. .. .. .. .. .. .. 29 .. .. .. .. .. .. 
.. .. .. .. .. .. .. 29 .. .. .. .. .. .. .. .. .. .. .. .. .. 29 .. .. .. .. .. 17 .. .. 
.. .. .. .. .. .. .. .. .. .. .. 19 .. .. .. .. .. .. .. 28 .. .. .. .. .. .. .. .. .. .. 
.. .. .. 29 .. .. .. .. .. 26 .. .. .. .. .. .. .. .. .. .. .. .. .. 29 .. .. .. .. .. .. 
.. .. .. .. .. .. .. 19 .. .. .. .. .. .. .. 31 .. .. .. .. .. .. .. .. .. .. .. .. .. 31 
.. .. .. .. .. .. .. .. .. .. .. .. .. 31 .. .. .. .. .. 17 .. .. .. .. .. .. .. .. .. .. 
.. .. .. 19 .. .. .. .. .. .. .. 29 .. .. .. .. .. .. .. .. .. .. .. .. .. 29 .. .. .. .. 
.. 31 .. .. .. .. .. .. .. .. .. .. .. .. .. 22 .. .. .. .. .. .. .. .. .. .. .. .. .. 19 
.. .. .. .. .. .. .. 29 .. .. .. .. .. .. .. .. .. .. .. .. .. 29 .. .. .. .. .. .. .. .. 
.. .. .. .. .. 29 .. .. .. .. .. 17 .. .. .. .. .. .. .. .. .. .. .. .. .. 19 .. .. .. .. 
.. .. .. 28 .. .. .. .. .. .. .. .. .. .. .. .. .. 29 .. .. .. .. .. 26 .. .. .. .. .. .. 
.. .. .. .. .. .. .. 29 .. .. .. .. .. .. .. .. .. .. .. .. .. 55 .. .. .. .. .. .. .. 43 
.. .. .. .. .. .. .. .. .. .. .. .. .. 55 .. .. .. .. .. 43 .. .. .. .. .. .. .. .. .. .. 
.. .. .. 55 .. .. .. .. .. .. .. 43 .. .. .. .. .. .. .. .. .. .. .. .. .. .. .. .. .. .. 
.. .. .. .. .. .. .. .. .. .. .. .. .. .. .. .. .. .. .. .. .. .. .. .. .. .. .. .. .. 53 
.. .. .. .. .. .. .. 53 .. .. .. .. .. 55 .. .. .. .. .. .. .. 43 .. .. .. .. .. 53 .. .. 
.. .. .. .. .. 55 .. .. .. .. .. 43 .. .. .. .. .. .. .. 53 .. .. .. .. .. 55 .. .. .. .. 
.. .. .. 43 .. .. .. .. .. .. .. .. .. .. .. .. .. .. .. .. .. .. .. .. .. .. .. .. .. .. 
.. .. .. .. .. .. .. .. .. .. .. .. .. .. .. .. .. .. .. .. .. .. .. .. .. .. .. .. .. .. 
.. .. .. .. .. 55 .. .. .. .. .. .. .. 43 .. .. .. .. .. .. .. .. .. .. .. .. .. 55 .. .. 
.. .. .. 43 .. .. .. .. .. .. .. .. .. .. .. .. .. 55 .. .. .. .. .. .. .. 43 .. .. .. .. 
.. .. .. .. .. .. .. .. .. .. .. .. .. .. .. .. .. .. .. .. .. .. .. .. .. .. .. .. .. .. 
.. .. .. .. .. .. .. .. .. .. .. .. .. 53 .. .. .. .. .. .. .. 53 .. .. .. .. .. 55 .. .. 
.. .. .. .. .. 43 .. .. .. .. .. 53 .. .. .. .. .. .. .. 55 .. .. .. .. .. 43 .. .. .. .. 
.. .. .. 53 .. .. .. .. .. 55 .. .. .. .. .. .. .. 43 .. .. .. .. .. .. .. .. .. .. .. .. 
.. .. .. .. .. .. .. .. .. .. .. .. .. .. .. .. .. .. .. .. .. .. .. .. .. .. .. .. .. .. 
.. .. .. .. .. .. .. .. .. .. .. .. .. .. .. .. .. .. .. 19 .. .. .. .. .. .. .. 31 .. .. 
.. .. .. .. .. .. .. .. .. .. .. 31 .. .. .. .. .. .. .. .. .. .. .. .. .. 31 .. .. .. .. 
.. 17 .. .. .. .. .. .. .. .. .. .. .. .. .. 19 .. .. .. .. .. .. .. 29 .. .. .. .. .. .. 
.. .. .. .. .. .. .. 29 .. .. .. .. .. 31 .. .. .. .. .. .. .. .. .. .. .. .. .. 22 .. .. 
.. .. .. .. .. .. .. .. .. .. .. 19 .. .. .. .. .. .. .. 29 .. .. .. .. .. .. .. .. .. .. 
.. .. .. 29 .. .. .. .. .. .. .. .. .. .. .. .. .. 29 .. .. .. .. .. 17 .. .. .. .. .. .. 
.. .. .. .. .. .. .. 19 .. .. .. .. .. .. .. 28 .. .. .. .. .. .. .. .. .. .. .. .. .. 29 
.. .. .. .. .. 26 .. .. .. .. .. .. .. .. .. .. .. .. .. 29 .. .. .. .. .. .. .. .. .. .. 
.. .. .. 19 .. .. .. .. .. .. .. 31 .. .. .. .. .. .. .. .. .. .. .. .. .. 31 .. .. .. .. 
.. .. .. .. .. .. .. .. .. 31 .. .. .. .. .. 17 .. .. .. .. .. .. .. .. .. .. .. .. .. 19 
.. .. .. .. .. .. .. 29 .. .. .. .. .. .. .. .. .. .. .. .. .. 29 .. .. .. .. .. 31 .. .. 
.. .. .. .. .. .. .. .. .. .. .. 22 .. .. .. .. .. .. .. .. .. .. .. .. .. 19 .. .. .. .. 
.. .. .. 29 .. .. .. .. .. .. .. .. .. .. .. .. .. 29 .. .. .. .. .. .. .. .. .. .. .. .. 
.. 29 .. .. .. .. .. 17 .. .. .. .. .. .. .. .. .. .. .. .. .. 19 .. .. .. .. .. .. .. .. 
.. .. .. .. .. .. .. .. .. .. .. .. .. .. .. .. .. .. .. .. .. .. .. .. .. .. .. .. .. .. 
.. .. .. .. .. .. .. .. .. .. .. .. .. .. .. .. .. 43 .. .. .. .. .. .. .. 31 .. .. .. .. 
.. .. .. .. .. .. .. .. .. 43 .. .. .. .. .. 31 .. .. .. .. .. .. .. .. .. .. .. .. .. 43 
.. .. .. .. .. .. .. 31 .. .. .. .. .. .. .. .. .. .. .. .. .. .. .. .. .. .. .. .. .. .. 
.. .. .. .. .. .. .. .. .. .. .. .. .. .. .. .. .. .. .. .. .. .. .. .. .. 41 .. .. .. .. 
.. .. .. 41 .. .. .. .. .. 43 .. .. .. .. .. .. .. 31 .. .. .. .. .. 41 .. .. .. .. .. .. 
.. 43 .. .. .. .. .. 31 .. .. .. .. .. .. .. 41 .. .. .. .. .. 43 .. .. .. .. .. .. .. 31 
.. .. .. .. .. .. .. .. .. .. .. .. .. .. .. .. .. .. .. .. .. .. .. .. .. .. .. .. .. .. 
.. .. .. .. .. .. .. .. .. .. .. .. .. .. .. .. .. 41 .. .. .. .. .. .. .. 43 .. .. .. .. 
.. 46 .. .. .. .. .. .. .. 39 .. .. .. .. .. 43 .. .. .. .. .. .. .. 46 .. .. .. .. .. 39 
.. .. .. .. .. .. .. 43 .. .. .. .. .. 46 .. .. .. .. .. .. .. 39 .. .. .. .. .. 45 .. .. 
.. .. .. .. .. 36 .. .. .. .. .. .. .. .. .. .. .. .. .. 45 .. .. .. .. .. 36 .. .. .. .. 
.. .. .. .. .. .. .. .. .. 36 .. .. .. .. .. .. .. 41 .. .. .. .. .. 43 .. .. .. .. .. .. 
.. 31 .. .. .. .. .. 41 .. .. .. .. .. .. .. 43 .. .. .. .. .. 31 .. .. .. .. .. .. .. 41 
.. .. .. .. .. 43 .. .. .. .. .. .. .. 31 .. .. .. .. .. .. .. .. .. .. .. .. .. .. .. .. 
.. .. .. .. .. .. .. .. .. .. .. .. .. .. .. .. .. .. .. .. .. .. .. .. .. .. .. .. .. .. 
.. .. .. .. .. .. .. .. .. .. .. .. .. .. .. 43 .. .. .. .. .. .. .. 31 .. .. .. .. .. .. 
.. .. .. .. .. .. .. 43 .. .. .. .. .. 31 .. .. .. .. .. .. .. .. .. .. .. .. .. 43 .. .. 
.. .. .. .. .. 31 .. .. .. .. .. .. .. .. .. .. .. .. .. .. .. .. .. .. .. .. .. .. .. .. 
.. .. .. .. .. .. .. .. .. .. .. .. .. .. .. .. .. .. .. .. .. .. .. 41 .. .. .. .. .. .. 
.. 41 .. .. .. .. .. 43 .. .. .. .. .. .. .. 31 .. .. .. .. .. 41 .. .. .. .. .. .. .. 43 
.. .. .. .. .. 31 .. .. .. .. .. .. .. 41 .. .. .. .. .. 43 .. .. .. .. .. .. .. 31 .. .. 
.. .. .. .. .. .. .. .. .. .. .. .. .. .. .. .. .. .. .. .. .. .. .. .. .. .. .. .. .. .. 
.. .. .. .. .. .. .. .. .. .. .. .. .. .. .. 41 .. .. .. .. .. .. .. 43 .. .. .. .. .. 46 
.. .. .. .. .. .. .. 39 .. .. .. .. .. 43 .. .. .. .. .. .. .. 46 .. .. .. .. .. 39 .. .. 
.. .. .. .. .. 43 .. .. .. .. .. 46 .. .. .. .. .. .. .. 39 .. .. .. .. .. 45 .. .. .. .. 
.. .. .. 36 .. .. .. .. .. .. .. .. .. .. .. .. .. 45 .. .. .. .. .. 36 .. .. .. .. .. .. 
.. .. .. .. .. .. .. 36 .. .. .. .. .. .. .. 41 .. .. .. .. .. 43 .. .. .. .. .. .. .. 31 
.. .. .. .. .. 41 .. .. .. .. .. .. .. 43 .. .. .. .. .. 31 .. .. .. .. .. .. .. 41 .. .. 
.. .. .. 43 .. .. .. .. .. .. .. 31 .. .. .. .. .. .. .. .. .. .. .. .. .. .. .. .. .. .. 
.. .. .. .. .. .. .. .. .. .. .. .. .. .. .. .. .. .. .. .. .. .. .. 31 .. .. .. .. .. 33 
.. .. .. .. .. .. .. 36 .. .. .. .. .. 34 .. .. .. .. .. .. .. 33 .. .. .. .. .. 43 .. .. 
.. .. .. .. .. 43 .. .. .. .. .. 43 .. .. .. .. .. .. .. .. .. .. .. .. .. 36 .. .. .. .. 
.. .. .. 34 .. .. .. .. .. 31 .. .. .. .. .. .. .. 31 .. .. .. .. .. 31 .. .. .. .. .. .. 
.. .. .. .. .. .. .. .. .. .. .. .. .. .. .. 31 .. .. .. .. .. 34 .. .. .. .. .. .. .. 36 
.. .. .. .. .. 36 .. .. .. .. .. .. .. 34 .. .. .. .. .. 43 .. .. .. .. .. .. .. 43 .. .. 
.. .. .. 43 .. .. .. .. .. .. .. .. .. .. .. .. .. 39 .. .. .. .. .. .. .. 38 .. .. .. .. 
.. 46 .. .. .. .. .. .. .. 46 .. .. .. .. .. 46 .. .. .. .. .. .. .. .. .. .. .. .. .. .. 
.. .. .. .. .. .. .. 46 .. .. .. .. .. 45 .. .. .. .. .. .. .. 41 .. .. .. .. .. 41 .. .. 
.. .. .. .. .. 38 .. .. .. .. .. 43 .. .. .. .. .. .. .. 43 .. .. .. .. .. 43 .. .. .. .. 
.. .. .. .. .. .. .. .. .. 43 .. .. .. .. .. .. .. 41 .. .. .. .. .. 31 .. .. .. .. .. .. 
.. 31 .. .. .. .. .. 31 .. .. .. .. .. .. .. .. .. .. .. .. .. .. .. .. .. .. .. .. .. 38 
.. .. .. .. .. 41 .. .. .. .. .. .. .. 38 .. .. .. .. .. 41 .. .. .. .. .. .. .. 38 .. .. 
.. .. .. 43 .. .. .. .. .. .. .. 43 .. .. .. .. .. 43 .. .. .. .. .. .. .. .. .. .. .. .. 
.. 43 .. .. .. .. .. .. .. 41 .. .. .. .. .. 31 .. .. .. .. .. .. .. 31 .. .. .. .. .. 31 
.. .. .. .. .. .. .. 31 .. .. .. .. .. 31 .. .. .. .. .. .. .. 31 .. .. .. .. .. .. .. .. 
.. .. .. .. .. .. .. .. .. .. .. 34 .. .. .. .. .. .. .. 33 .. .. .. .. .. 43 .. .. .. .. 
.. .. .. 43 .. .. .. .. .. 43 .. .. .. .. .. .. .. .. .. .. .. .. .. 36 .. .. .. .. .. .. 
.. 34 .. .. .. .. .. 31 .. .. .. .. .. .. .. 31 .. .. .. .. .. 31 .. .. .. .. .. .. .. .. 
.. .. .. .. .. .. .. .. .. .. .. .. .. 31 .. .. .. .. .. 34 .. .. .. .. .. .. .. 36 .. .. 
.. .. .. 36 .. .. .. .. .. .. .. 34 .. .. .. .. .. 43 .. .. .. .. .. .. .. 43 .. .. .. .. 
.. 43 .. .. .. .. .. .. .. .. .. .. .. .. .. 39 .. .. .. .. .. .. .. 38 .. .. .. .. .. 46 
.. .. .. .. .. .. .. 46 .. .. .. .. .. 46 .. .. .. .. .. .. .. .. .. .. .. .. .. .. .. .. 
.. .. .. .. .. 46 .. .. .. .. .. 45 .. .. .. .. .. .. .. 41 .. .. .. .. .. 43 .. .. .. .. 
.. .. .. 41 .. .. .. .. .. 45 .. .. .. .. .. .. .. 45 .. .. .. .. .. 45 .. .. .. .. .. .. 
.. .. .. .. .. .. .. 45 .. .. .. .. .. .. .. 41 .. .. .. .. .. 36 .. .. .. .. .. .. .. 36 
.. .. .. .. .. 36 .. .. .. .. .. .. .. .. .. .. .. .. .. .. .. .. .. .. .. .. .. 36 .. .. 
.. .. .. 46 .. .. .. .. .. .. .. 43 .. .. .. .. .. 43 .. .. .. .. .. .. .. 41 .. .. .. .. 
.. 45 .. .. .. .. .. .. .. 45 .. .. .. .. .. 45 .. .. .. .. .. .. .. .. .. .. .. .. .. 45 
.. .. .. .. .. .. .. 46 .. .. .. .. .. 48 .. .. .. .. .. .. .. 48 .. .. .. .. .. 48 .. .. 
.. .. .. .. .. 48 .. .. .. .. .. 48 .. .. .. .. .. .. .. 48 .. .. .. .. .. .. .. .. .. .. 
.. .. .. .. .. .. .. .. .. 43 .. .. .. .. .. .. .. 31 .. .. .. .. .. .. .. .. .. .. .. .. 
.. 43 .. .. .. .. .. 31 .. .. .. .. .. .. .. .. .. .. .. .. .. 43 .. .. .. .. .. .. .. 31 
.. .. .. .. .. .. .. .. .. .. .. .. .. .. .. .. .. .. .. .. .. .. .. .. .. .. .. .. .. .. 
.. .. .. .. .. .. .. .. .. .. .. .. .. .. .. .. .. 41 .. .. .. .. .. .. .. 41 .. .. .. .. 
.. 43 .. .. .. .. .. .. .. 31 .. .. .. .. .. 41 .. .. .. .. .. .. .. 43 .. .. .. .. .. 31 
.. .. .. .. .. .. .. 41 .. .. .. .. .. 43 .. .. .. .. .. .. .. 31 .. .. .. .. .. .. .. .. 
.. .. .. .. .. .. .. .. .. .. .. .. .. .. .. .. .. .. .. .. .. .. .. .. .. .. .. .. .. .. 
.. .. .. .. .. .. .. .. .. 41 .. .. .. .. .. .. .. 43 .. .. .. .. .. 46 .. .. .. .. .. .. 
.. 39 .. .. .. .. .. 43 .. .. .. .. .. .. .. 46 .. .. .. .. .. 39 .. .. .. .. .. .. .. 43 
.. .. .. .. .. 46 .. .. .. .. .. .. .. 39 .. .. .. .. .. 45 .. .. .. .. .. .. .. 36 .. .. 
.. .. .. .. .. .. .. .. .. .. .. 45 .. .. .. .. .. 36 .. .. .. .. .. .. .. .. .. .. .. .. 
.. 36 .. .. .. .. .. .. .. 41 .. .. .. .. .. 43 .. .. .. .. .. .. .. 31 .. .. .. .. .. 41 
.. .. .. .. .. .. .. 43 .. .. .. .. .. 31 .. .. .. .. .. .. .. 41 .. .. .. .. .. 43 .. .. 
.. .. .. .. .. 31 .. .. .. .. .. .. .. .. .. .. .. .. .. .. .. .. .. .. .. .. .. .. .. .. 
.. .. .. .. .. .. .. .. .. .. .. .. .. .. .. .. .. .. .. .. .. .. .. .. .. .. .. .. .. .. 
.. .. .. .. .. .. .. 43 .. .. .. .. .. .. .. 31 .. .. .. .. .. .. .. .. .. .. .. .. .. 43 
.. .. .. .. .. 31 .. .. .. .. .. .. .. .. .. .. .. .. .. 43 .. .. .. .. .. .. .. 31 .. .. 
.. .. .. .. .. .. .. .. .. .. .. .. .. .. .. .. .. .. .. .. .. .. .. .. .. .. .. .. .. .. 
.. .. .. .. .. .. .. .. .. .. .. .. .. .. .. 41 .. .. .. .. .. .. .. 41 .. .. .. .. .. 43 
.. .. .. .. .. .. .. 31 .. .. .. .. .. 41 .. .. .. .. .. .. .. 43 .. .. .. .. .. 31 .. .. 
.. .. .. .. .. 41 .. .. .. .. .. 43 .. .. .. .. .. .. .. 31 .. .. .. .. .. .. .. .. .. .. 
.. .. .. .. .. .. .. .. .. .. .. .. .. .. .. .. .. .. .. .. .. .. .. .. .. .. .. .. .. .. 
.. .. .. .. .. .. .. 41 .. .. .. .. .. .. .. 43 .. .. .. .. .. 46 .. .. .. .. .. .. .. 39 
.. .. .. .. .. 43 .. .. .. .. .. .. .. 46 .. .. .. .. .. 39 .. .. .. .. .. .. .. 43 .. .. 
.. .. .. 46 .. .. .. .. .. .. .. 39 .. .. .. .. .. 45 .. .. .. .. .. .. .. 36 .. .. .. .. 
.. .. .. .. .. .. .. .. .. 45 .. .. .. .. .. 36 .. .. .. .. .. .. .. .. .. .. .. .. .. 36 
.. .. .. .. .. .. .. 41 .. .. .. .. .. 43 .. .. .. .. .. .. .. 31 .. .. .. .. .. 41 .. .. 
.. .. .. .. .. 43 .. .. .. .. .. 31 .. .. .. .. .. .. .. 41 .. .. .. .. .. 43 .. .. .. .. 
.. .. .. 31 .. .. .. .. .. .. .. .. .. .. .. .. .. .. .. .. .. .. .. .. .. .. .. .. .. .. 
.. .. .. .. .. .. .. .. .. .. .. .. .. .. .. .. .. .. .. .. .. .. .. .. .. .. .. .. .. .. 
.. .. .. .. .. 55 .. .. .. .. .. .. .. 43 .. .. .. .. .. .. .. .. .. .. .. .. .. 55 .. .. 
.. .. .. 43 .. .. .. .. .. .. .. .. .. .. .. .. .. 55 .. .. .. .. .. .. .. 43 .. .. .. .. 
.. .. .. .. .. .. .. .. .. .. .. .. .. .. .. .. .. .. .. .. .. .. .. .. .. .. .. .. .. .. 
.. .. .. .. .. .. .. .. .. .. .. .. .. 53 .. .. .. .. .. .. .. 53 .. .. .. .. .. 55 .. .. 
.. .. .. .. .. 43 .. .. .. .. .. 53 .. .. .. .. .. .. .. 55 .. .. .. .. .. 43 .. .. .. .. 
.. .. .. 53 .. .. .. .. .. 55 .. .. .. .. .. .. .. 43 .. .. .. .. .. .. .. .. .. .. .. .. 
.. .. .. .. .. .. .. .. .. .. .. .. .. .. .. .. .. .. .. .. .. .. .. .. .. .. .. .. .. .. 
.. .. .. .. .. .. .. .. .. .. .. .. .. .. .. .. .. .. .. 55 .. .. .. .. .. .. .. 43 .. .. 
.. .. .. .. .. .. .. .. .. .. .. 55 .. .. .. .. .. 43 .. .. .. .. .. .. .. .. .. .. .. .. 
.. 55 .. .. .. .. .. .. .. 43 .. .. .. .. .. .. .. .. .. .. .. .. .. .. .. .. .. .. .. .. 
.. .. .. .. .. .. .. .. .. .. .. .. .. .. .. .. .. .. .. .. .. .. .. .. .. .. .. 53 .. .. 
.. .. .. .. .. 53 .. .. .. .. .. 55 .. .. .. .. .. .. .. 43 .. .. .. .. .. 53 .. .. .. .. 
.. .. .. 55 .. .. .. .. .. 43 .. .. .. .. .. .. .. 53 .. .. .. .. .. 55 .. .. .. .. .. .. 
.. 43 .. .. .. .. .. .. .. .. .. .. .. .. .. .. .. .. .. .. .. .. .. .. .. .. .. .. .. .. 
.. .. .. .. .. .. .. .. .. .. .. .. .. .. .. .. .. .. .. .. .. .. .. .. .. .. .. .. .. .. 
.. .. .. 55 .. .. .. .. .. .. .. 43 .. .. .. .. .. .. .. .. .. .. .. .. .. 55 .. .. .. .. 
.. 43 .. .. .. .. .. .. .. .. .. .. .. .. .. 55 .. .. .. .. .. .. .. 43 .. .. .. .. .. .. 
.. .. .. .. .. .. .. .. .. .. .. .. .. .. .. .. .. .. .. .. .. .. .. .. .. .. .. .. .. .. 
.. .. .. .. .. .. .. .. .. .. .. 53 .. .. .. .. .. .. .. 53 .. .. .. .. .. 55 .. .. .. .. 
.. .. .. 43 .. .. .. .. .. 53 .. .. .. .. .. .. .. 55 .. .. .. .. .. 43 .. .. .. .. .. .. 
.. 53 .. .. .. .. .. 55 .. .. .. .. .. .. .. 43 .. .. .. .. .. .. .. .. .. .. .. .. .. .. 
.. .. .. .. .. .. .. .. .. .. .. .. .. .. .. .. .. .. .. .. .. .. .. .. .. .. .. .. .. .. 
.. .. .. .. .. .. .. .. .. .. .. .. .. .. .. .. .. 55 .. .. .. .. .. .. .. 43 .. .. .. .. 
.. .. .. .. .. .. .. .. .. 55 .. .. .. .. .. 43 .. .. .. .. .. .. .. .. .. .. .. .. .. 55 
.. .. .. .. .. .. .. 43 .. .. .. .. .. .. .. .. .. .. .. .. .. .. .. .. .. .. .. .. .. .. 
.. .. .. .. .. .. .. .. .. .. .. .. .. .. .. .. .. .. .. .. .. .. .. .. .. 53 .. .. .. .. 
.. .. .. 53 .. .. .. .. .. 55 .. .. .. .. .. .. .. 43 .. .. .. .. .. 53 .. .. .. .. .. .. 
.. 55 .. .. .. .. .. 43 .. .. .. .. .. .. .. 53 .. .. .. .. .. 55 .. .. .. .. .. .. .. 43 
.. .. .. .. .. .. .. .. .. .. .. .. .. .. .. .. .. .. .. .. .. .. .. .. .. .. .. .. .. .. 
.. .. .. .. .. .. .. .. .. .. .. .. .. .. .. .. .. .. .. .. .. .. .. .. .. .. .. .. 
! Song 1
50 .. .. 43 39 35 27 23 19 .. .. .. .. .. .. .. .. .. .. .. .. .. .. .. .. .. .. .. .. .. 
.. .. .. .. .. 43 39 35 27 23 19 .. .. .. .. .. .. .. .. .. .. .. .. .. .. .. .. .. .. .. 
.. .. .. .. .. .. .. 43 39 35 27 23 19 .. .. .. .. .. .. .. .. .. .. .. .. .. .. .. .. .. 
.. .. .. .. .. .. .. .. .. 43 39 35 27 23 19 .. .. .. .. .. .. .. .. .. .. .. .. .. .. .. 
.. .. .. .. .. .. .. .. .. .. .. 43 39 35 27 23 19 .. .. .. .. .. .. .. .. .. .. .. .. .. 
.. .. .. .. .. .. .. .. .. .. .. .. .. 43 39 35 27 23 19 .. .. .. .. .. .. .. .. .. .. .. 
.. .. .. .. .. .. .. .. .. .. .. .. .. .. .. 43 39 35 27 23 19 .. .. .. .. .. .. .. .. .. 
.. .. .. .. .. .. .. .. .. .. .. .. .. .. .. .. .. 43 39 35 27 23 19 .. .. .. .. .. .. .. 
.. .. .. .. .. .. .. .. .. .. .. .. .. .. .. .. .. .. .. 43 39 35 27 23 19 .. .. .. .. .. 
.. .. .. .. .. .. .. .. .. .. .. .. .. .. .. .. .. .. .. .. .. 43 39 35 27 23 19 .. .. .. 
.. .. .. .. .. .. .. .. .. .. .. .. .. .. .. .. .. .. .. .. .. .. .. 43 39 35 27 23 19 .. 
.. .. .. .. .. .. .. .. .. .. .. .. .. .. .. .. .. .. .. .. .. .. .. .. .. 43 39 35 27 23 
19 .. .. .. .. .. .. .. .. .. .. .. .. .. .. .. .. .. .. .. .. .. .. .. .. .. .. 43 39 35 
27 23 19 .. .. .. .. .. .. .. .. .. .. .. .. .. .. .. .. .. .. .. .. .. .. .. .. .. .. 43 
39 35 27 23 19 .. .. .. .. .. .. .. .. .. .. .. .. .. .. .. .. .. .. .. .. .. .. .. .. .. 
.. 43 39 35 27 23 19 .. .. .. .. .. .. .. .. .. .. .. .. .. .. .. .. .. .. .. .. .. .. .. 
.. .. .. 43 39 35 27 23 19 .. .. .. .. .. .. .. .. .. .. .. .. .. .. .. .. .. .. .. .. .. 
.. .. .. .. .. 43 39 35 27 23 19 .. .. .. .. .. .. .. .. .. .. .. .. .. .. .. .. .. .. .. 
.. .. .. .. .. .. .. 43 39 35 27 23 19 .. .. .. .. .. .. .. .. .. .. .. .. .. .. .. .. .. 
.. .. .. .. .. .. .. .. .. 43 39 35 27 23 19 .. .. .. .. .. .. .. .. .. .. .. .. .. .. .. 
.. .. .. .. .. .. .. .. .. .. .. 43 39 35 27 23 19 .. .. .. .. .. .. .. .. .. .. .. .. .. 
.. .. .. .. .. .. .. .. .. .. .. .. .. 43 39 35 27 23 19 .. .. .. .. .. .. .. .. .. .. .. 
.. .. .. .. .. .. .. .. .. .. .. .. .. .. .. 43 39 35 27 23 19 .. .. .. .. .. .. .. .. .. 
.. .. .. .. .. .. .. .. .. .. .. .. .. .. .. .. .. 43 39 35 27 23 19 .. .. .. .. .. .. .. 
.. .. .. .. .. .. .. .. .. .. .. .. .. .. .. .. .. .. .. 43 39 35 27 23 19 .. .. .. .. .. 
.. .. .. .. .. .. .. .. .. .. .. .. .. .. .. .. .. .. .. .. .. 43 39 35 27 23 19 .. .. .. 
.. .. .. .. .. .. .. .. .. .. .. .. .. .. .. .. .. .. .. .. .. .. .. 43 39 35 27 23 19 .. 
.. .. .. .. .. .. .. .. .. .. .. .. .. .. .. .. .. .. .. .. .. .. .. .. .. 43 39 35 27 23 
19 .. .. .. .. .. .. .. .. .. .. .. .. .. .. .. .. .. .. .. .. .. .. .. .. .. .. 43 39 35 
27 23 19 .. .. .. .. .. .. .. .. .. .. .. .. .. .. .. .. .. .. .. .. .. .. .. .. .. .. 43 
39 35 27 23 19 .. .. .. .. .. .. .. .. .. .. .. .. .. .. .. .. .. .. .. .. .. .. .. .. .. 
.. 43 39 35 27 23 19 .. .. .. .. .. .. .. .. .. .. .. .. .. .. .. .. .. .. .. .. .. .. .. 
.. .. .. 43 39 35 27 23 19 .. .. .. .. .. .. .. .. .. .. .. .. .. .. .. .. .. .. .. .. .. 
.. .. .. .. .. 43 39 35 27 23 19 .. .. .. .. .. .. .. .. .. .. .. .. .. .. .. .. .. .. .. 
.. .. .. .. .. .. .. 30 .. .. .. .. .. .. .. 30 .. .. .. .. .. .. .. 30 .. .. .. .. .. .. 
.. 30 .. .. .. .. .. .. .. .. .. .. .. .. .. .. .. .. .. .. .. .. .. .. .. 37 .. .. .. .. 
.. .. .. 42 .. .. .. .. .. .. .. 37 .. .. .. .. .. .. .. 42 .. .. .. .. .. .. .. .. .. .. 
.. .. .. .. .. .. .. .. .. .. .. .. .. .. .. .. .. .. .. .. .. .. .. .. .. .. .. .. .. 28 
.. .. .. .. .. .. .. 40 .. .. .. .. .. .. .. 30 .. .. .. .. .. .. .. 30 .. .. .. .. .. .. 
.. 30 .. .. .. .. .. .. .. 30 .. .. .. .. .. .. .. .. .. .. .. .. .. .. .. .. .. .. .. .. 
.. .. .. 37 .. .. .. .. .. .. .. 42 .. .. .. .. .. .. .. 37 .. .. .. .. .. .. .. 42 .. .. 
.. .. .. .. .. .. .. .. .. .. .. .. .. .. .. .. .. .. .. .. .. .. .. .. .. .. .. .. .. .. 
.. .. .. .. .. .. .. 30 .. .. .. .. .. .. .. 33 .. .. .. .. .. .. .. 35 .. .. .. .. .. .. 
.. 35 .. .. .. .. .. .. .. 35 .. .. .. .. .. .. .. 35 .. .. .. .. .. .. .. .. .. .. .. .. 
.. .. .. .. .. .. .. .. .. .. .. 40 .. .. .. .. .. .. .. 47 .. .. .. .. .. .. .. 40 .. .. 
.. .. .. .. .. 47 .. .. .. .. .. .. .. .. .. .. .. .. .. .. .. .. .. .. .. .. .. .. .. .. 
.. .. .. .. .. .. .. .. .. .. .. .. .. .. .. 35 .. .. .. .. .. .. .. 47 .. .. .. .. .. .. 
.. 33 .. .. .. .. .. .. .. 33 .. .. .. .. .. .. .. 33 .. .. .. .. .. .. .. 33 .. .. .. .. 
.. .. .. .. .. .. .. .. .. .. .. .. .. .. .. .. .. .. .. 37 .. .. .. .. .. .. .. 42 .. .. 
.. .. .. .. .. 37 .. .. .. .. .. .. .. 42 .. .. .. .. .. .. .. .. .. .. .. .. .. .. .. .. 
.. .. .. .. .. .. .. .. .. .. .. .. .. .. .. .. .. .. .. .. .. .. .. 30 .. .. .. .. .. .. 
.. 33 .. .. .. .. .. .. .. 30 .. .. .. .. .. .. .. 30 .. .. .. .. .. .. .. 30 .. .. .. .. 
.. .. .. 30 .. .. .. .. .. .. .. .. .. .. .. .. .. .. .. .. .. .. .. .. .. .. .. 37 .. .. 
.. .. .. .. .. 42 .. .. .. .. .. .. .. 37 .. .. .. .. .. .. .. 42 .. .. .. .. .. .. .. .. 
.. .. .. .. .. .. .. .. .. .. .. .. .. .. .. .. .. .. .. .. .. .. .. .. .. .. .. .. .. .. 
.. 28 .. .. .. .. .. .. .. 40 .. .. .. .. .. .. .. 30 .. .. .. .. .. .. .. 30 .. .. .. .. 
.. .. .. 30 .. .. .. .. .. .. .. 30 .. .. .. .. .. .. .. .. .. .. .. .. .. .. .. .. .. .. 
.. .. .. .. .. 37 .. .. .. .. .. .. .. 42 .. .. .. .. .. .. .. 37 .. .. .. .. .. .. .. 42 
.. .. .. .. .. .. .. .. .. .. .. .. .. .. .. .. .. .. .. .. .. .. .. .. .. .. .. .. .. .. 
.. .. .. .. .. .. .. .. .. 30 .. .. .. .. .. .. .. 33 .. .. .. .. .. .. .. 35 .. .. .. .. 
.. .. .. 35 .. .. .. .. .. .. .. 35 .. .. .. .. .. .. .. 35 .. .. .. .. .. .. .. .. .. .. 
.. .. .. .. .. .. .. .. .. .. .. .. .. 40 .. .. .. .. .. .. .. 47 .. .. .. .. .. .. .. 40 
.. .. .. .. .. .. .. 47 .. .. .. .. .. .. .. .. .. .. .. .. .. .. .. .. .. .. .. .. .. .. 
.. .. .. .. .. .. .. .. .. .. .. .. .. .. .. .. .. 35 .. .. .. .. .. .. .. 47 .. .. .. .. 
.. .. .. 33 .. .. .. .. .. .. .. 33 .. .. .. .. .. .. .. 33 .. .. .. .. .. .. .. 33 .. .. 
.. .. .. .. .. .. .. .. .. .. .. .. .. .. .. .. .. .. .. .. .. 37 .. .. .. .. .. .. .. 42 
.. .. .. .. .. .. .. 37 .. .. .. .. .. .. .. 42 .. .. .. .. .. .. .. .. .. .. .. .. .. .. 
.. .. .. .. .. .. .. .. .. .. .. .. .. .. .. .. .. .. .. .. .. .. .. .. .. 30 .. .. .. .. 
.. .. .. 33 .. .. .. .. .. .. .. 43 39 35 27 23 19 .. .. .. .. .. .. .. .. .. .. .. .. .. 
.. .. .. .. .. .. .. .. .. .. .. .. .. 43 39 35 27 23 19 .. .. .. .. .. .. .. .. .. .. .. 
.. .. .. .. .. .. .. .. .. .. .. .. .. .. .. 43 39 35 27 23 19 .. .. .. .. .. .. .. .. .. 
.. .. .. .. .. .. .. .. .. .. .. .. .. .. .. .. .. 43 39 35 27 23 19 .. .. .. .. .. .. .. 
.. .. .. .. .. .. .. .. .. .. .. .. .. .. .. .. .. .. .. 43 39 35 27 23 19 .. .. .. .. .. 
.. .. .. .. .. .. .. .. .. .. .. .. .. .. .. .. .. .. .. .. .. 43 39 35 27 23 19 .. .. .. 
.. .. .. .. .. .. .. .. .. .. .. .. .. .. .. .. .. .. .. .. .. .. .. 43 39 35 27 23 19 .. 
.. .. .. .. .. .. .. .. .. .. .. .. .. .. .. .. .. .. .. .. .. .. .. .. .. 43 39 35 27 23 
19 .. .. .. .. .. .. .. .. .. .. .. .. .. .. .. .. .. .. .. .. .. .. .. .. .. .. 43 39 35 
27 23 19 .. .. .. .. .. .. .. .. .. .. .. .. .. .. .. .. .. .. .. .. .. .. .. .. .. .. 43 
39 35 27 23 19 .. .. .. .. .. .. .. .. .. .. .. .. .. .. .. .. .. .. .. .. .. .. .. .. .. 
.. 43 39 35 27 23 19 .. .. .. .. .. .. .. .. .. .. .. .. .. .. .. .. .. .. .. .. .. .. .. 
.. .. .. 43 39 35 27 23 19 .. .. .. .. .. .. .. .. .. .. .. .. .. .. .. .. .. .. .. .. .. 
.. .. .. .. .. 43 39 35 27 23 19 .. .. .. .. .. .. .. .. .. .. .. .. .. .. .. .. .. .. .. 
.. .. .. .. .. .. .. 43 39 35 27 23 19 .. .. .. .. .. .. .. .. .. .. .. .. .. .. .. .. .. 
.. .. .. .. .. .. .. .. .. 43 39 35 27 23 19 .. .. .. .. .. .. .. .. .. .. .. .. .. .. .. 
.. .. .. .. .. .. .. .. .. .. .. 43 39 35 27 23 19 .. .. .. .. .. .. .. .. .. .. .. .. .. 
.. .. .. .. .. .. .. .. .. .. .. .. .. 43 39 35 27 23 19 .. .. .. .. .. .. .. .. .. .. .. 
.. .. .. .. .. .. .. .. .. .. .. .. .. .. .. 43 39 35 27 23 19 .. .. .. .. .. .. .. .. .. 
.. .. .. .. .. .. .. .. .. .. .. .. .. .. .. .. .. 43 39 35 27 23 19 .. .. .. .. .. .. .. 
.. .. .. .. .. .. .. .. .. .. .. .. .. .. .. .. .. .. .. 43 39 35 27 23 19 .. .. .. .. .. 
.. .. .. .. .. .. .. .. .. .. .. .. .. .. .. .. .. .. .. .. .. 43 39 35 27 23 19 .. .. .. 
.. .. .. .. .. .. .. .. .. .. .. .. .. .. .. .. .. .. .. .. .. .. .. 43 39 35 27 23 19 .. 
.. .. .. .. .. .. .. .. .. .. .. .. .. .. .. .. .. .. .. .. .. .. .. .. .. 43 39 35 27 23 
19 .. .. .. .. .. .. .. .. .. .. .. .. .. .. .. .. .. .. .. .. .. .. .. .. .. .. 43 39 35 
27 23 19 .. .. .. .. .. .. .. .. .. .. .. .. .. .. .. .. .. .. .. .. .. .. .. .. .. .. 43 
39 35 27 23 19 .. .. .. .. .. .. .. .. .. .. .. .. .. .. .. .. .. .. .. .. .. .. .. .. .. 
.. 43 39 35 27 23 19 .. .. .. .. .. .. .. .. .. .. .. .. .. .. .. .. .. .. .. .. .. .. .. 
.. .. .. 43 39 35 27 23 19 .. .. .. .. .. .. .. .. .. .. .. .. .. .. .. .. .. .. .. .. .. 
.. .. .. .. .. 43 39 35 27 23 19 .. .. .. .. .. .. .. .. .. .. .. .. .. .. .. .. .. .. .. 
.. .. .. .. .. .. .. 43 39 35 27 23 19 .. .. .. .. .. .. .. .. .. .. .. .. .. .. .. .. .. 
.. .. .. .. .. .. .. .. .. 43 39 35 27 23 19 .. .. .. .. .. .. .. .. .. .. .. .. .. .. .. 
.. .. .. .. .. .. .. .. .. .. .. 43 39 35 27 23 19 .. .. .. .. .. .. .. .. .. .. .. .. .. 
.. .. .. .. .. .. .. .. .. .. .. .. .. 43 39 35 27 23 19 .. .. .. .. .. .. .. .. .. .. .. 
.. .. .. .. .. .. .. .. .. .. .. .. .. .. .. 30 .. .. .. .. .. .. .. 30 .. .. .. .. .. .. 
.. 30 .. .. .. .. .. .. .. 30 .. .. .. .. .. .. .. .. .. .. .. .. .. .. .. .. .. .. .. .. 
.. .. .. 37 .. .. .. .. .. .. .. 42 .. .. .. .. .. .. .. 37 .. .. .. .. .. .. .. 42 .. .. 
.. .. .. .. .. .. .. .. .. .. .. .. .. .. .. .. .. .. .. .. .. .. .. .. .. .. .. .. .. .. 
.. .. .. .. .. .. .. 28 .. .. .. .. .. .. .. 40 .. .. .. .. .. .. .. 30 .. .. .. .. .. .. 
.. 30 .. .. .. .. .. .. .. 30 .. .. .. .. .. .. .. 30 .. .. .. .. .. .. .. .. .. .. .. .. 
.. .. .. .. .. .. .. .. .. .. .. 37 .. .. .. .. .. .. .. 42 .. .. .. .. .. .. .. 37 .. .. 
.. .. .. .. .. 42 .. .. .. .. .. .. .. .. .. .. .. .. .. .. .. .. .. .. .. .. .. .. .. .. 
.. .. .. .. .. .. .. .. .. .. .. .. .. .. .. 30 .. .. .. .. .. .. .. 33 .. .. .. .. .. .. 
.. 35 .. .. .. .. .. .. .. 35 .. .. .. .. .. .. .. 35 .. .. .. .. .. .. .. 35 .. .. .. .. 
.. .. .. .. .. .. .. .. .. .. .. .. .. .. .. .. .. .. .. 40 .. .. .. .. .. .. .. 47 .. .. 
.. .. .. .. .. 40 .. .. .. .. .. .. .. 47 .. .. .. .. .. .. .. .. .. .. .. .. .. .. .. .. 
.. .. .. .. .. .. .. .. .. .. .. .. .. .. .. .. .. .. .. .. .. .. .. 35 .. .. .. .. .. .. 
.. 47 .. .. .. .. .. .. .. 33 .. .. .. .. .. .. .. 33 .. .. .. .. .. .. .. 33 .. .. .. .. 
.. .. .. 33 .. .. .. .. .. .. .. .. .. .. .. .. .. .. .. .. .. .. .. .. .. .. .. 37 .. .. 
.. .. .. .. .. 42 .. .. .. .. .. .. .. 37 .. .. .. .. .. .. .. 42 .. .. .. .. .. .. .. .. 
.. .. .. .. .. .. .. .. .. .. .. .. .. .. .. .. .. .. .. .. .. .. .. .. .. .. .. .. .. .. 
.. 30 .. .. .. .. .. .. .. 33 .. .. .. .. .. .. .. 30 .. .. .. .. .. .. .. 30 .. .. .. .. 
.. .. .. 30 .. .. .. .. .. .. .. 30 .. .. .. .. .. .. .. .. .. .. .. .. .. .. .. .. .. .. 
.. .. .. .. .. 37 .. .. .. .. .. .. .. 42 .. .. .. .. .. .. .. 37 .. .. .. .. .. .. .. 42 
.. .. .. .. .. .. .. .. .. .. .. .. .. .. .. .. .. .. .. .. .. .. .. .. .. .. .. .. .. .. 
.. .. .. .. .. .. .. .. .. 28 .. .. .. .. .. .. .. 40 .. .. .. .. .. .. .. 30 .. .. .. .. 
.. .. .. 30 .. .. .. .. .. .. .. 30 .. .. .. .. .. .. .. 30 .. .. .. .. .. .. .. .. .. .. 
.. .. .. .. .. .. .. .. .. .. .. .. .. 37 .. .. .. .. .. .. .. 42 .. .. .. .. .. .. .. 37 
.. .. .. .. .. .. .. 42 .. .. .. .. .. .. .. .. .. .. .. .. .. .. .. .. .. .. .. .. .. .. 
.. .. .. .. .. .. .. .. .. .. .. .. .. .. .. .. .. 30 .. .. .. .. .. .. .. 33 .. .. .. .. 
.. .. .. 35 .. .. .. .. .. .. .. 35 .. .. .. .. .. .. .. 35 .. .. .. .. .. .. .. 35 .. .. 
.. .. .. .. .. .. .. .. .. .. .. .. .. .. .. .. .. .. .. .. .. 40 .. .. .. .. .. .. .. 47 
.. .. .. .. .. .. .. 40 .. .. .. .. .. .. .. 47 .. .. .. .. .. .. .. .. .. .. .. .. .. .. 
.. .. .. .. .. .. .. .. .. .. .. .. .. .. .. .. .. .. .. .. .. .. .. .. .. 35 .. .. .. .. 
.. .. .. 47 .. .. .. .. .. .. .. 33 .. .. .. .. .. .. .. 33 .. .. .. .. .. .. .. 33 .. .. 
.. .. .. .. .. 33 .. .. .. .. .. .. .. .. .. .. .. .. .. .. .. .. .. .. .. .. .. .. .. 37 
.. .. .. .. .. .. .. 42 .. .. .. .. .. .. .. 37 .. .. .. .. .. .. .. 42 .. .. .. .. .. .. 
.. .. .. .. .. .. .. .. .. .. .. .. .. .. .. .. .. .. .. .. .. .. .. .. .. .. .. .. .. .. 
.. .. .. 30 .. .. .. .. .. .. .. 33 .. .. .. .. .. .. .. 43 39 35 27 23 19 .. .. .. .. .. 
.. .. .. .. .. .. .. .. .. .. .. .. .. .. .. .. .. .. .. .. .. 43 39 35 27 23 19 .. .. .. 
.. .. .. .. .. .. .. .. .. .. .. .. .. .. .. .. .. .. .. .. .. .. .. 43 39 35 27 23 19 .. 
.. .. .. .. .. .. .. .. .. .. .. .. .. .. .. .. .. .. .. .. .. .. .. .. .. 43 39 35 27 23 
19 .. .. .. .. .. .. .. .. .. .. .. .. .. .. .. .. .. .. .. .. .. .. .. .. .. .. 43 39 35 
27 23 19 .. .. .. .. .. .. .. .. .. .. .. .. .. .. .. .. .. .. .. .. .. .. .. .. .. .. 43 
39 35 27 23 19 .. .. .. .. .. .. .. .. .. .. .. .. .. .. .. .. .. .. .. .. .. .. .. .. .. 
.. 43 39 35 27 23 19 .. .. .. .. .. .. .. .. .. .. .. .. .. .. .. .. .. .. .. .. .. .. .. 
.. .. .. 43 39 35 27 23 19 .. .. .. .. .. .. .. .. .. .. .. .. .. .. .. .. .. .. .. .. .. 
.. .. .. .. .. 43 39 35 27 23 19 .. .. .. .. .. .. .. .. .. .. .. .. .. .. .. .. .. .. .. 
.. .. .. .. .. .. .. 43 39 35 27 23 19 .. .. .. .. .. .. .. .. .. .. .. .. .. .. .. .. .. 
.. .. .. .. .. .. .. .. .. 43 39 35 27 23 19 .. .. .. .. .. .. .. .. .. .. .. .. .. .. .. 
.. .. .. .. .. .. .. .. .. .. .. 43 39 35 27 23 19 .. .. .. .. .. .. .. .. .. .. .. .. .. 
.. .. .. .. .. .. .. .. .. .. .. .. .. 43 39 35 27 23 19 .. .. .. .. .. .. .. .. .. .. .. 
.. .. .. .. .. .. .. .. .. .. .. .. .. .. .. 43 39 35 27 23 19 .. .. .. .. .. .. .. .. .. 
.. .. .. .. .. .. .. .. .. .. .. .. .. .. .. .. .. 43 39 35 27 23 19 .. .. .. .. .. .. .. 
.. .. .. .. .. .. .. .. .. .. .. .. .. .. .. .. .. .. .. 43 39 35 27 23 19 .. .. .. .. .. 
.. .. .. .. .. .. .. .. .. .. .. .. .. .. .. .. .. .. .. .. .. 43 39 35 27 23 19 .. .. .. 
.. .. .. .. .. .. .. .. .. .. .. .. .. .. .. .. .. .. .. .. .. .. .. 43 39 35 27 23 19 .. 
.. .. .. .. .. .. .. .. .. .. .. .. .. .. .. .. .. .. .. .. .. .. .. .. .. 43 39 35 27 23 
19 .. .. .. .. .. .. .. .. .. .. .. .. .. .. .. .. .. .. .. .. .. .. .. .. .. .. 43 39 35 
27 23 19 .. .. .. .. .. .. .. .. .. .. .. .. .. .. .. .. .. .. .. .. .. .. .. .. .. .. 43 
39 35 27 23 19 .. .. .. .. .. .. .. .. .. .. .. .. .. .. .. .. .. .. .. .. .. .. .. .. .. 
.. 43 39 35 27 23 19 .. .. .. .. .. .. .. .. .. .. .. .. .. .. .. .. .. .. .. .. .. .. .. 
.. .. .. 43 39 35 27 23 19 .. .. .. .. .. .. .. .. .. .. .. .. .. .. .. .. .. .. .. .. .. 
.. .. .. .. .. 43 39 35 27 23 19 .. .. .. .. .. .. .. .. .. .. .. .. .. .. .. .. .. .. .. 
.. .. .. .. .. .. .. 43 39 35 27 23 19 .. .. .. .. .. .. .. .. .. .. .. .. .. .. .. .. .. 
.. .. .. .. .. .. .. .. .. 43 39 35 27 23 19 .. .. .. .. .. .. .. .. .. .. .. .. .. .. .. 
.. .. .. .. .. .. .. .. .. .. .. 43 39 35 27 23 19 .. .. .. .. .. .. .. .. .. .. .. .. .. 
.. .. .. .. .. .. .. .. .. .. .. .. .. 43 39 35 27 23 19 .. .. .. .. .. .. .. .. .. .. .. 
.. .. .. .. .. .. .. .. .. .. .. .. .. .. .. 43 39 35 27 23 19 .. .. .. .. .. .. .. .. .. 
.. .. .. .. .. .. .. .. .. .. .. .. .. .. .. .. .. 43 39 35 27 23 19 .. .. .. .. .. .. .. 
.. .. .. .. .. .. .. .. .. .. .. .. .. .. .. .. .. .. .. 43 39 35 27 23 19 .. .. .. .. .. 
.. .. .. .. .. .. .. .. .. .. .. .. .. .. .. .. .. .. .. .. .. 43 39 35 27 23 19 .. .. .. 
.. .. .. .. .. .. .. .. .. .. .. .. .. .. .. .. .. .. .. .. .. .. .. 30 .. .. .. .. .. .. 
.. 30 .. .. .. .. .. .. .. 30 .. .. .. .. .. .. .. 30 .. .. .. .. .. .. .. .. .. .. .. .. 
.. .. .. .. .. .. .. .. .. .. .. 37 .. .. .. .. .. .. .. 42 .. .. .. .. .. .. .. 37 .. .. 
.. .. .. .. .. 42 .. .. .. .. .. .. .. .. .. .. .. .. .. .. .. .. .. .. .. .. .. .. .. .. 
.. .. .. .. .. .. .. .. .. .. .. .. .. .. .. 28 .. .. .. .. .. .. .. 40 .. .. .. .. .. .. 
.. 30 .. .. .. .. .. .. .. 30 .. .. .. .. .. .. .. 30 .. .. .. .. .. .. .. 30 .. .. .. .. 
.. .. .. .. .. .. .. .. .. .. .. .. .. .. .. .. .. .. .. 37 .. .. .. .. .. .. .. 42 .. .. 
.. .. .. .. .. 37 .. .. .. .. .. .. .. 42 .. .. .. .. .. .. .. .. .. .. .. .. .. .. .. .. 
.. .. .. .. .. .. .. .. .. .. .. .. .. .. .. .. .. .. .. .. .. .. .. 30 .. .. .. .. .. .. 
.. 33 .. .. .. .. .. .. .. 35 .. .. .. .. .. .. .. 35 .. .. .. .. .. .. .. 35 .. .. .. .. 
.. .. .. 35 .. .. .. .. .. .. .. .. .. .. .. .. .. .. .. .. .. .. .. .. .. .. .. 40 .. .. 
.. .. .. .. .. 47 .. .. .. .. .. .. .. 40 .. .. .. .. .. .. .. 47 .. .. .. .. .. .. .. .. 
.. .. .. .. .. .. .. .. .. .. .. .. .. .. .. .. .. .. .. .. .. .. .. .. .. .. .. .. .. .. 
.. 35 .. .. .. .. .. .. .. 47 .. .. .. .. .. .. .. 33 .. .. .. .. .. .. .. 33 .. .. .. .. 
.. .. .. 33 .. .. .. .. .. .. .. 33 .. .. .. .. .. .. .. .. .. .. .. .. .. .. .. .. .. .. 
.. .. .. .. .. 37 .. .. .. .. .. .. .. 42 .. .. .. .. .. .. .. 37 .. .. .. .. .. .. .. 42 
.. .. .. .. .. .. .. .. .. .. .. .. .. .. .. .. .. .. .. .. .. .. .. .. .. .. .. .. .. .. 
.. .. .. .. .. .. .. .. .. 30 .. .. .. .. .. .. .. 33 .. .. .. .. .. .. .. 30 .. .. .. .. 
.. .. .. 30 .. .. .. .. .. .. .. 30 .. .. .. .. .. .. .. 30 .. .. .. .. .. .. .. .. .. .. 
.. .. .. .. .. .. .. .. .. .. .. .. .. 37 .. .. .. .. .. .. .. 42 .. .. .. .. .. .. .. 37 
.. .. .. .. .. .. .. 42 .. .. .. .. .. .. .. .. .. .. .. .. .. .. .. .. .. .. .. .. .. .. 
.. .. .. .. .. .. .. .. .. .. .. .. .. .. .. .. .. 28 .. .. .. .. .. .. .. 40 .. .. .. .. 
.. .. .. 30 .. .. .. .. .. .. .. 30 .. .. .. .. .. .. .. 30 .. .. .. .. .. .. .. 30 .. .. 
.. .. .. .. .. .. .. .. .. .. .. .. .. .. .. .. .. .. .. .. .. 37 .. .. .. .. .. .. .. 42 
.. .. .. .. .. .. .. 37 .. .. .. .. .. .. .. 42 .. .. .. .. .. .. .. .. .. .. .. .. .. .. 
.. .. .. .. .. .. .. .. .. .. .. .. .. .. .. .. .. .. .. .. .. .. .. .. .. 30 .. .. .. .. 
.. .. .. 33 .. .. .. .. .. .. .. 35 .. .. .. .. .. .. .. 35 .. .. .. .. .. .. .. 35 .. .. 
.. .. .. .. .. 35 .. .. .. .. .. .. .. .. .. .. .. .. .. .. .. .. .. .. .. .. .. .. .. 40 
.. .. .. .. .. .. .. 47 .. .. .. .. .. .. .. 40 .. .. .. .. .. .. .. 47 .. .. .. .. .. .. 
.. .. .. .. .. .. .. .. .. .. .. .. .. .. .. .. .. .. .. .. .. .. .. .. .. .. .. .. .. .. 
.. .. .. 35 .. .. .. .. .. .. .. 47 .. .. .. .. .. .. .. 33 .. .. .. .. .. .. .. 33 .. .. 
.. .. .. .. .. 33 .. .. .. .. .. .. .. 33 .. .. .. .. .. .. .. .. .. .. .. .. .. .. .. .. 
.. .. .. .. .. .. .. 37 .. .. .. .. .. .. .. 42 .. .. .. .. .. .. .. 37 .. .. .. .. .. .. 
.. 42 .. .. .. .. .. .. .. .. .. .. .. .. .. .. .. .. .. .. .. .. .. .. .. .. .. .. .. .. 
.. .. .. .. .. .. .. .. .. .. .. 30 .. .. .. .. .. .. .. 33 .. .. .. .. .. .. .. 43 39 35 
27 23 19 .. .. .. .. .. .. .. .. .. .. .. .. .. .. .. .. .. .. .. .. .. .. .. .. .. .. 43 
39 35 27 23 19 .. .. .. .. .. .. .. .. .. .. .. .. .. .. .. .. .. .. .. .. .. .. .. .. .. 
.. 43 39 35 27 23 19 .. .. .. .. .. .. .. .. .. .. .. .. .. .. .. .. .. .. .. .. .. .. .. 
.. .. .. 43 39 35 27 23 19 .. .. .. .. .. .. .. .. .. .. .. .. .. .. .. .. .. .. .. .. .. 
.. .. .. .. .. 43 39 35 27 23 19 .. .. .. .. .. .. .. .. .. .. .. .. .. .. .. .. .. .. .. 
.. .. .. .. .. .. .. 43 39 35 27 23 19 .. .. .. .. .. .. .. .. .. .. .. .. .. .. .. .. .. 
.. .. .. .. .. .. .. .. .. 43 39 35 27 23 19 .. .. .. .. .. .. .. .. .. .. .. .. .. .. .. 
.. .. .. .. .. .. .. .. .. .. .. 43 39 35 27 23 19 .. .. .. .. .. .. .. .. .. .. .. .. .. 
.. .. .. .. .. .. .. .. .. .. .. .. .. 43 39 35 27 23 19 .. .. .. .. .. .. .. .. .. .. .. 
.. .. .. .. .. .. .. .. .. .. .. .. .. .. .. 43 39 35 27 23 19 .. .. .. .. .. .. .. .. .. 
.. .. .. .. .. .. .. .. .. .. .. .. .. .. .. .. .. 43 39 35 27 23 19 .. .. .. .. .. .. .. 
.. .. .. .. .. .. .. .. .. .. .. .. .. .. .. .. .. .. .. 43 39 35 27 23 19 .. .. .. .. .. 
.. .. .. .. .. .. .. .. .. .. .. .. .. .. .. .. .. .. .. .. .. 43 39 35 27 23 19 .. .. .. 
.. .. .. .. .. .. .. .. .. .. .. .. .. .. .. .. .. .. .. .. .. .. .. 43 39 35 27 23 19 .. 
.. .. .. .. .. .. .. .. .. .. .. .. .. .. .. .. .. .. .. .. .. .. .. .. .. 43 39 35 27 23 
19 .. .. .. .. .. .. .. .. .. .. .. .. .. .. .. .. .. .. .. .. .. .. .. .. .. .. 43 39 35 
27 23 19 .. .. .. .. .. .. .. .. .. .. .. .. .. .. .. .. .. .. .. .. .. .. .. .. .. .. 43 
39 35 27 23 19 .. .. .. .. .. .. .. .. .. .. .. .. .. .. .. .. .. .. .. .. .. .. .. .. .. 
.. 43 39 35 27 23 19 .. .. .. .. .. .. .. .. .. .. .. .. .. .. .. .. .. .. .. .. .. .. .. 
.. .. .. 43 39 35 27 23 19 .. .. .. .. .. .. .. .. .. .. .. .. .. .. .. .. .. .. .. .. .. 
.. .. .. .. .. 43 39 35 27 23 19 .. .. .. .. .. .. .. .. .. .. .. .. .. .. .. .. .. .. .. 
.. .. .. .. .. .. .. 43 39 35 27 23 19 .. .. .. .. .. .. .. .. .. .. .. .. .. .. .. .. .. 
.. .. .. .. .. .. .. .. .. 43 39 35 27 23 19 .. .. .. .. .. .. .. .. .. .. .. .. .. .. .. 
.. .. .. .. .. .. .. .. .. .. .. 43 39 35 27 23 19 .. .. .. .. .. .. .. .. .. .. .. .. .. 
.. .. .. .. .. .. .. .. .. .. .. .. .. 43 39 35 27 23 19 .. .. .. .. .. .. .. .. .. .. .. 
.. .. .. .. .. .. .. .. .. .. .. .. .. .. .. 43 39 35 27 23 19 .. .. .. .. .. .. .. .. .. 
.. .. .. .. .. .. .. .. .. .. .. .. .. .. .. .. .. 43 39 35 27 23 19 .. .. .. .. .. .. .. 
.. .. .. .. .. .. .. .. .. .. .. .. .. .. .. .. .. .. .. 43 39 35 27 23 19 .. .. .. .. .. 
.. .. .. .. .. .. .. .. .. .. .. .. .. .. .. .. .. .. .. .. .. 43 39 35 27 23 19 .. .. .. 
.. .. .. .. .. .. .. .. .. .. .. .. .. .. .. .. .. .. .. .. .. .. .. 43 39 35 27 23 19 .. 
.. .. .. .. .. .. .. .. .. .. .. .. .. .. .. .. .. .. .. .. .. .. .. .. .. 43 39 35 27 23 
19 .. .. .. .. .. .. .. .. .. .. .. .. .. .. .. .. .. .. .. .. .. .. .. .. .. .. 43 39 35 
27 23 19 .. .. .. .. .. .. .. .. .. .. .. .. .. .. .. .. .. .. .. .. .. .. .. .. .. .. 43 
39 35 27 23 19 .. .. .. .. .. .. .. .. .. .. .. .. .. .. .. .. .. .. .. .. .. .. .. 
! Song 2
50 .. .. .. .. .. .. .. .. .. .. .. .. .. .. .. .. .. .. .. .. .. .. .. .. .. .. .. .. .. 
.. .. .. .. .. .. .. .. .. .. .. .. .. .. .. .. .. .. .. .. .. .. .. .. .. .. .. .. .. .. 
.. .. .. .. .. .. .. .. .. .. .. .. .. .. .. .. .. .. .. .. .. .. .. .. .. .. .. .. .. .. 
.. .. .. .. .. .. .. .. .. .. .. .. .. .. .. .. .. .. .. .. .. .. .. .. .. .. .. .. .. .. 
.. .. .. .. .. .. .. .. .. .. .. .. .. .. .. .. .. .. .. .. .. .. .. .. .. .. .. .. .. .. 
.. .. .. .. .. .. .. .. .. .. .. .. .. .. .. .. .. .. .. .. .. .. .. .. .. .. .. .. .. .. 
.. .. .. .. .. .. .. .. .. .. .. .. .. .. .. .. .. .. .. .. .. .. .. .. .. .. .. .. .. .. 
.. .. .. .. .. .. .. .. .. .. .. .. .. .. .. .. .. .. .. .. .. .. .. .. .. .. .. .. .. .. 
.. .. .. .. .. .. .. .. .. .. .. .. .. .. .. .. .. .. .. .. .. .. .. .. .. .. .. .. .. .. 
.. .. .. .. .. .. .. .. .. .. .. .. .. .. .. .. .. .. .. .. .. .. .. .. .. .. .. .. .. .. 
.. .. .. .. .. .. .. .. .. .. .. .. .. .. .. .. .. .. .. .. .. .. .. .. .. .. .. .. .. .. 
.. .. .. .. .. .. .. .. .. .. .. .. .. .. .. .. .. .. .. .. .. .. .. .. .. .. .. .. .. .. 
.. .. .. .. .. .. .. .. .. .. .. .. .. .. .. .. .. .. .. .. .. .. .. .. .. .. .. .. .. .. 
.. .. .. .. .. .. .. .. .. .. .. .. .. .. .. .. .. .. .. .. .. .. .. .. .. .. .. .. .. .. 
.. .. .. .. .. .. .. .. .. .. .. .. .. .. .. .. .. .. .. .. .. .. .. .. .. .. .. .. .. .. 
.. 41 .. .. .. .. .. .. .. 29 .. .. .. .. .. 29 .. .. .. .. .. .. .. 29 .. .. .. .. .. 29 
.. .. .. .. .. .. .. 29 .. .. .. .. .. 36 .. .. .. .. .. .. .. 41 .. .. .. .. .. 43 .. .. 
.. .. .. .. .. 31 .. .. .. .. .. 31 .. .. .. .. .. .. .. 31 .. .. .. .. .. 31 .. .. .. .. 
.. .. .. 31 .. .. .. .. .. 36 .. .. .. .. .. .. .. 43 .. .. .. .. .. 44 .. .. .. .. .. .. 
.. 44 .. .. 44 .. .. 44 .. .. .. 44 .. .. .. 43 .. .. .. .. .. 44 .. .. .. .. .. .. .. 46 
.. .. .. .. .. 44 .. .. .. .. .. .. .. 43 .. .. .. .. .. 44 .. .. .. .. .. .. .. 43 .. .. 
.. .. .. .. .. .. .. .. .. .. .. 43 .. .. .. .. .. .. .. .. .. .. .. .. .. .. .. .. .. .. 
.. .. .. .. .. .. .. .. .. .. .. .. .. .. .. 41 .. .. .. .. .. .. .. 29 .. .. .. .. .. 29 
.. .. .. .. .. .. .. 29 .. .. .. .. .. 29 .. .. .. .. .. .. .. 29 .. .. .. .. .. 36 .. .. 
.. .. .. .. .. 41 .. .. .. .. .. 43 .. .. .. .. .. .. .. 31 .. .. .. .. .. 31 .. .. .. .. 
.. .. .. 31 .. .. .. .. .. 31 .. .. .. .. .. .. .. 31 .. .. .. .. .. 36 .. .. .. .. .. .. 
.. 43 .. .. .. .. .. 44 .. .. .. .. .. .. .. 44 .. .. 44 .. .. 44 .. .. .. 44 .. .. .. 43 
.. .. .. .. .. 44 .. .. .. .. .. .. .. 46 .. .. .. .. .. 44 .. .. .. .. .. .. .. 43 .. .. 
.. .. .. 44 .. .. .. .. .. .. .. 43 .. .. .. .. .. .. .. .. .. .. .. .. .. 43 .. .. .. .. 
.. .. .. .. .. .. .. .. .. .. .. .. .. .. .. .. .. .. .. .. .. .. .. .. .. .. .. .. .. 43 
.. .. .. .. .. .. .. 31 .. .. .. .. .. .. .. .. .. .. .. .. .. 31 .. .. .. .. .. 31 .. .. 
.. .. .. .. .. 31 .. .. .. .. .. 36 .. .. .. .. .. .. .. 43 .. .. .. .. .. 41 .. .. .. .. 
.. .. .. 29 .. .. .. .. .. .. .. .. .. .. .. .. .. 29 .. .. .. .. .. 29 .. .. .. .. .. .. 
.. 29 .. .. .. .. .. 34 .. .. .. .. .. .. .. 41 .. .. .. .. .. 41 .. .. .. 41 .. .. .. 41 
.. .. 41 .. .. 41 .. .. .. .. .. .. .. 39 .. .. .. .. .. 41 .. .. .. .. .. .. .. 43 .. .. 
.. .. .. 41 .. .. .. .. .. .. .. 39 .. .. .. .. .. 41 .. .. .. .. .. .. .. 39 .. .. .. .. 
.. .. .. .. .. .. .. .. .. 39 .. .. .. .. .. .. .. .. .. .. .. .. .. .. .. .. .. .. .. .. 
.. .. .. .. .. .. .. .. .. .. .. .. .. 43 .. .. .. .. .. .. .. 31 .. .. .. .. .. .. .. .. 
.. .. .. .. .. 31 .. .. .. .. .. 31 .. .. .. .. .. .. .. 31 .. .. .. .. .. 36 .. .. .. .. 
.. .. .. 41 .. .. .. .. .. 43 .. .. .. .. .. .. .. 31 .. .. .. .. .. .. .. .. .. .. .. .. 
.. 31 .. .. .. .. .. 31 .. .. .. .. .. .. .. 31 .. .. .. .. .. 36 .. .. .. .. .. .. .. 41 
.. .. .. .. .. 43 .. .. .. 43 .. .. .. 43 .. .. 43 .. .. 43 .. .. .. .. .. .. .. 41 .. .. 
.. .. .. 43 .. .. .. .. .. .. .. 36 .. .. .. .. .. 43 .. .. .. .. .. .. .. 39 .. .. .. .. 
.. 43 .. .. .. .. .. .. .. 39 .. .. .. .. .. .. .. .. .. .. .. .. .. 39 .. .. .. .. .. .. 
.. .. .. .. .. .. .. .. .. .. .. .. .. .. .. .. .. .. .. .. .. .. .. .. .. .. .. 41 .. .. 
.. .. .. .. .. 29 .. .. .. .. .. 29 .. .. .. .. .. .. .. 29 .. .. .. .. .. 29 .. .. .. .. 
.. .. .. 29 .. .. .. .. .. 36 .. .. .. .. .. .. .. 41 .. .. .. .. .. 43 .. .. .. .. .. .. 
.. 31 .. .. .. .. .. 31 .. .. .. .. .. .. .. 31 .. .. .. .. .. 31 .. .. .. .. .. .. .. 31 
.. .. .. .. .. 36 .. .. .. .. .. .. .. 43 .. .. .. .. .. 44 .. .. .. .. .. .. .. 44 .. .. 
44 .. .. 44 .. .. .. 44 .. .. .. 43 .. .. .. .. .. 44 .. .. .. .. .. .. .. 46 .. .. .. .. 
.. 44 .. .. .. .. .. .. .. 43 .. .. .. .. .. 44 .. .. .. .. .. .. .. 43 .. .. .. .. .. .. 
.. .. .. .. .. .. .. 43 .. .. .. .. .. .. .. .. .. .. .. .. .. .. .. .. .. .. .. .. .. .. 
.. .. .. .. .. .. .. .. .. .. .. 41 .. .. .. .. .. .. .. 29 .. .. .. .. .. 29 .. .. .. .. 
.. .. .. 29 .. .. .. .. .. 29 .. .. .. .. .. .. .. 29 .. .. .. .. .. 36 .. .. .. .. .. .. 
.. 41 .. .. .. .. .. 43 .. .. .. .. .. .. .. 31 .. .. .. .. .. 31 .. .. .. .. .. .. .. 31 
.. .. .. .. .. 31 .. .. .. .. .. .. .. 31 .. .. .. .. .. 36 .. .. .. .. .. .. .. 43 .. .. 
.. .. .. 44 .. .. .. .. .. .. .. 44 .. .. 44 .. .. 44 .. .. .. 44 .. .. .. 43 .. .. .. .. 
.. 44 .. .. .. .. .. .. .. 46 .. .. .. .. .. 44 .. .. .. .. .. .. .. 43 .. .. .. .. .. 44 
.. .. .. .. .. .. .. 43 .. .. .. .. .. .. .. .. .. .. .. .. .. 43 .. .. .. .. .. .. .. .. 
.. .. .. .. .. .. .. .. .. .. .. .. .. .. .. .. .. .. .. .. .. .. .. .. .. 43 .. .. .. .. 
.. .. .. 31 .. .. .. .. .. .. .. .. .. .. .. .. .. 31 .. .. .. .. .. 31 .. .. .. .. .. .. 
.. 31 .. .. .. .. .. 36 .. .. .. .. .. .. .. 43 .. .. .. .. .. 41 .. .. .. .. .. .. .. 29 
.. .. .. .. .. .. .. .. .. .. .. .. .. 29 .. .. .. .. .. 29 .. .. .. .. .. .. .. 29 .. .. 
.. .. .. 34 .. .. .. .. .. .. .. 41 .. .. .. .. .. 41 .. .. .. 41 .. .. .. 41 .. .. 41 .. 
.. 41 .. .. .. .. .. .. .. 39 .. .. .. .. .. 41 .. .. .. .. .. .. .. 43 .. .. .. .. .. 41 
.. .. .. .. .. .. .. 39 .. .. .. .. .. 41 .. .. .. .. .. .. .. 39 .. .. .. .. .. .. .. .. 
.. .. .. .. .. 39 .. .. .. .. .. .. .. .. .. .. .. .. .. .. .. .. .. .. .. .. .. .. .. .. 
.. .. .. .. .. .. .. .. .. 43 .. .. .. .. .. .. .. 31 .. .. .. .. .. .. .. .. .. .. .. .. 
.. 31 .. .. .. .. .. 31 .. .. .. .. .. .. .. 31 .. .. .. .. .. 36 .. .. .. .. .. .. .. 41 
.. .. .. .. .. 43 .. .. .. .. .. .. .. 31 .. .. .. .. .. .. .. .. .. .. .. .. .. 31 .. .. 
.. .. .. 31 .. .. .. .. .. .. .. 31 .. .. .. .. .. 36 .. .. .. .. .. .. .. 41 .. .. .. .. 
.. 43 .. .. .. .. .. .. .. 41 .. .. .. .. .. 43 .. .. .. .. .. .. .. 41 .. .. .. .. .. 43 
.. .. .. .. .. .. .. .. .. .. .. .. .. .. .. .. .. .. .. .. .. .. .. .. .. .. .. .. .. .. 
.. .. .. .. .. .. .. .. .. .. .. .. .. .. .. .. .. .. .. .. .. .. .. .. .. .. .. .. .. .. 
.. .. .. .. .. .. .. .. .. .. .. .. .. .. .. .. .. .. .. .. .. .. .. .. .. .. .. .. .. .. 
.. .. .. .. .. .. .. .. .. .. .. .. .. .. .. .. .. .. .. .. .. .. .. .. .. .. .. .. .. .. 
.. .. .. .. .. .. .. .. .. .. .. .. .. .. .. .. .. .. .. .. .. .. .. .. .. .. .. .. .. .. 
.. .. .. .. .. .. .. .. .. .. .. .. .. .. .. .. .. .. .. .. .. .. .. .. .. .. .. .. .. .. 
.. .. .. .. .. .. .. .. .. .. .. .. .. .. .. .. .. .. .. .. .. .. .. .. .. .. .. .. .. .. 
.. .. .. .. .. .. .. .. .. .. .. .. .. .. .. .. .. .. .. .. .. .. .. .. .. .. .. .. .. .. 
.. .. .. .. .. .. .. .. .. .. .. .. .. .. .. .. .. .. .. .. .. .. .. .. .. .. .. .. .. .. 
.. .. .. .. .. .. .. .. .. .. .. .. .. .. .. .. .. .. .. .. .. .. .. .. .. .. .. .. .. .. 
.. .. .. .. .. .. .. .. .. .. .. .. .. .. .. .. .. .. .. .. .. .. .. .. .. .. .. .. .. .. 
.. .. .. .. .. .. .. .. .. .. .. .. .. .. .. .. .. .. .. .. .. .. .. .. .. .. .. .. .. .. 
.. .. .. .. .. .. .. .. .. .. .. .. .. .. .. .. .. .. .. .. .. .. .. .. .. .. .. .. .. .. 
.. .. .. .. .. .. .. .. .. .. .. .. .. .. .. .. .. .. .. .. .. .. .. .. .. .. .. .. .. .. 
.. .. .. .. .. .. .. .. .. .. .. .. .. .. .. .. .. .. .. .. .. .. .. .. .. .. .. .. .. .. 
.. .. .. .. .. .. .. .. .. .. .. .. .. .. .. .. .. .. .. .. .. .. .. .. .. .. .. .. .. .. 
.. .. .. .. .. .. .. .. .. .. .. .. .. .. .. .. .. .. .. .. .. .. .. .. .. .. .. .. .. .. 
.. .. .. .. .. .. .. .. .. .. .. .. .. .. .. .. .. .. .. .. .. 41 .. .. .. .. .. .. .. 29 
.. .. .. .. .. 29 .. .. .. .. .. .. .. 29 .. .. .. .. .. 29 .. .. .. .. .. .. .. 29 .. .. 
.. .. .. 36 .. .. .. .. .. .. .. 41 .. .. .. .. .. 43 .. .. .. .. .. .. .. 31 .. .. .. .. 
.. 31 .. .. .. .. .. .. .. 31 .. .. .. .. .. 31 .. .. .. .. .. .. .. 31 .. .. .. .. .. 36 
.. .. .. .. .. .. .. 43 .. .. .. .. .. 44 .. .. .. .. .. .. .. 44 .. .. 44 .. .. 44 .. .. 
.. 44 .. .. .. 43 .. .. .. .. .. 44 .. .. .. .. .. .. .. 46 .. .. .. .. .. 44 .. .. .. .. 
.. .. .. 43 .. .. .. .. .. 44 .. .. .. .. .. .. .. 43 .. .. .. .. .. .. .. .. .. .. .. .. 
.. 43 .. .. .. .. .. .. .. .. .. .. .. .. .. .. .. .. .. .. .. .. .. .. .. .. .. .. .. .. 
.. .. .. .. .. 41 .. .. .. .. .. .. .. 29 .. .. .. .. .. 29 .. .. .. .. .. .. .. 29 .. .. 
.. .. .. 29 .. .. .. .. .. .. .. 29 .. .. .. .. .. 36 .. .. .. .. .. .. .. 41 .. .. .. .. 
.. 43 .. .. .. .. .. .. .. 31 .. .. .. .. .. 31 .. .. .. .. .. .. .. 31 .. .. .. .. .. 31 
.. .. .. .. .. .. .. 31 .. .. .. .. .. 36 .. .. .. .. .. .. .. 43 .. .. .. .. .. 44 .. .. 
.. .. .. .. .. 44 .. .. 44 .. .. 44 .. .. .. 44 .. .. .. 43 .. .. .. .. .. 44 .. .. .. .. 
.. .. .. 46 .. .. .. .. .. 44 .. .. .. .. .. .. .. 43 .. .. .. .. .. 44 .. .. .. .. .. .. 
.. 43 .. .. .. .. .. .. .. .. .. .. .. .. .. 43 .. .. .. .. .. .. .. .. .. .. .. .. .. .. 
.. .. .. .. .. .. .. .. .. .. .. .. .. .. .. .. .. .. .. 43 .. .. .. .. .. .. .. 31 .. .. 
.. .. .. .. .. .. .. .. .. .. .. 31 .. .. .. .. .. 31 .. .. .. .. .. .. .. 31 .. .. .. .. 
.. 36 .. .. .. .. .. .. .. 43 .. .. .. .. .. 41 .. .. .. .. .. .. .. 29 .. .. .. .. .. .. 
.. .. .. .. .. .. .. 29 .. .. .. .. .. 29 .. .. .. .. .. .. .. 29 .. .. .. .. .. 34 .. .. 
.. .. .. .. .. 41 .. .. .. .. .. 41 .. .. .. 41 .. .. .. 41 .. .. 41 .. .. 41 .. .. .. .. 
.. .. .. 39 .. .. .. .. .. 41 .. .. .. .. .. .. .. 43 .. .. .. .. .. 41 .. .. .. .. .. .. 
.. 39 .. .. .. .. .. 41 .. .. .. .. .. .. .. 39 .. .. .. .. .. .. .. .. .. .. .. .. .. 39 
.. .. .. .. .. .. .. .. .. .. .. .. .. .. .. .. .. .. .. .. .. .. .. .. .. .. .. .. .. .. 
.. .. .. 43 .. .. .. .. .. .. .. 31 .. .. .. .. .. .. .. .. .. .. .. .. .. 31 .. .. .. .. 
.. 31 .. .. .. .. .. .. .. 31 .. .. .. .. .. 36 .. .. .. .. .. .. .. 41 .. .. .. .. .. 43 
.. .. .. .. .. .. .. 31 .. .. .. .. .. .. .. .. .. .. .. .. .. 31 .. .. .. .. .. 31 .. .. 
.. .. .. .. .. 31 .. .. .. .. .. 36 .. .. .. .. .. .. .. 41 .. .. .. .. .. 43 .. .. .. 43 
.. .. .. 43 .. .. 43 .. .. 43 .. .. .. .. .. .. .. 41 .. .. .. .. .. 43 .. .. .. .. .. .. 
.. 36 .. .. .. .. .. 43 .. .. .. .. .. .. .. 39 .. .. .. .. .. 43 .. .. .. .. .. .. .. 39 
.. .. .. .. .. .. .. .. .. .. .. .. .. 39 .. .. .. .. .. .. .. .. .. .. .. .. .. .. .. .. 
.. .. .. .. .. .. .. .. .. .. .. .. .. .. .. .. .. 41 .. .. .. .. .. .. .. 29 .. .. .. .. 
.. 29 .. .. .. .. .. .. .. 29 .. .. .. .. .. 29 .. .. .. .. .. .. .. 29 .. .. .. .. .. 36 
.. .. .. .. .. .. .. 41 .. .. .. .. .. 43 .. .. .. .. .. .. .. 31 .. .. .. .. .. 31 .. .. 
.. .. .. .. .. 31 .. .. .. .. .. 31 .. .. .. .. .. .. .. 31 .. .. .. .. .. 36 .. .. .. .. 
.. .. .. 43 .. .. .. .. .. 44 .. .. .. .. .. .. .. 44 .. .. 44 .. .. 44 .. .. .. 44 .. .. 
.. 43 .. .. .. .. .. 44 .. .. .. .. .. .. .. 46 .. .. .. .. .. 44 .. .. .. .. .. .. .. 43 
.. .. .. .. .. 44 .. .. .. .. .. .. .. 43 .. .. .. .. .. .. .. .. .. .. .. .. .. 43 .. .. 
.. .. .. .. .. .. .. .. .. .. .. .. .. .. .. .. .. .. .. .. .. .. .. .. .. .. .. .. .. .. 
.. 41 .. .. .. .. .. .. .. 29 .. .. .. .. .. 29 .. .. .. .. .. .. .. 29 .. .. .. .. .. 29 
.. .. .. .. .. .. .. 29 .. .. .. .. .. 36 .. .. .. .. .. .. .. 41 .. .. .. .. .. 43 .. .. 
.. .. .. .. .. 31 .. .. .. .. .. 31 .. .. .. .. .. .. .. 31 .. .. .. .. .. 31 .. .. .. .. 
.. .. .. 31 .. .. .. .. .. 36 .. .. .. .. .. .. .. 43 .. .. .. .. .. 44 .. .. .. .. .. .. 
.. 44 .. .. 44 .. .. 44 .. .. .. 44 .. .. .. 43 .. .. .. .. .. 44 .. .. .. .. .. .. .. 46 
.. .. .. .. .. 44 .. .. .. .. .. .. .. 43 .. .. .. .. .. 44 .. .. .. .. .. .. .. 43 .. .. 
.. .. .. .. .. .. .. .. .. .. .. 43 .. .. .. .. .. .. .. .. .. .. .. .. .. .. .. .. .. .. 
.. .. .. .. .. .. .. .. .. .. .. .. .. .. .. 43 .. .. .. .. .. .. .. 31 .. .. .. .. .. .. 
.. .. .. .. .. .. .. 31 .. .. .. .. .. 31 .. .. .. .. .. .. .. 31 .. .. .. .. .. 36 .. .. 
.. .. .. .. .. 43 .. .. .. .. .. 41 .. .. .. .. .. .. .. 29 .. .. .. .. .. .. .. .. .. .. 
.. .. .. 29 .. .. .. .. .. 29 .. .. .. .. .. .. .. 29 .. .. .. .. .. 34 .. .. .. .. .. .. 
.. 41 .. .. .. .. .. 41 .. .. .. 41 .. .. .. 41 .. .. 41 .. .. 41 .. .. .. .. .. .. .. 39 
.. .. .. .. .. 41 .. .. .. .. .. .. .. 43 .. .. .. .. .. 41 .. .. .. .. .. .. .. 39 .. .. 
.. .. .. 41 .. .. .. .. .. .. .. 39 .. .. .. .. .. .. .. .. .. .. .. .. .. 39 .. .. .. .. 
.. .. .. .. .. .. .. .. .. .. .. .. .. .. .. .. .. .. .. .. .. .. .. .. .. .. .. .. .. 43 
.. .. .. .. .. .. .. 31 .. .. .. .. .. .. .. .. .. .. .. .. .. 31 .. .. .. .. .. 31 .. .. 
.. .. .. .. .. 31 .. .. .. .. .. 36 .. .. .. .. .. .. .. 41 .. .. .. .. .. 43 .. .. .. .. 
.. .. .. 31 .. .. .. .. .. .. .. .. .. .. .. .. .. 31 .. .. .. .. .. 31 .. .. .. .. .. .. 
.. 31 .. .. .. .. .. 36 .. .. .. .. .. .. .. 41 .. .. .. .. .. 43 .. .. .. .. .. .. .. 41 
.. .. .. .. .. 43 .. .. .. .. .. .. .. 41 .. .. .. .. .. 43 .. .. .. .. .. .. .. .. .. .. 
.. .. .. .. .. .. .. .. .. .. .. .. .. .. .. .. .. .. .. .. .. .. .. .. .. .. .. .. .. .. 
.. .. .. .. .. .. .. .. .. .. .. .. .. .. .. .. .. .. .. .. .. .. .. .. .. .. .. .. .. .. 
.. .. .. .. .. .. .. .. .. .. .. .. .. .. .. .. .. .. .. .. .. .. .. .. .. .. .. .. .. .. 
.. .. .. .. .. .. .. .. .. .. .. .. .. .. .. .. .. .. .. .. .. .. .. .. .. .. .. .. .. .. 
.. .. .. .. .. .. .. .. .. .. .. .. .. .. .. .. .. .. .. .. .. .. .. .. .. .. .. .. .. .. 
.. .. .. .. .. .. .. .. .. .. .. .. .. .. .. .. .. .. .. .. .. .. .. .. .. .. .. .. .. .. 
.. .. .. .. .. .. .. .. .. .. .. .. .. .. .. .. .. .. .. .. .. .. .. .. .. .. .. .. .. .. 
.. .. .. .. .. .. .. .. .. .. .. .. .. .. .. .. .. .. .. .. .. .. .. .. .. .. .. .. .. .. 
.. .. .. .. .. .. .. .. .. .. .. .. .. .. .. .. .. .. .. .. .. .. .. .. .. .. .. .. .. .. 
.. .. .. .. .. .. .. .. .. .. .. .. .. .. .. .. .. .. .. .. .. .. .. .. .. .. .. .. .. .. 
.. .. .. .. .. .. .. .. .. .. .. .. .. .. .. .. .. .. .. .. .. .. .. .. .. .. .. .. .. .. 
.. .. .. .. .. .. .. .. .. .. .. .. .. .. .. .. .. .. .. .. .. .. .. .. .. .. .. .. .. .. 
.. .. .. .. .. .. .. .. .. .. .. .. .. .. .. .. .. .. .. .. .. .. .. .. .. .. .. .. .. .. 
.. .. .. .. .. .. .. .. .. .. .. .. .. .. .. .. .. .. .. .. .. .. .. .. .. .. .. .. .. .. 
.. .. .. .. .. .. .. .. .. .. .. .. .. .. .. .. .. .. .. .. .. .. .. .. .. .. .. .. .. .. 
.. .. .. .. .. .. .. .. .. .. .. .. .. .. .. .. .. .. .. .. .. .. .. .. .. .. .. .. .. .. 
.. .. .. .. .. .. .. .. .. .. .. .. .. .. .. .. .. .. .. .. .. .. .. .. .. .. .. .. .. .. 
.. .. .. .. .. .. .. .. .. .. .. 41 .. .. .. .. .. .. .. 29 .. .. .. .. .. 29 .. .. .. .. 
.. .. .. 29 .. .. .. .. .. 29 .. .. .. .. .. .. .. 29 .. .. .. .. .. 36 .. .. .. .. .. .. 
.. 41 .. .. .. .. .. 43 .. .. .. .. .. .. .. 31 .. .. .. .. .. 31 .. .. .. .. .. .. .. 31 
.. .. .. .. .. 31 .. .. .. .. .. .. .. 31 .. .. .. .. .. 36 .. .. .. .. .. .. .. 43 .. .. 
.. .. .. 44 .. .. .. .. .. .. .. 44 .. .. 44 .. .. 44 .. .. .. 44 .. .. .. 43 .. .. .. .. 
.. 44 .. .. .. .. .. .. .. 46 .. .. .. .. .. 44 .. .. .. .. .. .. .. 43 .. .. .. .. .. 44 
.. .. .. .. .. .. .. 43 .. .. .. .. .. .. .. .. .. .. .. .. .. 43 .. .. .. .. .. .. .. .. 
.. .. .. .. .. .. .. .. .. .. .. .. .. .. .. .. .. .. .. .. .. .. .. .. .. 41 .. .. .. .. 
.. .. .. 29 .. .. .. .. .. 29 .. .. .. .. .. .. .. 29 .. .. .. .. .. 29 .. .. .. .. .. .. 
.. 29 .. .. .. .. .. 36 .. .. .. .. .. .. .. 41 .. .. .. .. .. 43 .. .. .. .. .. .. .. 31 
.. .. .. .. .. 31 .. .. .. .. .. .. .. 31 .. .. .. .. .. 31 .. .. .. .. .. .. .. 31 .. .. 
.. .. .. 36 .. .. .. .. .. .. .. 43 .. .. .. .. .. 44 .. .. .. .. .. .. .. 44 .. .. 44 .. 
.. 44 .. .. .. 44 .. .. .. 43 .. .. .. .. .. 44 .. .. .. .. .. .. .. 46 .. .. .. .. .. 44 
.. .. .. .. .. .. .. 43 .. .. .. .. .. 44 .. .. .. .. .. .. .. 43 .. .. .. .. .. .. .. .. 
.. .. .. .. .. 43 .. .. .. .. .. .. .. .. .. .. .. .. .. .. .. .. .. .. .. .. .. .. .. .. 
.. .. .. .. .. .. .. .. .. 43 .. .. .. .. .. .. .. 31 .. .. .. .. .. .. .. .. .. .. .. .. 
.. 31 .. .. .. .. .. 31 .. .. .. .. .. .. .. 31 .. .. .. .. .. 36 .. .. .. .. .. .. .. 43 
.. .. .. .. .. 41 .. .. .. .. .. .. .. 29 .. .. .. .. .. .. .. .. .. .. .. .. .. 29 .. .. 
.. .. .. 29 .. .. .. .. .. .. .. 29 .. .. .. .. .. 34 .. .. .. .. .. .. .. 41 .. .. .. .. 
.. 41 .. .. .. 41 .. .. .. 41 .. .. 41 .. .. 41 .. .. .. .. .. .. .. 39 .. .. .. .. .. 41 
.. .. .. .. .. .. .. 43 .. .. .. .. .. 41 .. .. .. .. .. .. .. 39 .. .. .. .. .. 41 .. .. 
.. .. .. .. .. 39 .. .. .. .. .. .. .. .. .. .. .. .. .. 39 .. .. .. .. .. .. .. .. .. .. 
.. .. .. .. .. .. .. .. .. .. .. .. .. .. .. .. .. .. .. .. .. .. .. 43 .. .. .. .. .. .. 
.. 31 .. .. .. .. .. .. .. .. .. .. .. .. .. 31 .. .. .. .. .. 31 .. .. .. .. .. .. .. 31 
.. .. .. .. .. 36 .. .. .. .. .. .. .. 41 .. .. .. .. .. 43 .. .. .. .. .. .. .. 31 .. .. 
.. .. .. .. .. .. .. .. .. .. .. 31 .. .. .. .. .. 31 .. .. .. .. .. .. .. 31 .. .. .. .. 
.. 36 .. .. .. .. .. .. .. 41 .. .. .. .. .. 43 .. .. .. 43 .. .. .. 43 .. .. 43 .. .. 43 
.. .. .. .. .. .. .. 41 .. .. .. .. .. 43 .. .. .. .. .. .. .. 36 .. .. .. .. .. 43 .. .. 
.. .. .. .. .. 39 .. .. .. .. .. 43 .. .. .. .. .. .. .. 39 .. .. .. .. .. .. .. .. .. .. 
.. .. .. 39 .. .. .. .. .. .. .. .. .. .. .. .. .. .. .. .. .. .. .. .. .. .. .. .. .. .. 
.. .. .. .. .. .. .. 41 .. .. .. .. .. .. .. 29 .. .. .. .. .. 29 .. .. .. .. .. .. .. 29 
.. .. .. .. .. 29 .. .. .. .. .. .. .. 29 .. .. .. .. .. 36 .. .. .. .. .. .. .. 41 .. .. 
.. .. .. 43 .. .. .. .. .. .. .. 31 .. .. .. .. .. 31 .. .. .. .. .. .. .. 31 .. .. .. .. 
.. 31 .. .. .. .. .. .. .. 31 .. .. .. .. .. 36 .. .. .. .. .. .. .. 43 .. .. .. .. .. 44 
.. .. .. .. .. .. .. 44 .. .. 44 .. .. 44 .. .. .. 44 .. .. .. 43 .. .. .. .. .. 44 .. .. 
.. .. .. .. .. 46 .. .. .. .. .. 44 .. .. .. .. .. .. .. 43 .. .. .. .. .. 44 .. .. .. .. 
.. .. .. 43 .. .. .. .. .. .. .. .. .. .. .. .. .. 43 .. .. .. .. .. .. .. .. .. .. .. .. 
.. .. .. .. .. .. .. .. .. .. .. .. .. .. .. .. .. .. .. .. .. 41 .. .. .. .. .. .. .. 29 
.. .. .. .. .. 29 .. .. .. .. .. .. .. 29 .. .. .. .. .. 29 .. .. .. .. .. .. .. 29 .. .. 
.. .. .. 36 .. .. .. .. .. .. .. 41 .. .. .. .. .. 43 .. .. .. .. .. .. .. 31 .. .. .. .. 
.. 31 .. .. .. .. .. .. .. 31 .. .. .. .. .. 31 .. .. .. .. .. .. .. 31 .. .. .. .. .. 36 
.. .. .. .. .. .. .. 43 .. .. .. .. .. 44 .. .. .. .. .. .. .. 44 .. .. 44 .. .. 44 .. .. 
.. 44 .. .. .. 43 .. .. .. .. .. 44 .. .. .. .. .. .. .. 46 .. .. .. .. .. 44 .. .. .. .. 
.. .. .. 43 .. .. .. .. .. 44 .. .. .. .. .. .. .. 43 .. .. .. .. .. .. .. .. .. .. .. .. 
.. 43 .. .. .. .. .. .. .. .. .. .. .. .. .. .. .. .. .. .. .. .. .. .. .. .. .. .. .. .. 
.. .. .. .. .. 43 .. .. .. .. .. .. .. 31 .. .. .. .. .. .. .. .. .. .. .. .. .. 31 .. .. 
.. .. .. 31 .. .. .. .. .. .. .. 31 .. .. .. .. .. 36 .. .. .. .. .. .. .. 43 .. .. .. .. 
.. 41 .. .. .. .. .. .. .. 29 .. .. .. .. .. .. .. .. .. .. .. .. .. 29 .. .. .. .. .. 29 
.. .. .. .. .. .. .. 29 .. .. .. .. .. 34 .. .. .. .. .. .. .. 41 .. .. .. .. .. 41 .. .. 
.. 41 .. .. .. 41 .. .. 41 .. .. 41 .. .. .. .. .. .. .. 39 .. .. .. .. .. 41 .. .. .. .. 
.. .. .. 43 .. .. .. .. .. 41 .. .. .. .. .. .. .. 39 .. .. .. .. .. 41 .. .. .. .. .. .. 
.. 39 .. .. .. .. .. .. .. .. .. .. .. .. .. 39 .. .. .. .. .. .. .. .. .. .. .. .. .. .. 
.. .. .. .. .. .. .. .. .. .. .. .. .. .. .. .. .. .. .. 43 .. .. .. .. .. .. .. 31 .. .. 
.. .. .. .. .. .. .. .. .. .. .. 31 .. .. .. .. .. 31 .. .. .. .. .. .. .. 31 .. .. .. .. 
.. 36 .. .. .. .. .. .. .. 41 .. .. .. .. .. 43 .. .. .. .. .. .. .. 31 .. .. .. .. .. .. 
.. .. .. .. .. .. .. 31 .. .. .. .. .. 31 .. .. .. .. .. .. .. 31 .. .. .. .. .. 36 .. .. 
.. .. .. .. .. 41 .. .. .. .. .. 43 .. .. .. .. .. .. .. 41 .. .. .. .. .. 43 .. .. .. .. 
.. .. .. 41 .. .. .. .. .. 43 .. .. .. .. .. .. .. .. .. .. .. .. .. .. .. .. .. .. .. .. 
.. .. .. .. .. .. .. .. .. .. .. .. .. .. .. .. .. .. .. .. .. .. .. .. .. .. .. .. .. .. 
.. .. .. .. .. .. .. .. .. .. .. .. .. .. .. .. .. .. .. .. .. .. .. .. .. .. .. .. .. .. 
.. .. .. .. .. .. .. .. .. .. .. .. .. .. .. .. .. .. .. .. .. .. .. .. .. .. .. .. .. .. 
.. .. .. .. .. .. .. .. .. .. .. .. .. .. .. .. .. .. .. .. .. .. .. .. .. .. .. .. .. .. 
.. .. .. .. .. .. .. .. .. .. .. .. .. .. .. .. .. .. .. .. .. .. .. .. .. .. .. .. .. .. 
.. .. .. .. .. .. .. .. .. .. .. .. .. .. .. .. .. .. .. .. .. .. .. .. .. .. .. .. .. .. 
.. .. .. .. .. .. .. .. .. .. .. .. .. .. .. .. .. .. .. .. .. .. .. .. .. .. .. .. .. .. 
.. .. .. .. .. .. .. .. .. .. .. .. .. .. .. .. .. .. .. .. .. .. .. .. .. .. .. .. .. .. 
.. .. .. .. .. .. .. .. .. .. .. .. .. .. .. .. .. .. .. .. .. .. .. .. .. .. .. .. .. .. 
.. .. .. .. .. .. .. .. .. .. .. .. .. .. .. .. .. .. .. .. .. .. .. .. .. .. .. .. .. .. 
.. .. .. .. .. .. .. .. .. .. .. .. .. .. .. .. .. .. .. .. .. .. .. .. .. .. .. .. .. .. 
.. .. .. .. .. .. .. .. .. .. .. .. .. .. .. .. .. .. .. .. .. .. .. .. .. .. .. .. .. .. 
.. .. .. .. .. .. .. .. .. .. .. .. .. .. .. .. .. .. .. .. .. .. .. .. .. .. .. .. .. .. 
.. .. .. .. .. .. .. .. .. .. .. .. .. .. .. .. .. .. .. .. .. .. .. .. .. .. .. .. .. .. 
.. .. .. .. .. .. .. .. .. .. .. .. .. .. .. .. .. .. .. .. .. .. .. .. .. .. .. .. .. .. 
.. .. .. .. .. .. .. .. .. .. .. .. .. .. .. .. .. .. .. .. .. .. .. .. .. .. .. .. .. .. 
.. .. .. .. .. .. .. .. .. .. .. .. .. .. .. .. .. .. .. .. .. .. .. .. .. .. .. .. 
! Song 3
50 .. .. 20 .. .. .. .. .. .. .. .. .. .. .. .. .. 32 .. .. .. .. .. .. .. .. .. .. .. .. 
.. .. .. .. .. .. .. .. .. .. .. .. .. .. .. 32 .. .. .. .. .. .. .. .. .. .. .. .. .. .. 
.. .. .. .. .. .. .. .. .. .. .. .. .. 30 .. .. .. .. .. .. .. .. .. .. .. .. .. 32 .. .. 
.. .. .. .. .. 27 .. .. .. .. .. .. .. .. .. .. .. .. .. 30 .. .. .. .. .. 20 .. .. .. .. 
.. .. .. .. .. .. .. .. .. .. .. .. .. .. .. .. .. 20 .. .. .. .. .. .. .. .. .. .. .. .. 
.. .. .. .. .. .. .. .. .. .. .. .. .. .. .. .. .. .. .. .. .. .. .. .. .. .. .. .. .. 19 
.. 18 .. 17 .. 16 .. 15 .. .. .. .. .. .. .. .. .. .. .. .. .. .. .. .. .. .. .. .. .. .. 
.. .. .. .. .. .. .. .. .. .. .. .. .. .. .. .. .. .. .. .. .. .. .. .. .. .. .. .. .. .. 
.. .. .. .. .. .. .. .. .. .. .. .. .. .. .. .. .. .. .. .. .. .. .. .. .. .. .. .. .. .. 
.. .. .. .. .. .. .. .. .. .. .. .. .. .. .. .. .. .. .. .. .. .. .. .. .. .. .. .. .. .. 
.. .. .. .. .. .. .. .. .. .. .. .. .. .. .. .. .. 
! End
