! Simple
! Song 0
146 29 .. .. .. .. 41 .. .. .. .. 29 .. .. .. .. 41 .. .. .. .. 29 .. .. .. .. 41 .. .. .. 
.. 29 .. .. .. .. 41 .. .. .. .. .. .. .. .. .. 53 .. .. .. .. 41 .. .. .. .. 53 .. .. .. 
.. 41 .. .. .. .. 53 .. .. .. .. 41 .. .. .. .. 53 .. .. .. .. .. .. .. .. .. 65 .. .. .. 
.. 53 .. .. .. .. 65 .. .. .. .. 53 .. .. .. .. 65 .. .. .. .. 53 .. .. .. .. 65 .. .. .. 
.. 41 .. .. .. .. 53 .. .. .. .. 41 .. .. .. .. 53 .. .. .. .. 41 .. .. .. .. 53 .. .. .. 
.. 41 .. .. .. .. 53 .. .. .. .. 29 .. .. .. .. 41 .. .. .. .. 29 .. .. .. .. 41 .. .. .. 
.. 29 .. .. .. .. 41 .. .. .. .. 29 .. .. .. .. 41 .. .. .. .. 39 .. .. .. .. 51 .. .. .. 
.. 39 .. .. .. .. 51 .. .. .. .. 39 .. .. .. .. 51 .. .. .. .. 39 .. .. .. .. 51 .. .. .. 
.. .. .. .. .. .. 63 .. .. .. .. 51 .. .. .. .. 63 .. .. .. .. 51 .. .. .. .. 63 .. .. .. 
.. 51 .. .. .. .. 63 .. .. .. .. 39 .. .. .. .. 51 .. .. .. .. 39 .. .. .. .. 51 .. .. .. 
.. 39 .. .. .. .. 51 .. .. .. .. 39 .. .. .. .. 51 .. .. .. .. 29 .. .. .. .. 41 .. .. .. 
.. 29 .. .. .. .. 41 .. .. .. .. 29 .. .. .. .. 41 .. .. .. .. 29 .. .. .. .. 41 .. .. .. 
.. .. .. .. .. .. 53 .. .. .. .. 41 .. .. .. .. 53 .. .. .. .. 41 .. .. .. .. 53 .. .. .. 
.. 41 .. .. .. .. 53 .. .. .. .. .. .. .. .. .. 65 .. .. .. .. 53 .. .. .. .. 65 .. .. .. 
.. 53 .. .. .. .. 65 .. .. .. .. 53 .. .. .. .. 65 .. .. .. .. 41 .. .. .. .. 53 .. .. .. 
.. 41 .. .. .. .. 53 .. .. .. .. 41 .. .. .. .. 53 .. .. .. .. 41 .. .. .. .. 53 .. .. .. 
.. 29 .. .. .. .. 41 .. .. .. .. 29 .. .. .. .. 41 .. .. .. .. 29 .. .. .. .. 41 .. .. .. 
.. 29 .. .. .. .. 41 .. .. .. .. 39 .. .. .. .. 51 .. .. .. .. 39 .. .. .. .. 51 .. .. .. 
.. 39 .. .. .. .. 51 .. .. .. .. 39 .. .. .. .. 51 .. .. .. .. .. .. .. .. .. 63 .. .. .. 
.. 51 .. .. .. .. 63 .. .. .. .. 51 .. .. .. .. 63 .. .. .. .. 51 .. .. .. .. 63 .. .. .. 
.. 39 .. .. .. .. 51 .. .. .. .. 39 .. .. .. .. 51 .. .. .. .. 39 .. .. .. .. 51 .. .. .. 
.. 39 .. .. .. .. 51 .. .. .. .. 29 .. .. .. .. 41 .. .. .. .. 29 .. .. .. .. 41 .. .. .. 
.. 34 .. .. .. .. 46 .. .. .. .. 34 .. .. .. .. 46 .. .. .. .. 41 .. .. .. .. 53 .. .. .. 
.. 41 .. .. .. .. 53 .. .. .. .. 46 .. .. .. .. 58 .. .. .. .. 46 .. .. .. .. 58 .. .. .. 
.. 53 .. .. .. .. 65 .. .. .. .. 53 .. .. .. .. 65 .. .. .. .. 46 .. .. .. .. 58 .. .. .. 
.. 46 .. .. .. .. 58 .. .. .. .. 41 .. .. .. .. 53 .. .. .. .. 41 .. .. .. .. 53 .. .. .. 
.. 34 .. .. .. .. 46 .. .. .. .. 34 .. .. .. .. 46 .. .. .. .. 29 .. .. .. .. 41 .. .. .. 
.. 29 .. .. .. .. 41 .. .. .. .. 34 .. .. .. .. 46 .. .. .. .. 34 .. .. .. .. 46 .. .. .. 
.. 39 .. .. .. .. 51 .. .. .. .. 39 .. .. .. .. 51 .. .. .. .. 46 .. .. .. .. 58 .. .. .. 
.. 46 .. .. .. .. 58 .. .. .. .. 51 .. .. .. .. 63 .. .. .. .. 51 .. .. .. .. 63 .. .. .. 
.. 46 .. .. .. .. 58 .. .. .. .. 46 .. .. .. .. 58 .. .. .. .. 39 .. .. .. .. 51 .. .. .. 
.. 39 .. .. .. .. 51 .. .. .. .. 34 .. .. .. .. 46 .. .. .. .. 34 .. .. .. .. 46 .. .. .. 
.. 29 .. .. .. .. 41 .. .. .. .. 29 .. .. .. .. 41 .. .. .. .. 34 .. .. .. .. 46 .. .. .. 
.. 34 .. .. .. .. 46 .. .. .. .. 41 .. .. .. .. 53 .. .. .. .. 41 .. .. .. .. 53 .. .. .. 
.. 46 .. .. .. .. 58 .. .. .. .. 46 .. .. .. .. 58 .. .. .. .. 53 .. .. .. .. 65 .. .. .. 
.. 53 .. .. .. .. 65 .. .. .. .. 46 .. .. .. .. 58 .. .. .. .. 46 .. .. .. .. 58 .. .. .. 
.. 41 .. .. .. .. 53 .. .. .. .. 41 .. .. .. .. 53 .. .. .. .. 34 .. .. .. .. 46 .. .. .. 
.. 34 .. .. .. .. 46 .. .. .. .. 29 .. .. .. .. 41 .. .. .. .. 29 .. .. .. .. 41 .. .. .. 
.. 34 .. .. .. .. 46 .. .. .. .. 34 .. .. .. .. 46 .. .. .. .. 39 .. .. .. .. 51 .. .. .. 
.. 39 .. .. .. .. 51 .. .. .. .. 46 .. .. .. .. 58 .. .. .. .. 46 .. .. .. .. 58 .. .. .. 
.. 51 .. .. .. .. 63 .. .. .. .. 51 .. .. .. .. 63 .. .. .. .. 46 .. .. .. .. 58 .. .. .. 
.. 46 .. .. .. .. 58 .. .. .. .. 39 .. .. .. .. 51 .. .. .. .. 39 .. .. .. .. 51 .. .. .. 
.. 34 .. .. .. .. 46 .. .. .. .. 34 .. .. .. .. 46 .. .. .. .. 29 .. .. .. .. 41 .. .. .. 
.. 29 .. .. .. .. 41 .. .. .. .. 34 .. .. .. .. 46 .. .. .. .. 34 .. .. .. .. 46 .. .. .. 
.. 41 .. .. .. .. 53 .. .. .. .. 41 .. .. .. .. 53 .. .. .. .. 46 .. .. .. .. 58 .. .. .. 
.. 46 .. .. .. .. 58 .. .. .. .. 53 .. .. .. .. 65 .. .. .. .. 53 .. .. .. .. 65 .. .. .. 
.. 46 .. .. .. .. 58 .. .. .. .. 46 .. .. .. .. 58 .. .. .. .. 41 .. .. .. .. 53 .. .. .. 
.. 41 .. .. .. .. 53 .. .. .. .. 34 .. .. .. .. 46 .. .. .. .. 34 .. .. .. .. 46 .. .. .. 
.. 29 .. .. .. .. 41 .. .. .. .. 29 .. .. .. .. 41 .. .. .. .. 34 .. .. .. .. 46 .. .. .. 
.. 34 .. .. .. .. 46 .. .. .. .. 39 .. .. .. .. 51 .. .. .. .. 39 .. .. .. .. 51 .. .. .. 
.. 46 .. .. .. .. 58 .. .. .. .. 46 .. .. .. .. 58 .. .. .. .. 51 .. .. .. .. 63 .. .. .. 
.. 51 .. .. .. .. 63 .. .. .. .. 46 .. .. .. .. 58 .. .. .. .. 46 .. .. .. .. 58 .. .. .. 
.. 39 .. .. .. .. 51 .. .. .. .. 39 .. .. .. .. 51 .. .. .. .. 34 .. .. .. .. 46 .. .. .. 
.. 34 .. .. .. .. 46 .. .. .. .. 29 .. .. .. .. 41 .. .. .. .. 29 .. .. .. .. 41 .. .. .. 
.. 34 .. .. .. .. 46 .. .. .. .. 34 .. .. .. .. 46 .. .. .. .. 41 .. .. .. .. 53 .. .. .. 
.. 41 .. .. .. .. 53 .. .. .. .. 46 .. .. .. .. 58 .. .. .. .. 46 .. .. .. .. 58 .. .. .. 
.. 53 .. .. .. .. 65 .. .. .. .. 53 .. .. .. .. 65 .. .. .. .. 46 .. .. .. .. 58 .. .. .. 
.. 46 .. .. .. .. 58 .. .. .. .. 41 .. .. .. .. 53 .. .. .. .. 41 .. .. .. .. 53 .. .. .. 
.. 34 .. .. .. .. 46 .. .. .. .. 34 .. .. .. .. 46 .. .. .. .. 29 .. .. .. .. 41 .. .. .. 
.. 29 .. .. .. .. 41 .. .. .. .. 34 .. .. .. .. 46 .. .. .. .. 34 .. .. .. .. 46 .. .. .. 
.. 39 .. .. .. .. 51 .. .. .. .. 39 .. .. .. .. 51 .. .. .. .. 46 .. .. .. .. 58 .. .. .. 
.. 46 .. .. .. .. 58 .. .. .. .. 51 .. .. .. .. 63 .. .. .. .. 51 .. .. .. .. 63 .. .. .. 
.. 46 .. .. .. .. 58 .. .. .. .. 46 .. .. .. .. 58 .. .. .. .. 39 .. .. .. .. 51 .. .. .. 
.. 39 .. .. .. .. 51 .. .. .. .. 34 .. .. .. .. 46 .. .. .. .. 34 .. .. .. .. 46 .. .. .. 
.. 29 .. .. .. .. 41 .. .. .. .. 29 .. .. .. .. 41 .. .. .. .. 34 .. .. .. .. 46 .. .. .. 
.. 34 .. .. .. .. 46 .. .. .. .. 41 .. .. .. .. 53 .. .. .. .. 41 .. .. .. .. 53 .. .. .. 
.. 46 .. .. .. .. 58 .. .. .. .. 46 .. .. .. .. 58 .. .. .. .. 53 .. .. .. .. 65 .. .. .. 
.. 53 .. .. .. .. 65 .. .. .. .. 46 .. .. .. .. 58 .. .. .. .. 46 .. .. .. .. 58 .. .. .. 
.. 41 .. .. .. .. 53 .. .. .. .. 41 .. .. .. .. 53 .. .. .. .. 34 .. .. .. .. 46 .. .. .. 
.. 34 .. .. .. .. 46 .. .. .. .. 29 .. .. .. .. 41 .. .. .. .. 29 .. .. .. .. 41 .. .. .. 
.. 34 .. .. .. .. 46 .. .. .. .. 34 .. .. .. .. 46 .. .. .. .. 39 .. .. .. .. 51 .. .. .. 
.. 39 .. .. .. .. 51 .. .. .. .. 46 .. .. .. .. 58 .. .. .. .. 46 .. .. .. .. 58 .. .. .. 
.. 51 .. .. .. .. 63 .. .. .. .. 51 .. .. .. .. 63 .. .. .. .. 46 .. .. .. .. 58 .. .. .. 
.. 46 .. .. .. .. 58 .. .. .. .. 39 .. .. .. .. 51 .. .. .. .. 39 .. .. .. .. 51 .. .. .. 
.. 34 .. .. .. .. 46 .. .. .. .. 34 .. .. .. .. 46 .. .. .. .. 29 .. .. .. .. 41 .. .. .. 
.. 29 .. .. .. .. 41 .. .. .. .. 34 .. .. .. .. 46 .. .. .. .. 34 .. .. .. .. 46 .. .. .. 
.. 41 .. .. .. .. 53 .. .. .. .. 41 .. .. .. .. 53 .. .. .. .. 46 .. .. .. .. 58 .. .. .. 
.. 46 .. .. .. .. 58 .. .. .. .. 53 .. .. .. .. 65 .. .. .. .. 53 .. .. .. .. 65 .. .. .. 
.. 46 .. .. .. .. 58 .. .. .. .. 46 .. .. .. .. 58 .. .. .. .. 41 .. .. .. .. 53 .. .. .. 
.. 41 .. .. .. .. 53 .. .. .. .. 34 .. .. .. .. 46 .. .. .. .. 34 .. .. .. .. 46 .. .. .. 
.. 29 .. .. .. .. 41 .. .. .. .. 29 .. .. .. .. 41 .. .. .. .. 34 .. .. .. .. 46 .. .. .. 
.. 34 .. .. .. .. 46 .. .. .. .. 39 .. .. .. .. 51 .. .. .. .. 39 .. .. .. .. 51 .. .. .. 
.. 46 .. .. .. .. 58 .. .. .. .. 46 .. .. .. .. 58 .. .. .. .. 51 .. .. .. .. 63 .. .. .. 
.. 51 .. .. .. .. 63 .. .. .. .. 46 .. .. .. .. 58 .. .. .. .. 46 .. .. .. .. 58 .. .. .. 
.. 39 .. .. .. .. 51 .. .. .. .. 39 .. .. .. .. 51 .. .. .. .. 34 .. .. .. .. 46 .. .. .. 
.. 34 .. .. .. .. 46 .. .. .. .. 29 .. .. .. .. 41 .. .. .. .. 29 .. .. .. .. 41 .. .. .. 
.. 34 .. .. .. .. 46 .. .. .. .. 34 .. .. .. .. 46 .. .. .. .. 34 .. .. .. .. 46 .. .. .. 
.. 34 .. .. .. .. 46 .. .. .. .. .. .. .. .. .. 58 .. .. .. .. 46 .. .. .. .. 58 .. .. .. 
.. 46 .. .. .. .. 58 .. .. .. .. 46 .. .. .. .. 58 .. .. .. .. 46 .. .. .. .. 58 .. .. .. 
.. 46 .. .. .. .. 58 .. .. .. .. 46 .. .. .. .. 58 .. .. .. .. 46 .. .. .. .. 58 .. .. .. 
.. 34 .. .. .. .. 46 .. .. .. .. 34 .. .. .. .. 46 .. .. .. .. 29 .. .. .. .. 41 .. .. .. 
.. 29 .. .. .. .. 41 .. .. .. .. 29 .. .. .. .. 41 .. .. .. .. 29 .. .. .. .. 41 .. .. .. 
.. 39 .. .. .. .. 51 .. .. .. .. 39 .. .. .. .. 51 .. .. .. .. 39 .. .. .. .. 51 .. .. .. 
.. 39 .. .. .. .. 51 .. .. .. .. .. .. .. .. .. 63 .. .. .. .. 51 .. .. .. .. 63 .. .. .. 
.. 51 .. .. .. .. 63 .. .. .. .. 51 .. .. .. .. 63 .. .. .. .. 39 .. .. .. .. 51 .. .. .. 
.. 39 .. .. .. .. 51 .. .. .. .. 39 .. .. .. .. 51 .. .. .. .. 39 .. .. .. .. 51 .. .. .. 
.. 29 .. .. .. .. 41 .. .. .. .. 29 .. .. .. .. 41 .. .. .. .. 29 .. .. .. .. 41 .. .. .. 
.. 29 .. .. .. .. 41 .. .. .. .. .. .. .. .. .. 53 .. .. .. .. 41 .. .. .. .. 53 .. .. .. 
.. 41 .. .. .. .. 53 .. .. .. .. 41 .. .. .. .. 53 .. .. .. .. .. .. .. .. .. 65 .. .. .. 
.. 53 .. .. .. .. 65 .. .. .. .. 53 .. .. .. .. 65 .. .. .. .. 53 .. .. .. .. 65 .. .. .. 
.. 41 .. .. .. .. 53 .. .. .. .. 41 .. .. .. .. 53 .. .. .. .. 41 .. .. .. .. 53 .. .. .. 
.. 41 .. .. .. .. 53 .. .. .. .. 29 .. .. .. .. 41 .. .. .. .. 29 .. .. .. .. 41 .. .. .. 
.. 29 .. .. .. .. 41 .. .. .. .. 29 .. .. .. .. 41 .. .. .. .. 39 .. .. .. .. 51 .. .. .. 
.. 39 .. .. .. .. 51 .. .. .. .. 39 .. .. .. .. 51 .. .. .. .. 39 .. .. .. .. 51 .. .. .. 
.. .. .. .. .. .. 63 .. .. .. .. 51 .. .. .. .. 63 .. .. .. .. 51 .. .. .. .. 63 .. .. .. 
.. 51 .. .. .. .. 63 .. .. .. .. 20 .. .. .. .. 32 .. .. .. .. 20 .. .. .. .. 32 .. .. .. 
.. 20 .. .. .. .. 32 .. .. .. .. 20 .. .. .. .. 32 .. .. .. .. 34 .. .. .. .. 46 .. .. .. 
.. 34 .. .. .. .. 46 .. .. .. .. 34 .. .. .. .. 46 .. .. .. .. 34 .. .. .. .. 46 .. .. .. 
.. 41 .. .. 46 .. 46 50 .. .. 53 .. .. 50 .. .. 46 .. .. 41 .. .. 46 .. .. 50 .. .. 53 .. 
.. 50 .. .. 46 .. .. 41 .. .. 46 .. .. 50 .. .. 53 .. .. 50 .. .. 46 .. .. 41 .. .. 46 .. 
.. 50 .. .. 53 .. .. 50 .. .. 46 .. .. 41 .. .. 46 .. .. 50 .. .. 53 .. .. 50 .. .. 46 .. 
.. 41 .. .. 46 .. .. 50 .. .. 53 .. .. 50 .. .. 46 .. .. 41 .. .. 46 .. .. 50 .. .. 53 .. 
.. 41 .. .. 44 .. .. 48 .. .. 51 .. .. 48 .. .. 44 .. .. 41 .. .. 44 .. .. 48 .. .. 51 .. 
.. 48 .. .. 44 .. .. 41 .. .. 44 .. .. 48 .. .. 51 .. .. 48 .. .. 44 .. .. 41 .. .. 44 .. 
.. 48 .. .. 51 .. .. 48 .. .. 44 .. .. 41 .. .. 44 .. .. 48 .. .. 51 .. .. 48 .. .. 44 .. 
.. 20 .. .. .. .. 32 .. .. .. .. 20 .. .. .. .. 32 .. .. .. .. 20 .. .. .. .. 32 .. .. .. 
.. 20 .. .. .. .. 32 .. .. .. .. 20 .. .. .. .. 32 .. .. .. .. 20 .. .. .. .. 32 .. .. .. 
.. 20 .. .. .. .. 32 .. .. .. .. 34 .. .. .. .. 46 .. .. .. .. 34 .. .. .. .. 46 .. .. .. 
.. 34 .. .. .. .. 46 .. .. .. .. 34 .. .. .. .. 46 .. .. .. .. 41 .. .. 46 .. 46 50 .. .. 
53 .. .. 50 .. .. 46 .. .. 41 .. .. 46 .. .. 50 .. .. 53 .. .. 50 .. .. 46 .. .. 41 .. .. 
46 .. .. 50 .. .. 53 .. .. 50 .. .. 46 .. .. 41 .. .. 46 .. .. 50 .. .. 53 .. .. 50 .. .. 
46 .. .. 41 .. .. 46 .. .. 50 .. .. 53 .. .. 50 .. .. 46 .. .. 41 .. .. 46 .. .. 50 .. .. 
53 .. .. 50 .. .. 46 .. .. 41 .. .. 46 .. .. 50 .. .. 53 .. .. 41 .. .. 44 .. .. 48 .. .. 
51 .. .. 48 .. .. 44 .. .. 41 .. .. 44 .. .. 48 .. .. 51 .. .. 48 .. .. 44 .. .. 41 .. .. 
44 .. .. 48 .. .. 51 .. .. 48 .. .. 44 .. .. 41 .. .. 44 .. .. 48 .. .. 51 .. .. 48 .. .. 
44 .. .. 41 .. .. 44 .. .. 48 .. .. 51 .. .. 48 .. .. 44 .. .. 20 .. .. .. .. 32 .. .. .. 
.. 20 .. .. .. .. 32 .. .. .. .. 20 .. .. .. .. 32 .. .. .. .. 20 .. .. .. .. 32 .. .. .. 
.. 20 .. .. .. .. 32 .. .. .. .. 20 .. .. .. .. 32 .. .. .. .. 20 .. .. .. .. 32 .. .. .. 
.. 29 .. .. .. .. 41 .. .. .. .. 29 .. .. .. .. 41 .. .. .. .. 34 .. .. .. .. 46 .. .. .. 
.. 34 .. .. .. .. 46 .. .. .. .. 41 .. .. .. .. 53 .. .. .. .. 41 .. .. .. .. 53 .. .. .. 
.. 46 .. .. .. .. 58 .. .. .. .. 46 .. .. .. .. 58 .. .. .. .. 53 .. .. .. .. 65 .. .. .. 
.. 53 .. .. .. .. 65 .. .. .. .. 53 .. .. .. .. 65 .. .. .. .. 53 .. .. .. .. 65 .. .. .. 
.. 41 .. .. .. .. 53 .. .. .. .. 41 .. .. .. .. 53 .. .. .. .. 41 .. .. .. .. 53 .. .. .. 
.. 41 .. .. .. .. 53 .. .. .. .. 29 .. .. .. .. 41 .. .. .. .. 29 .. .. .. .. 41 .. .. .. 
.. 29 .. .. .. .. 41 .. .. .. .. 29 .. .. .. .. 41 .. .. .. .. 39 .. .. .. .. 51 .. .. .. 
.. 39 .. .. .. .. 51 .. .. .. .. 39 .. .. .. .. 51 .. .. .. .. 39 .. .. .. .. 51 .. .. .. 
.. .. .. .. .. .. 63 .. .. .. .. 51 .. .. .. .. 63 .. .. .. .. 51 .. .. .. .. 63 .. .. .. 
.. 51 .. .. .. .. 63 .. .. .. .. 39 .. .. .. .. 51 .. .. .. .. 39 .. .. .. .. 51 .. .. .. 
.. 39 .. .. .. .. 51 .. .. .. .. 39 .. .. .. .. 51 .. .. .. .. 29 .. .. .. .. 41 .. .. .. 
.. 29 .. .. .. .. 41 .. .. .. .. 29 .. .. .. .. 41 .. .. .. .. 29 .. .. .. .. 41 .. .. .. 
.. .. .. .. .. .. 53 .. .. .. .. 41 .. .. .. .. 53 .. .. .. .. 41 .. .. .. .. 53 .. .. .. 
.. 41 .. .. .. .. 53 .. .. .. .. .. .. .. .. .. 65 .. .. .. .. 53 .. .. .. .. 65 .. .. .. 
.. 53 .. .. .. .. 65 .. .. .. .. 53 .. .. .. .. 65 .. .. .. .. 41 .. .. .. .. 53 .. .. .. 
.. 41 .. .. .. .. 53 .. .. .. .. 41 .. .. .. .. 53 .. .. .. .. 41 .. .. .. .. 53 .. .. .. 
.. 29 .. .. .. .. 41 .. .. .. .. 29 .. .. .. .. 41 .. .. .. .. 29 .. .. .. .. 41 .. .. .. 
.. 29 .. .. .. .. 41 .. .. .. .. 39 .. .. .. .. 51 .. .. .. .. 39 .. .. .. .. 51 .. .. .. 
.. 39 .. .. .. .. 51 .. .. .. .. 39 .. .. .. .. 51 .. .. .. .. .. .. .. .. .. 63 .. .. .. 
.. 51 .. .. .. .. 63 .. .. .. .. 51 .. .. .. .. 63 .. .. .. .. 51 .. .. .. .. 63 .. .. .. 
.. 39 .. .. .. .. 51 .. .. .. .. 39 .. .. .. .. 51 .. .. .. .. 39 .. .. .. .. 51 .. .. .. 
.. 39 .. .. .. .. 51 .. .. .. .. 29 .. .. .. .. 41 .. .. .. .. 29 .. .. .. .. 41 .. .. .. 
.. 34 .. .. .. .. 46 .. .. .. .. 34 .. .. .. .. 46 .. .. .. .. 41 .. .. .. .. 53 .. .. .. 
.. 41 .. .. .. .. 53 .. .. .. .. 46 .. .. .. .. 58 .. .. .. .. 46 .. .. .. .. 58 .. .. .. 
.. 53 .. .. .. .. 65 .. .. .. .. 53 .. .. .. .. 65 .. .. .. .. 46 .. .. .. .. 58 .. .. .. 
.. 46 .. .. .. .. 58 .. .. .. .. 41 .. .. .. .. 53 .. .. .. .. 41 .. .. .. .. 53 .. .. .. 
.. 34 .. .. .. .. 46 .. .. .. .. 34 .. .. .. .. 46 .. .. .. .. 29 .. .. .. .. 41 .. .. .. 
.. 29 .. .. .. .. 41 .. .. .. .. 34 .. .. .. .. 46 .. .. .. .. 34 .. .. .. .. 46 .. .. .. 
.. 39 .. .. .. .. 51 .. .. .. .. 39 .. .. .. .. 51 .. .. .. .. 46 .. .. .. .. 58 .. .. .. 
.. 46 .. .. .. .. 58 .. .. .. .. 51 .. .. .. .. 63 .. .. .. .. 51 .. .. .. .. 63 .. .. .. 
.. 46 .. .. .. .. 58 .. .. .. .. 46 .. .. .. .. 58 .. .. .. .. 39 .. .. .. .. 51 .. .. .. 
.. 39 .. .. .. .. 51 .. .. .. .. 34 .. .. .. .. 46 .. .. .. .. 34 .. .. .. .. 46 .. .. .. 
.. 29 .. .. .. .. 41 .. .. .. .. 29 .. .. .. .. 41 .. .. .. .. 34 .. .. .. .. 46 .. .. .. 
.. 34 .. .. .. .. 46 .. .. .. .. 41 .. .. .. .. 53 .. .. .. .. 41 .. .. .. .. 53 .. .. .. 
.. 46 .. .. .. .. 58 .. .. .. .. 46 .. .. .. .. 58 .. .. .. .. 53 .. .. .. .. 65 .. .. .. 
.. 53 .. .. .. .. 65 .. .. .. .. 46 .. .. .. .. 58 .. .. .. .. 46 .. .. .. .. 58 .. .. .. 
.. 41 .. .. .. .. 53 .. .. .. .. 41 .. .. .. .. 53 .. .. .. .. 34 .. .. .. .. 46 .. .. .. 
.. 34 .. .. .. .. 46 .. .. .. .. 29 .. .. .. .. 41 .. .. .. .. 29 .. .. .. .. 41 .. .. .. 
.. 34 .. .. .. .. 46 .. .. .. .. 34 .. .. .. .. 46 .. .. .. .. 39 .. .. .. .. 51 .. .. .. 
.. 39 .. .. .. .. 51 .. .. .. .. 46 .. .. .. .. 58 .. .. .. .. 46 .. .. .. .. 58 .. .. .. 
.. 51 .. .. .. .. 63 .. .. .. .. 51 .. .. .. .. 63 .. .. .. .. 46 .. .. .. .. 58 .. .. .. 
.. 46 .. .. .. .. 58 .. .. .. .. 39 .. .. .. .. 51 .. .. .. .. 39 .. .. .. .. 51 .. .. .. 
.. 34 .. .. .. .. 46 .. .. .. .. 34 .. .. .. .. 46 .. .. .. .. 29 .. .. .. .. 41 .. .. .. 
.. 29 .. .. .. .. 41 .. .. .. .. 34 .. .. .. .. 46 .. .. .. .. 34 .. .. .. .. 46 .. .. .. 
.. 41 .. .. .. .. 53 .. .. .. .. 41 .. .. .. .. 53 .. .. .. .. 46 .. .. .. .. 58 .. .. .. 
.. 46 .. .. .. .. 58 .. .. .. .. 53 .. .. .. .. 65 .. .. .. .. 53 .. .. .. .. 65 .. .. .. 
.. 46 .. .. .. .. 58 .. .. .. .. 46 .. .. .. .. 58 .. .. .. .. 41 .. .. .. .. 53 .. .. .. 
.. 41 .. .. .. .. 53 .. .. .. .. 34 .. .. .. .. 46 .. .. .. .. 34 .. .. .. .. 46 .. .. .. 
.. 29 .. .. .. .. 41 .. .. .. .. 29 .. .. .. .. 41 .. .. .. .. 34 .. .. .. .. 46 .. .. .. 
.. 34 .. .. .. .. 46 .. .. .. .. 39 .. .. .. .. 51 .. .. .. .. 39 .. .. .. .. 51 .. .. .. 
.. 46 .. .. .. .. 58 .. .. .. .. 46 .. .. .. .. 58 .. .. .. .. 51 .. .. .. .. 63 .. .. .. 
.. 51 .. .. .. .. 63 .. .. .. .. 46 .. .. .. .. 58 .. .. .. .. 46 .. .. .. .. 58 .. .. .. 
.. 39 .. .. .. .. 51 .. .. .. .. 39 .. .. .. .. 51 .. .. .. .. 34 .. .. .. .. 46 .. .. .. 
.. 34 .. .. .. .. 46 .. .. .. .. 29 .. .. .. .. 41 .. .. .. .. 29 .. .. .. .. 41 .. .. .. 
.. 34 .. .. .. .. 46 .. .. .. .. 34 .. .. .. .. 46 .. .. .. .. 41 .. .. .. .. 53 .. .. .. 
.. 41 .. .. .. .. 53 .. .. .. .. 46 .. .. .. .. 58 .. .. .. .. 46 .. .. .. .. 58 .. .. .. 
.. 53 .. .. .. .. 65 .. .. .. .. 53 .. .. .. .. 65 .. .. .. .. 46 .. .. .. .. 58 .. .. .. 
.. 46 .. .. .. .. 58 .. .. .. .. 41 .. .. .. .. 53 .. .. .. .. 41 .. .. .. .. 53 .. .. .. 
.. 34 .. .. .. .. 46 .. .. .. .. 34 .. .. .. .. 46 .. .. .. .. 29 .. .. .. .. 41 .. .. .. 
.. 29 .. .. .. .. 41 .. .. .. .. 34 .. .. .. .. 46 .. .. .. .. 34 .. .. .. .. 46 .. .. .. 
.. 39 .. .. .. .. 51 .. .. .. .. 39 .. .. .. .. 51 .. .. .. .. 46 .. .. .. .. 58 .. .. .. 
.. 46 .. .. .. .. 58 .. .. .. .. 51 .. .. .. .. 63 .. .. .. .. 51 .. .. .. .. 63 .. .. .. 
.. 46 .. .. .. .. 58 .. .. .. .. 46 .. .. .. .. 58 .. .. .. .. 39 .. .. .. .. 51 .. .. .. 
.. 39 .. .. .. .. 51 .. .. .. .. 34 .. .. .. .. 46 .. .. .. .. 34 .. .. .. .. 46 .. .. .. 
.. 29 .. .. .. .. 41 .. .. .. .. 29 .. .. .. .. 41 .. .. .. .. 34 .. .. .. .. 46 .. .. .. 
.. 34 .. .. .. .. 46 .. .. .. .. 41 .. .. .. .. 53 .. .. .. .. 41 .. .. .. .. 53 .. .. .. 
.. 46 .. .. .. .. 58 .. .. .. .. 46 .. .. .. .. 58 .. .. .. .. 53 .. .. .. .. 65 .. .. .. 
.. 53 .. .. .. .. 65 .. .. .. .. 46 .. .. .. .. 58 .. .. .. .. 46 .. .. .. .. 58 .. .. .. 
.. 41 .. .. .. .. 53 .. .. .. .. 41 .. .. .. .. 53 .. .. .. .. 34 .. .. .. .. 46 .. .. .. 
.. 34 .. .. .. .. 46 .. .. .. .. 29 .. .. .. .. 41 .. .. .. .. 29 .. .. .. .. 41 .. .. .. 
.. 34 .. .. .. .. 46 .. .. .. .. 34 .. .. .. .. 46 .. .. .. .. 39 .. .. .. .. 51 .. .. .. 
.. 39 .. .. .. .. 51 .. .. .. .. 46 .. .. .. .. 58 .. .. .. .. 46 .. .. .. .. 58 .. .. .. 
.. 51 .. .. .. .. 63 .. .. .. .. 51 .. .. .. .. 63 .. .. .. .. 46 .. .. .. .. 58 .. .. .. 
.. 46 .. .. .. .. 58 .. .. .. .. 39 .. .. .. .. 51 .. .. .. .. 39 .. .. .. .. 51 .. .. .. 
.. 34 .. .. .. .. 46 .. .. .. .. 34 .. .. .. .. 46 .. .. .. .. 29 .. .. .. .. 41 .. .. .. 
.. 29 .. .. .. .. 41 .. .. .. .. 34 .. .. .. .. 46 .. .. .. .. 34 .. .. .. .. 46 .. .. .. 
.. 41 .. .. .. .. 53 .. .. .. .. 41 .. .. .. .. 53 .. .. .. .. 46 .. .. .. .. 58 .. .. .. 
.. 46 .. .. .. .. 58 .. .. .. .. 53 .. .. .. .. 65 .. .. .. .. 53 .. .. .. .. 65 .. .. .. 
.. 46 .. .. .. .. 58 .. .. .. .. 46 .. .. .. .. 58 .. .. .. .. 41 .. .. .. .. 53 .. .. .. 
.. 41 .. .. .. .. 53 .. .. .. .. 34 .. .. .. .. 46 .. .. .. .. 34 .. .. .. .. 46 .. .. .. 
.. 29 .. .. .. .. 41 .. .. .. .. 29 .. .. .. .. 41 .. .. .. .. 34 .. .. .. .. 46 .. .. .. 
.. 34 .. .. .. .. 46 .. .. .. .. 39 .. .. .. .. 51 .. .. .. .. 39 .. .. .. .. 51 .. .. .. 
.. 46 .. .. .. .. 58 .. .. .. .. 46 .. .. .. .. 58 .. .. .. .. 51 .. .. .. .. 63 .. .. .. 
.. 51 .. .. .. .. 63 .. .. .. .. 46 .. .. .. .. 58 .. .. .. .. 46 .. .. .. .. 58 .. .. .. 
.. 39 .. .. .. .. 51 .. .. .. .. 39 .. .. .. .. 51 .. .. .. .. 34 .. .. .. .. 46 .. .. .. 
.. 34 .. .. .. .. 46 .. .. .. .. 29 .. .. .. .. 41 .. .. .. .. 29 .. .. .. .. 41 .. .. .. 
.. 34 .. .. .. .. 46 .. .. .. .. 34 .. .. .. .. 46 .. .. .. .. 34 .. .. .. .. 46 .. .. .. 
.. 34 .. .. .. .. 46 .. .. .. .. .. .. .. .. .. 58 .. .. .. .. 46 .. .. .. .. 58 .. .. .. 
.. 46 .. .. .. .. 58 .. .. .. .. 46 .. .. .. .. 58 .. .. .. .. 46 .. .. .. .. 58 .. .. .. 
.. 46 .. .. .. .. 58 .. .. .. .. 46 .. .. .. .. 58 .. .. .. .. 46 .. .. .. .. 58 .. .. .. 
.. 34 .. .. .. .. 46 .. .. .. .. 34 .. .. .. .. 46 .. .. .. .. 29 .. .. .. .. 41 .. .. .. 
.. 29 .. .. .. .. 41 .. .. .. .. 29 .. .. .. .. 41 .. .. .. .. 29 .. .. .. .. 41 .. .. .. 
.. 39 .. .. .. .. 51 .. .. .. .. 39 .. .. .. .. 51 .. .. .. .. 39 .. .. .. .. 51 .. .. .. 
.. 39 .. .. .. .. 51 .. .. .. .. .. .. .. .. .. 63 .. .. .. .. 51 .. .. .. .. 63 .. .. .. 
.. 51 .. .. .. .. 63 .. .. .. .. 51 .. .. .. .. 63 .. .. .. .. 39 .. .. .. .. 51 .. .. .. 
.. 39 .. .. .. .. 51 .. .. .. .. 39 .. .. .. .. 51 .. .. .. .. 39 .. .. .. .. 51 .. .. .. 
.. 29 .. .. .. .. 41 .. .. .. .. 29 .. .. .. .. 41 .. .. .. .. 29 .. .. .. .. 41 .. .. .. 
.. 29 .. .. .. .. 41 .. .. .. .. .. .. .. .. .. 53 .. .. .. .. 41 .. .. .. .. 53 .. .. .. 
.. 41 .. .. .. .. 53 .. .. .. .. 41 .. .. .. .. 53 .. .. .. .. .. .. .. .. .. 65 .. .. .. 
.. 53 .. .. .. .. 65 .. .. .. .. 53 .. .. .. .. 65 .. .. .. .. 53 .. .. .. .. 65 .. .. .. 
.. 41 .. .. .. .. 53 .. .. .. .. 41 .. .. .. .. 53 .. .. .. .. 41 .. .. .. .. 53 .. .. .. 
.. 41 .. .. .. .. 53 .. .. .. .. 29 .. .. .. .. 41 .. .. .. .. 29 .. .. .. .. 41 .. .. .. 
.. 29 .. .. .. .. 41 .. .. .. .. 29 .. .. .. .. 41 .. .. .. .. 39 .. .. .. .. 51 .. .. .. 
.. 39 .. .. .. .. 51 .. .. .. .. 39 .. .. .. .. 51 .. .. .. .. 39 .. .. .. .. 51 .. .. .. 
.. .. .. .. .. .. 63 .. .. .. .. 51 .. .. .. .. 63 .. .. .. .. 51 .. .. .. .. 63 .. .. .. 
.. 51 .. .. .. .. 63 .. .. .. .. 20 .. .. .. .. 32 .. .. .. .. 20 .. .. .. .. 32 .. .. .. 
.. 20 .. .. .. .. 32 .. .. .. .. 20 .. .. .. .. 32 .. .. .. .. 34 .. .. .. .. 46 .. .. .. 
.. 34 .. .. .. .. 46 .. .. .. .. 34 .. .. .. .. 46 .. .. .. .. 34 .. .. .. .. 46 .. .. .. 
.. 41 .. .. 46 .. .. 50 .. .. 53 .. .. 50 .. .. 46 .. .. 41 .. .. 46 .. .. 50 .. .. 53 .. 
.. 50 .. .. 46 .. .. 41 .. .. 46 .. .. 50 .. .. 53 .. .. 50 .. .. 46 .. .. 41 .. .. 46 .. 
.. 50 .. .. 53 .. .. 50 .. .. 46 .. .. 41 .. .. 46 .. .. 50 .. .. 53 .. .. 50 .. .. 
! Song 1
146 42 .. .. .. .. 54 .. .. .. .. 42 .. .. .. .. 54 .. .. .. .. 41 .. .. .. .. 53 .. .. .. 
.. 41 .. .. .. .. 53 .. .. .. .. 37 .. .. .. .. 49 .. .. .. .. 37 .. .. .. .. 49 .. .. .. 
.. 34 .. .. .. .. 46 .. .. .. .. 34 .. .. .. .. 46 .. .. .. .. 30 .. .. .. .. 42 .. .. .. 
.. 30 .. .. .. .. 42 .. .. .. .. 29 .. .. .. .. 41 .. .. .. .. 29 .. .. .. .. 41 .. .. .. 
.. 25 .. .. .. .. 37 .. .. .. .. 25 .. .. .. .. 37 .. .. .. .. 22 .. .. .. .. 34 .. .. .. 
.. 22 .. .. .. .. 34 .. .. .. .. 35 .. .. .. .. 47 .. .. .. .. 35 .. .. .. .. 47 .. .. .. 
.. 34 .. .. .. .. 46 .. .. .. .. 34 .. .. .. .. 46 .. .. .. .. 30 .. .. .. .. 42 .. .. .. 
.. 30 .. .. .. .. 42 .. .. .. .. 27 .. .. .. .. 39 .. .. .. .. 27 .. .. .. .. 39 .. .. .. 
.. 23 .. .. .. .. 35 .. .. .. .. 23 .. .. .. .. 35 .. .. .. .. 22 .. .. .. .. 34 .. .. .. 
.. 22 .. .. .. .. 34 .. .. .. .. 18 .. .. .. .. 30 .. .. .. .. 18 .. .. .. .. 30 .. .. .. 
.. 15 .. .. .. .. 27 .. .. .. .. 15 .. .. .. .. 27 .. .. .. .. 42 .. .. .. .. 54 .. .. .. 
.. 42 .. .. .. .. 54 .. .. .. .. 41 .. .. .. .. 53 .. .. .. .. 41 .. .. .. .. 53 .. .. .. 
.. 37 .. .. .. .. 49 .. .. .. .. 37 .. .. .. .. 49 .. .. .. .. 34 .. .. .. .. 46 .. .. .. 
.. 34 .. .. .. .. 46 .. .. .. .. 30 .. .. .. .. 42 .. .. .. .. 30 .. .. .. .. 42 .. .. .. 
.. 29 .. .. .. .. 41 .. .. .. .. 29 .. .. .. .. 41 .. .. .. .. 25 .. .. .. .. 37 .. .. .. 
.. 25 .. .. .. .. 37 .. .. .. .. 22 .. .. .. .. 34 .. .. .. .. 22 .. .. .. .. 34 .. .. .. 
.. 35 .. .. .. .. 47 .. .. .. .. 35 .. .. .. .. 47 .. .. .. .. 34 .. .. .. .. 46 .. .. .. 
.. 34 .. .. .. .. 46 .. .. .. .. 30 .. .. .. .. 42 .. .. .. .. 30 .. .. .. .. 42 .. .. .. 
.. 27 .. .. .. .. 39 .. .. .. .. 27 .. .. .. .. 39 .. .. .. .. 23 .. .. .. .. 35 .. .. .. 
.. 23 .. .. .. .. 35 .. .. .. .. 22 .. .. .. .. 34 .. .. .. .. 22 .. .. .. .. 34 .. .. .. 
.. 18 .. .. .. .. 30 .. .. .. .. 18 .. .. .. .. 30 .. .. .. .. 15 .. .. .. .. 27 .. .. .. 
.. 15 .. .. .. .. 27 .. .. .. .. 35 .. .. .. .. 47 .. .. .. .. 35 .. .. .. .. 47 .. .. .. 
.. 37 .. .. .. .. 49 .. .. .. .. 37 .. .. .. .. 49 .. .. .. .. 39 .. .. .. .. 51 .. .. .. 
.. 39 .. .. .. .. 51 .. .. .. .. 42 .. .. .. .. 54 .. .. .. .. 42 .. .. .. .. 54 .. .. .. 
.. 23 .. .. .. .. 35 .. .. .. .. 23 .. .. .. .. 35 .. .. .. .. 25 .. .. .. .. 37 .. .. .. 
.. 25 .. .. .. .. 37 .. .. .. .. 27 .. .. .. .. 39 .. .. .. .. 27 .. .. .. .. 39 .. .. .. 
.. 30 .. .. .. .. 42 .. .. .. .. 30 .. .. .. .. 42 .. .. .. .. 37 .. .. .. .. 49 .. .. .. 
.. 37 .. .. .. .. 49 .. .. .. .. 41 .. .. .. .. 53 .. .. .. .. 41 .. .. .. .. 53 .. .. .. 
.. 44 .. .. .. .. 56 .. .. .. .. 44 .. .. .. .. 56 .. .. .. .. 49 .. .. .. .. 61 .. .. .. 
.. 49 .. .. .. .. 61 .. .. .. .. 26 .. .. .. .. 38 .. .. .. .. 26 .. .. .. .. 38 .. .. .. 
.. 29 .. .. .. .. 41 .. .. .. .. 29 .. .. .. .. 41 .. .. .. .. 32 .. .. .. .. 44 .. .. .. 
.. 32 .. .. .. .. 44 .. .. .. .. 38 .. .. .. .. 50 .. .. .. .. 38 .. .. .. .. 50 .. .. .. 
.. 46 .. .. .. .. .. .. .. .. .. .. .. .. .. .. .. .. .. .. .. .. .. .. .. .. .. .. .. .. 
.. .. .. .. .. .. .. .. .. .. .. .. .. .. .. .. .. .. .. .. .. .. .. .. .. .. .. .. .. .. 
.. .. .. .. .. .. .. .. .. .. .. .. .. .. .. .. .. .. .. .. .. .. .. .. .. .. .. .. .. .. 
.. .. .. .. .. .. .. .. .. .. .. .. .. .. .. .. .. .. .. .. .. .. .. .. .. .. .. .. .. .. 
.. .. .. .. .. .. .. .. .. .. .. .. .. .. .. .. .. .. .. .. .. .. .. .. .. .. .. .. .. .. 
.. .. .. .. .. .. .. .. .. .. .. 47 .. .. .. .. .. .. .. .. .. .. .. .. .. .. .. .. .. .. 
.. .. .. .. .. .. .. .. .. .. .. .. .. .. .. .. .. .. 46 .. .. 47 .. .. .. .. .. 46 .. .. 
47 .. .. .. .. .. 46 .. .. 47 .. .. .. .. .. .. 46 .. 47 .. .. .. .. .. .. 46 .. .. 47 .. 
.. 42 .. .. .. .. .. .. .. .. .. .. .. .. .. .. .. .. .. .. .. .. .. .. .. .. .. .. .. .. 
.. .. .. .. .. .. .. .. .. .. .. .. .. .. .. .. .. .. .. .. .. .. .. .. .. .. .. .. .. .. 
.. 44 .. .. .. .. .. .. .. .. .. .. .. .. .. .. .. .. .. .. .. 46 .. .. .. .. .. .. .. .. 
.. 44 .. .. .. .. .. .. .. .. .. 46 .. .. .. .. .. .. .. .. .. .. .. .. .. .. .. .. .. .. 
.. .. .. .. .. .. .. .. .. .. .. .. .. .. .. .. .. .. .. .. .. .. .. .. .. .. .. .. .. .. 
.. .. .. .. .. .. .. .. .. .. .. .. .. .. .. .. .. .. .. .. .. .. .. .. .. .. .. .. .. .. 
.. .. .. .. .. .. .. .. .. .. .. .. .. .. .. .. .. .. .. .. .. .. .. .. .. .. .. .. .. .. 
.. .. .. .. .. .. .. .. .. .. .. .. .. .. .. .. .. .. .. .. .. .. .. .. .. .. .. .. .. .. 
.. 51 .. .. .. .. .. .. .. .. .. .. .. .. .. .. .. .. .. .. .. .. .. .. .. .. .. .. .. .. 
.. .. .. .. .. .. .. .. .. 50 51 .. .. .. .. .. .. .. 50 .. 51 .. .. .. .. .. .. 50 .. 51 
.. .. .. .. .. .. 50 .. 51 .. .. .. .. .. .. 50 .. 51 .. .. .. 47 .. .. .. .. .. .. .. .. 
.. .. .. .. .. .. .. .. .. .. .. .. .. .. .. .. .. .. .. .. .. .. .. .. .. .. .. .. 46 .. 
.. 47 .. .. .. .. .. 46 .. .. 47 .. .. .. .. .. 46 .. .. 47 .. 39 .. .. .. .. .. .. .. .. 
.. 41 .. .. .. .. .. .. .. .. .. 42 .. .. .. .. .. .. .. .. .. .. .. .. .. .. .. .. .. .. 
.. .. .. .. .. .. .. .. .. .. .. .. .. .. .. .. .. .. .. .. .. .. .. .. .. .. .. .. .. .. 
.. .. .. .. .. .. .. .. .. .. .. 39 .. .. .. .. .. .. .. .. .. 42 .. .. .. .. .. .. .. .. 
.. 47 .. .. .. .. .. .. .. .. .. .. .. .. .. .. .. .. .. .. .. .. .. .. .. .. .. .. .. .. 
.. 46 .. .. .. .. .. .. .. .. .. .. .. .. .. .. .. .. .. .. .. .. .. .. .. .. .. .. .. .. 
.. 42 .. .. .. .. .. .. .. .. .. .. .. .. .. .. .. .. .. .. .. 44 .. .. .. .. .. .. .. .. 
.. .. .. .. .. .. .. .. .. .. .. .. .. .. .. .. .. .. .. .. .. .. .. .. .. .. .. .. .. .. 
.. .. .. .. .. .. .. .. .. .. .. .. .. .. .. .. .. .. .. .. .. .. .. .. .. .. .. .. .. .. 
.. .. .. .. .. .. .. .. .. .. .. 38 .. .. .. .. .. .. .. .. .. .. .. .. .. .. .. .. .. .. 
.. .. .. .. .. .. .. .. .. .. .. .. .. .. .. .. .. .. .. .. .. 34 .. .. .. .. .. .. .. .. 
.. .. .. .. .. .. .. .. .. .. .. .. .. .. .. .. .. .. .. .. .. .. .. .. .. .. .. .. .. .. 
.. 27 .. .. .. .. .. .. .. .. .. .. .. .. .. .. .. .. .. .. .. .. .. .. .. .. .. .. .. .. 
.. .. .. .. .. .. .. .. .. .. .. .. .. .. .. .. .. .. .. .. .. .. .. .. .. .. .. .. .. .. 
.. .. .. .. .. .. .. .. .. .. .. .. .. .. .. .. .. .. .. .. .. .. .. .. .. .. .. .. .. .. 
.. .. .. .. .. .. .. .. .. .. .. .. .. .. .. .. .. .. .. .. .. .. .. .. .. .. .. .. .. .. 
.. .. .. .. .. .. .. .. .. .. .. .. .. .. .. .. .. .. .. .. .. .. .. .. .. .. .. .. .. .. 
.. .. .. .. .. .. .. .. .. .. .. 23 .. .. .. .. .. .. .. .. .. .. .. .. .. .. .. .. .. .. 
.. .. .. .. .. .. .. .. .. .. .. .. .. .. .. .. .. .. .. .. .. .. .. .. .. .. .. .. .. .. 
.. .. .. .. .. .. .. .. .. .. .. .. .. .. .. .. .. .. .. .. .. .. .. .. .. .. .. .. .. .. 
.. .. .. .. .. .. .. .. .. .. .. .. .. .. .. .. .. .. .. .. .. .. .. .. .. .. .. .. .. .. 
.. .. .. .. .. .. .. .. .. .. .. .. .. .. .. .. .. .. .. .. .. .. .. .. .. .. .. .. .. .. 
.. .. .. .. .. .. .. .. .. .. .. .. .. .. .. .. .. .. .. .. .. 27 .. .. .. .. .. .. .. .. 
.. .. .. .. .. .. .. .. .. .. .. .. .. .. .. .. .. .. .. .. .. .. .. .. .. .. .. .. .. .. 
.. .. .. .. .. .. .. .. .. .. .. .. .. .. .. .. .. .. .. .. .. .. .. .. .. .. .. .. .. .. 
.. .. .. .. .. .. .. .. .. .. .. .. .. .. .. .. .. .. .. .. .. .. .. .. .. .. .. .. .. .. 
.. .. .. .. .. .. .. .. .. .. .. .. .. .. .. .. .. .. .. .. .. .. .. .. .. .. .. .. .. .. 
.. .. .. .. .. .. .. .. .. .. .. .. .. .. .. .. .. .. .. .. .. .. .. .. .. .. .. .. .. .. 
.. 23 .. .. .. .. .. .. .. .. .. .. .. .. .. .. .. .. .. .. .. .. .. .. .. .. .. .. .. .. 
.. .. .. .. .. .. .. .. .. .. .. .. .. .. .. .. .. .. .. .. .. .. .. .. .. .. .. .. .. .. 
.. .. .. .. .. .. .. .. .. .. .. .. .. .. .. .. .. .. .. .. .. .. .. .. .. .. .. .. .. .. 
.. .. .. .. .. .. .. .. .. .. .. .. .. .. .. .. .. .. .. .. .. .. .. .. .. .. .. .. .. .. 
.. .. .. .. .. .. .. .. .. .. .. .. .. .. .. .. .. .. .. .. .. .. .. .. .. .. .. .. .. .. 
.. .. .. .. .. .. .. .. .. .. .. 27 .. .. .. .. .. .. .. .. .. .. .. .. .. .. .. .. .. .. 
.. .. .. .. .. .. .. .. .. .. .. .. .. .. .. .. .. .. .. .. .. .. .. .. .. .. .. .. .. .. 
.. .. .. .. .. .. .. .. .. .. .. .. .. .. .. .. .. .. .. .. .. .. .. .. .. .. .. .. .. .. 
.. .. .. .. .. .. .. .. .. .. .. .. .. .. .. .. .. .. .. .. .. .. .. .. .. .. .. .. .. .. 
.. .. .. .. .. .. .. .. .. .. .. .. .. .. .. .. .. .. .. .. .. .. .. .. .. .. .. .. .. .. 
.. .. .. .. .. .. .. .. .. .. .. .. .. .. .. .. .. .. .. .. .. 23 .. .. .. .. .. .. .. .. 
.. .. .. .. .. .. .. .. .. .. .. .. .. .. .. .. .. .. .. .. .. .. .. .. .. .. .. .. .. .. 
.. .. .. .. .. .. .. .. .. .. .. .. .. .. .. .. .. .. .. .. .. .. .. .. .. .. .. .. .. .. 
.. .. .. .. .. .. .. .. .. .. .. .. .. .. .. .. .. .. .. .. .. .. .. .. .. .. .. .. .. .. 
.. .. .. .. .. .. .. .. .. .. .. .. .. .. .. .. .. .. .. .. .. .. .. .. .. .. .. .. .. .. 
.. .. .. .. .. .. .. .. .. .. .. .. .. .. .. .. .. .. .. .. .. .. .. .. .. .. .. .. .. .. 
.. 27 .. .. .. .. .. .. .. .. .. .. .. .. .. .. .. .. .. .. .. .. .. .. .. .. .. .. .. .. 
.. .. .. .. .. .. .. .. .. .. .. .. .. .. .. .. .. .. .. .. .. .. .. .. .. .. .. .. .. .. 
.. .. .. .. .. .. .. .. .. .. .. .. .. .. .. .. .. .. .. .. .. .. .. .. .. .. .. .. .. .. 
.. .. .. .. .. .. .. .. .. .. .. .. .. .. .. .. .. .. .. .. .. .. .. .. .. .. .. .. .. .. 
.. .. .. .. .. .. .. .. .. .. .. .. .. .. .. .. .. .. .. .. .. .. .. .. .. .. .. .. .. .. 
.. .. .. .. .. .. .. .. .. .. .. 23 .. .. .. .. .. .. .. .. .. .. .. .. .. .. .. .. .. .. 
.. .. .. .. .. .. .. .. .. .. .. .. .. .. .. .. .. .. .. .. .. .. .. .. .. .. .. .. .. .. 
.. .. .. .. .. .. .. .. .. .. .. .. .. .. .. .. .. .. .. .. .. .. .. .. .. .. .. .. .. .. 
.. .. .. .. .. .. .. .. .. .. .. .. .. .. .. .. .. .. .. .. .. .. .. .. .. .. .. .. .. .. 
.. .. .. .. .. .. .. .. .. .. .. .. .. .. .. .. .. .. .. .. .. .. .. .. .. .. .. .. .. .. 
.. .. .. .. .. .. .. .. .. .. .. .. .. .. .. .. .. .. .. .. .. 42 .. .. .. .. 54 .. .. .. 
.. 42 .. .. .. .. 54 .. .. .. .. 41 .. .. .. .. 53 .. .. .. .. 41 .. .. .. .. 53 .. .. .. 
.. 37 .. .. .. .. 49 .. .. .. .. 37 .. .. .. .. 49 .. .. .. .. 34 .. .. .. .. 46 .. .. .. 
.. 34 .. .. .. .. 46 .. .. .. .. 30 .. .. .. .. 42 .. .. .. .. 30 .. .. .. .. 42 .. .. .. 
.. 29 .. .. .. .. 41 .. .. .. .. 29 .. .. .. .. 41 .. .. .. .. 25 .. .. .. .. 37 .. .. .. 
.. 25 .. .. .. .. 37 .. .. .. .. 22 .. .. .. .. 34 .. .. .. .. 22 .. .. .. .. 34 .. .. .. 
.. 35 .. .. .. .. 47 .. .. .. .. 35 .. .. .. .. 47 .. .. .. .. 34 .. .. .. .. 46 .. .. .. 
.. 34 .. .. .. .. 46 .. .. .. .. 30 .. .. .. .. 42 .. .. .. .. 30 .. .. .. .. 42 .. .. .. 
.. 27 .. .. .. .. 39 .. .. .. .. 27 .. .. .. .. 39 .. .. .. .. 23 .. .. .. .. 35 .. .. .. 
.. 23 .. .. .. .. 35 .. .. .. .. 22 .. .. .. .. 34 .. .. .. .. 22 .. .. .. .. 34 .. .. .. 
.. 18 .. .. .. .. 30 .. .. .. .. 18 .. .. .. .. 30 .. .. .. .. 15 .. .. .. .. 27 .. .. .. 
.. 15 .. .. .. .. 27 .. .. .. .. 42 .. .. .. .. 54 .. .. .. .. 42 .. .. .. .. 54 .. .. .. 
.. 41 .. .. .. .. 53 .. .. .. .. 41 .. .. .. .. 53 .. .. .. .. 37 .. .. .. .. 49 .. .. .. 
.. 37 .. .. .. .. 49 .. .. .. .. 34 .. .. .. .. 46 .. .. .. .. 34 .. .. .. .. 46 .. .. .. 
.. 30 .. .. .. .. 42 .. .. .. .. 30 .. .. .. .. 42 .. .. .. .. 29 .. .. .. .. 41 .. .. .. 
.. 29 .. .. .. .. 41 .. .. .. .. 25 .. .. .. .. 37 .. .. .. .. 25 .. .. .. .. 37 .. .. .. 
.. 22 .. .. .. .. 34 .. .. .. .. 22 .. .. .. .. 34 .. .. .. .. 35 .. .. .. .. 47 .. .. .. 
.. 35 .. .. .. .. 47 .. .. .. .. 34 .. .. .. .. 46 .. .. .. .. 34 .. .. .. .. 46 .. .. .. 
.. 30 .. .. .. .. 42 .. .. .. .. 30 .. .. .. .. 42 .. .. .. .. 27 .. .. .. .. 39 .. .. .. 
.. 27 .. .. .. .. 39 .. .. .. .. 23 .. .. .. .. 35 .. .. .. .. 23 .. .. .. .. 35 .. .. .. 
.. 22 .. .. .. .. 34 .. .. .. .. 22 .. .. .. .. 34 .. .. .. .. 18 .. .. .. .. 30 .. .. .. 
.. 18 .. .. .. .. 30 .. .. .. .. 15 .. .. .. .. 27 .. .. .. .. 15 .. .. .. .. 27 .. .. .. 
.. 35 .. .. .. .. 47 .. .. .. .. 35 .. .. .. .. 47 .. .. .. .. 37 .. .. .. .. 49 .. .. .. 
.. 37 .. .. .. .. 49 .. .. .. .. 39 .. .. .. .. 51 .. .. .. .. 39 .. .. .. .. 51 .. .. .. 
.. 42 .. .. .. .. 54 .. .. .. .. 42 .. .. .. .. 54 .. .. .. .. 23 .. .. .. .. 35 .. .. .. 
.. 23 .. .. .. .. 35 .. .. .. .. 25 .. .. .. .. 37 .. .. .. .. 25 .. .. .. .. 37 .. .. .. 
.. 27 .. .. .. .. 39 .. .. .. .. 27 .. .. .. .. 39 .. .. .. .. 30 .. .. .. .. 42 .. .. .. 
.. 30 .. .. .. .. 42 .. .. .. .. 37 .. .. .. .. 49 .. .. .. .. 37 .. .. .. .. 49 .. .. .. 
.. 41 .. .. .. .. 53 .. .. .. .. 41 .. .. .. .. 53 .. .. .. .. 44 .. .. .. .. 56 .. .. .. 
.. 44 .. .. .. .. 56 .. .. .. .. 49 .. .. .. .. 61 .. .. .. .. 49 .. .. .. .. 61 .. .. .. 
.. 26 .. .. .. .. 38 .. .. .. .. 26 .. .. .. .. 38 .. .. .. .. 29 .. .. .. .. 41 .. .. .. 
.. 29 .. .. .. .. 41 .. .. .. .. 32 .. .. .. .. 44 .. .. .. .. 32 .. .. .. .. 44 .. .. .. 
.. 38 .. .. .. .. 50 .. .. .. .. 38 .. .. .. .. 50 .. .. .. .. 46 .. .. .. .. .. .. .. .. 
.. .. .. .. .. .. .. .. .. .. .. .. .. .. .. .. .. .. .. .. .. .. .. .. .. .. .. .. .. .. 
.. .. .. .. .. .. .. .. .. .. .. .. .. .. .. .. .. .. .. .. .. .. .. .. .. .. .. .. .. .. 
.. .. .. .. .. .. .. .. .. .. .. .. .. .. .. .. .. .. .. .. .. .. .. .. .. .. .. .. .. .. 
.. .. .. .. .. .. .. .. .. .. .. .. .. .. .. .. .. .. .. .. .. .. .. .. .. .. .. .. .. .. 
.. .. .. .. .. .. .. .. .. .. .. .. .. .. .. .. .. .. .. .. .. .. .. .. .. .. .. .. .. .. 
.. 47 .. .. .. .. .. .. .. .. .. .. .. .. .. .. .. .. .. .. .. .. .. .. .. .. .. .. .. .. 
.. .. .. .. .. .. .. .. 46 .. .. 47 .. .. .. .. .. 46 .. .. 47 .. .. .. .. .. 46 .. .. 47 
.. .. .. .. .. .. 46 .. 47 .. .. .. .. .. .. 46 .. .. 47 .. .. 42 .. .. .. .. .. .. .. .. 
.. .. .. .. .. .. .. .. .. .. .. .. .. .. .. .. .. .. .. .. .. .. .. .. .. .. .. .. .. .. 
.. .. .. .. .. .. .. .. .. .. .. .. .. .. .. .. .. .. .. .. .. 44 .. .. .. .. .. .. .. .. 
.. .. .. .. .. .. .. .. .. .. .. 46 .. .. .. .. .. .. .. .. .. 44 .. .. .. .. .. .. .. .. 
.. 46 .. .. .. .. .. .. .. .. .. .. .. .. .. .. .. .. .. .. .. .. .. .. .. .. .. .. .. .. 
.. .. .. .. .. .. .. .. .. .. .. .. .. .. .. .. .. .. .. .. .. .. .. .. .. .. .. .. .. .. 
.. .. .. .. .. .. .. .. .. .. .. .. .. .. .. .. .. .. .. .. .. .. .. .. .. .. .. .. .. .. 
.. .. .. .. .. .. .. .. .. .. .. .. .. .. .. .. .. .. .. .. .. .. .. .. .. .. .. .. .. .. 
.. .. .. .. .. .. .. .. .. .. .. .. .. .. .. .. .. .. .. .. .. 51 .. .. .. .. .. .. .. .. 
.. .. .. .. .. .. .. .. .. .. .. .. .. .. .. .. .. .. .. .. .. .. .. .. .. .. .. .. .. 50 
51 .. .. .. .. .. .. .. 50 .. 51 .. .. .. .. .. .. 50 .. 51 .. .. .. .. .. .. 50 .. 51 .. 
.. .. .. .. .. 50 .. 51 .. .. .. 47 .. .. .. .. .. .. .. .. .. .. .. .. .. .. .. .. .. .. 
.. .. .. .. .. .. .. .. .. .. .. .. .. .. .. .. .. .. 46 .. .. 47 .. .. .. .. .. 46 .. .. 
47 .. .. .. .. .. 46 .. .. 47 .. 39 .. .. .. .. .. .. .. .. .. 41 .. .. .. .. .. .. .. .. 
.. 42 .. .. .. .. .. .. .. .. .. .. .. .. .. .. .. .. .. .. .. .. .. .. .. .. .. .. .. .. 
.. .. .. .. .. .. .. .. .. .. .. .. .. .. .. .. .. .. .. .. .. .. .. .. .. .. .. .. .. .. 
.. 39 .. .. .. .. .. .. .. .. .. 42 .. .. .. .. .. .. .. .. .. 47 .. .. .. .. .. .. .. .. 
.. .. .. .. .. .. .. .. .. .. .. .. .. .. .. .. .. .. .. .. .. 46 .. .. .. .. .. .. .. .. 
.. .. .. .. .. .. .. .. .. .. .. .. .. .. .. .. .. .. .. .. .. 42 .. .. .. .. .. .. .. .. 
.. .. .. .. .. .. .. .. .. .. .. 44 .. .. .. .. .. .. .. .. .. .. .. .. .. .. .. .. .. .. 
.. .. .. .. .. .. .. .. .. .. .. .. .. .. .. .. .. .. .. .. .. .. .. .. .. .. .. .. .. .. 
.. .. .. .. .. .. .. .. .. .. .. .. .. .. .. .. .. .. .. .. .. .. .. .. .. .. .. .. .. .. 
.. 38 .. .. .. .. .. .. .. .. .. .. .. .. .. .. .. .. .. .. .. .. .. .. .. .. .. .. .. .. 
.. .. .. .. .. .. .. .. .. .. .. 34 .. .. .. .. .. .. .. .. .. .. .. .. .. .. .. .. .. .. 
.. .. .. .. .. .. .. .. .. .. .. .. .. .. .. .. .. .. .. .. .. 27 .. .. .. .. .. .. .. .. 
.. .. .. .. .. .. .. .. .. .. .. .. .. .. .. .. .. .. .. .. .. .. .. .. .. .. .. .. .. .. 
.. .. .. .. .. .. .. .. .. .. .. .. .. .. .. .. .. .. .. .. .. .. .. .. .. .. .. .. .. .. 
.. .. .. .. .. .. .. .. .. .. .. .. .. .. .. .. .. .. .. .. .. .. .. .. .. .. .. .. .. .. 
.. .. .. .. .. .. .. .. .. .. .. .. .. .. .. .. .. .. .. .. .. .. .. .. .. .. .. .. .. .. 
.. .. .. .. .. .. .. .. .. .. .. .. .. .. .. .. .. .. .. .. .. .. .. .. .. .. .. .. .. .. 
.. 23 .. .. .. .. .. .. .. .. .. .. .. .. .. .. .. .. .. .. .. .. .. .. .. .. .. .. .. .. 
.. .. .. .. .. .. .. .. .. .. .. .. .. .. .. .. .. .. .. .. .. .. .. .. .. .. .. .. .. .. 
.. .. .. .. .. .. .. .. .. .. .. .. .. .. .. .. .. .. .. .. .. .. .. .. .. .. .. .. .. .. 
.. .. .. .. .. .. .. .. .. .. .. .. .. .. .. .. .. .. .. .. .. .. .. .. .. .. .. .. .. .. 
.. .. .. .. .. .. .. .. .. .. .. .. .. .. .. .. .. .. .. .. .. .. .. .. .. .. .. .. .. .. 
.. .. .. .. .. .. .. .. .. .. .. 27 .. .. .. .. .. .. .. .. .. .. .. .. .. .. .. .. .. .. 
.. .. .. .. .. .. .. .. .. .. .. .. .. .. .. .. .. .. .. .. .. .. .. .. .. .. .. .. .. .. 
.. .. .. .. .. .. .. .. .. .. .. .. .. .. .. .. .. .. .. .. .. .. .. .. .. .. .. .. .. .. 
.. .. .. .. .. .. .. .. .. .. .. .. .. .. .. .. .. .. .. .. .. .. .. .. .. .. .. .. .. .. 
.. .. .. .. .. .. .. .. .. .. .. .. .. .. .. .. .. .. .. .. .. .. .. .. .. .. .. .. .. .. 
.. .. .. .. .. .. .. .. .. .. .. .. .. .. .. .. .. .. .. .. .. 23 .. .. .. .. .. .. .. .. 
.. .. .. .. .. .. .. .. .. .. .. .. .. .. .. .. .. .. .. .. .. .. .. .. .. .. .. .. .. .. 
.. .. .. .. .. .. .. .. .. .. .. .. .. .. .. .. .. .. .. .. .. .. .. .. .. .. .. .. .. .. 
.. .. .. .. .. .. .. .. .. .. .. .. .. .. .. .. .. .. .. .. .. .. .. .. .. .. .. .. .. .. 
.. .. .. .. .. .. .. .. .. .. .. .. .. .. .. .. .. .. .. .. .. .. .. .. .. .. .. .. .. .. 
.. .. .. .. .. .. .. .. .. .. .. .. .. .. .. .. .. .. .. .. .. .. .. .. .. .. .. .. .. .. 
.. 27 .. .. .. .. .. .. .. .. .. .. .. .. .. .. .. .. .. .. .. .. .. .. .. .. .. .. .. .. 
.. .. .. .. .. .. .. .. .. .. .. .. .. .. .. .. .. .. .. .. .. .. .. .. .. .. .. .. .. .. 
.. .. .. .. .. .. .. .. .. .. .. .. .. .. .. .. .. .. .. .. .. .. .. .. .. .. .. .. .. .. 
.. .. .. .. .. .. .. .. .. .. .. .. .. .. .. .. .. .. .. .. .. .. .. .. .. .. .. .. .. .. 
.. .. .. .. .. .. .. .. .. .. .. .. .. .. .. .. .. .. .. .. .. .. .. .. .. .. .. .. .. .. 
.. .. .. .. .. .. .. .. .. .. .. 23 .. .. .. .. .. .. .. .. .. .. .. .. .. .. .. .. .. .. 
.. .. .. .. .. .. .. .. .. .. .. .. .. .. .. .. .. .. .. .. .. .. .. .. .. .. .. .. .. .. 
.. .. .. .. .. .. .. .. .. .. .. .. .. .. .. .. .. .. .. .. .. .. .. .. .. .. .. .. .. .. 
.. .. .. .. .. .. .. .. .. .. .. .. .. .. .. .. .. .. .. .. .. .. .. .. .. .. .. .. .. .. 
.. .. .. .. .. .. .. .. .. .. .. .. .. .. .. .. .. .. .. .. .. .. .. .. .. .. .. .. .. .. 
.. .. .. .. .. .. .. .. .. .. .. .. .. .. .. .. .. .. .. .. .. 27 .. .. .. .. .. .. .. .. 
.. .. .. .. .. .. .. .. .. .. .. .. .. .. .. .. .. .. .. .. .. .. .. .. .. .. .. .. .. .. 
.. .. .. .. .. .. .. .. .. .. .. .. .. .. .. .. .. .. .. .. .. .. .. .. .. .. .. .. .. .. 
.. .. .. .. .. .. .. .. .. .. .. .. .. .. .. .. .. .. .. .. .. .. .. .. .. .. .. .. .. .. 
.. .. .. .. .. .. .. .. .. .. .. .. .. .. .. .. .. .. .. .. .. .. .. .. .. .. .. .. .. .. 
.. .. .. .. .. .. .. .. .. .. .. .. .. .. .. .. .. .. .. .. .. .. .. .. .. .. .. .. .. .. 
.. 23 .. .. .. .. .. .. .. .. .. .. .. .. .. .. .. .. .. .. .. .. .. .. .. .. .. .. .. .. 
.. .. .. .. .. .. .. .. .. .. .. .. .. .. .. .. .. .. .. .. .. .. .. .. .. .. .. .. .. .. 
.. .. .. .. .. .. .. .. .. .. .. .. .. .. .. .. .. .. .. .. .. .. .. .. .. .. .. .. .. .. 
.. .. .. .. .. .. .. .. .. .. .. .. .. .. .. .. .. .. .. .. .. .. .. .. .. .. .. .. .. .. 
.. .. .. .. .. .. .. .. .. .. .. .. .. .. .. .. .. .. .. .. .. .. .. .. .. .. .. .. .. .. 
.. .. .. .. .. .. .. .. .. .. .. 42 .. .. .. .. 54 .. .. .. .. 42 .. .. .. .. 54 .. .. .. 
.. 41 .. .. .. .. 53 .. .. .. .. 41 .. .. .. .. 53 .. .. .. .. 37 .. .. .. .. 49 .. .. .. 
.. 37 .. .. .. .. 49 .. .. .. .. 34 .. .. .. .. 46 .. .. .. .. 34 .. .. .. .. 46 .. .. .. 
.. 30 .. .. .. .. 42 .. .. .. .. 30 .. .. .. .. 42 .. .. .. .. 29 .. .. .. .. 41 .. .. .. 
.. 29 .. .. .. .. 41 .. .. .. .. 25 .. .. .. .. 37 .. .. .. .. 25 .. .. .. .. 37 .. .. .. 
.. 22 .. .. .. .. 34 .. .. .. .. 22 .. .. .. .. 34 .. .. .. .. 35 .. .. .. .. 47 .. .. .. 
.. 35 .. .. .. .. 47 .. .. .. .. 34 .. .. .. .. 46 .. .. .. .. 34 .. .. .. .. 46 .. .. .. 
.. 30 .. .. .. .. 42 .. .. .. .. 30 .. .. .. .. 42 .. .. .. .. 27 .. .. .. .. 39 .. .. .. 
.. 27 .. .. .. .. 39 .. .. .. .. 23 .. .. .. .. 35 .. .. .. .. 23 .. .. .. .. 35 .. .. .. 
.. 22 .. .. .. .. 34 .. .. .. .. 22 .. .. .. .. 34 .. .. .. .. 18 .. .. .. .. 30 .. .. .. 
.. 18 .. .. .. .. 30 .. .. .. .. 15 .. .. .. .. 27 .. .. .. .. 15 .. .. .. .. 27 .. .. .. 
.. 42 .. .. .. .. 54 .. .. .. .. 42 .. .. .. .. 54 .. .. .. .. 41 .. .. .. .. 53 .. .. .. 
.. 41 .. .. .. .. 53 .. .. .. .. 37 .. .. .. .. 49 .. .. .. .. 37 .. .. .. .. 49 .. .. .. 
.. 34 .. .. .. .. 46 .. .. .. .. 34 .. .. .. .. 46 .. .. .. .. 30 .. .. .. .. 42 .. .. .. 
.. 30 .. .. .. .. 42 .. .. .. .. 29 .. .. .. .. 41 .. .. .. .. 29 .. .. .. .. 41 .. .. .. 
.. 25 .. .. .. .. 37 .. .. .. .. 25 .. .. .. .. 37 .. .. .. .. 22 .. .. .. .. 34 .. .. .. 
.. 22 .. .. .. .. 34 .. .. .. .. 35 .. .. .. .. 47 .. .. .. .. 35 .. .. .. .. 47 .. .. .. 
.. 34 .. .. .. .. 46 .. .. .. .. 34 .. .. .. .. 46 .. .. .. .. 30 .. .. .. .. 42 .. .. .. 
.. 30 .. .. .. .. 42 .. .. .. .. 27 .. .. .. .. 39 .. .. .. .. 27 .. .. .. .. 39 .. .. .. 
.. 23 .. .. .. .. 35 .. .. .. .. 23 .. .. .. .. 35 .. .. .. .. 22 .. .. .. .. 34 .. .. .. 
.. 22 .. .. .. .. 34 .. .. .. .. 18 .. .. .. .. 30 .. .. .. .. 18 .. .. .. .. 30 .. .. .. 
.. 15 .. .. .. .. 27 .. .. .. .. 15 .. .. .. .. 27 .. .. .. .. 35 .. .. .. .. 47 .. .. .. 
.. 35 .. .. .. .. 47 .. .. .. .. 37 .. .. .. .. 49 .. .. .. .. 37 .. .. .. .. 49 .. .. .. 
.. 39 .. .. .. .. 51 .. .. .. .. 39 .. .. .. .. 51 .. .. .. .. 42 .. .. .. .. 54 .. .. .. 
.. 42 .. .. .. .. 54 .. .. .. .. 23 .. .. .. .. 35 .. .. .. .. 23 .. .. .. .. 35 .. .. .. 
.. 25 .. .. .. .. 37 .. .. .. .. 25 .. .. .. .. 37 .. .. .. .. 27 .. .. .. .. 39 .. 
! Song 2
146 27 .. .. .. .. 39 .. .. .. .. 27 .. .. .. .. 39 .. .. .. .. 27 .. .. .. .. 39 .. .. .. 
.. 27 .. .. .. .. 39 .. .. .. .. 34 .. .. .. .. 46 .. .. .. .. 34 .. .. .. .. 46 .. .. .. 
.. 34 .. .. .. .. 46 .. .. .. .. 34 .. .. .. .. 46 .. .. .. .. 29 .. .. .. .. 41 .. .. .. 
.. 29 .. .. .. .. 41 .. .. .. .. 29 .. .. .. .. 41 .. .. .. .. 29 .. .. .. .. 41 .. .. .. 
.. 33 .. .. .. .. 45 .. .. .. .. 33 .. .. .. .. 45 .. .. .. .. 33 .. .. .. .. 45 .. .. .. 
.. 33 .. .. .. .. 45 .. .. .. .. 30 .. .. .. .. 42 .. .. .. .. 30 .. .. .. .. 42 .. .. .. 
.. 30 .. .. .. .. 42 .. .. .. .. 30 .. .. .. .. 42 .. .. .. .. 34 .. .. .. .. 46 .. .. .. 
.. 34 .. .. .. .. 46 .. .. .. .. 34 .. .. .. .. 46 .. .. .. .. 34 .. .. .. .. 46 .. .. .. 
.. 29 .. .. .. .. 41 .. .. .. .. 29 .. .. .. .. 41 .. .. .. .. 29 .. .. .. .. 41 .. .. .. 
.. 29 .. .. .. .. 41 .. .. .. .. 33 .. .. .. .. 45 .. .. .. .. 33 .. .. .. .. 45 .. .. .. 
.. 33 .. .. .. .. 45 .. .. .. .. 33 .. .. .. .. 45 .. .. .. .. 27 .. .. .. .. 39 .. .. .. 
.. 27 .. .. .. .. 39 .. .. .. .. 27 .. .. .. .. 39 .. .. .. .. 27 .. .. .. .. 39 .. .. .. 
.. 34 .. .. .. .. 46 .. .. .. .. 34 .. .. .. .. 46 .. .. .. .. 34 .. .. .. .. 46 .. .. .. 
.. 34 .. .. .. .. 46 .. .. .. .. 29 .. .. .. .. 41 .. .. .. .. 29 .. .. .. .. 41 .. .. .. 
.. 29 .. .. .. .. 41 .. .. .. .. 29 .. .. .. .. 41 .. .. .. .. 33 .. .. .. .. 45 .. .. .. 
.. 33 .. .. .. .. 45 .. .. .. .. 33 .. .. .. .. 45 .. .. .. .. 33 .. .. .. .. 45 .. .. .. 
.. 30 .. .. .. .. 42 .. .. .. .. 30 .. .. .. .. 42 .. .. .. .. 30 .. .. .. .. 42 .. .. .. 
.. 30 .. .. .. .. 42 .. .. .. .. 34 .. .. .. .. 46 .. .. .. .. 34 .. .. .. .. 46 .. .. .. 
.. 34 .. .. .. .. 46 .. .. .. .. 34 .. .. .. .. 46 .. .. .. .. 29 .. .. .. .. 41 .. .. .. 
.. 29 .. .. .. .. 41 .. .. .. .. 29 .. .. .. .. 41 .. .. .. .. 29 .. .. .. .. 41 .. .. .. 
.. 33 .. .. .. .. 45 .. .. .. .. 33 .. .. .. .. 45 .. .. .. .. 33 .. .. .. .. 45 .. .. .. 
.. 33 .. .. .. .. 45 .. .. .. .. 39 .. .. .. .. 51 .. .. .. .. .. .. .. .. .. 63 .. .. .. 
.. 39 .. .. .. .. 51 .. .. .. .. 39 .. .. .. .. 51 .. .. .. .. 46 .. .. .. .. 58 .. .. .. 
.. 39 .. .. .. .. 51 .. .. .. .. 46 .. .. .. .. 58 .. .. .. .. 46 .. .. .. .. 58 .. .. .. 
.. 41 .. .. .. .. 53 .. .. .. .. .. .. .. .. .. 65 .. .. .. .. 41 .. .. .. .. 53 .. .. .. 
.. 41 .. .. .. .. 53 .. .. .. .. 45 .. .. .. .. 57 .. .. .. .. .. .. .. .. .. 69 .. .. .. 
.. 45 .. .. .. .. 57 .. .. .. .. 45 .. .. .. .. 57 .. .. .. .. 42 .. .. .. .. 54 .. .. .. 
.. .. .. .. .. .. 66 .. .. .. .. 42 .. .. .. .. 54 .. .. .. .. 42 .. .. .. .. 54 .. .. .. 
.. 46 .. .. .. .. 58 .. .. .. .. .. .. .. .. .. 70 .. .. .. .. 46 .. .. .. .. 58 .. .. .. 
.. 46 .. .. .. .. 58 .. .. .. .. 41 .. .. .. .. 53 .. .. .. .. .. .. .. .. .. 65 .. .. .. 
.. 41 .. .. .. .. 53 .. .. .. .. 41 .. .. .. .. 53 .. .. .. .. 45 .. .. .. .. 57 .. .. .. 
.. .. .. .. .. .. 69 .. .. .. .. 45 .. .. .. .. 57 .. .. .. .. 45 .. .. .. .. 57 .. .. .. 
.. 39 .. .. .. .. 51 .. .. .. .. .. .. .. .. .. 63 .. .. .. .. 39 .. .. .. .. 51 .. .. .. 
.. 39 .. .. .. .. 51 .. .. .. .. 46 .. .. .. .. 58 .. .. .. .. 39 .. .. .. .. 51 .. .. .. 
.. 46 .. .. .. .. 58 .. .. .. .. 46 .. .. .. .. 58 .. .. .. .. 41 .. .. .. .. 53 .. .. .. 
.. .. .. .. .. .. 65 .. .. .. .. 41 .. .. .. .. 53 .. .. .. .. 41 .. .. .. .. 53 .. .. .. 
.. 45 .. .. .. .. 57 .. .. .. .. .. .. .. .. .. 69 .. .. .. .. 45 .. .. .. .. 57 .. .. .. 
.. 45 .. .. .. .. 57 .. .. .. .. 42 .. .. .. .. 54 .. .. .. .. .. .. .. .. .. 66 .. .. .. 
.. 42 .. .. .. .. 54 .. .. .. .. 42 .. .. .. .. 54 .. .. .. .. 46 .. .. .. .. 58 .. .. .. 
.. .. .. .. .. .. 70 .. .. .. .. 46 .. .. .. .. 58 .. .. .. .. 46 .. .. .. .. 58 .. .. .. 
.. 41 .. .. .. .. 53 .. .. .. .. .. .. .. .. .. 65 .. .. .. .. 41 .. .. .. .. 53 .. .. .. 
.. 41 .. .. .. .. 53 .. .. .. .. 45 .. .. .. .. 57 .. .. .. .. .. .. .. .. .. 69 .. .. .. 
.. 45 .. .. .. .. 57 .. .. .. .. 45 .. .. .. .. 57 .. .. .. .. 39 .. .. .. .. 51 .. .. .. 
.. .. .. .. .. .. 63 .. .. .. .. 39 .. .. .. .. 51 .. .. .. .. 39 .. .. .. .. 51 .. .. .. 
.. 46 .. .. .. .. 58 .. .. .. .. 39 .. .. .. .. 51 .. .. .. .. 46 .. .. .. .. 58 .. .. .. 
.. 46 .. .. .. .. 58 .. .. .. .. 41 .. .. .. .. 53 .. .. .. .. .. .. .. .. .. 65 .. .. .. 
.. 41 .. .. .. .. 53 .. .. .. .. 41 .. .. .. .. 53 .. .. .. .. 45 .. .. .. .. 57 .. .. .. 
.. .. .. .. .. .. 69 .. .. .. .. 45 .. .. .. .. 57 .. .. .. .. 45 .. .. .. .. 57 .. .. .. 
.. 42 .. .. .. .. 54 .. .. .. .. .. .. .. .. .. 66 .. .. .. .. 42 .. .. .. .. 54 .. .. .. 
.. 42 .. .. .. .. 54 .. .. .. .. 46 .. .. .. .. 58 .. .. .. .. .. .. .. .. .. 70 .. .. .. 
.. 46 .. .. .. .. 58 .. .. .. .. 46 .. .. .. .. 58 .. .. .. .. 41 .. .. .. .. 53 .. .. .. 
.. .. .. .. .. .. 65 .. .. .. .. 41 .. .. .. .. 53 .. .. .. .. 41 .. .. .. .. 53 .. .. .. 
.. 45 .. .. .. .. 57 .. .. .. .. .. .. .. .. .. 69 .. .. .. .. 45 .. .. .. .. 57 .. .. .. 
.. 45 .. .. .. .. 57 .. .. .. .. 39 .. .. .. .. 51 .. .. .. .. .. .. .. .. .. 63 .. .. .. 
.. 39 .. .. .. .. 51 .. .. .. .. 39 .. .. .. .. 51 .. .. .. .. 46 .. .. .. .. 58 .. .. .. 
.. 39 .. .. .. .. 51 .. .. .. .. 46 .. .. .. .. 58 .. .. .. .. 46 .. .. .. .. 58 .. .. .. 
.. 41 .. .. .. .. 53 .. .. .. .. .. .. .. .. .. 65 .. .. .. .. 41 .. .. .. .. 53 .. .. .. 
.. 41 .. .. .. .. 53 .. .. .. .. 45 .. .. .. .. 57 .. .. .. .. .. .. .. .. .. 69 .. .. .. 
.. 45 .. .. .. .. 57 .. .. .. .. 45 .. .. .. .. 57 .. .. .. .. 42 .. .. .. .. 54 .. .. .. 
.. .. .. .. .. .. 66 .. .. .. .. 42 .. .. .. .. 54 .. .. .. .. 42 .. .. .. .. 54 .. .. .. 
.. 46 .. .. .. .. 58 .. .. .. .. .. .. .. .. .. 70 .. .. .. .. 46 .. .. .. .. 58 .. .. .. 
.. 46 .. .. .. .. 58 .. .. .. .. 41 .. .. .. .. 53 .. .. .. .. .. .. .. .. .. 65 .. .. .. 
.. 41 .. .. .. .. 53 .. .. .. .. 41 .. .. .. .. 53 .. .. .. .. 45 .. .. .. .. 57 .. .. .. 
.. .. .. .. .. .. 69 .. .. .. .. 45 .. .. .. .. 57 .. .. .. .. 45 .. .. .. .. 57 .. .. .. 
.. 39 .. .. .. .. .. .. .. .. .. .. .. .. .. .. .. .. .. .. .. .. .. .. .. .. .. .. .. .. 
.. .. .. .. .. .. .. .. .. .. .. .. .. .. .. .. .. .. .. .. .. .. .. .. .. .. .. .. .. .. 
.. .. .. .. .. .. .. .. .. .. .. .. .. .. .. .. .. .. .. .. .. 46 .. .. .. .. .. .. .. .. 
.. .. .. .. .. .. .. .. .. .. .. .. .. .. .. .. .. .. .. .. .. .. .. .. .. .. .. .. .. .. 
.. .. .. .. .. .. .. .. .. .. .. .. .. .. .. .. .. .. .. .. .. .. .. .. .. .. .. .. .. .. 
.. .. .. .. .. .. .. .. .. .. .. 42 .. .. .. .. .. .. .. .. .. .. .. .. .. .. .. .. .. .. 
.. .. .. .. .. .. .. .. .. .. .. .. .. .. .. .. .. .. .. .. .. .. .. .. .. .. .. .. .. .. 
.. .. .. .. .. .. .. .. .. .. .. .. .. .. .. .. .. .. .. .. .. .. .. .. .. .. .. .. .. .. 
.. 41 .. .. .. .. .. .. .. .. .. .. .. .. .. .. .. .. .. .. .. .. .. .. .. .. .. .. .. .. 
.. .. .. .. .. .. .. .. .. .. .. 38 .. .. .. .. .. .. .. .. .. .. .. .. .. .. .. .. .. .. 
.. .. .. .. .. .. .. .. .. .. .. .. .. .. .. .. .. .. .. .. .. 39 .. .. .. .. .. .. .. .. 
.. .. .. .. .. .. .. .. .. .. .. .. .. .. .. .. .. .. .. .. .. .. .. .. .. .. .. .. .. .. 
.. .. .. .. .. .. .. .. .. .. .. .. .. .. .. .. .. .. .. .. .. .. .. .. .. .. .. .. .. .. 
.. .. .. .. .. .. .. .. .. .. .. 46 .. .. .. .. .. .. .. .. .. .. .. .. .. .. .. .. .. .. 
.. .. .. .. .. .. .. .. .. .. .. .. .. .. .. .. .. .. .. .. .. .. .. .. .. .. .. .. .. .. 
.. .. .. .. .. .. .. .. .. .. .. .. .. .. .. .. .. .. .. .. .. .. .. .. .. .. .. .. .. .. 
.. 47 .. .. .. .. .. .. .. .. .. .. .. .. .. .. .. .. .. .. .. .. .. .. .. .. .. .. .. .. 
.. .. .. .. .. .. .. .. 46 .. .. 47 .. .. .. .. .. 46 .. .. 47 .. .. .. .. .. 46 .. .. 47 
.. .. .. .. .. .. 46 .. 47 .. .. .. .. .. .. 46 .. .. 47 .. .. 49 .. .. .. .. .. .. .. .. 
.. .. .. .. .. .. .. .. .. .. .. .. .. .. .. .. .. .. .. .. .. .. .. .. .. .. .. .. .. 48 
49 46 .. .. .. .. .. .. .. .. .. .. .. .. .. .. .. .. .. .. .. .. .. .. .. .. .. .. .. .. 
.. .. .. .. .. .. .. .. .. .. .. 39 .. .. .. .. .. .. .. .. .. .. .. .. .. .. .. .. .. .. 
.. .. .. .. .. .. .. .. .. .. .. .. .. .. .. .. .. .. .. .. .. .. .. .. .. .. .. .. .. .. 
.. .. .. .. .. .. .. .. .. .. .. .. .. .. .. .. .. .. .. .. .. .. .. .. .. .. .. .. .. .. 
.. 46 .. .. .. .. .. .. .. .. .. .. .. .. .. .. .. .. .. .. .. .. .. .. .. .. .. .. .. .. 
.. .. .. .. .. .. .. .. .. .. .. .. .. .. .. .. .. .. .. .. .. .. .. .. .. .. .. .. .. .. 
.. .. .. .. .. .. .. .. .. .. .. .. .. .. .. .. .. .. .. .. .. 42 .. .. .. .. .. .. .. .. 
.. .. .. .. .. .. .. .. .. .. .. .. .. .. .. .. .. .. .. .. .. .. .. .. .. .. .. .. .. .. 
.. .. .. .. .. .. .. .. .. .. .. .. .. .. .. .. .. .. .. .. .. .. .. .. .. .. .. .. .. .. 
.. .. .. .. .. .. .. .. .. .. .. 41 .. .. .. .. .. .. .. .. .. .. .. .. .. .. .. .. .. .. 
.. .. .. .. .. .. .. .. .. .. .. .. .. .. .. .. .. .. .. .. .. 38 .. .. .. .. .. .. .. .. 
.. .. .. .. .. .. .. .. .. .. .. .. .. .. .. .. .. .. .. .. .. .. .. .. .. .. .. .. .. .. 
.. 39 .. .. .. .. .. .. .. .. .. .. .. .. .. .. .. .. .. .. .. .. .. .. .. .. .. .. .. .. 
.. .. .. .. .. .. .. .. .. .. .. .. .. .. .. .. .. .. .. .. .. .. .. .. .. .. .. .. .. .. 
.. .. .. .. .. .. .. .. .. .. .. .. .. .. .. .. .. .. .. .. .. 46 .. .. .. .. .. .. .. .. 
.. .. .. .. .. .. .. .. .. .. .. .. .. .. .. .. .. .. .. .. .. .. .. .. .. .. .. .. .. .. 
.. .. .. .. .. .. .. .. .. .. .. .. .. .. .. .. .. .. .. .. .. .. .. .. .. .. .. .. .. .. 
.. .. .. .. .. .. .. .. .. .. .. 47 .. .. .. .. .. .. .. .. .. .. .. .. .. .. .. .. .. .. 
.. .. .. .. .. .. .. .. .. .. .. .. .. .. .. .. .. .. 46 .. .. 47 .. .. .. .. .. 46 .. .. 
47 .. .. .. .. .. 46 .. .. 47 .. .. .. .. .. .. 46 .. 47 .. .. .. .. .. .. 46 .. .. 47 .. 
.. 54 .. .. .. .. .. .. .. .. .. .. .. .. .. .. .. .. .. .. .. .. .. .. .. .. .. .. .. .. 
.. .. .. .. .. .. .. .. 53 .. .. .. .. .. .. .. .. .. .. .. .. .. .. .. .. .. .. .. .. .. 
.. .. .. .. .. .. .. .. .. .. .. .. .. .. .. .. .. .. 52 .. .. 51 .. .. .. .. .. .. .. .. 
.. .. .. .. .. .. .. .. .. .. .. .. .. .. .. .. .. .. .. .. .. .. .. .. .. .. .. .. .. 50 
51 .. .. .. .. .. .. .. 50 .. 51 .. .. .. .. .. .. 50 .. 51 .. .. .. .. .. .. 50 .. 51 .. 
.. .. .. .. .. 50 .. 51 .. .. .. .. .. .. .. .. .. 50 51 .. .. .. .. .. .. .. 50 .. 51 .. 
.. .. .. .. .. 50 .. 51 .. .. .. .. .. .. 50 .. 51 .. .. .. .. .. .. 50 .. 51 .. .. .. .. 
.. .. 50 .. 51 .. .. .. .. .. .. .. 50 51 .. .. .. .. .. .. .. 50 51 .. .. .. .. .. .. .. 
50 .. 51 .. .. .. .. .. .. 50 .. 51 .. .. .. .. .. .. 50 .. 51 .. .. .. .. .. .. 50 .. 51 
.. .. .. .. .. .. 50 .. 51 .. .. .. .. .. .. .. 50 51 .. .. .. .. .. .. .. 50 51 .. .. .. 
.. .. .. .. 50 .. 51 .. .. .. .. .. .. 50 .. 51 .. .. .. .. .. .. 50 .. 51 .. .. .. .. .. 
.. 50 .. 51 .. .. .. .. .. .. 50 .. 51 .. .. .. .. .. .. .. 50 51 .. .. .. .. .. .. .. 50 
51 .. .. .. .. .. .. .. 50 .. 51 .. .. .. .. .. .. 50 .. 51 .. .. .. .. .. .. 50 .. 51 .. 
.. .. .. .. .. 50 .. 51 .. .. .. 27 .. .. .. .. 39 .. .. .. .. 27 .. .. .. .. 39 .. .. .. 
.. 27 .. .. .. .. 39 .. .. .. .. 27 .. .. .. .. 39 .. .. .. .. 34 .. .. .. .. 46 .. .. .. 
.. 34 .. .. .. .. 46 .. .. .. .. 34 .. .. .. .. 46 .. .. .. .. 34 .. .. .. .. 46 .. .. .. 
.. 29 .. .. .. .. 41 .. .. .. .. 29 .. .. .. .. 41 .. .. .. .. 29 .. .. .. .. 41 .. .. .. 
.. 29 .. .. .. .. 41 .. .. .. .. 33 .. .. .. .. 45 .. .. .. .. 33 .. .. .. .. 45 .. .. .. 
.. 33 .. .. .. .. 45 .. .. .. .. 33 .. .. .. .. 45 .. .. .. .. 30 .. .. .. .. 42 .. .. .. 
.. 30 .. .. .. .. 42 .. .. .. .. 30 .. .. .. .. 42 .. .. .. .. 30 .. .. .. .. 42 .. .. .. 
.. 34 .. .. .. .. 46 .. .. .. .. 34 .. .. .. .. 46 .. .. .. .. 34 .. .. .. .. 46 .. .. .. 
.. 34 .. .. .. .. 46 .. .. .. .. 29 .. .. .. .. 41 .. .. .. .. 29 .. .. .. .. 41 .. .. .. 
.. 29 .. .. .. .. 41 .. .. .. .. 29 .. .. .. .. 41 .. .. .. .. 33 .. .. .. .. 45 .. .. .. 
.. 33 .. .. .. .. 45 .. .. .. .. 33 .. .. .. .. 45 .. .. .. .. 33 .. .. .. .. 45 .. .. .. 
.. 27 .. .. .. .. 39 .. .. .. .. 27 .. .. .. .. 39 .. .. .. .. 27 .. .. .. .. 39 .. .. .. 
.. 27 .. .. .. .. 39 .. .. .. .. 34 .. .. .. .. 46 .. .. .. .. 34 .. .. .. .. 46 .. .. .. 
.. 34 .. .. .. .. 46 .. .. .. .. 34 .. .. .. .. 46 .. .. .. .. 29 .. .. .. .. 41 .. .. .. 
.. 29 .. .. .. .. 41 .. .. .. .. 29 .. .. .. .. 41 .. .. .. .. 29 .. .. .. .. 41 .. .. .. 
.. 33 .. .. .. .. 45 .. .. .. .. 33 .. .. .. .. 45 .. .. .. .. 33 .. .. .. .. 45 .. .. .. 
.. 33 .. .. .. .. 45 .. .. .. .. 30 .. .. .. .. 42 .. .. .. .. 30 .. .. .. .. 42 .. .. .. 
.. 30 .. .. .. .. 42 .. .. .. .. 30 .. .. .. .. 42 .. .. .. .. 34 .. .. .. .. 46 .. .. .. 
.. 34 .. .. .. .. 46 .. .. .. .. 34 .. .. .. .. 46 .. .. .. .. 34 .. .. .. .. 46 .. .. .. 
.. 29 .. .. .. .. 41 .. .. .. .. 29 .. .. .. .. 41 .. .. .. .. 29 .. .. .. .. 41 .. .. .. 
.. 29 .. .. .. .. 41 .. .. .. .. 33 .. .. .. .. 45 .. .. .. .. 33 .. .. .. .. 45 .. .. .. 
.. 33 .. .. .. .. 45 .. .. .. .. 33 .. .. .. .. 45 .. .. .. .. 39 .. .. .. .. 51 .. .. .. 
.. .. .. .. .. .. 63 .. .. .. .. 39 .. .. .. .. 51 .. .. .. .. 39 .. .. .. .. 51 .. .. .. 
.. 46 .. .. .. .. 58 .. .. .. .. 39 .. .. .. .. 51 .. .. .. .. 46 .. .. .. .. 58 .. .. .. 
.. 46 .. .. .. .. 58 .. .. .. .. 41 .. .. .. .. 53 .. .. .. .. .. .. .. .. .. 65 .. .. .. 
.. 41 .. .. .. .. 53 .. .. .. .. 41 .. .. .. .. 53 .. .. .. .. 45 .. .. .. .. 57 .. .. .. 
.. .. .. .. .. .. 69 .. .. .. .. 45 .. .. .. .. 57 .. .. .. .. 45 .. .. .. .. 57 .. .. .. 
.. 42 .. .. .. .. 54 .. .. .. .. .. .. .. .. .. 66 .. .. .. .. 42 .. .. .. .. 54 .. .. .. 
.. 42 .. .. .. .. 54 .. .. .. .. 46 .. .. .. .. 58 .. .. .. .. .. .. .. .. .. 70 .. .. .. 
.. 46 .. .. .. .. 58 .. .. .. .. 46 .. .. .. .. 58 .. .. .. .. 41 .. .. .. .. 53 .. .. .. 
.. .. .. .. .. .. 65 .. .. .. .. 41 .. .. .. .. 53 .. .. .. .. 41 .. .. .. .. 53 .. .. .. 
.. 45 .. .. .. .. 57 .. .. .. .. .. .. .. .. .. 69 .. .. .. .. 45 .. .. .. .. 57 .. .. .. 
.. 45 .. .. .. .. 57 .. .. .. .. 39 .. .. .. .. 51 .. .. .. .. .. .. .. .. .. 63 .. .. .. 
.. 39 .. .. .. .. 51 .. .. .. .. 39 .. .. .. .. 51 .. .. .. .. 46 .. .. .. .. 58 .. .. .. 
.. 39 .. .. .. .. 51 .. .. .. .. 46 .. .. .. .. 58 .. .. .. .. 46 .. .. .. .. 58 .. .. .. 
.. 41 .. .. .. .. 53 .. .. .. .. .. .. .. .. .. 65 .. .. .. .. 41 .. .. .. .. 53 .. .. .. 
.. 41 .. .. .. .. 53 .. .. .. .. 45 .. .. .. .. 57 .. .. .. .. .. .. .. .. .. 69 .. .. .. 
.. 45 .. .. .. .. 57 .. .. .. .. 45 .. .. .. .. 57 .. .. .. .. 42 .. .. .. .. 54 .. .. .. 
.. .. .. .. .. .. 66 .. .. .. .. 42 .. .. .. .. 54 .. .. .. .. 42 .. .. .. .. 54 .. .. .. 
.. 46 .. .. .. .. 58 .. .. .. .. .. .. .. .. .. 70 .. .. .. .. 46 .. .. .. .. 58 .. .. .. 
.. 46 .. .. .. .. 58 .. .. .. .. 41 .. .. .. .. 53 .. .. .. .. .. .. .. .. .. 65 .. .. .. 
.. 41 .. .. .. .. 53 .. .. .. .. 41 .. .. .. .. 53 .. .. .. .. 45 .. .. .. .. 57 .. .. .. 
.. .. .. .. .. .. 69 .. .. .. .. 45 .. .. .. .. 57 .. .. .. .. 45 .. .. .. .. 57 .. .. .. 
.. 39 .. .. .. .. 51 .. .. .. .. .. .. .. .. .. 63 .. .. .. .. 39 .. .. .. .. 51 .. .. .. 
.. 39 .. .. .. .. 51 .. .. .. .. 46 .. .. .. .. 58 .. .. .. .. 39 .. .. .. .. 51 .. .. .. 
.. 46 .. .. .. .. 58 .. .. .. .. 46 .. .. .. .. 58 .. .. .. .. 41 .. .. .. .. 53 .. .. .. 
.. .. .. .. .. .. 65 .. .. .. .. 41 .. .. .. .. 53 .. .. .. .. 41 .. .. .. .. 53 .. .. .. 
.. 45 .. .. .. .. 57 .. .. .. .. .. .. .. .. .. 69 .. .. .. .. 45 .. .. .. .. 57 .. .. .. 
.. 45 .. .. .. .. 57 .. .. .. .. 42 .. .. .. .. 54 .. .. .. .. .. .. .. .. .. 66 .. .. .. 
.. 42 .. .. .. .. 54 .. .. .. .. 42 .. .. .. .. 54 .. .. .. .. 46 .. .. .. .. 58 .. .. .. 
.. .. .. .. .. .. 70 .. .. .. .. 46 .. .. .. .. 58 .. .. .. .. 46 .. .. .. .. 58 .. .. .. 
.. 41 .. .. .. .. 53 .. .. .. .. .. .. .. .. .. 65 .. .. .. .. 41 .. .. .. .. 53 .. .. .. 
.. 41 .. .. .. .. 53 .. .. .. .. 45 .. .. .. .. 57 .. .. .. .. .. .. .. .. .. 69 .. .. .. 
.. 45 .. .. .. .. 57 .. .. .. .. 45 .. .. .. .. 57 .. .. .. .. 39 .. .. .. .. 51 .. .. .. 
.. .. .. .. .. .. 63 .. .. .. .. 39 .. .. .. .. 51 .. .. .. .. 39 .. .. .. .. 51 .. .. .. 
.. 46 .. .. .. .. 58 .. .. .. .. 39 .. .. .. .. 51 .. .. .. .. 46 .. .. .. .. 58 .. .. .. 
.. 46 .. .. .. .. 58 .. .. .. .. 41 .. .. .. .. 53 .. .. .. .. .. .. .. .. .. 65 .. .. .. 
.. 41 .. .. .. .. 53 .. .. .. .. 41 .. .. .. .. 53 .. .. .. .. 45 .. .. .. .. 57 .. .. .. 
.. .. .. .. .. .. 69 .. .. .. .. 45 .. .. .. .. 57 .. .. .. .. 45 .. .. .. .. 57 .. .. .. 
.. 42 .. .. .. .. 54 .. .. .. .. .. .. .. .. .. 66 .. .. .. .. 42 .. .. .. .. 54 .. .. .. 
.. 42 .. .. .. .. 54 .. .. .. .. 46 .. .. .. .. 58 .. .. .. .. .. .. .. .. .. 70 .. .. .. 
.. 46 .. .. .. .. 58 .. .. .. .. 46 .. .. .. .. 58 .. .. .. .. 41 .. .. .. .. 53 .. .. .. 
.. .. .. .. .. .. 65 .. .. .. .. 41 .. .. .. .. 53 .. .. .. .. 41 .. .. .. .. 53 .. .. .. 
.. 45 .. .. .. .. 57 .. .. .. .. .. .. .. .. .. 69 .. .. .. .. 45 .. .. .. .. 57 .. .. .. 
.. 45 .. .. .. .. 57 .. .. .. .. 39 .. .. .. .. .. .. .. .. .. .. .. .. .. .. .. .. .. .. 
.. .. .. .. .. .. .. .. .. .. .. .. .. .. .. .. .. .. .. .. .. .. .. .. .. .. .. .. .. .. 
.. .. .. .. .. .. .. .. .. .. .. .. .. .. .. .. .. .. .. .. .. .. .. .. .. .. .. .. .. .. 
.. 46 .. .. .. .. .. .. .. .. .. .. .. .. .. .. .. .. .. .. .. .. .. .. .. .. .. .. .. .. 
.. .. .. .. .. .. .. .. .. .. .. .. .. .. .. .. .. .. .. .. .. .. .. .. .. .. .. .. .. .. 
.. .. .. .. .. .. .. .. .. .. .. .. .. .. .. .. .. .. .. .. .. 42 .. .. .. .. .. .. .. .. 
.. .. .. .. .. .. .. .. .. .. .. .. .. .. .. .. .. .. .. .. .. .. .. .. .. .. .. .. .. .. 
.. .. .. .. .. .. .. .. .. .. .. .. .. .. .. .. .. .. .. .. .. .. .. .. .. .. .. .. .. .. 
.. .. .. .. .. .. .. .. .. .. .. 41 .. .. .. .. .. .. .. .. .. .. .. .. .. .. .. .. .. .. 
.. .. .. .. .. .. .. .. .. .. .. .. .. .. .. .. .. .. .. .. .. 38 .. .. .. .. .. .. .. .. 
.. .. .. .. .. .. .. .. .. .. .. .. .. .. .. .. .. .. .. .. .. .. .. .. .. .. .. .. .. .. 
.. 39 .. .. .. .. .. .. .. .. .. .. .. .. .. .. .. .. .. .. .. .. .. .. .. .. .. .. .. .. 
.. .. .. .. .. .. .. .. .. .. .. .. .. .. .. .. .. .. .. .. .. .. .. .. .. .. .. .. .. .. 
.. .. .. .. .. .. .. .. .. .. .. .. .. .. .. .. .. .. .. .. .. 46 .. .. .. .. .. .. .. .. 
.. .. .. .. .. .. .. .. .. .. .. .. .. .. .. .. .. .. .. .. .. .. .. .. .. .. .. .. .. .. 
.. .. .. .. .. .. .. .. .. .. .. .. .. .. .. .. .. .. .. .. .. .. .. .. .. .. .. .. .. .. 
.. .. .. .. .. .. .. .. .. .. .. 47 .. .. .. .. .. .. .. .. .. .. .. .. .. .. .. .. .. .. 
.. .. .. .. .. .. .. .. .. .. .. .. .. .. .. .. .. .. 46 .. .. 47 .. .. .. .. .. 46 .. .. 
47 .. .. .. .. .. 46 .. .. 47 .. .. .. .. .. .. 46 .. 47 .. .. .. .. .. .. 46 .. .. 47 .. 
.. 49 .. .. .. .. .. .. .. .. .. .. .. .. .. .. .. .. .. .. .. .. .. .. .. .. .. .. .. .. 
.. .. .. .. .. .. .. .. .. 48 49 46 .. .. .. .. .. .. .. .. .. .. .. .. .. .. .. .. .. .. 
.. .. .. .. .. .. .. .. .. .. .. .. .. .. .. .. .. .. .. .. .. 39 .. .. .. .. .. .. .. .. 
.. .. .. .. .. .. .. .. .. .. .. .. .. .. .. .. .. .. .. .. .. .. .. .. .. .. .. .. .. .. 
.. .. .. .. .. .. .. .. .. .. .. .. .. .. .. .. .. .. .. .. .. .. .. .. .. .. .. .. .. .. 
.. .. .. .. .. .. .. .. .. .. .. 46 .. .. .. .. .. .. .. .. .. .. .. .. .. .. .. .. .. .. 
.. .. .. .. .. .. .. .. .. .. .. .. .. .. .. .. .. .. .. .. .. .. .. .. .. .. .. .. .. .. 
.. .. .. .. .. .. .. .. .. .. .. .. .. .. .. .. .. .. .. .. .. .. .. .. .. .. .. .. .. .. 
.. 42 .. .. .. .. .. .. .. .. .. .. .. .. .. .. .. .. .. .. .. .. .. .. .. .. .. .. .. .. 
.. .. .. .. .. .. .. .. .. .. .. .. .. .. .. .. .. .. .. .. .. .. .. .. .. .. .. .. .. .. 
.. .. .. .. .. .. .. .. .. .. .. .. .. .. .. .. .. .. .. .. .. 41 .. .. .. .. .. .. .. .. 
.. .. .. .. .. .. .. .. .. .. .. .. .. .. .. .. .. .. .. .. .. .. .. .. .. .. .. .. .. .. 
.. 38 .. .. .. .. .. .. .. .. .. .. .. .. .. .. .. .. .. .. .. .. .. .. .. .. .. .. .. .. 
.. .. .. .. .. .. .. .. .. .. .. 39 .. .. .. .. .. .. .. .. .. .. .. .. .. .. .. .. .. .. 
.. .. .. .. .. .. .. .. .. .. .. .. .. .. .. .. .. .. .. .. .. .. .. .. .. .. .. .. .. .. 
.. .. .. .. .. .. .. .. .. .. .. .. .. .. .. .. .. .. .. .. .. .. .. .. .. .. .. .. .. .. 
.. 46 .. .. .. .. .. .. .. .. .. .. .. .. .. .. .. .. .. .. .. .. .. .. .. .. .. .. .. .. 
.. .. .. .. .. .. .. .. .. .. .. .. .. .. .. .. .. .. .. .. .. .. .. .. .. .. .. .. .. .. 
.. .. .. .. .. .. .. .. .. .. .. .. .. .. .. .. .. .. .. .. .. 47 .. .. .. .. .. .. .. .. 
.. .. .. .. .. .. .. .. .. .. .. .. .. .. .. .. .. .. .. .. .. .. .. .. .. .. .. .. 46 .. 
.. 47 .. .. .. .. .. 46 .. .. 47 .. .. .. .. .. 46 .. .. 47 .. .. .. .. .. .. 46 .. 47 .. 
.. .. .. .. .. 46 .. .. 47 .. .. 54 .. .. .. .. .. .. .. .. .. .. .. .. .. .. .. .. .. .. 
.. .. .. .. .. .. .. .. .. .. .. .. .. .. .. .. .. .. 53 .. .. .. .. .. .. .. .. .. .. .. 
.. .. .. .. .. .. .. .. .. .. .. .. .. .. .. .. .. .. .. .. .. .. .. .. .. .. .. .. 52 .. 
.. 51 .. .. .. .. .. .. .. .. .. .. .. .. .. .. .. .. .. .. .. .. .. .. .. .. .. .. .. .. 
.. .. .. .. .. .. .. .. .. 50 51 .. .. .. .. .. .. .. 50 .. 51 .. .. .. .. .. .. 50 .. 51 
.. .. .. .. .. .. 50 .. 51 .. .. .. .. .. .. 50 .. 51 .. .. .. .. .. .. .. .. .. 50 51 .. 
.. .. .. .. .. .. 50 .. 51 .. .. .. .. .. .. 50 .. 51 .. .. .. .. .. .. 50 .. 51 .. .. .. 
.. .. .. 50 .. 51 .. .. .. .. .. .. 50 .. 51 .. .. .. .. .. .. .. 50 51 .. .. .. .. .. .. 
.. 50 51 .. .. .. .. .. .. .. 50 .. 51 .. .. .. .. .. .. 50 .. 51 .. .. .. .. .. .. 50 .. 
51 .. .. .. .. .. .. 50 .. 51 .. .. .. .. .. .. 50 .. 51 .. .. .. .. .. .. .. 50 51 .. .. 
.. .. .. .. .. 50 51 .. .. .. .. .. .. .. 50 .. 51 .. .. .. .. .. .. 50 .. 51 .. .. .. .. 
.. .. 50 .. 51 .. .. .. .. .. .. 50 .. 51 .. .. .. .. .. .. 50 .. 51 .. .. .. .. .. .. .. 
50 51 .. .. .. .. .. .. .. 50 51 .. .. .. .. .. .. .. 50 .. 51 .. .. .. .. .. .. 50 .. 51 
.. .. .. .. .. .. 50 .. 51 .. .. .. .. .. .. 50 .. 51 .. .. .. 27 .. .. .. .. 39 .. .. .. 
.. 27 .. .. .. .. 39 .. .. .. .. 27 .. .. .. .. 39 .. .. .. .. 27 .. .. .. .. 39 .. .. .. 
.. 34 .. .. .. .. 46 .. .. .. .. 34 .. .. .. .. 46 .. .. .. .. 34 .. .. .. .. 46 .. .. .. 
.. 34 .. .. .. .. 46 .. .. .. .. 29 .. .. .. .. 41 .. .. .. .. 29 .. .. .. .. 41 .. .. .. 
.. 29 .. .. .. .. 41 .. .. .. .. 29 .. .. .. .. 41 .. .. .. .. 33 .. .. .. .. 45 .. 
! Song 3
146 46 .. .. .. .. 58 .. .. .. .. 46 .. .. .. .. 58 .. .. .. .. 46 .. .. .. 42 .. .. .. .. 
54 .. .. .. .. 42 .. .. .. .. 54 .. .. .. .. 42 .. .. .. 41 .. .. .. .. 53 .. .. .. .. 41 
.. .. .. .. 53 .. .. .. .. 41 .. .. .. 37 .. .. .. .. 49 .. .. .. .. 37 .. .. .. .. 49 .. 
.. .. .. 37 .. .. .. 34 .. .. .. .. 46 .. .. .. .. 34 .. .. .. .. 46 .. .. .. .. 34 .. .. 
.. 30 .. .. .. .. 42 .. .. .. .. 30 .. .. .. .. 42 .. .. .. .. 30 .. .. .. 29 .. .. .. .. 
41 .. .. .. .. 29 .. .. .. .. 41 .. .. .. .. 29 .. .. .. 25 .. .. .. .. 37 .. .. .. .. 25 
.. .. .. .. 37 .. .. .. .. 25 .. .. .. 39 .. .. .. .. .. .. .. .. .. .. .. .. .. .. .. .. 
.. .. .. .. .. .. .. .. .. .. .. .. .. .. .. .. .. .. .. .. .. .. .. .. .. .. .. .. .. .. 
.. .. .. .. .. .. .. .. .. .. .. .. .. .. .. .. .. .. .. .. .. .. .. .. .. .. .. .. .. .. 
.. .. .. .. .. .. .. .. .. .. .. .. .. .. .. .. .. .. .. .. .. .. .. .. .. .. .. .. .. .. 
.. .. .. .. .. .. .. .. .. .. .. .. .. .. .. .. .. .. .. .. .. .. .. .. .. .. .. .. .. .. 
.. .. .. .. .. .. .. .. .. .. .. .. .. .. .. .. .. .. .. .. .. .. .. .. .. .. .. .. .. .. 
.. .. .. .. .. .. .. .. .. .. .. .. .. .. .. .. .. .. .. .. .. .. .. .. .. .. .. .. .. .. 
.. .. .. .. .. .. .. .. .. .. .. .. .. .. .. .. .. .. .. .. .. .. .. .. .. .. .. .. .. .. 
.. .. .. .. .. 
! Song 4
146 51 .. .. .. 39 .. .. .. .. .. .. 51 .. .. .. 39 .. .. .. .. .. .. .. .. .. .. .. .. .. 
.. .. .. .. .. .. .. .. .. .. .. .. .. .. .. 57 .. .. .. 45 .. .. .. .. .. .. 57 .. .. .. 
45 .. .. .. .. .. .. .. .. .. .. .. .. .. .. .. .. .. .. .. .. .. .. .. .. .. .. .. .. 59 
.. .. .. 47 .. .. .. .. .. .. 59 .. .. .. 47 .. .. .. .. .. .. .. .. .. .. 46 .. .. 47 .. 
.. .. .. .. 46 .. .. 47 .. .. .. .. .. 57 .. .. .. 45 .. .. .. .. .. .. 57 .. .. .. 45 .. 
.. .. .. .. .. .. .. .. .. .. .. .. .. .. .. .. .. .. .. .. .. .. .. .. .. .. .. 51 .. .. 
.. 39 .. .. .. .. .. .. 51 .. .. .. 39 .. .. .. .. .. .. .. .. .. .. .. .. .. .. .. .. .. 
.. .. .. .. .. .. .. .. .. .. .. 57 .. .. .. 45 .. .. .. .. .. .. 57 .. .. .. 45 .. .. .. 
.. .. .. .. .. .. .. .. .. .. .. .. .. .. .. .. .. .. .. .. .. .. .. .. .. 59 .. .. .. 47 
.. .. .. .. .. .. 59 .. .. .. 47 .. .. .. .. .. .. .. .. .. .. 46 .. .. 47 .. .. .. .. .. 
46 .. .. 47 .. .. .. .. .. 57 .. .. .. 45 .. .. .. .. .. .. 57 .. .. .. 45 .. .. .. .. .. 
.. .. .. .. .. .. .. .. .. .. .. .. .. .. .. .. .. .. .. .. .. .. .. 51 .. .. .. 39 .. .. 
.. .. .. .. 51 .. .. .. 39 .. .. .. .. .. .. .. .. .. .. .. .. .. .. .. .. .. .. .. .. .. 
.. .. .. .. .. .. .. 57 .. .. .. 45 .. .. .. .. .. .. 57 .. .. .. 45 .. .. .. .. .. .. .. 
.. .. .. .. .. .. .. .. .. .. .. .. .. .. .. .. .. .. .. .. .. 59 .. .. .. 47 .. .. .. .. 
.. .. 59 .. .. .. 47 .. .. .. .. .. .. .. .. .. .. 46 .. .. 47 .. .. .. .. .. 46 .. .. 47 
.. .. .. .. .. 57 .. .. .. 45 .. .. .. .. .. .. 57 .. .. .. 45 .. .. .. .. .. .. .. .. .. 
.. .. .. .. .. .. .. .. .. .. .. .. .. .. .. .. .. .. .. 51 .. .. .. 39 .. .. .. .. .. .. 
51 .. .. .. 39 .. .. .. .. .. .. .. .. .. .. .. .. .. .. .. .. .. .. .. .. .. .. .. .. .. 
.. .. .. 57 .. .. .. 45 .. .. .. .. .. .. 57 .. .. .. 45 .. .. .. .. .. .. .. .. .. .. .. 
.. .. .. .. .. .. .. .. .. .. .. .. .. .. .. .. .. 51 .. .. .. 39 .. .. .. .. .. .. 51 .. 
.. .. 39 .. .. .. .. .. .. .. .. .. .. .. .. .. .. .. .. .. .. .. .. .. .. .. .. .. .. .. 
.. .. .. .. .. .. .. .. .. .. .. .. .. .. .. .. .. .. .. .. .. .. .. .. .. .. .. .. .. .. 
.. .. .. .. .. .. .. .. .. .. .. .. .. .. .. .. .. .. .. .. .. .. .. .. .. .. .. .. .. .. 
.. .. .. .. .. .. .. .. .. .. .. .. .. .. .. .. .. .. .. .. .. .. .. .. .. .. .. .. .. .. 
.. .. .. .. .. .. .. .. .. .. .. .. .. .. .. .. .. .. .. .. .. .. .. .. .. .. .. .. .. .. 
.. .. .. .. .. .. .. .. .. .. .. .. .. .. .. .. .. .. .. .. .. .. .. .. .. .. .. .. .. .. 
! Song 5
146 52 .. .. .. .. 64 .. .. .. .. 52 .. .. .. .. 64 .. .. .. .. 52 .. .. .. .. 64 .. .. .. 
.. 52 .. .. .. .. 64 .. .. .. .. 52 .. .. .. .. 64 .. .. .. .. 52 .. .. .. .. 64 .. .. .. 
.. 47 .. .. .. .. 59 .. .. .. .. 47 .. .. .. .. 59 .. .. .. .. 47 .. .. .. .. 59 .. .. .. 
.. 47 .. .. .. .. 59 .. .. .. .. 47 .. .. .. .. 59 .. .. .. .. 47 .. .. .. .. 59 .. .. .. 
.. 52 .. .. .. .. 64 .. .. .. .. 52 .. .. .. .. 64 .. .. .. .. 52 .. .. .. .. 64 .. .. .. 
.. 52 .. .. .. .. 64 .. .. .. .. 52 .. .. .. .. 64 .. .. .. .. 52 .. .. .. .. 64 .. .. .. 
.. 47 .. .. .. .. 59 .. .. .. .. 47 .. .. .. .. 59 .. .. .. .. 47 .. .. .. .. 59 .. .. .. 
.. 47 .. .. .. .. 59 .. .. .. .. 47 .. .. .. .. 59 .. .. .. .. 47 .. .. .. .. 59 .. .. .. 
.. 46 .. .. .. .. 58 .. .. .. .. 46 .. .. .. .. 58 .. .. .. .. 46 .. .. .. .. 58 .. .. .. 
.. 46 .. .. .. .. 58 .. .. .. .. 46 .. .. .. .. 58 .. .. .. .. 46 .. .. .. .. 58 .. .. .. 
.. 41 .. .. .. .. 53 .. .. .. .. 41 .. .. .. .. 53 .. .. .. .. 41 .. .. .. .. 53 .. .. .. 
.. 41 .. .. .. .. 53 .. .. .. .. 41 .. .. .. .. 53 .. .. .. .. 41 .. .. .. .. 53 .. .. .. 
.. 46 .. .. .. .. 58 .. .. .. .. 46 .. .. .. .. 58 .. .. .. .. 46 .. .. .. .. 58 .. .. .. 
.. 46 .. .. .. .. 58 .. .. .. .. 46 .. .. .. .. 58 .. .. .. .. 46 .. .. .. .. 58 .. .. .. 
.. 41 .. .. .. .. 53 .. .. .. .. 41 .. .. .. .. 53 .. .. .. .. 41 .. .. .. .. 53 .. .. .. 
.. 41 .. .. .. .. 53 .. .. .. .. 41 .. .. .. .. 53 .. .. .. .. 41 .. .. .. .. 53 .. .. .. 
.. 40 .. .. .. .. 52 .. .. .. .. 40 .. .. .. .. 52 .. .. .. .. 40 .. .. .. .. 52 .. .. .. 
.. 40 .. .. .. .. 52 .. .. .. .. 40 .. .. .. .. 52 .. .. .. .. 40 .. .. .. .. 52 .. .. .. 
.. 35 .. .. .. .. 47 .. .. .. .. 35 .. .. .. .. 47 .. .. .. .. 35 .. .. .. .. 47 .. .. .. 
.. 35 .. .. .. .. 47 .. .. .. .. 35 .. .. .. .. 47 .. .. .. .. 35 .. .. .. .. 47 .. .. .. 
.. 40 .. .. .. .. 52 .. .. .. .. 40 .. .. .. .. 52 .. .. .. .. 40 .. .. .. .. 52 .. .. .. 
.. 40 .. .. .. .. 52 .. .. .. .. 40 .. .. .. .. 52 .. .. .. .. 40 .. .. .. .. 52 .. .. .. 
.. 35 .. .. .. .. 47 .. .. .. .. 35 .. .. .. .. 47 .. .. .. .. 35 .. .. .. .. 47 .. .. .. 
.. 35 .. .. .. .. 47 .. .. .. .. 35 .. .. .. .. 47 .. .. .. .. 35 .. .. .. .. 47 .. .. .. 
.. 35 .. .. .. .. 47 .. .. .. .. 35 .. .. .. .. 47 .. .. .. .. 35 .. .. .. .. 47 .. .. .. 
.. 35 .. .. .. .. 47 .. .. .. .. 35 .. .. .. .. 47 .. .. .. .. 35 .. .. .. .. 47 .. .. .. 
.. 35 .. .. .. .. 47 .. .. .. .. 35 .. .. .. .. 47 .. .. .. .. 35 .. .. .. .. 47 .. .. .. 
.. 35 .. .. .. .. 47 .. .. .. .. 35 .. .. .. .. 47 .. .. .. .. 35 .. .. .. .. 47 .. .. .. 
.. 35 .. .. .. .. 47 .. .. .. .. 35 .. .. .. .. 47 .. .. .. .. 35 .. .. .. .. 47 .. .. .. 
.. 35 .. .. .. .. 47 .. .. .. .. 35 .. .. .. .. 47 .. .. .. .. 35 .. .. .. .. 47 .. .. .. 
.. 35 .. .. .. .. 47 .. .. .. .. 35 .. .. .. .. 47 .. .. .. .. 35 .. .. .. .. 
! Song 6
146 44 .. .. .. .. 56 .. .. .. .. 44 .. .. .. .. 56 .. .. .. .. 39 .. .. .. .. 51 .. .. .. 
.. 39 .. .. .. .. 51 .. .. .. .. 32 .. .. .. .. 44 .. .. .. .. 32 .. .. .. .. 44 .. .. .. 
.. .. .. .. .. .. 56 .. .. .. .. 44 .. .. .. .. 56 .. .. .. .. 39 .. .. .. .. 51 .. .. .. 
.. 39 .. .. .. .. 51 .. .. .. .. 32 .. .. .. .. 44 .. .. .. .. 32 .. .. .. .. 44 .. .. .. 
.. 42 .. .. .. .. 54 .. .. .. .. 42 .. .. .. .. 54 .. .. .. .. 41 .. .. .. .. 53 .. .. .. 
.. 41 .. .. .. .. 53 .. .. .. .. 39 .. .. .. .. 51 .. .. .. .. 39 .. .. .. .. 51 .. .. .. 
.. 42 .. .. .. .. 54 .. .. .. .. 42 .. .. .. .. 54 .. .. .. .. 41 .. .. .. .. 53 .. .. .. 
.. 41 .. .. .. .. 53 .. .. .. .. 42 .. .. .. .. 54 .. .. .. .. 42 .. .. .. .. 54 .. .. .. 
.. 44 .. .. .. .. 56 .. .. .. .. 44 .. .. .. .. 56 .. .. .. .. 39 .. .. .. .. 51 .. .. .. 
.. 39 .. .. .. .. 51 .. .. .. .. 32 .. .. .. .. 44 .. .. .. .. 32 .. .. .. .. 44 .. .. .. 
.. .. .. .. .. .. 56 .. .. .. .. 44 .. .. .. .. 56 .. .. .. .. 39 .. .. .. .. 51 .. .. .. 
.. 39 .. .. .. .. 51 .. .. .. .. 32 .. .. .. .. 44 .. .. .. .. 32 .. .. .. .. 44 .. .. .. 
.. 42 .. .. .. .. 54 .. .. .. .. 42 .. .. .. .. 54 .. .. .. .. 41 .. .. .. .. 53 .. .. .. 
.. 41 .. .. .. .. 53 .. .. .. .. 39 .. .. .. .. 51 .. .. .. .. 39 .. .. .. .. 51 .. .. .. 
.. 42 .. .. .. .. 54 .. .. .. .. 42 .. .. .. .. 54 .. .. .. .. 41 .. .. .. .. 53 .. .. .. 
.. 41 .. .. .. .. 53 .. .. .. .. 42 .. .. .. .. 54 .. .. .. .. 42 .. .. .. .. 54 .. .. .. 
.. 56 .. .. .. 44 .. .. .. .. .. .. .. .. .. .. .. .. .. .. .. .. .. .. .. .. .. .. .. .. 
.. .. .. .. .. .. .. .. .. .. .. .. .. .. .. .. .. .. .. .. .. .. .. .. .. .. .. .. .. .. 
.. .. .. .. .. .. .. .. .. .. .. .. .. .. .. .. .. .. .. .. .. .. .. .. .. .. .. .. .. .. 
.. .. .. .. .. .. .. .. .. .. .. .. .. .. .. .. .. .. .. .. .. .. .. .. .. .. .. .. .. .. 
.. .. .. .. .. .. .. .. .. .. .. .. .. .. .. .. .. .. .. .. .. .. .. .. .. .. .. .. .. .. 
.. .. .. .. .. .. .. .. .. .. .. .. .. .. .. .. .. .. .. .. .. .. .. .. .. .. .. .. .. .. 
.. .. .. .. .. .. .. .. .. .. .. .. .. .. .. .. .. .. .. .. .. .. .. .. .. .. .. .. .. .. 
.. .. .. .. .. .. .. 
! Song 7
146 15 .. .. .. .. .. .. .. .. .. .. .. .. .. .. .. .. .. .. .. .. .. .. .. .. .. .. .. .. 
.. .. .. .. .. .. .. .. .. .. .. .. .. .. .. .. .. .. .. .. .. .. .. .. .. .. .. .. .. .. 
.. .. .. .. .. .. .. .. .. .. .. .. .. .. .. .. .. .. .. .. .. .. .. .. .. .. .. .. .. .. 
.. .. .. .. .. .. .. .. .. .. .. .. .. .. .. .. .. .. .. .. .. .. .. .. .. .. .. .. .. .. 
.. .. .. .. .. .. .. .. .. .. .. .. .. .. .. .. .. .. .. .. .. .. .. .. .. .. .. .. .. .. 
.. .. .. .. .. .. .. .. .. .. .. .. .. .. .. .. .. .. .. .. .. .. .. .. .. .. .. .. .. .. 
.. .. .. .. .. .. .. .. .. .. .. .. .. .. .. .. .. .. .. .. .. .. .. .. .. .. .. .. .. .. 
.. .. .. .. .. .. .. .. .. .. .. .. .. .. .. 21 .. .. .. .. .. .. .. .. .. .. .. .. .. .. 
.. .. .. .. .. .. .. .. .. .. .. .. .. .. .. .. .. .. .. .. .. .. .. .. .. .. .. .. .. .. 
.. .. .. .. .. .. .. .. .. .. .. .. .. .. .. .. .. .. .. .. .. .. .. .. .. .. .. .. .. .. 
.. .. .. .. .. .. .. .. .. .. .. .. .. .. .. .. .. .. .. .. .. .. .. .. .. .. .. .. .. .. 
.. .. .. .. .. .. .. .. .. .. .. .. .. .. .. .. .. .. .. .. .. .. .. .. .. .. .. .. .. .. 
.. .. .. .. .. .. .. .. .. .. .. .. .. .. .. .. .. .. .. .. .. .. .. .. .. .. .. .. .. .. 
.. .. .. .. .. .. .. .. .. .. .. .. .. .. .. .. .. .. .. .. .. .. .. .. .. .. .. .. .. .. 
.. .. .. .. .. .. .. .. .. .. .. .. .. .. .. .. .. .. .. .. .. .. .. .. .. .. .. .. .. 15 
.. .. .. .. .. .. .. .. .. .. .. .. .. .. .. .. .. .. .. .. .. .. .. .. .. .. .. .. .. .. 
.. .. .. .. .. .. .. .. .. .. .. .. .. .. .. .. .. .. .. .. .. .. .. .. .. .. .. .. .. .. 
.. .. .. .. .. .. .. .. .. .. .. .. .. .. .. .. .. .. .. .. .. .. .. .. .. .. .. .. .. .. 
.. .. .. .. .. .. .. .. .. .. .. .. .. .. .. .. .. .. .. .. .. .. .. .. .. .. .. .. .. .. 
.. .. .. .. .. .. .. .. .. .. .. .. .. .. .. .. .. .. .. .. .. .. .. .. .. .. .. .. .. .. 
.. .. .. .. .. .. .. .. .. .. .. .. .. .. .. .. .. .. .. .. .. .. .. .. .. .. .. .. .. .. 
.. .. .. .. .. .. .. .. .. .. .. .. .. .. .. .. .. .. .. .. .. .. .. .. .. .. .. .. .. .. 
.. .. .. .. .. .. .. .. .. .. .. .. .. .. .. .. .. .. .. .. .. .. .. .. .. .. .. .. .. .. 
.. .. .. .. .. .. .. .. .. .. .. .. .. .. .. .. .. .. .. .. .. .. .. .. .. .. .. .. .. .. 
.. .. .. .. .. .. .. .. .. .. .. .. .. .. .. .. .. .. .. .. .. .. .. .. .. .. .. .. .. .. 
.. .. .. .. .. .. .. .. .. .. .. .. .. .. .. .. .. .. .. .. .. .. .. .. .. .. .. .. .. .. 
.. .. .. .. .. .. .. .. .. .. .. .. .. .. .. .. .. .. .. .. .. .. .. .. .. .. .. .. .. .. 
.. .. .. .. .. .. .. .. .. .. .. .. .. .. .. .. .. .. .. .. .. .. .. .. .. .. .. .. .. .. 
.. .. .. .. .. .. .. .. .. .. .. .. .. 
! Song 8
146 22 .. .. .. .. 34 .. .. .. .. 22 .. .. .. .. 34 .. .. .. .. 22 .. .. .. 34 .. .. .. .. 
46 .. .. .. .. 34 .. .. .. .. 46 .. .. .. .. 34 .. .. .. 29 .. .. .. .. 41 .. .. .. .. 29 
.. .. .. .. 41 .. .. .. .. 29 .. .. .. 22 .. .. .. .. 34 .. .. .. .. 22 .. .. .. .. .. .. 
34 .. .. .. .. 22 .. .. .. .. 34 .. .. .. .. 22 .. .. .. .. .. .. .. .. 34 .. .. .. .. 22 
.. 34 .. .. .. .. 46 .. .. .. .. 34 .. 22 .. .. .. .. 34 .. .. .. .. 22 .. 29 .. .. .. .. 
41 .. .. .. .. 29 .. .. .. .. 41 .. .. .. .. 29 .. .. .. 22 .. .. .. .. 34 .. .. .. .. 22 
.. .. .. .. 34 .. .. .. .. 22 .. .. .. .. .. .. .. .. 34 .. .. .. .. 22 .. .. .. .. 34 .. 
.. .. .. 22 .. .. .. 34 .. .. .. .. 46 .. .. .. .. 34 .. .. .. .. 46 .. .. .. .. 34 .. .. 
.. 29 .. .. .. .. 41 .. .. .. .. 29 .. .. .. .. 41 .. .. .. .. 29 .. .. .. 22 .. .. .. .. 
34 .. .. .. .. 22 .. .. .. .. .. .. 34 .. .. .. .. 22 .. .. .. .. 34 .. .. .. .. 22 .. .. 
.. .. .. .. .. .. 34 .. .. .. .. 22 .. 34 .. .. .. .. 46 .. .. .. .. 34 .. 22 .. .. .. .. 
34 .. .. .. .. 22 .. 29 .. .. .. .. 41 .. .. .. .. 29 .. .. .. .. 41 .. .. .. .. 29 .. .. 
.. 22 .. .. .. .. 34 .. .. .. .. 22 .. .. .. .. 34 .. .. .. .. 22 .. .. .. .. .. .. .. .. 
34 .. .. .. .. 22 .. .. .. .. 34 .. .. .. .. 22 .. .. .. 34 .. .. .. .. 46 .. .. .. .. 34 
.. .. .. .. 46 .. .. .. .. 34 .. .. .. 29 .. .. .. .. 41 .. .. .. .. 29 .. .. .. .. 41 .. 
.. .. .. 29 .. .. .. 22 .. .. .. .. 34 .. .. .. .. 22 .. .. .. .. .. .. 34 .. .. .. .. 22 
.. .. .. .. 34 .. .. .. .. 22 .. .. .. .. .. .. .. .. 34 .. .. .. .. 22 .. 34 .. .. .. .. 
46 .. .. .. .. 34 .. 22 .. .. .. .. 34 .. .. .. .. 22 .. 29 .. .. .. .. 41 .. .. .. .. 29 
.. .. .. .. 41 .. .. .. .. 29 .. .. .. 22 .. .. .. .. 34 .. .. .. .. 22 .. .. .. .. 34 .. 
.. .. .. 22 .. .. .. 34 .. .. .. .. 46 .. .. .. .. 34 .. .. .. .. 46 .. .. .. .. 34 .. .. 
.. 46 .. .. .. .. 58 .. .. .. .. 46 .. .. .. .. 58 .. .. .. .. 46 .. .. .. 41 .. .. .. .. 
53 .. .. .. .. 41 .. .. .. .. 53 .. .. .. .. 41 .. .. .. 34 .. .. .. .. 46 .. .. .. .. 34 
.. 58 .. .. .. 46 .. .. .. .. .. .. .. .. .. .. .. .. .. .. .. .. .. .. .. .. .. .. .. .. 
.. .. .. .. .. .. .. .. .. .. .. .. .. .. .. .. .. .. .. .. .. .. .. .. .. .. .. .. .. .. 
.. .. .. .. .. .. .. .. .. .. .. .. .. .. .. .. .. .. .. .. .. .. .. .. .. .. .. .. .. .. 
.. .. .. .. .. .. .. .. .. .. .. .. .. .. .. .. .. .. .. 34 .. .. .. .. .. .. .. .. .. .. 
.. .. .. .. .. .. .. .. .. .. .. .. .. .. .. .. .. .. .. .. .. .. .. .. .. .. .. .. .. .. 
.. .. .. .. .. .. .. .. .. .. .. .. .. .. .. .. .. .. .. .. .. .. .. .. .. .. .. .. .. .. 
.. .. .. .. .. .. .. .. .. .. .. .. .. .. .. .. .. .. .. .. .. .. .. .. .. .. .. .. .. .. 
.. .. .. .. .. .. .. .. .. 
! End
