! Simple
! Song 0
146 14 .. .. .. .. .. .. .. .. .. .. .. .. .. 48 .. .. .. .. .. .. .. .. .. .. .. .. .. .. 
.. .. .. .. .. .. .. .. .. .. .. .. .. 48 .. .. .. .. .. .. .. .. .. .. .. .. .. .. .. .. 
.. .. .. .. .. .. .. .. .. .. .. 48 .. .. .. .. .. .. .. .. .. .. .. .. .. 48 .. .. .. .. 
.. .. .. .. .. .. .. .. .. 48 .. .. .. .. .. .. .. .. .. .. .. .. .. .. .. .. .. .. .. .. 
.. .. .. .. .. .. .. 48 .. .. .. .. .. .. .. .. .. .. .. .. .. .. .. .. .. .. .. .. .. .. 
.. .. .. .. .. 48 .. .. .. .. .. .. .. .. .. .. .. .. .. .. .. .. .. .. .. .. .. .. .. .. 
.. .. .. 49 .. .. .. .. .. .. .. .. .. .. .. .. .. 49 .. .. .. .. .. .. .. .. .. .. .. .. 
.. 49 .. .. .. .. .. .. .. .. .. .. .. .. .. .. .. .. .. .. .. .. .. .. .. .. .. .. .. 48 
.. .. .. .. .. .. .. .. .. .. .. .. .. .. .. .. .. .. .. .. .. .. .. .. .. .. .. 48 .. .. 
.. .. .. .. .. .. .. .. .. .. .. .. .. .. .. .. .. .. .. .. .. .. .. .. .. 48 .. .. .. .. 
.. .. .. .. .. .. .. .. .. 48 .. .. .. .. .. .. .. .. .. .. .. .. .. 48 .. .. .. .. .. .. 
.. .. .. .. .. .. .. .. .. .. .. .. .. .. .. .. .. .. .. .. .. 49 .. .. .. .. .. .. .. .. 
.. .. .. .. .. .. .. .. .. .. .. .. .. .. .. .. .. .. .. 49 .. .. .. .. .. .. .. .. .. .. 
.. .. .. .. .. .. .. .. .. .. .. .. .. .. .. .. .. 48 .. .. .. .. .. .. .. .. .. .. .. .. 
.. 48 .. .. .. .. .. .. .. .. .. .. .. .. .. 48 .. .. .. .. .. .. .. .. .. .. .. .. .. .. 
.. .. .. .. .. .. .. .. .. .. .. .. .. 48 .. .. .. .. .. .. .. .. .. .. .. .. .. .. .. .. 
.. .. .. .. .. .. .. .. .. .. .. 48 .. .. .. .. .. .. .. .. .. .. .. .. .. .. .. .. .. .. 
.. .. .. .. .. .. .. .. .. 48 .. .. .. .. .. .. .. .. .. .. .. .. .. 48 .. .. .. .. .. .. 
.. .. .. .. .. .. .. 48 .. .. .. .. .. .. .. .. .. .. .. .. .. .. .. .. .. .. .. .. .. .. 
.. .. .. .. .. 48 .. .. .. .. .. .. .. .. .. .. .. .. .. .. .. .. .. .. .. .. .. .. .. .. 
.. .. .. 48 .. .. .. .. .. .. .. .. .. .. .. .. .. .. .. .. .. .. .. .. .. .. .. .. .. .. 
.. 49 .. .. .. .. .. .. .. .. .. .. .. .. .. 49 .. .. .. .. .. .. .. .. .. .. .. .. .. 49 
.. .. .. .. .. .. .. .. .. .. .. .. .. .. .. .. .. .. .. .. .. .. .. .. .. .. .. 48 .. .. 
.. .. .. .. .. .. .. .. .. .. .. .. .. .. .. .. .. .. .. .. .. .. .. .. .. 48 .. .. .. .. 
.. .. .. .. .. .. .. .. .. .. .. .. .. .. .. .. .. .. .. .. .. .. .. 48 .. .. .. .. .. .. 
.. .. .. .. .. .. .. 48 .. .. .. .. .. .. .. .. .. .. .. .. .. 48 .. .. .. .. .. .. .. .. 
.. .. .. .. .. .. .. .. .. .. .. .. .. .. .. .. .. .. .. 49 .. .. .. .. .. .. .. .. .. .. 
.. .. .. .. .. .. .. .. .. .. .. .. .. .. .. .. .. 49 .. .. .. .. .. .. .. .. .. .. .. .. 
.. .. .. .. .. .. .. .. .. .. .. .. .. .. .. 48 .. .. .. .. .. .. .. .. .. .. .. .. .. 48 
.. .. .. .. .. .. .. .. .. .. .. .. .. 48 .. .. .. .. .. .. .. .. .. .. .. .. .. .. .. .. 
.. .. .. .. .. .. .. .. .. .. .. 56 .. .. .. .. .. .. .. .. .. .. .. .. .. .. .. .. .. .. 
.. .. .. .. .. .. .. .. .. 56 .. .. .. .. .. .. .. .. .. .. .. .. .. .. .. .. .. .. .. .. 
.. .. .. .. .. .. .. 56 .. .. .. .. .. .. .. .. .. .. .. .. .. .. .. .. .. .. .. .. .. .. 
.. .. .. .. .. 56 .. .. .. .. .. .. .. .. .. .. .. .. .. .. .. .. .. .. .. .. .. .. .. .. 
.. .. .. 56 .. .. .. .. .. .. .. .. .. .. .. .. .. .. .. .. .. .. .. .. .. .. .. .. .. .. 
.. 48 .. .. .. .. .. .. .. .. .. .. .. .. .. 48 .. .. .. .. .. .. .. .. .. .. .. .. .. 53 
.. .. .. .. .. .. .. .. .. .. .. .. .. 48 .. .. .. .. .. .. .. .. .. .. .. .. .. 41 .. .. 
.. .. .. .. .. .. .. .. .. .. .. .. .. .. .. .. .. .. .. .. .. .. .. .. .. 53 .. .. .. .. 
.. .. .. .. .. .. .. .. .. .. .. .. .. .. .. .. .. .. .. .. .. .. .. 53 .. .. .. .. .. .. 
.. .. .. .. .. .. .. .. .. .. .. .. .. .. .. .. .. .. .. .. .. 53 .. .. .. .. .. .. .. .. 
.. .. .. .. .. .. .. .. .. .. .. .. .. .. .. .. .. .. .. 53 .. .. .. .. .. .. .. .. .. .. 
.. .. .. .. .. .. .. .. .. .. .. .. .. .. .. .. .. 53 .. .. .. .. .. .. .. .. .. .. .. .. 
.. .. .. .. .. .. .. .. .. .. .. .. .. .. .. 46 .. .. .. .. .. .. .. .. .. .. .. .. .. 46 
.. .. .. .. .. .. .. .. .. .. .. .. .. 55 .. .. .. .. .. .. .. .. .. .. .. .. .. 46 .. .. 
.. .. .. .. .. .. .. .. .. .. .. 55 .. .. .. .. .. .. .. .. .. .. .. .. .. .. .. .. .. .. 
.. .. .. .. .. .. .. .. .. 56 .. .. .. .. .. .. .. .. .. .. .. .. .. .. .. .. .. .. .. .. 
.. .. .. .. .. .. .. 56 .. .. .. .. .. .. .. .. .. .. .. .. .. .. .. .. .. .. .. .. .. .. 
.. .. .. .. .. 56 .. .. .. .. .. .. .. .. .. .. .. .. .. .. .. .. .. .. .. .. .. .. .. .. 
.. .. .. 56 .. .. .. .. .. .. .. .. .. .. .. .. .. .. .. .. .. .. .. .. .. .. .. .. .. .. 
.. 56 .. .. .. .. .. .. .. .. .. .. .. .. .. .. .. .. .. .. .. .. .. .. .. .. .. .. .. 48 
.. .. .. .. .. .. .. .. .. .. .. .. .. 48 .. .. .. .. .. .. .. .. .. .. .. .. .. 53 .. .. 
.. .. .. .. .. .. .. .. .. .. .. 48 .. .. .. .. .. .. .. .. .. .. .. .. .. 41 .. .. .. .. 
.. .. .. .. .. .. .. .. .. .. .. .. .. .. .. .. .. .. .. .. .. .. .. 53 .. .. .. .. .. .. 
.. .. .. .. .. .. .. .. .. .. .. .. .. .. .. .. .. .. .. .. .. 53 .. .. .. .. .. .. .. .. 
.. .. .. .. .. .. .. .. .. .. .. .. .. .. .. .. .. .. .. 53 .. .. .. .. .. .. .. .. .. .. 
.. .. .. .. .. .. .. .. .. .. .. .. .. .. .. .. .. 53 .. .. .. .. .. .. .. .. .. .. .. .. 
.. .. .. .. .. .. .. .. .. .. .. .. .. .. .. 53 .. .. .. .. .. .. .. .. .. .. .. .. .. .. 
.. .. .. .. .. .. .. .. .. .. .. .. .. 46 .. .. .. .. .. .. .. .. .. .. .. .. .. 46 .. .. 
.. .. .. .. .. .. .. .. .. .. .. 55 .. .. .. .. .. .. .. .. .. .. .. .. .. .. .. .. .. .. 
.. .. .. .. .. .. .. .. .. .. .. .. .. .. .. .. .. .. .. .. .. .. .. .. .. .. .. .. .. .. 
.. .. .. .. .. .. .. 51 .. .. .. .. .. .. .. .. .. .. .. .. .. .. .. .. .. .. .. .. .. .. 
.. .. .. .. .. .. .. .. .. .. .. .. .. .. .. .. .. .. .. 56 .. .. .. .. .. .. .. .. .. .. 
.. .. .. 58 .. .. .. .. .. .. .. .. .. .. .. .. .. 51 .. .. .. .. .. .. .. .. .. .. .. .. 
.. .. .. .. .. .. .. .. .. .. .. .. .. .. .. 58 .. .. .. .. .. .. .. .. .. .. .. .. .. 56 
.. .. .. .. .. .. .. .. .. .. .. .. .. 51 .. .. .. .. .. .. .. .. .. .. .. .. .. .. .. .. 
.. .. .. .. .. .. .. .. .. .. .. 56 .. .. .. .. .. .. .. .. .. .. .. .. .. 55 .. .. .. .. 
.. .. .. .. .. .. .. .. .. .. .. .. .. .. .. .. .. .. .. .. .. .. .. .. .. .. .. .. .. .. 
.. .. .. .. .. .. .. 58 .. .. .. .. .. .. .. .. .. .. .. .. .. 51 .. .. .. .. .. .. .. .. 
.. .. .. .. .. .. .. .. .. .. .. .. .. .. .. .. .. .. .. .. .. .. .. .. .. .. .. .. .. .. 
.. .. .. 56 .. .. .. .. .. .. .. .. .. .. .. .. .. 58 .. .. .. .. .. .. .. .. .. .. .. .. 
.. 51 .. .. .. .. .. .. .. .. .. .. .. .. .. .. .. .. .. .. .. .. .. .. .. .. .. .. .. 58 
.. .. .. .. .. .. .. .. .. .. .. .. .. 56 .. .. .. .. .. .. .. .. .. .. .. .. .. 51 .. .. 
.. .. .. .. .. .. .. .. .. .. .. .. .. .. .. .. .. .. .. .. .. .. .. .. .. 56 .. .. .. .. 
.. .. .. .. .. .. .. .. .. 55 .. .. .. .. .. .. .. .. .. .. .. .. .. .. .. .. .. .. .. .. 
.. .. .. .. .. .. .. .. .. .. .. .. .. .. .. .. .. .. .. .. .. .. .. .. .. .. .. .. .. .. 
.. .. .. .. .. 48 .. .. .. .. .. .. .. .. .. .. .. .. .. .. .. .. .. .. .. .. .. .. .. .. 
.. .. .. 48 .. .. .. .. .. .. .. .. .. .. .. .. .. .. .. .. .. .. .. .. .. .. .. .. .. .. 
.. 48 .. .. .. .. .. .. .. .. .. .. .. .. .. 48 .. .. .. .. .. .. .. .. .. .. .. .. .. 48 
.. .. .. .. .. .. .. .. .. .. .. .. .. .. .. .. .. .. .. .. .. .. .. .. .. .. .. 48 .. .. 
.. .. .. .. .. .. .. .. .. .. .. .. .. .. .. .. .. .. .. .. .. .. .. .. .. 48 .. .. .. .. 
.. .. .. .. .. .. .. .. .. .. .. .. .. .. .. .. .. .. .. .. .. .. .. 49 .. .. .. .. .. .. 
.. .. .. .. .. .. .. 49 .. .. .. .. .. .. .. .. .. .. .. .. .. 49 .. .. .. .. .. .. .. .. 
.. .. .. .. .. .. .. .. .. .. .. .. .. .. .. .. .. .. .. 48 .. .. .. .. .. .. .. .. .. .. 
.. .. .. .. .. .. .. .. .. .. .. .. .. .. .. .. .. 48 .. .. .. .. .. .. .. .. .. .. .. .. 
.. .. .. .. .. .. .. .. .. .. .. .. .. .. .. 48 .. .. .. .. .. .. .. .. .. .. .. .. .. 48 
.. .. .. .. .. .. .. .. .. .. .. .. .. 48 .. .. .. .. .. .. .. .. .. .. .. .. .. .. .. .. 
.. .. .. .. .. .. .. .. .. .. .. 49 .. .. .. .. .. .. .. .. .. .. .. .. .. .. .. .. .. .. 
.. .. .. .. .. .. .. .. .. 49 .. .. .. .. .. .. .. .. .. .. .. .. .. .. .. .. .. .. .. .. 
.. .. .. .. .. .. .. 48 .. .. .. .. .. .. .. .. .. .. .. .. .. 48 .. .. .. .. .. .. .. .. 
.. .. .. .. .. 48 .. .. .. .. .. .. .. .. .. .. .. .. .. .. .. .. .. .. .. .. .. .. .. .. 
.. .. .. 48 .. .. .. .. .. .. .. .. .. .. .. .. .. .. .. .. .. .. .. .. .. .. .. .. .. .. 
.. 48 .. .. .. .. .. .. .. .. .. .. .. .. .. .. .. .. .. .. .. .. .. .. .. .. .. .. .. 48 
.. .. .. .. .. .. .. .. .. .. .. .. .. 48 .. .. .. .. .. .. .. .. .. .. .. .. .. 48 .. .. 
.. .. .. .. .. .. .. .. .. .. .. .. .. .. .. .. .. .. .. .. .. .. .. .. .. 48 .. .. .. .. 
.. .. .. .. .. .. .. .. .. .. .. .. .. .. .. .. .. .. .. .. .. .. .. 48 .. .. .. .. .. .. 
.. .. .. .. .. .. .. .. .. .. .. .. .. .. .. .. .. .. .. .. .. 49 .. .. .. .. .. .. .. .. 
.. .. .. .. .. 49 .. .. .. .. .. .. .. .. .. .. .. .. .. 49 .. .. .. .. .. .. .. .. .. .. 
.. .. .. .. .. .. .. .. .. .. .. .. .. .. .. .. .. 48 .. .. .. .. .. .. .. .. .. .. .. .. 
.. .. .. .. .. .. .. .. .. .. .. .. .. .. .. 48 .. .. .. .. .. .. .. .. .. .. .. .. .. .. 
.. .. .. .. .. .. .. .. .. .. .. .. .. 48 .. .. .. .. .. .. .. .. .. .. .. .. .. 48 .. .. 
.. .. .. .. .. .. .. .. .. .. .. 48 .. .. .. .. .. .. .. .. .. .. .. .. .. .. .. .. .. .. 
.. .. .. .. .. .. .. .. .. 49 .. .. .. .. .. .. .. .. .. .. .. .. .. .. .. .. .. .. .. .. 
.. .. .. .. .. .. .. 49 .. .. .. .. .. .. .. .. .. .. .. .. .. .. .. .. .. .. .. .. .. .. 
.. .. .. .. .. 48 .. .. .. .. .. .. .. .. .. .. .. .. .. 48 .. .. .. .. .. .. .. .. .. .. 
.. .. .. 48 .. .. .. .. .. .. .. .. .. .. .. .. .. .. .. .. .. .. .. .. .. .. .. .. .. .. 
.. 48 .. .. .. .. .. .. .. .. .. .. .. .. .. .. .. .. .. .. .. .. .. .. .. .. .. .. .. 48 
.. .. .. .. .. .. .. .. .. .. .. .. .. .. .. .. .. .. .. .. .. .. .. .. .. .. .. 48 .. .. 
.. .. .. .. .. .. .. .. .. .. .. 48 .. .. .. .. .. .. .. .. .. .. .. .. .. 48 .. .. .. .. 
.. .. .. .. .. .. .. .. .. .. .. .. .. .. .. .. .. .. .. .. .. .. .. 48 .. .. .. .. .. .. 
.. .. .. .. .. .. .. .. .. .. .. .. .. .. .. .. .. .. .. .. .. 48 .. .. .. .. .. .. .. .. 
.. .. .. .. .. .. .. .. .. .. .. .. .. .. .. .. .. .. .. 49 .. .. .. .. .. .. .. .. .. .. 
.. .. .. 49 .. .. .. .. .. .. .. .. .. .. .. .. .. 49 .. .. .. .. .. .. .. .. .. .. .. .. 
.. .. .. .. .. .. .. .. .. .. .. .. .. .. .. 48 .. .. .. .. .. .. .. .. .. .. .. .. .. .. 
.. .. .. .. .. .. .. .. .. .. .. .. .. 48 .. .. .. .. .. .. .. .. .. .. .. .. .. .. .. .. 
.. .. .. .. .. .. .. .. .. .. .. 48 .. .. .. .. .. .. .. .. .. .. .. .. .. 48 .. .. .. .. 
.. .. .. .. .. .. .. .. .. 48 .. .. .. .. .. .. .. .. .. .. .. .. .. .. .. .. .. .. .. .. 
.. .. .. .. .. .. .. 49 .. .. .. .. .. .. .. .. .. .. .. .. .. .. .. .. .. .. .. .. .. .. 
.. .. .. .. .. 49 .. .. .. .. .. .. .. .. .. .. .. .. .. .. .. .. .. .. .. .. .. .. .. .. 
.. .. .. 48 .. .. .. .. .. .. .. .. .. .. .. .. .. 48 .. .. .. .. .. .. .. .. .. .. .. .. 
.. 48 .. .. .. .. .. .. .. .. .. .. .. .. .. .. .. .. .. .. .. .. .. .. .. .. .. .. .. 56 
.. .. .. .. .. .. .. .. .. .. .. .. .. .. .. .. .. .. .. .. .. .. .. .. .. .. .. 56 .. .. 
.. .. .. .. .. .. .. .. .. .. .. .. .. .. .. .. .. .. .. .. .. .. .. .. .. 56 .. .. .. .. 
.. .. .. .. .. .. .. .. .. .. .. .. .. .. .. .. .. .. .. .. .. .. .. 56 .. .. .. .. .. .. 
.. .. .. .. .. .. .. .. .. .. .. .. .. .. .. .. .. .. .. .. .. 56 .. .. .. .. .. .. .. .. 
.. .. .. .. .. .. .. .. .. .. .. .. .. .. .. .. .. .. .. 48 .. .. .. .. .. .. .. .. .. .. 
.. .. .. 48 .. .. .. .. .. .. .. .. .. .. .. .. .. 53 .. .. .. .. .. .. .. .. .. .. .. .. 
.. 48 .. .. .. .. .. .. .. .. .. .. .. .. .. 41 .. .. .. .. .. .. .. .. .. .. .. .. .. .. 
.. .. .. .. .. .. .. .. .. .. .. .. .. 53 .. .. .. .. .. .. .. .. .. .. .. .. .. .. .. .. 
.. .. .. .. .. .. .. .. .. .. .. 53 .. .. .. .. .. .. .. .. .. .. .. .. .. .. .. .. .. .. 
.. .. .. .. .. .. .. .. .. 53 .. .. .. .. .. .. .. .. .. .. .. .. .. .. .. .. .. .. .. .. 
.. .. .. .. .. .. .. 53 .. .. .. .. .. .. .. .. .. .. .. .. .. .. .. .. .. .. .. .. .. .. 
.. .. .. .. .. 53 .. .. .. .. .. .. .. .. .. .. .. .. .. .. .. .. .. .. .. .. .. .. .. .. 
.. .. .. 46 .. .. .. .. .. .. .. .. .. .. .. .. .. 46 .. .. .. .. .. .. .. .. .. .. .. .. 
.. 55 .. .. .. .. .. .. .. .. .. .. .. .. .. 46 .. .. .. .. .. .. .. .. .. .. .. .. .. 55 
.. .. .. .. .. .. .. .. .. .. .. .. .. .. .. .. .. .. .. .. .. .. .. .. .. .. .. 56 .. .. 
.. .. .. .. .. .. .. .. .. .. .. .. .. .. .. .. .. .. .. .. .. .. .. .. .. 56 .. .. .. .. 
.. .. .. .. .. .. .. .. .. .. .. .. .. .. .. .. .. .. .. .. .. .. .. 56 .. .. .. .. .. .. 
.. .. .. .. .. .. .. .. .. .. .. .. .. .. .. .. .. .. .. .. .. 56 .. .. .. .. .. .. .. .. 
.. .. .. .. .. .. .. .. .. .. .. .. .. .. .. .. .. .. .. 56 .. .. .. .. .. .. .. .. .. .. 
.. .. .. .. .. .. .. .. .. .. .. .. .. .. .. .. .. 48 .. .. .. .. .. .. .. .. .. .. .. .. 
.. 48 .. .. .. .. .. .. .. .. .. .. .. .. .. 53 .. .. .. .. .. .. .. .. .. .. .. .. .. 48 
.. .. .. .. .. .. .. .. .. .. .. .. .. 41 .. .. .. .. .. .. .. .. .. .. .. .. .. .. .. .. 
.. .. .. .. .. .. .. .. .. .. .. 53 .. .. .. .. .. .. .. .. .. .. .. .. .. .. .. .. .. .. 
.. .. .. .. .. .. .. .. .. 53 .. .. .. .. .. .. .. .. .. .. .. .. .. .. .. .. .. .. .. .. 
.. .. .. .. .. .. .. 53 .. .. .. .. .. .. .. .. .. .. .. .. .. .. .. .. .. .. .. .. .. .. 
.. .. .. .. .. 53 .. .. .. .. .. .. .. .. .. .. .. .. .. .. .. .. .. .. .. .. .. .. .. .. 
.. .. .. 53 .. .. .. .. .. .. .. .. .. .. .. .. .. .. .. .. .. .. .. .. .. .. .. .. .. .. 
.. 46 .. .. .. .. .. .. .. .. .. .. .. .. .. 46 .. .. .. .. .. .. .. .. .. .. .. .. .. 55 
.. .. .. .. .. .. .. .. .. .. .. .. .. .. .. .. .. .. .. .. .. .. .. .. .. .. .. .. .. .. 
.. .. .. .. .. .. .. .. .. .. .. .. .. .. .. .. .. .. .. .. .. .. .. .. .. 51 .. .. .. .. 
.. .. .. .. .. .. .. .. .. .. .. .. .. .. .. .. .. .. .. .. .. .. .. .. .. .. .. .. .. .. 
.. .. .. .. .. .. .. 56 .. .. .. .. .. .. .. .. .. .. .. .. .. 58 .. .. .. .. .. .. .. .. 
.. .. .. .. .. 51 .. .. .. .. .. .. .. .. .. .. .. .. .. .. .. .. .. .. .. .. .. .. .. .. 
.. .. .. 58 .. .. .. .. .. .. .. .. .. .. .. .. .. 56 .. .. .. .. .. .. .. .. .. .. .. .. 
.. 51 .. .. .. .. .. .. .. .. .. .. .. .. .. .. .. .. .. .. .. .. .. .. .. .. .. .. .. 56 
.. .. .. .. .. .. .. .. .. .. .. .. .. 55 .. .. .. .. .. .. .. .. .. .. .. .. .. .. .. .. 
.. .. .. .. .. .. .. .. .. .. .. .. .. .. .. .. .. .. .. .. .. .. .. .. .. 58 .. .. .. .. 
.. .. .. .. .. .. .. .. .. 51 .. .. .. .. .. .. .. .. .. .. .. .. .. .. .. .. .. .. .. .. 
.. .. .. .. .. .. .. .. .. .. .. .. .. .. .. .. .. .. .. .. .. 56 .. .. .. .. .. .. .. .. 
.. .. .. .. .. 58 .. .. .. .. .. .. .. .. .. .. .. .. .. 51 .. .. .. .. .. .. .. .. .. .. 
.. .. .. .. .. .. .. .. .. .. .. .. .. .. .. .. .. 58 .. .. .. .. .. .. .. .. .. .. .. .. 
.. 56 .. .. .. .. .. .. .. .. .. .. .. .. .. 51 .. .. .. .. .. .. .. .. .. .. .. .. .. .. 
.. .. .. .. .. .. .. .. .. .. .. .. .. 56 .. .. .. .. .. .. .. .. .. .. .. .. .. 55 .. .. 
.. .. .. .. .. .. .. .. .. .. .. .. .. .. .. .. .. .. .. .. .. .. .. .. .. .. .. .. .. .. 
.. .. .. .. .. .. .. .. .. .. .. .. .. .. .. .. .. .. .. .. .. .. .. 48 .. .. .. .. .. .. 
.. .. .. .. .. .. .. .. .. .. .. .. .. .. .. .. .. .. .. .. .. 48 .. .. .. .. .. .. .. .. 
.. .. .. .. .. .. .. .. .. .. .. .. .. .. .. .. .. .. .. 48 .. .. .. .. .. .. .. .. .. .. 
.. .. .. 48 .. .. .. .. .. .. .. .. .. .. .. .. .. 48 .. .. .. .. .. .. .. .. .. .. .. .. 
.. .. .. .. .. .. .. .. .. .. .. .. .. .. .. 48 .. .. .. .. .. .. .. .. .. .. .. .. .. .. 
.. .. .. .. .. .. .. .. .. .. .. .. .. 48 .. .. .. .. .. .. .. .. .. .. .. .. .. .. .. .. 
.. .. .. .. .. .. .. .. .. .. .. 49 .. .. .. .. .. .. .. .. .. .. .. .. .. 49 .. .. .. .. 
.. .. .. .. .. .. .. .. .. 49 .. .. .. .. .. .. .. .. .. .. .. .. .. .. .. .. .. .. .. .. 
.. .. .. .. .. .. .. 48 .. .. .. .. .. .. .. .. .. .. .. .. .. .. .. .. .. .. .. .. .. .. 
.. .. .. .. .. 48 .. .. .. .. .. .. .. .. .. .. .. .. .. .. .. .. .. .. .. .. .. .. .. .. 
.. .. .. 48 .. .. .. .. .. .. .. .. .. .. .. .. .. 48 .. .. .. .. .. .. .. .. .. .. .. .. 
.. 48 .. .. .. .. .. .. .. .. .. .. .. .. .. .. .. .. .. .. .. .. .. .. .. .. .. .. .. 49 
.. .. .. .. .. .. .. .. .. .. .. .. .. .. .. .. .. .. .. .. .. .. .. .. .. .. .. 49 .. .. 
.. .. .. .. .. .. .. .. .. .. .. .. .. .. .. .. .. .. .. .. .. .. .. .. .. 48 .. .. .. .. 
.. .. .. .. .. .. .. .. .. 48 .. .. .. .. .. .. .. .. .. .. .. .. .. 48 .. .. .. .. .. .. 
.. .. .. .. .. .. .. .. .. .. .. .. .. .. .. .. .. .. .. .. .. 48 .. .. .. .. .. .. .. .. 
.. .. .. .. .. .. .. .. .. .. .. .. .. .. .. .. .. .. .. 48 .. .. .. .. .. .. .. .. .. .. 
.. .. .. .. .. .. .. .. .. .. .. .. .. .. .. .. .. 48 .. .. .. .. .. .. .. .. .. .. .. .. 
.. 48 .. .. .. .. .. .. .. .. .. .. .. .. .. 48 .. .. .. .. .. .. .. .. .. .. .. .. .. .. 
.. .. .. .. .. .. .. .. .. .. .. .. .. 48 .. .. .. .. .. .. .. .. .. .. .. .. .. .. .. .. 
.. .. .. .. .. .. .. .. .. .. .. 48 .. .. .. .. .. .. .. .. .. .. .. .. .. .. .. .. .. .. 
.. .. .. .. .. .. .. .. .. 49 .. .. .. .. .. .. .. .. .. .. .. .. .. 49 .. .. .. .. .. .. 
.. .. .. .. .. .. .. 49 .. .. .. .. .. .. .. .. .. .. .. .. .. .. .. .. .. .. .. .. .. .. 
.. .. .. .. .. 48 .. .. .. .. .. .. .. .. .. .. .. .. .. .. .. .. .. .. .. .. .. .. .. .. 
.. .. .. 48 .. .. .. .. .. .. .. .. .. .. .. .. .. .. .. .. .. .. .. .. .. .. .. .. .. .. 
.. 48 .. .. .. .. .. .. .. .. .. .. .. .. .. 48 .. .. .. .. .. .. .. .. .. .. .. .. .. 48 
.. .. .. .. .. .. .. .. .. .. .. .. .. .. .. .. .. .. .. .. .. .. .. .. .. .. .. 49 .. .. 
.. .. .. .. .. .. .. .. .. .. .. .. .. .. .. .. .. .. .. .. .. .. .. .. .. 49 .. .. .. .. 
.. .. .. .. .. .. .. .. .. .. .. .. .. .. .. .. .. .. .. .. .. .. .. 48 .. .. .. .. .. .. 
.. .. .. .. .. .. .. 48 .. .. .. .. .. .. .. .. .. .. .. .. .. 48 .. .. .. .. .. .. .. .. 
.. .. .. .. .. .. .. .. .. .. .. .. .. .. .. .. .. .. .. 48 .. .. .. .. .. .. .. .. .. .. 
.. .. .. .. .. .. .. .. .. .. .. .. .. .. .. .. .. 48 .. .. .. .. .. .. .. .. .. .. .. .. 
.. .. .. .. .. .. .. .. .. .. .. .. .. .. .. 48 .. .. .. .. .. .. .. .. .. .. .. .. .. 48 
.. .. .. .. .. .. .. .. .. .. .. .. .. 48 .. .. .. .. .. .. .. .. .. .. .. .. .. .. .. .. 
.. .. .. .. .. .. .. .. .. .. .. 48 .. .. .. .. .. .. .. .. .. .. .. .. .. .. .. .. .. .. 
.. .. .. .. .. .. .. .. .. 48 .. .. .. .. .. .. .. .. .. .. .. .. .. .. .. .. .. .. .. .. 
.. .. .. .. .. .. .. 49 .. .. .. .. .. .. .. .. .. .. .. .. .. 49 .. .. .. .. .. .. .. .. 
.. .. .. .. .. 49 .. .. .. .. .. .. .. .. .. .. .. .. .. .. .. .. .. .. .. .. .. .. .. .. 
.. .. .. 48 .. .. .. .. .. .. .. .. .. .. .. .. .. .. .. .. .. .. .. .. .. .. .. .. .. .. 
.. 48 .. .. .. .. .. .. .. .. .. .. .. .. .. .. .. .. .. .. .. .. .. .. .. .. .. .. .. 48 
.. .. .. .. .. .. .. .. .. .. .. .. .. 48 .. .. .. .. .. .. .. .. .. .. .. .. .. 48 .. .. 
.. .. .. .. .. .. .. .. .. .. .. .. .. .. .. .. .. .. .. .. .. .. .. .. .. 49 .. .. .. .. 
.. .. .. .. .. .. .. .. .. .. .. .. .. .. .. .. .. .. .. .. .. .. .. 49 .. .. .. .. .. .. 
.. .. .. .. .. .. .. .. .. .. .. .. .. .. .. .. .. .. .. .. .. 48 .. .. .. .. .. .. .. .. 
.. .. .. .. .. 48 .. .. .. .. .. .. .. .. .. .. .. .. .. 48 .. .. .. .. .. .. .. .. .. .. 
.. .. .. .. .. .. .. .. .. .. .. .. .. .. .. .. .. 56 .. .. .. .. .. .. .. .. .. .. .. .. 
.. .. .. .. .. .. .. .. .. .. .. .. .. .. .. 56 .. .. .. .. .. .. .. .. .. .. .. .. .. .. 
.. .. .. .. .. .. .. .. .. .. .. .. .. 56 .. .. .. .. .. .. .. .. .. .. .. .. .. .. .. .. 
.. .. .. .. .. .. .. .. .. .. .. 56 .. .. .. .. .. .. .. .. .. .. .. .. .. .. .. .. .. .. 
.. .. .. .. .. .. .. .. .. 56 .. .. .. .. .. .. .. .. .. .. .. .. .. .. .. .. .. .. .. .. 
.. .. .. .. .. .. .. 48 .. .. .. .. .. .. .. .. .. .. .. .. .. 48 .. .. .. .. .. .. .. .. 
.. .. .. .. .. 53 .. .. .. .. .. .. .. .. .. .. .. .. .. 48 .. .. .. .. .. .. .. .. .. .. 
.. .. .. 41 .. .. .. .. .. .. .. .. .. .. .. .. .. .. .. .. .. .. .. .. .. .. .. .. .. .. 
.. 53 .. .. .. .. .. .. .. .. .. .. .. .. .. .. .. .. .. .. .. .. .. .. .. .. .. .. .. 53 
.. .. .. .. .. .. .. .. .. .. .. .. .. .. .. .. .. .. .. .. .. .. .. .. .. .. .. 53 .. .. 
.. .. .. .. .. .. .. .. .. .. .. .. .. .. .. .. .. .. .. .. .. .. .. .. .. 53 .. .. .. .. 
.. .. .. .. .. .. .. .. .. .. .. .. .. .. .. .. .. .. .. .. .. .. .. 53 .. .. .. .. .. .. 
.. .. .. .. .. .. .. .. .. .. .. .. .. .. .. .. .. .. .. .. .. 46 .. .. .. .. .. .. .. .. 
.. .. .. .. .. 46 .. .. .. .. .. .. .. .. .. .. .. .. .. 55 .. .. .. .. .. .. .. .. .. .. 
.. .. .. 46 .. .. .. .. .. .. .. .. .. .. .. .. .. 55 .. .. .. .. .. .. .. .. .. .. .. .. 
.. .. .. .. .. .. .. .. .. .. .. .. .. .. .. 56 .. .. .. .. .. .. .. .. .. .. .. .. .. .. 
.. .. .. .. .. .. .. .. .. .. .. .. .. 56 .. .. .. .. .. .. .. .. .. .. .. .. .. .. .. .. 
.. .. .. .. .. .. .. .. .. .. .. 56 .. .. .. .. .. .. .. .. .. .. .. .. .. .. .. .. .. .. 
.. .. .. .. .. .. .. .. .. 56 .. .. .. .. .. .. .. .. .. .. .. .. .. .. .. .. .. .. .. .. 
.. .. .. .. .. .. .. 56 .. .. .. .. .. .. .. .. .. .. .. .. .. .. .. .. .. .. .. .. .. .. 
.. .. .. .. .. 48 .. .. .. .. .. .. .. .. .. .. .. .. .. 48 .. .. .. .. .. .. .. .. .. .. 
.. .. .. 53 .. .. .. .. .. .. .. .. .. .. .. .. .. 48 .. .. .. .. .. .. .. .. .. .. .. .. 
.. 41 .. .. .. .. .. .. .. .. .. .. .. .. .. .. .. .. .. .. .. .. .. .. .. .. .. .. .. 53 
.. .. .. .. .. .. .. .. .. .. .. .. .. .. .. .. .. .. .. .. .. .. .. .. .. .. .. 53 .. .. 
.. .. .. .. .. .. .. .. .. .. .. .. .. .. .. .. .. .. .. .. .. .. .. .. .. 53 .. .. .. .. 
.. .. .. .. .. .. .. .. .. .. .. .. .. .. .. .. .. .. .. .. .. .. .. 53 .. .. .. .. .. .. 
.. .. .. .. .. .. .. .. .. .. .. .. .. .. .. .. .. .. .. .. .. 53 .. .. .. .. .. .. .. .. 
.. .. .. .. .. .. .. .. .. .. .. .. .. .. .. .. .. .. .. 46 .. .. .. .. .. .. .. .. .. .. 
.. .. .. 46 .. .. .. .. .. .. .. .. .. .. .. .. .. 55 .. .. .. .. .. .. .. .. .. .. .. .. 
.. .. .. .. .. .. .. .. .. .. .. .. .. .. .. .. .. .. .. .. .. .. .. .. .. .. .. .. 
! Song 1
146 14 .. .. .. .. .. .. .. .. .. .. .. 39 .. .. .. .. .. .. .. .. .. .. .. 41 .. .. .. .. 
.. .. .. .. .. .. .. 43 .. .. .. .. .. .. .. .. .. .. .. 44 .. .. .. .. .. .. .. .. .. .. 
.. 41 .. .. .. .. .. .. .. .. .. .. .. 43 .. .. .. .. .. .. .. .. .. .. .. 39 .. .. .. .. 
.. .. .. .. .. .. .. .. .. .. .. .. .. .. .. .. .. .. .. 27 .. .. .. .. .. .. .. .. .. .. 
.. 29 .. .. .. .. .. .. .. .. .. .. .. 31 .. .. .. .. .. .. .. .. .. .. .. 32 .. .. .. .. 
.. .. .. .. .. .. .. 29 .. .. .. .. .. .. .. .. .. .. .. 31 .. .. .. .. .. .. .. .. .. .. 
.. 27 .. .. .. .. .. .. .. .. .. .. .. 34 .. .. .. .. .. .. .. .. .. .. .. .. .. .. .. .. 
.. .. .. .. .. .. .. 22 .. .. .. .. .. .. .. .. .. .. .. .. .. .. .. .. .. .. .. .. .. .. 
.. .. .. .. .. .. .. .. .. .. .. .. .. .. .. .. .. .. .. .. .. .. .. .. .. .. .. .. .. .. 
.. .. .. .. .. .. .. .. .. .. .. .. .. .. .. .. .. .. .. .. .. .. .. .. .. .. .. .. .. .. 
.. 34 .. .. .. .. .. .. .. .. .. .. .. 36 .. .. .. .. .. .. .. .. .. .. .. 38 .. .. .. .. 
.. .. .. .. .. .. .. 39 .. .. .. .. .. .. .. .. .. .. .. 36 .. .. .. .. .. .. .. .. .. .. 
.. 38 .. .. .. .. .. .. .. .. .. .. .. 34 .. .. .. .. .. .. .. .. .. .. .. 39 .. .. .. .. 
.. .. .. .. .. .. .. .. .. .. .. .. .. .. .. .. .. .. .. 38 .. .. .. .. .. .. .. .. .. .. 
.. .. .. .. .. .. .. .. .. .. .. .. .. 39 .. .. .. .. .. .. .. .. .. .. .. .. .. .. .. .. 
.. .. .. .. .. .. .. 41 .. .. .. .. .. .. .. .. .. .. .. .. .. .. .. .. .. .. .. .. .. .. 
.. 43 .. .. .. .. .. .. .. .. .. .. .. .. .. .. .. .. .. .. .. .. .. .. .. 34 .. .. .. .. 
.. .. .. .. .. .. .. .. .. .. .. .. .. .. .. .. .. .. .. 36 .. .. .. .. .. .. .. .. .. .. 
.. .. .. .. .. .. .. .. .. .. .. .. .. 38 .. .. .. .. .. .. .. .. .. .. .. .. .. .. .. .. 
.. .. .. .. .. .. .. 39 .. .. .. .. .. .. .. .. .. .. .. .. .. .. .. .. .. .. .. .. .. .. 
.. 31 .. .. .. .. .. .. .. .. .. .. .. .. .. .. .. .. .. .. .. .. .. .. .. 33 .. .. .. .. 
.. .. .. .. .. .. .. .. .. .. .. .. .. .. .. .. .. .. .. 34 .. .. .. .. .. .. .. .. .. .. 
.. .. .. .. .. .. .. .. .. .. .. .. .. 36 .. .. .. .. .. .. .. .. .. .. .. .. .. .. .. .. 
.. .. .. .. .. .. .. 38 .. .. .. .. .. .. .. .. .. .. .. .. .. .. .. .. .. .. .. .. .. .. 
.. 39 .. .. .. .. .. .. .. .. .. .. .. .. .. .. .. .. .. .. .. .. .. .. .. .. .. .. .. .. 
.. .. .. .. .. .. .. .. .. .. .. .. .. .. .. .. .. .. .. .. .. .. .. .. .. .. .. .. .. .. 
.. 29 .. .. .. .. .. .. .. .. .. .. .. 31 .. .. .. .. .. .. .. .. .. .. .. 33 .. .. .. .. 
.. .. .. .. .. .. .. 34 .. .. .. .. .. .. .. .. .. .. .. 31 .. .. .. .. .. .. .. .. .. .. 
.. 32 .. .. .. .. .. .. .. .. .. .. .. 29 .. .. .. .. .. .. .. .. .. .. .. 34 .. .. .. .. 
.. .. .. .. .. .. .. .. .. .. .. .. .. .. .. .. .. .. .. 26 .. .. .. .. .. .. .. .. .. .. 
.. .. .. .. .. .. .. .. .. .. .. .. .. 27 .. .. .. .. .. .. .. .. .. .. .. .. .. .. .. .. 
.. .. .. .. .. .. .. 29 .. .. .. .. .. .. .. .. .. .. .. .. .. .. .. .. .. .. .. .. .. .. 
.. 31 .. .. .. .. .. .. .. .. .. .. .. .. .. .. .. .. .. .. .. .. .. .. .. 33 .. .. .. .. 
.. .. .. .. .. .. .. .. .. .. .. .. .. .. .. .. .. .. .. 34 .. .. .. .. .. .. .. .. .. .. 
.. .. .. .. .. .. .. .. .. .. .. .. .. 31 .. .. .. .. .. .. .. .. .. .. .. .. .. .. .. .. 
.. .. .. .. .. .. .. 26 .. .. .. .. .. .. .. .. .. .. .. .. .. .. .. .. .. .. .. .. .. .. 
.. .. .. .. .. .. .. .. .. .. .. .. .. 27 .. .. .. .. .. .. .. .. .. .. .. 29 .. .. .. .. 
.. .. .. .. .. .. .. .. .. .. .. .. .. .. .. .. .. .. .. 17 .. .. .. .. .. .. .. .. .. .. 
.. .. .. .. .. .. .. .. .. .. .. .. .. .. .. .. .. .. .. .. .. .. .. .. .. 22 .. .. .. .. 
.. .. .. .. .. .. .. 24 .. .. .. .. .. .. .. .. .. .. .. 26 .. .. .. .. .. .. .. .. .. .. 
.. 27 .. .. .. .. .. .. .. .. .. .. .. 24 .. .. .. .. .. .. .. .. .. .. .. 26 .. .. .. .. 
.. .. .. .. .. .. .. 22 .. .. .. .. .. .. .. .. .. .. .. 29 .. .. .. .. .. .. .. .. .. .. 
.. .. .. .. .. .. .. .. .. .. .. .. .. 34 .. .. .. .. .. .. .. .. .. .. .. .. .. .. .. .. 
.. .. .. .. .. .. .. 33 .. .. .. .. .. .. .. .. .. .. .. .. .. .. .. .. .. .. .. .. .. .. 
.. 34 .. .. .. .. .. .. .. .. .. .. .. .. .. .. .. .. .. .. .. .. .. .. .. 36 .. .. .. .. 
.. .. .. .. .. .. .. 29 .. .. .. .. .. .. .. .. .. .. .. 31 .. .. .. .. .. .. .. .. .. .. 
.. 33 .. .. .. .. .. .. .. .. .. .. .. 34 .. .. .. .. .. .. .. .. .. .. .. 31 .. .. .. .. 
.. .. .. .. .. .. .. 32 .. .. .. .. .. .. .. .. .. .. .. 29 .. .. .. .. .. .. .. .. .. .. 
.. 36 .. .. .. .. .. .. .. .. .. .. .. .. .. .. .. .. .. .. .. .. .. .. .. 41 .. .. .. .. 
.. .. .. .. .. .. .. .. .. .. .. .. .. .. .. .. .. .. .. 39 .. .. .. .. .. .. .. .. .. .. 
.. .. .. .. .. .. .. .. .. .. .. .. .. 41 .. .. .. .. .. .. .. .. .. .. .. .. .. .. .. .. 
.. .. .. .. .. .. .. 34 .. .. .. .. .. .. .. .. .. .. .. 46 .. .. .. .. .. .. .. .. .. .. 
.. 44 .. .. .. .. .. .. .. .. .. .. .. 43 .. .. .. .. .. .. .. .. .. .. .. 41 .. .. .. .. 
.. .. .. .. .. .. .. 44 .. .. .. .. .. .. .. .. .. .. .. 43 .. .. .. .. .. .. .. .. .. .. 
.. 46 .. .. .. .. .. .. .. .. .. .. .. 44 .. .. .. .. .. .. .. .. .. .. .. .. .. .. .. .. 
.. .. .. .. .. .. .. 43 .. .. .. .. .. .. .. .. .. .. .. .. .. .. .. .. .. .. .. .. .. .. 
.. 44 .. .. .. .. .. .. .. .. .. .. .. .. .. .. .. .. .. .. .. .. .. .. .. 41 .. .. .. .. 
.. .. .. .. .. .. .. .. .. .. .. .. .. .. .. .. .. .. .. 43 .. .. .. .. .. .. .. .. .. .. 
.. 48 .. .. .. .. .. .. .. .. .. .. .. 46 .. .. .. .. .. .. .. .. .. .. .. 44 .. .. .. .. 
.. .. .. .. .. .. .. 43 .. .. .. .. .. .. .. .. .. .. .. 46 .. .. .. .. .. .. .. .. .. .. 
.. 44 .. .. .. .. .. .. .. .. .. .. .. 48 .. .. .. .. .. .. .. .. .. .. .. 46 .. .. .. .. 
.. .. .. .. .. .. .. .. .. .. .. .. .. .. .. .. .. .. .. 44 .. .. .. .. .. .. .. .. .. .. 
.. .. .. .. .. .. .. .. .. .. .. .. .. 46 .. .. .. .. .. .. .. .. .. .. .. .. .. .. .. .. 
.. .. .. .. .. .. .. 43 .. .. .. .. .. .. .. .. .. .. .. .. .. .. .. .. .. .. .. .. .. .. 
.. 44 .. .. .. .. .. .. .. .. .. .. .. 49 .. .. .. .. .. .. .. .. .. .. .. 48 .. .. .. .. 
.. .. .. .. .. .. .. 46 .. .. .. .. .. .. .. .. .. .. .. 44 .. .. .. .. .. .. .. .. .. .. 
.. 48 .. .. .. .. .. .. .. .. .. .. .. 46 .. .. .. .. .. .. .. .. .. .. .. 50 .. .. .. .. 
.. .. .. .. .. .. .. 48 .. .. .. .. .. .. .. .. .. .. .. 46 .. .. .. .. .. .. .. .. .. .. 
.. 44 .. .. .. .. .. .. .. .. .. .. .. 43 .. .. .. .. .. .. .. .. .. .. .. 41 .. .. .. .. 
.. .. .. .. .. .. .. 44 .. .. .. .. .. .. .. .. .. .. .. 43 .. .. .. .. .. .. .. .. .. .. 
.. 46 .. .. .. .. .. .. .. .. .. .. .. 44 .. .. .. .. .. .. .. .. .. .. .. 43 .. .. .. .. 
.. .. .. .. .. .. .. 41 .. .. .. .. .. .. .. .. .. .. .. 39 .. .. .. .. .. .. .. .. .. .. 
.. 38 .. .. .. .. .. .. .. .. .. .. .. 41 .. .. .. .. .. .. .. .. .. .. .. 39 .. .. .. .. 
.. .. .. .. .. .. .. 43 .. .. .. .. .. .. .. .. .. .. .. 41 .. .. .. .. .. .. .. .. .. .. 
.. 39 .. .. .. .. .. .. .. .. .. .. .. 38 .. .. .. .. .. .. .. .. .. .. .. 36 .. .. .. .. 
.. .. .. .. .. .. .. 35 .. .. .. .. .. .. .. .. .. .. .. 38 .. .. .. .. .. .. .. .. .. .. 
.. 36 .. .. .. .. .. .. .. .. .. .. .. 39 .. .. .. .. .. .. .. .. .. .. .. 38 .. .. .. .. 
.. .. .. .. .. .. .. .. .. .. .. .. .. .. .. .. .. .. .. 31 .. .. .. .. .. .. .. .. .. .. 
.. .. .. .. .. .. .. .. .. .. .. .. .. 41 .. .. .. .. .. 43 .. .. .. .. .. 41 .. .. .. .. 
.. 43 .. .. .. .. .. 41 .. .. .. .. .. 43 .. .. .. .. .. 41 .. .. .. .. .. 43 .. .. .. .. 
.. 39 .. .. .. .. .. .. .. .. .. .. .. 38 .. .. .. .. .. .. .. .. .. .. .. 36 .. .. .. .. 
.. .. .. .. .. .. .. 34 .. .. .. .. .. .. .. .. .. .. .. 33 .. .. .. .. .. .. .. .. .. .. 
.. 36 .. .. .. .. .. .. .. .. .. .. .. 35 .. .. .. .. .. .. .. .. .. .. .. 38 .. .. .. .. 
.. .. .. .. .. .. .. 36 .. .. .. .. .. .. .. .. .. .. .. 39 .. .. .. .. .. .. .. .. .. .. 
.. 38 .. .. .. .. .. .. .. .. .. .. .. 41 .. .. .. .. .. .. .. .. .. .. .. 39 .. .. .. .. 
.. .. .. .. .. .. .. 43 .. .. .. .. .. .. .. .. .. .. .. 41 .. .. .. .. .. .. .. .. .. .. 
.. 44 .. .. .. .. .. .. .. .. .. .. .. 43 .. .. .. .. .. .. .. .. .. .. .. .. .. .. .. .. 
.. .. .. .. .. .. .. 36 .. .. .. .. .. .. .. .. .. .. .. .. .. .. .. .. .. .. .. .. .. .. 
.. 43 .. .. .. .. .. .. .. .. .. .. .. .. .. .. .. .. .. .. .. .. .. .. .. 31 .. .. .. .. 
.. .. .. .. .. .. .. .. .. .. .. .. .. .. .. .. .. .. .. 36 .. .. .. .. .. .. .. .. .. .. 
.. .. .. .. .. .. .. .. .. .. .. .. .. 24 .. .. .. .. .. .. .. .. .. .. .. .. .. .. .. .. 
.. .. .. .. .. .. .. .. .. .. .. .. .. .. .. .. .. .. .. .. .. .. .. .. .. .. .. .. .. .. 
.. .. .. .. .. .. .. .. .. .. .. .. .. .. .. .. .. .. .. .. .. .. .. .. .. .. .. .. .. .. 
.. .. .. .. .. .. .. 43 .. .. .. .. .. .. .. .. .. .. .. 41 .. .. .. .. .. .. .. .. .. .. 
.. 39 .. .. .. .. .. .. .. .. .. .. .. 38 .. .. .. .. .. .. .. .. .. .. .. 41 .. .. .. .. 
.. .. .. .. .. .. .. 40 .. .. .. .. .. .. .. .. .. .. .. 43 .. .. .. .. .. .. .. .. .. .. 
.. 41 .. .. .. .. .. .. .. .. .. .. .. .. .. .. .. .. .. .. .. .. .. .. .. .. .. .. .. .. 
.. .. .. .. .. .. .. .. .. .. .. .. .. .. .. .. .. .. .. .. .. .. .. .. .. .. .. .. .. .. 
.. .. .. .. .. .. .. .. .. .. .. .. .. .. .. .. .. .. .. .. .. .. .. .. .. .. .. .. .. .. 
.. .. .. .. .. .. .. .. .. .. .. .. .. .. .. .. .. .. .. 36 .. .. .. .. .. .. .. .. .. .. 
.. 38 .. .. .. .. .. .. .. .. .. .. .. 39 .. .. .. .. .. .. .. .. .. .. .. 41 .. .. .. .. 
.. .. .. .. .. .. .. 38 .. .. .. .. .. .. .. .. .. .. .. 39 .. .. .. .. .. .. .. .. .. .. 
.. 36 .. .. .. .. .. .. .. .. .. .. .. 38 .. .. .. .. .. .. .. .. .. .. .. .. .. .. .. .. 
.. .. .. .. .. .. .. .. .. .. .. .. .. .. .. .. .. .. .. .. .. .. .. .. .. .. .. .. .. .. 
.. .. .. .. .. .. .. .. .. .. .. .. .. .. .. .. .. .. .. .. .. .. .. .. .. .. .. .. .. .. 
.. .. .. .. .. .. .. .. .. .. .. .. .. .. .. .. .. .. .. .. .. .. .. .. .. .. .. .. .. .. 
.. 41 .. .. .. .. .. .. .. .. .. .. .. 39 .. .. .. .. .. .. .. .. .. .. .. 38 .. .. .. .. 
.. .. .. .. .. .. .. 36 .. .. .. .. .. .. .. .. .. .. .. 39 .. .. .. .. .. .. .. .. .. .. 
.. 38 .. .. .. .. .. .. .. .. .. .. .. 41 .. .. .. .. .. .. .. .. .. .. .. 39 .. .. .. .. 
.. .. .. .. .. .. .. .. .. .. .. .. .. .. .. .. .. .. .. .. .. .. .. .. .. .. .. .. .. .. 
.. .. .. .. .. .. .. .. .. .. .. .. .. .. .. .. .. .. .. .. .. .. .. .. .. .. .. .. .. .. 
.. .. .. .. .. .. .. .. .. .. .. .. .. .. .. .. .. .. .. .. .. .. .. .. .. .. .. .. .. .. 
.. .. .. .. .. .. .. .. .. .. .. .. .. 34 .. .. .. .. .. .. .. .. .. .. .. 36 .. .. .. .. 
.. .. .. .. .. .. .. 37 .. .. .. .. .. .. .. .. .. .. .. 39 .. .. .. .. .. .. .. .. .. .. 
.. 36 .. .. .. .. .. .. .. .. .. .. .. 38 .. .. .. .. .. .. .. .. .. .. .. 34 .. .. .. .. 
.. .. .. .. .. .. .. 36 .. .. .. .. .. .. .. .. .. .. .. .. .. .. .. .. .. .. .. .. .. .. 
.. 37 .. .. .. .. .. .. .. .. .. .. .. .. .. .. .. .. .. .. .. .. .. .. .. 36 .. .. .. .. 
.. .. .. .. .. .. .. .. .. .. .. .. .. .. .. .. .. .. .. 34 .. .. .. .. .. .. .. .. .. .. 
.. .. .. .. .. .. .. .. .. .. .. .. .. 32 .. .. .. .. .. .. .. .. .. .. .. .. .. .. .. .. 
.. .. .. .. .. .. .. 41 .. .. .. .. .. .. .. .. .. .. .. .. .. .. .. .. .. .. .. .. .. .. 
.. 39 .. .. .. .. .. .. .. .. .. .. .. .. .. .. .. .. .. .. .. .. .. .. .. 38 .. .. .. .. 
.. .. .. .. .. .. .. .. .. .. .. .. .. .. .. .. .. .. .. 36 .. .. .. .. .. .. .. .. .. .. 
.. .. .. .. .. .. .. .. .. .. .. .. .. 44 .. .. .. .. .. .. .. .. .. .. .. .. .. .. .. .. 
.. .. .. .. .. .. .. 43 .. .. .. .. .. .. .. .. .. .. .. .. .. .. .. .. .. .. .. .. .. .. 
.. 41 .. .. .. .. .. .. .. .. .. .. .. .. .. .. .. .. .. .. .. .. .. .. .. 43 .. .. .. .. 
.. .. .. .. .. .. .. 29 .. .. .. .. .. .. .. .. .. .. .. 31 .. .. .. .. .. .. .. .. .. .. 
.. 32 .. .. .. .. .. .. .. .. .. .. .. 34 .. .. .. .. .. .. .. .. .. .. .. 31 .. .. .. .. 
.. .. .. .. .. .. .. 32 .. .. .. .. .. .. .. .. .. .. .. 29 .. .. .. .. .. .. .. .. .. .. 
.. 31 .. .. .. .. .. .. .. .. .. .. .. .. .. .. .. .. .. .. .. .. .. .. .. 27 .. .. .. .. 
.. .. .. .. .. .. .. .. .. .. .. .. .. .. .. .. .. .. .. 29 .. .. .. .. .. .. .. .. .. .. 
.. .. .. .. .. .. .. .. .. .. .. .. .. 31 .. .. .. .. .. .. .. .. .. .. .. .. .. .. .. .. 
.. .. .. .. .. .. .. 32 .. .. .. .. .. .. .. .. .. .. .. 29 .. .. .. .. .. .. .. .. .. .. 
.. 31 .. .. .. .. .. .. .. .. .. .. .. 32 .. .. .. .. .. .. .. .. .. .. .. 34 .. .. .. .. 
.. .. .. .. .. .. .. .. .. .. .. .. .. .. .. .. .. .. .. 22 .. .. .. .. .. .. .. .. .. .. 
.. .. .. .. .. .. .. .. .. .. .. .. .. 27 .. .. .. .. .. .. .. .. .. .. .. .. .. .. .. .. 
.. .. .. .. .. .. .. .. .. .. .. .. .. .. .. .. .. .. .. .. .. .. .. .. .. .. .. .. .. .. 
.. .. .. .. .. .. .. .. .. .. .. .. .. 39 .. .. .. .. .. .. .. .. .. .. .. 41 .. .. .. .. 
.. .. .. .. .. .. .. 43 .. .. .. .. .. .. .. .. .. .. .. 44 .. .. .. .. .. .. .. .. .. .. 
.. 41 .. .. .. .. .. .. .. .. .. .. .. 43 .. .. .. .. .. .. .. .. .. .. .. 39 .. .. .. .. 
.. .. .. .. .. .. .. .. .. .. .. .. .. .. .. .. .. .. .. 27 .. .. .. .. .. .. .. .. .. .. 
.. 29 .. .. .. .. .. .. .. .. .. .. .. 31 .. .. .. .. .. .. .. .. .. .. .. 32 .. .. .. .. 
.. .. .. .. .. .. .. 29 .. .. .. .. .. .. .. .. .. .. .. 31 .. .. .. .. .. .. .. .. .. .. 
.. 27 .. .. .. .. .. .. .. .. .. .. .. 34 .. .. .. .. .. .. .. .. .. .. .. .. .. .. .. .. 
.. .. .. .. .. .. .. 22 .. .. .. .. .. .. .. .. .. .. .. .. .. .. .. .. .. .. .. .. .. .. 
.. .. .. .. .. .. .. .. .. .. .. .. .. .. .. .. .. .. .. .. .. .. .. .. .. .. .. .. .. .. 
.. .. .. .. .. .. .. .. .. .. .. .. .. .. .. .. .. .. .. .. .. .. .. .. .. .. .. .. .. .. 
.. 34 .. .. .. .. .. .. .. .. .. .. .. 36 .. .. .. .. .. .. .. .. .. .. .. 38 .. .. .. .. 
.. .. .. .. .. .. .. 39 .. .. .. .. .. .. .. .. .. .. .. 36 .. .. .. .. .. .. .. .. .. .. 
.. 38 .. .. .. .. .. .. .. .. .. .. .. 34 .. .. .. .. .. .. .. .. .. .. .. 39 .. .. .. .. 
.. .. .. .. .. .. .. .. .. .. .. .. .. .. .. .. .. .. .. 38 .. .. .. .. .. .. .. .. .. .. 
.. .. .. .. .. .. .. .. .. .. .. .. .. 39 .. .. .. .. .. .. .. .. .. .. .. .. .. .. .. .. 
.. .. .. .. .. .. .. 41 .. .. .. .. .. .. .. .. .. .. .. .. .. .. .. .. .. .. .. .. .. .. 
.. 43 .. .. .. .. .. .. .. .. .. .. .. .. .. .. .. .. .. .. .. .. .. .. .. 34 .. .. .. .. 
.. .. .. .. .. .. .. .. .. .. .. .. .. .. .. .. .. .. .. 36 .. .. .. .. .. .. .. .. .. .. 
.. .. .. .. .. .. .. .. .. .. .. .. .. 38 .. .. .. .. .. .. .. .. .. .. .. .. .. .. .. .. 
.. .. .. .. .. .. .. 39 .. .. .. .. .. .. .. .. .. .. .. .. .. .. .. .. .. .. .. .. .. .. 
.. 31 .. .. .. .. .. .. .. .. .. .. .. .. .. .. .. .. .. .. .. .. .. .. .. 33 .. .. .. .. 
.. .. .. .. .. .. .. .. .. .. .. .. .. .. .. .. .. .. .. 34 .. .. .. .. .. .. .. .. .. .. 
.. .. .. .. .. .. .. .. .. .. .. .. .. 36 .. .. .. .. .. .. .. .. .. .. .. .. .. .. .. .. 
.. .. .. .. .. .. .. 38 .. .. .. .. .. .. .. .. .. .. .. .. .. .. .. .. .. .. .. .. .. .. 
.. 39 .. .. .. .. .. .. .. .. .. .. .. .. .. .. .. .. .. .. .. .. .. .. .. .. .. .. .. .. 
.. .. .. .. .. .. .. .. .. .. .. .. .. .. .. .. .. .. .. .. .. .. .. .. .. .. .. .. .. .. 
.. 29 .. .. .. .. .. .. .. .. .. .. .. 31 .. .. .. .. .. .. .. .. .. .. .. 33 .. .. .. .. 
.. .. .. .. .. .. .. 34 .. .. .. .. .. .. .. .. .. .. .. 31 .. .. .. .. .. .. .. .. .. .. 
.. 32 .. .. .. .. .. .. .. .. .. .. .. 29 .. .. .. .. .. .. .. .. .. .. .. 34 .. .. .. .. 
.. .. .. .. .. .. .. .. .. .. .. .. .. .. .. .. .. .. .. 26 .. .. .. .. .. .. .. .. .. .. 
.. .. .. .. .. .. .. .. .. .. .. .. .. 27 .. .. .. .. .. .. .. .. .. .. .. .. .. .. .. .. 
.. .. .. .. .. .. .. 29 .. .. .. .. .. .. .. .. .. .. .. .. .. .. .. .. .. .. .. .. .. .. 
.. 31 .. .. .. .. .. .. .. .. .. .. .. .. .. .. .. .. .. .. .. .. .. .. .. 33 .. .. .. .. 
.. .. .. .. .. .. .. .. .. .. .. .. .. .. .. .. .. .. .. 34 .. .. .. .. .. .. .. .. .. .. 
.. .. .. .. .. .. .. .. .. .. .. .. .. 31 .. .. .. .. .. .. .. .. .. .. .. .. .. .. .. .. 
.. .. .. .. .. .. .. 26 .. .. .. .. .. .. .. .. .. .. .. .. .. .. .. .. .. .. .. .. .. .. 
.. .. .. .. .. .. .. .. .. .. .. .. .. 27 .. .. .. .. .. .. .. .. .. .. .. 29 .. .. .. .. 
.. .. .. .. .. .. .. .. .. .. .. .. .. .. .. .. .. .. .. 17 .. .. .. .. .. .. .. .. .. .. 
.. .. .. .. .. .. .. .. .. .. .. .. .. .. .. .. .. .. .. .. .. .. .. .. .. 22 .. .. .. .. 
.. .. .. .. .. .. .. 24 .. .. .. .. .. .. .. .. .. .. .. 26 .. .. .. .. .. .. .. .. .. .. 
.. 27 .. .. .. .. .. .. .. .. .. .. .. 24 .. .. .. .. .. .. .. .. .. .. .. 26 .. .. .. .. 
.. .. .. .. .. .. .. 22 .. .. .. .. .. .. .. .. .. .. .. 29 .. .. .. .. .. .. .. .. .. .. 
.. .. .. .. .. .. .. .. .. .. .. .. .. 34 .. .. .. .. .. .. .. .. .. .. .. .. .. .. .. .. 
.. .. .. .. .. .. .. 33 .. .. .. .. .. .. .. .. .. .. .. .. .. .. .. .. .. .. .. .. .. .. 
.. 34 .. .. .. .. .. .. .. .. .. .. .. .. .. .. .. .. .. .. .. .. .. .. .. 36 .. .. .. .. 
.. .. .. .. .. .. .. 29 .. .. .. .. .. .. .. .. .. .. .. 31 .. .. .. .. .. .. .. .. .. .. 
.. 33 .. .. .. .. .. .. .. .. .. .. .. 34 .. .. .. .. .. .. .. .. .. .. .. 31 .. .. .. .. 
.. .. .. .. .. .. .. 32 .. .. .. .. .. .. .. .. .. .. .. 29 .. .. .. .. .. .. .. .. .. .. 
.. 36 .. .. .. .. .. .. .. .. .. .. .. .. .. .. .. .. .. .. .. .. .. .. .. 41 .. .. .. .. 
.. .. .. .. .. .. .. .. .. .. .. .. .. .. .. .. .. .. .. 39 .. .. .. .. .. .. .. .. .. .. 
.. .. .. .. .. .. .. .. .. .. .. .. .. 41 .. .. .. .. .. .. .. .. .. .. .. .. .. .. .. .. 
.. .. .. .. .. .. .. 34 .. .. .. .. .. .. .. .. .. .. .. 46 .. .. .. .. .. .. .. .. .. .. 
.. 44 .. .. .. .. .. .. .. .. .. .. .. 43 .. .. .. .. .. .. .. .. .. .. .. 41 .. .. .. .. 
.. .. .. .. .. .. .. 44 .. .. .. .. .. .. .. .. .. .. .. 43 .. .. .. .. .. .. .. .. .. .. 
.. 46 .. .. .. .. .. .. .. .. .. .. .. 44 .. .. .. .. .. .. .. .. .. .. .. .. .. .. .. .. 
.. .. .. .. .. .. .. 43 .. .. .. .. .. .. .. .. .. .. .. .. .. .. .. .. .. .. .. .. .. .. 
.. 44 .. .. .. .. .. .. .. .. .. .. .. .. .. .. .. .. .. .. .. .. .. .. .. 41 .. .. .. .. 
.. .. .. .. .. .. .. .. .. .. .. .. .. .. .. .. .. .. .. 43 .. .. .. .. .. .. .. .. .. .. 
.. 48 .. .. .. .. .. .. .. .. .. .. .. 46 .. .. .. .. .. .. .. .. .. .. .. 44 .. .. .. .. 
.. .. .. .. .. .. .. 43 .. .. .. .. .. .. .. .. .. .. .. 46 .. .. .. .. .. .. .. .. .. .. 
.. 44 .. .. .. .. .. .. .. .. .. .. .. 48 .. .. .. .. .. .. .. .. .. .. .. 46 .. .. .. .. 
.. .. .. .. .. .. .. .. .. .. .. .. .. .. .. .. .. .. .. 44 .. .. .. .. .. .. .. .. .. .. 
.. .. .. .. .. .. .. .. .. .. .. .. .. 46 .. .. .. .. .. .. .. .. .. .. .. .. .. .. .. .. 
.. .. .. .. .. .. .. 43 .. .. .. .. .. .. .. .. .. .. .. .. .. .. .. .. .. .. .. .. .. .. 
.. 44 .. .. .. .. .. .. .. .. .. .. .. 49 .. .. .. .. .. .. .. .. .. .. .. 48 .. .. .. .. 
.. .. .. .. .. .. .. 46 .. .. .. .. .. .. .. .. .. .. .. 44 .. .. .. .. .. .. .. .. .. .. 
.. 48 .. .. .. .. .. .. .. .. .. .. .. 46 .. .. .. .. .. .. .. .. .. .. .. 50 .. .. .. .. 
.. .. .. .. .. .. .. 48 .. .. .. .. .. .. .. .. .. .. .. 46 .. .. .. .. .. .. .. .. .. .. 
.. 44 .. .. .. .. .. .. .. .. .. .. .. 43 .. .. .. .. .. .. .. .. .. .. .. 41 .. .. .. .. 
.. .. .. .. .. .. .. 44 .. .. .. .. .. .. .. .. .. .. .. 43 .. .. .. .. .. .. .. .. .. .. 
.. 46 .. .. .. .. .. .. .. .. .. .. .. 44 .. .. .. .. .. .. .. .. .. .. .. 43 .. .. .. .. 
.. .. .. .. .. .. .. 41 .. .. .. .. .. .. .. .. .. .. .. 39 .. .. .. .. .. .. .. .. .. .. 
.. 38 .. .. .. .. .. .. .. .. .. .. .. 41 .. .. .. .. .. .. .. .. .. .. .. 39 .. .. .. .. 
.. .. .. .. .. .. .. 43 .. .. .. .. .. .. .. .. .. .. .. 41 .. .. .. .. .. .. .. .. .. .. 
.. 39 .. .. .. .. .. .. .. .. .. .. .. 38 .. .. .. .. .. .. .. .. .. .. .. 36 .. .. .. .. 
.. .. .. .. .. .. .. 35 .. .. .. .. .. .. .. .. .. .. .. 38 .. .. .. .. .. .. .. .. .. .. 
.. 36 .. .. .. .. .. .. .. .. .. .. .. 39 .. .. .. .. .. .. .. .. .. .. .. 38 .. .. .. .. 
.. .. .. .. .. .. .. .. .. .. .. .. .. .. .. .. .. .. .. 31 .. .. .. .. .. .. .. .. .. .. 
.. .. .. .. .. .. .. .. .. .. .. .. .. 41 .. .. .. .. .. 43 .. .. .. .. .. 41 .. .. .. .. 
.. 43 .. .. .. .. .. 41 .. .. .. .. .. 43 .. .. .. .. .. 41 .. .. .. .. .. 43 .. .. .. .. 
.. 39 .. .. .. .. .. .. .. .. .. .. .. 38 .. .. .. .. .. .. .. .. .. .. .. 36 .. .. .. .. 
.. .. .. .. .. .. .. 34 .. .. .. .. .. .. .. .. .. .. .. 33 .. .. .. .. .. .. .. .. .. .. 
.. 36 .. .. .. .. .. .. .. .. .. .. .. 35 .. .. .. .. .. .. .. .. .. .. .. 38 .. .. .. .. 
.. .. .. .. .. .. .. 36 .. .. .. .. .. .. .. .. .. .. .. 39 .. .. .. .. .. .. .. .. .. .. 
.. 38 .. .. .. .. .. .. .. .. .. .. .. 41 .. .. .. .. .. .. .. .. .. .. .. 39 .. .. .. .. 
.. .. .. .. .. .. .. 43 .. .. .. .. .. .. .. .. .. .. .. 41 .. .. .. .. .. .. .. .. .. .. 
.. 44 .. .. .. .. .. .. .. .. .. .. .. 43 .. .. .. .. .. .. .. .. .. .. .. .. .. .. .. .. 
.. .. .. .. .. .. .. 36 .. .. .. .. .. .. .. .. .. .. .. .. .. .. .. .. .. .. .. .. .. .. 
.. 43 .. .. .. .. .. .. .. .. .. .. .. .. .. .. .. .. .. .. .. .. .. .. .. 31 .. .. .. .. 
.. .. .. .. .. .. .. .. .. .. .. .. .. .. .. .. .. .. .. 36 .. .. .. .. .. .. .. .. .. .. 
.. .. .. .. .. .. .. .. .. .. .. .. .. 24 .. .. .. .. .. .. .. .. .. .. .. .. .. .. .. .. 
.. .. .. .. .. .. .. .. .. .. .. .. .. .. .. .. .. .. .. .. .. .. .. .. .. .. .. .. .. .. 
.. .. .. .. .. .. .. .. .. .. .. .. .. .. .. .. .. .. .. .. .. .. .. .. .. .. .. .. .. .. 
.. .. .. .. .. .. .. 43 .. .. .. .. .. .. .. .. .. .. .. 41 .. .. .. .. .. .. .. .. .. .. 
.. 39 .. .. .. .. .. .. .. .. .. .. .. 38 .. .. .. .. .. .. .. .. .. .. .. 41 .. .. .. .. 
.. .. .. .. .. .. .. 40 .. .. .. .. .. .. .. .. .. .. .. 43 .. .. .. .. .. .. .. .. .. .. 
.. 41 .. .. .. .. .. .. .. .. .. .. .. .. .. .. .. .. .. .. .. .. .. .. .. .. .. .. .. .. 
.. .. .. .. .. .. .. .. .. .. .. .. .. .. .. .. .. .. .. .. .. .. .. .. .. .. .. .. .. .. 
.. .. .. .. .. .. .. .. .. .. .. .. .. .. .. .. .. .. .. .. .. .. .. .. .. .. .. .. .. .. 
.. .. .. .. .. .. .. .. .. .. .. .. .. .. .. .. .. .. .. 36 .. .. .. .. .. .. .. .. .. .. 
.. 38 .. .. .. .. .. .. .. .. .. .. .. 39 .. .. .. .. .. .. .. .. .. .. .. 41 .. .. .. .. 
.. .. .. .. .. .. .. 38 .. .. .. .. .. .. .. .. .. .. .. 39 .. .. .. .. .. .. .. .. .. .. 
.. 36 .. .. .. .. .. .. .. .. .. .. .. 38 .. .. .. .. .. .. .. .. .. .. .. .. .. .. 
! Song 2
146 43 .. .. .. .. .. .. .. .. .. .. .. .. .. .. .. .. .. .. .. .. .. .. .. .. .. .. .. 46 
.. .. .. .. .. .. .. .. .. .. .. .. .. 44 .. .. .. .. .. .. .. .. .. .. .. .. .. 43 .. .. 
.. .. .. .. .. .. .. .. .. .. .. .. .. .. .. .. .. .. .. .. .. .. .. .. .. 55 .. .. .. .. 
.. .. .. .. .. .. .. .. .. 53 .. .. .. .. .. .. .. .. .. .. .. .. .. 51 .. .. .. .. .. .. 
.. .. .. .. .. .. .. .. .. .. .. .. .. .. .. .. .. .. .. .. .. 56 .. .. .. .. .. .. .. .. 
.. .. .. .. .. 55 .. .. .. .. .. .. .. .. .. .. .. .. .. .. .. .. .. .. .. .. .. .. .. .. 
.. .. .. 53 .. .. .. .. .. .. .. .. .. .. .. .. .. 51 .. .. .. .. .. .. .. .. .. .. .. .. 
.. .. .. .. .. .. .. .. .. .. .. .. .. .. .. 44 .. .. .. .. .. .. .. .. .. .. .. .. .. 46 
.. .. .. .. .. .. 44 .. .. .. .. .. .. 43 .. .. .. .. .. .. .. .. .. .. .. .. .. 41 .. .. 
.. .. .. .. .. .. .. .. .. .. .. 43 .. .. .. .. .. .. .. .. .. .. .. .. .. .. .. .. .. .. 
.. .. .. .. .. .. .. .. .. 46 .. .. .. .. .. .. .. .. .. .. .. .. .. 44 .. .. .. .. .. .. 
.. .. .. .. .. .. .. 43 .. .. .. .. .. .. .. .. .. .. .. .. .. .. .. .. .. .. .. .. .. .. 
.. .. .. .. .. 55 .. .. .. .. .. .. .. .. .. .. .. .. .. 53 .. .. .. .. .. .. .. .. .. .. 
.. .. .. 51 .. .. .. .. .. .. .. .. .. .. .. .. .. .. .. .. .. .. .. .. .. .. .. .. .. .. 
.. 56 .. .. .. .. .. .. .. .. .. .. .. .. .. 55 .. .. .. .. .. .. .. .. .. .. .. .. .. .. 
.. .. .. .. .. .. .. .. .. .. .. .. .. 53 .. .. .. .. .. .. .. .. .. .. .. .. .. 51 .. .. 
.. .. .. .. .. .. .. .. .. .. .. .. .. .. .. .. .. .. .. .. .. .. .. .. .. 44 .. .. .. .. 
.. .. .. .. .. .. .. .. .. 48 .. .. .. .. .. .. 44 .. .. .. .. .. .. 43 .. .. .. .. .. .. 
.. .. .. .. .. .. .. 41 .. .. .. .. .. .. .. .. .. .. .. .. .. 43 .. .. .. .. .. .. .. .. 
.. .. .. .. .. 46 .. .. .. .. .. .. .. .. .. .. .. .. .. 43 .. .. .. .. .. .. .. .. .. .. 
.. .. .. 55 .. .. .. .. .. .. .. .. .. .. .. .. .. 51 .. .. .. .. .. .. .. .. .. .. .. .. 
.. 46 .. .. .. .. .. .. .. .. .. .. .. .. .. 43 .. .. .. .. .. .. .. .. .. .. .. .. .. 55 
.. .. .. .. .. .. .. .. .. .. .. .. .. 51 .. .. .. .. .. .. .. .. .. .. .. .. .. .. .. .. 
.. .. .. .. .. .. .. .. .. .. .. 56 .. .. .. .. .. .. .. .. .. .. .. .. .. 55 .. .. .. .. 
.. .. .. .. .. .. .. .. .. .. .. .. .. .. .. .. .. .. .. .. .. .. .. 53 .. .. .. .. .. .. 
.. .. .. .. .. .. .. 51 .. .. .. .. .. .. .. .. .. .. .. .. .. .. .. .. .. .. .. .. .. .. 
.. .. .. .. .. 44 .. .. .. .. .. .. .. .. .. .. .. .. .. 48 .. .. .. .. .. .. 44 .. .. .. 
.. .. .. 43 .. .. .. .. .. .. .. .. .. .. .. .. .. 41 .. .. .. .. .. .. .. .. .. .. .. .. 
.. 43 .. .. .. .. .. .. .. .. .. .. .. .. .. .. .. .. .. .. .. .. .. .. .. .. .. .. .. .. 
.. .. .. .. .. .. .. .. .. .. .. .. .. 55 .. .. .. .. .. .. .. .. .. .. .. .. .. 51 .. .. 
.. .. .. .. .. .. .. .. .. .. .. .. .. .. .. .. .. .. .. .. .. .. .. .. .. .. .. .. .. .. 
.. .. .. .. .. .. .. .. .. 55 .. .. .. .. .. .. .. .. .. .. .. .. .. 51 .. .. .. .. .. .. 
.. .. .. .. .. .. .. .. .. .. .. .. .. .. .. .. .. .. .. .. .. .. .. .. .. .. .. .. 53 .. 
.. .. .. .. .. 55 .. .. .. .. .. .. 57 .. .. .. .. .. .. 58 .. .. .. .. .. .. .. .. .. .. 
.. .. .. .. .. .. .. .. .. .. .. .. .. .. .. .. .. .. .. .. .. .. .. .. 57 .. .. .. .. .. 
.. 58 .. .. .. .. .. .. 60 .. .. .. .. .. .. 62 .. .. .. .. .. .. .. .. .. .. .. .. .. .. 
.. .. .. .. .. .. .. .. .. .. .. .. .. .. .. .. .. .. .. .. 60 .. .. .. .. .. .. 62 .. .. 
.. .. .. .. 63 .. .. .. .. .. .. 65 .. .. .. .. .. .. .. .. .. .. .. .. .. 62 .. .. .. .. 
.. .. 63 .. .. .. .. .. .. 65 .. .. .. .. .. .. 63 .. .. .. .. .. .. 62 .. .. .. .. .. .. 
60 .. .. .. .. .. .. 58 .. .. .. .. .. .. .. .. .. .. .. .. .. 50 .. .. .. .. .. .. .. .. 
.. .. .. .. .. 51 .. .. .. .. .. .. .. .. .. .. .. .. .. 48 .. .. .. .. .. .. .. .. .. .. 
.. .. .. 50 .. .. .. .. .. .. .. .. .. .. .. .. .. .. .. .. .. .. .. .. .. .. .. .. .. .. 
.. .. .. .. .. .. .. .. .. .. .. .. .. .. .. .. .. .. .. .. .. .. .. .. .. .. .. .. .. .. 
.. .. .. .. .. .. .. .. .. .. .. .. .. .. .. .. .. .. .. .. .. .. .. .. .. .. .. .. .. .. 
.. .. .. .. .. .. .. .. .. .. .. .. .. .. .. .. .. .. .. .. .. .. .. .. .. 62 .. .. .. .. 
.. .. .. .. .. .. .. .. .. .. .. .. .. .. .. .. .. .. .. .. .. .. .. 58 .. .. .. .. .. .. 
.. .. .. .. .. .. .. .. .. .. .. .. .. .. .. .. .. .. .. .. .. .. .. .. .. .. .. .. .. .. 
.. .. .. .. .. .. .. .. .. .. .. .. .. .. .. .. .. .. .. .. .. .. .. .. .. .. .. .. .. .. 
.. .. .. .. .. .. .. .. .. .. .. .. .. .. .. .. .. 62 .. .. .. .. .. .. .. .. .. .. .. .. 
.. 58 .. .. .. .. .. .. 60 .. .. .. .. .. .. 62 .. .. .. .. .. .. .. .. .. .. .. .. .. 58 
.. .. .. .. .. .. 60 .. .. .. .. .. .. 62 .. .. .. .. .. .. .. .. .. .. .. .. .. 58 .. .. 
.. .. .. .. 60 .. .. .. .. .. .. 62 .. .. .. .. .. .. .. .. .. .. .. .. .. 58 .. .. .. .. 
.. .. 60 .. .. .. .. .. .. 65 .. .. .. .. .. .. .. .. .. .. .. .. .. 46 .. .. .. .. .. .. 
.. .. .. .. .. .. .. 51 .. .. .. .. .. .. .. .. .. .. .. .. .. .. .. .. .. .. .. .. .. .. 
.. .. .. .. .. 46 .. .. .. .. .. .. .. .. .. .. .. .. .. 58 .. .. .. .. .. .. .. .. .. .. 
.. .. .. .. .. .. .. .. .. .. .. .. .. .. .. .. .. .. .. .. .. .. .. .. .. .. .. .. .. .. 
.. 50 .. .. .. .. .. .. 51 .. .. .. .. .. .. 50 .. .. .. .. .. .. 51 .. .. .. .. .. .. 50 
.. .. .. .. .. .. .. .. .. .. .. .. .. .. .. .. .. .. .. .. .. .. .. .. .. .. .. .. .. .. 
.. .. .. .. .. .. .. .. .. .. .. 48 .. .. .. .. .. .. .. .. .. .. .. .. .. .. .. .. .. .. 
.. .. .. .. .. .. .. .. .. .. .. .. .. .. .. .. .. .. .. .. .. .. .. 48 .. .. .. .. .. .. 
50 .. .. .. .. .. .. 48 .. .. .. .. .. .. 50 .. .. .. .. .. .. 48 .. .. .. .. .. .. .. .. 
.. .. .. .. .. 63 .. .. .. .. .. .. .. .. .. .. .. .. .. 48 .. .. .. .. .. .. .. .. .. .. 
.. .. .. 46 .. .. .. .. .. .. .. .. .. .. .. .. .. .. .. .. .. .. .. .. .. .. .. .. .. .. 
.. .. .. .. .. .. .. .. .. .. .. .. .. .. .. 50 .. .. .. .. .. .. .. .. .. .. .. .. .. .. 
.. .. .. .. .. .. .. .. .. .. .. .. .. 51 .. .. .. .. .. .. .. .. .. .. .. .. .. 53 .. .. 
.. .. .. .. .. .. .. .. .. .. .. 51 .. .. .. .. .. .. .. .. .. .. .. .. .. .. .. .. .. .. 
.. .. .. .. .. .. .. .. .. 53 .. .. .. .. .. .. .. .. .. .. .. .. .. 55 .. .. .. .. .. .. 
.. .. .. .. .. .. .. .. .. .. .. .. .. .. .. .. .. .. .. .. .. .. .. .. .. .. .. .. .. .. 
.. .. .. .. .. 53 .. .. .. .. .. .. .. .. .. .. .. .. .. 51 .. .. .. .. .. .. .. .. .. .. 
.. .. .. 53 .. .. .. .. .. .. .. .. .. .. .. .. .. 46 .. .. .. .. .. .. .. .. .. .. .. .. 
.. .. .. .. .. .. .. .. .. .. .. .. .. .. .. .. .. .. .. .. .. .. .. .. .. .. .. .. .. 50 
.. .. .. .. .. .. .. .. .. .. .. .. .. .. .. .. .. .. .. .. .. .. .. .. .. .. .. 51 .. .. 
.. .. .. .. .. .. .. .. .. .. .. 53 .. .. .. .. .. .. .. .. .. .. .. .. .. 51 .. .. .. .. 
.. .. .. .. .. .. .. .. .. .. .. .. .. .. .. .. 50 .. .. .. .. .. .. 51 .. .. .. .. .. .. 
.. .. .. .. .. .. .. 53 .. .. .. .. .. .. .. .. .. .. .. .. .. 55 .. .. .. .. .. .. .. .. 
.. .. .. .. .. 56 .. .. .. .. .. .. 55 .. .. .. .. .. .. 53 .. .. .. .. .. .. .. .. .. .. 
.. .. .. 51 .. .. .. .. .. .. .. .. .. .. .. .. .. 53 .. .. .. .. .. .. .. .. .. .. .. .. 
.. 58 .. .. .. .. .. .. .. .. .. .. .. .. .. .. .. .. .. .. .. .. .. .. .. .. .. .. .. .. 
.. .. .. .. .. .. .. .. .. .. .. .. .. 43 .. .. .. .. .. .. .. .. .. .. .. .. .. 55 .. .. 
.. .. .. .. .. .. .. .. .. .. .. 51 .. .. .. .. .. .. .. .. .. .. .. .. .. .. .. .. .. .. 
.. .. .. .. .. .. .. .. .. .. .. .. .. .. .. .. .. .. .. .. .. .. .. 55 .. .. .. .. .. .. 
.. .. .. .. .. .. .. 51 .. .. .. .. .. .. .. .. .. .. .. .. .. 43 .. .. .. .. .. .. .. .. 
.. .. .. .. .. 44 .. .. .. .. .. .. .. .. .. .. .. .. .. 43 .. .. .. .. .. .. .. .. .. .. 
.. .. .. 44 .. .. .. .. .. .. .. .. .. .. .. .. .. 41 .. .. .. .. .. .. .. .. .. .. .. .. 
.. 43 .. .. .. .. .. .. .. .. .. .. .. .. .. 58 .. .. .. .. .. .. .. .. .. .. .. .. .. 55 
.. .. .. .. .. .. .. .. .. .. .. .. .. 58 .. .. .. .. .. .. .. .. .. .. .. .. .. 55 .. .. 
.. .. .. .. .. .. .. .. .. .. .. 58 .. .. .. .. .. .. .. .. .. .. .. .. .. 55 .. .. .. .. 
.. .. .. .. .. .. .. .. .. .. .. .. .. .. .. .. .. .. .. .. .. .. .. .. .. .. .. .. .. .. 
.. .. .. .. .. .. .. 55 .. .. .. .. .. .. .. .. .. .. .. .. .. 51 .. .. .. .. .. .. .. .. 
.. .. .. .. .. 43 .. .. .. .. .. .. .. .. .. .. .. .. .. 44 .. .. .. .. .. .. .. .. .. .. 
.. .. .. 43 .. .. .. .. .. .. .. .. .. .. .. .. .. 44 .. .. .. .. .. .. .. .. .. .. .. .. 
.. 41 .. .. .. .. .. .. .. .. .. .. .. .. .. 43 .. .. .. .. .. .. .. .. .. .. .. .. .. .. 
.. .. .. .. .. .. .. .. .. .. .. .. .. .. .. .. .. .. .. .. .. .. .. .. .. .. .. 46 .. .. 
.. .. .. .. .. .. .. .. .. .. .. 51 .. .. .. .. .. .. .. .. .. .. .. .. .. 50 .. .. .. .. 
.. .. .. .. .. .. .. .. .. 51 .. .. .. .. .. .. .. .. .. .. .. .. .. .. .. .. .. .. .. .. 
.. .. .. .. .. .. .. 50 .. .. .. .. .. .. .. .. .. .. .. .. .. 51 .. .. .. .. .. .. .. .. 
.. .. .. .. .. 53 .. .. .. .. .. .. .. .. .. .. .. .. .. 50 .. .. .. .. .. .. .. .. .. .. 
.. .. .. 46 .. .. .. .. .. .. .. .. .. .. .. .. .. .. .. .. .. .. .. .. .. .. .. .. .. .. 
.. .. .. .. .. .. .. .. .. .. .. .. .. .. .. 51 .. .. .. .. .. .. .. .. .. .. .. .. .. 50 
.. .. .. .. .. .. .. .. .. .. .. .. .. 51 .. .. .. .. .. .. .. .. .. .. .. .. .. 53 .. .. 
.. .. .. .. .. .. .. .. .. .. .. 46 .. .. .. .. .. .. .. .. .. .. .. .. .. 51 .. .. .. .. 
.. .. .. .. .. .. .. .. .. 50 .. .. .. .. .. .. .. .. .. .. .. .. .. 53 .. .. .. .. .. .. 
.. .. .. .. .. .. .. 41 .. .. .. .. .. .. .. .. .. .. .. .. .. 46 .. .. .. .. .. .. .. .. 
.. .. .. .. .. .. .. .. .. .. .. .. .. .. .. .. .. .. .. 51 .. .. .. .. .. .. .. .. .. .. 
.. .. .. .. .. .. .. .. .. .. .. .. .. .. .. .. .. 50 .. .. .. .. .. .. .. .. .. .. .. .. 
.. .. .. .. .. .. .. .. .. .. .. .. .. .. .. 48 .. .. .. .. .. .. .. .. .. .. .. .. .. .. 
.. .. .. .. .. .. .. .. .. .. .. .. .. 46 .. .. .. .. .. .. .. .. .. .. .. .. .. .. .. .. 
.. .. .. .. .. .. .. .. .. .. .. 51 .. .. .. .. .. .. .. .. .. .. .. .. .. .. .. .. .. .. 
.. .. .. .. .. .. .. .. .. 50 .. .. .. .. .. .. .. .. .. .. .. .. .. .. .. .. .. .. .. .. 
.. .. .. .. .. .. .. 48 .. .. .. .. .. .. .. .. .. .. .. .. .. .. .. .. .. .. .. .. .. .. 
.. .. .. .. .. 46 .. .. .. .. .. .. .. .. .. .. .. .. .. .. .. .. .. .. .. .. .. .. .. .. 
.. .. .. 50 .. .. .. .. .. .. .. .. .. .. .. .. .. .. .. .. .. .. .. .. .. .. .. .. .. .. 
.. 53 .. .. .. .. .. .. 51 .. .. .. .. .. .. 50 .. .. .. .. .. .. 48 .. .. .. .. .. .. 53 
.. .. .. .. .. .. .. .. .. .. .. .. .. 41 .. .. .. .. .. .. .. .. .. .. .. .. .. 46 .. .. 
.. .. .. .. .. .. .. .. .. .. .. .. .. .. .. .. .. .. .. .. .. .. .. .. .. 53 .. .. .. .. 
.. .. .. .. .. .. .. .. .. .. .. .. .. .. .. .. .. .. .. .. .. .. .. .. .. .. .. .. .. .. 
.. .. .. .. .. .. .. .. .. .. .. .. .. .. .. .. .. .. .. .. .. .. .. .. .. .. .. .. .. .. 
.. .. .. .. .. .. .. .. .. .. .. .. .. .. .. .. .. .. .. .. .. .. .. .. .. .. .. .. .. .. 
.. .. .. .. .. .. .. .. .. .. .. .. .. .. .. .. .. .. .. .. .. .. .. .. .. .. .. .. .. .. 
.. .. .. .. .. .. .. .. .. .. .. .. .. .. .. 43 .. .. .. .. .. .. .. .. .. .. .. .. .. .. 
.. .. .. .. .. .. .. .. .. .. .. .. .. 46 .. .. .. .. .. .. .. .. .. .. .. .. .. 44 .. .. 
.. .. .. .. .. .. .. .. .. .. .. 43 .. .. .. .. .. .. .. .. .. .. .. .. .. .. .. .. .. .. 
.. .. .. .. .. .. .. .. .. 55 .. .. .. .. .. .. .. .. .. .. .. .. .. 53 .. .. .. .. .. .. 
.. .. .. .. .. .. .. 51 .. .. .. .. .. .. .. .. .. .. .. .. .. .. .. .. .. .. .. .. .. .. 
.. .. .. .. .. 56 .. .. .. .. .. .. .. .. .. .. .. .. .. 55 .. .. .. .. .. .. .. .. .. .. 
.. .. .. .. .. .. .. .. .. .. .. .. .. .. .. .. .. 53 .. .. .. .. .. .. .. .. .. .. .. .. 
.. 51 .. .. .. .. .. .. .. .. .. .. .. .. .. .. .. .. .. .. .. .. .. .. .. .. .. .. .. 44 
.. .. .. .. .. .. .. .. .. .. .. .. .. 46 .. .. .. .. .. .. 44 .. .. .. .. .. .. 43 .. .. 
.. .. .. .. .. .. .. .. .. .. .. 41 .. .. .. .. .. .. .. .. .. .. .. .. .. 43 .. .. .. .. 
.. .. .. .. .. .. .. .. .. .. .. .. .. .. .. .. .. .. .. .. .. .. .. 46 .. .. .. .. .. .. 
.. .. .. .. .. .. .. 44 .. .. .. .. .. .. .. .. .. .. .. .. .. 43 .. .. .. .. .. .. .. .. 
.. .. .. .. .. .. .. .. .. .. .. .. .. .. .. .. .. .. .. 55 .. .. .. .. .. .. .. .. .. .. 
.. .. .. 53 .. .. .. .. .. .. .. .. .. .. .. .. .. 51 .. .. .. .. .. .. .. .. .. .. .. .. 
.. .. .. .. .. .. .. .. .. .. .. .. .. .. .. 56 .. .. .. .. .. .. .. .. .. .. .. .. .. 55 
.. .. .. .. .. .. .. .. .. .. .. .. .. .. .. .. .. .. .. .. .. .. .. .. .. .. .. 53 .. .. 
.. .. .. .. .. .. .. .. .. .. .. 51 .. .. .. .. .. .. .. .. .. .. .. .. .. .. .. .. .. .. 
.. .. .. .. .. .. .. .. .. 44 .. .. .. .. .. .. .. .. .. .. .. .. .. 48 .. .. .. .. .. .. 
44 .. .. .. .. .. .. 43 .. .. .. .. .. .. .. .. .. .. .. .. .. 41 .. .. .. .. .. .. .. .. 
.. .. .. .. .. 43 .. .. .. .. .. .. .. .. .. .. .. .. .. 46 .. .. .. .. .. .. .. .. .. .. 
.. .. .. 43 .. .. .. .. .. .. .. .. .. .. .. .. .. 55 .. .. .. .. .. .. .. .. .. .. .. .. 
.. 51 .. .. .. .. .. .. .. .. .. .. .. .. .. 46 .. .. .. .. .. .. .. .. .. .. .. .. .. 43 
.. .. .. .. .. .. .. .. .. .. .. .. .. 55 .. .. .. .. .. .. .. .. .. .. .. .. .. 51 .. .. 
.. .. .. .. .. .. .. .. .. .. .. .. .. .. .. .. .. .. .. .. .. .. .. .. .. 56 .. .. .. .. 
.. .. .. .. .. .. .. .. .. 55 .. .. .. .. .. .. .. .. .. .. .. .. .. .. .. .. .. .. .. .. 
.. .. .. .. .. .. .. 53 .. .. .. .. .. .. .. .. .. .. .. .. .. 51 .. .. .. .. .. .. .. .. 
.. .. .. .. .. .. .. .. .. .. .. .. .. .. .. .. .. .. .. 44 .. .. .. .. .. .. .. .. .. .. 
.. .. .. 48 .. .. .. .. .. .. 44 .. .. .. .. .. .. 43 .. .. .. .. .. .. .. .. .. .. .. .. 
.. 41 .. .. .. .. .. .. .. .. .. .. .. .. .. 43 .. .. .. .. .. .. .. .. .. .. .. .. .. .. 
.. .. .. .. .. .. .. .. .. .. .. .. .. .. .. .. .. .. .. .. .. .. .. .. .. .. .. 55 .. .. 
.. .. .. .. .. .. .. .. .. .. .. 51 .. .. .. .. .. .. .. .. .. .. .. .. .. .. .. .. .. .. 
.. .. .. .. .. .. .. .. .. .. .. .. .. .. .. .. .. .. .. .. .. .. .. 55 .. .. .. .. .. .. 
.. .. .. .. .. .. .. 51 .. .. .. .. .. .. .. .. .. .. .. .. .. .. .. .. .. .. .. .. .. .. 
.. .. .. .. .. .. .. .. .. .. .. .. 53 .. .. .. .. .. .. 55 .. .. .. .. .. .. 57 .. .. .. 
.. .. .. 58 .. .. .. .. .. .. .. .. .. .. .. .. .. .. .. .. .. .. .. .. .. .. .. .. .. .. 
.. .. .. .. .. .. .. .. 57 .. .. .. .. .. .. 58 .. .. .. .. .. .. 60 .. .. .. .. .. .. 62 
.. .. .. .. .. .. .. .. .. .. .. .. .. .. .. .. .. .. .. .. .. .. .. .. .. .. .. .. .. .. 
.. .. .. .. 60 .. .. .. .. .. .. 62 .. .. .. .. .. .. 63 .. .. .. .. .. .. 65 .. .. .. .. 
.. .. .. .. .. .. .. .. .. 62 .. .. .. .. .. .. 63 .. .. .. .. .. .. 65 .. .. .. .. .. .. 
63 .. .. .. .. .. .. 62 .. .. .. .. .. .. 60 .. .. .. .. .. .. 58 .. .. .. .. .. .. .. .. 
.. .. .. .. .. 50 .. .. .. .. .. .. .. .. .. .. .. .. .. 51 .. .. .. .. .. .. .. .. .. .. 
.. .. .. 48 .. .. .. .. .. .. .. .. .. .. .. .. .. 50 .. .. .. .. .. .. .. .. .. .. .. .. 
.. .. .. .. .. .. .. .. .. .. .. .. .. .. .. .. .. .. .. .. .. .. .. .. .. .. .. .. .. .. 
.. .. .. .. .. .. .. .. .. .. .. .. .. .. .. .. .. .. .. .. .. .. .. .. .. .. .. .. .. .. 
.. .. .. .. .. .. .. .. .. .. .. .. .. .. .. .. .. .. .. .. .. .. .. .. .. .. .. .. .. .. 
.. .. .. .. .. .. .. .. .. 62 .. .. .. .. .. .. .. .. .. .. .. .. .. .. .. .. .. .. .. .. 
.. .. .. .. .. .. .. 58 .. .. .. .. .. .. .. .. .. .. .. .. .. .. .. .. .. .. .. .. .. .. 
.. .. .. .. .. .. .. .. .. .. .. .. .. .. .. .. .. .. .. .. .. .. .. .. .. .. .. .. .. .. 
.. .. .. .. .. .. .. .. .. .. .. .. .. .. .. .. .. .. .. .. .. .. .. .. .. .. .. .. .. .. 
.. 62 .. .. .. .. .. .. .. .. .. .. .. .. .. 58 .. .. .. .. .. .. 60 .. .. .. .. .. .. 62 
.. .. .. .. .. .. .. .. .. .. .. .. .. 58 .. .. .. .. .. .. 60 .. .. .. .. .. .. 62 .. .. 
.. .. .. .. .. .. .. .. .. .. .. 58 .. .. .. .. .. .. 60 .. .. .. .. .. .. 62 .. .. .. .. 
.. .. .. .. .. .. .. .. .. 58 .. .. .. .. .. .. 60 .. .. .. .. .. .. 65 .. .. .. .. .. .. 
.. .. .. .. .. .. .. 46 .. .. .. .. .. .. .. .. .. .. .. .. .. 51 .. .. .. .. .. .. .. .. 
.. .. .. .. .. .. .. .. .. .. .. .. .. .. .. .. .. .. .. 46 .. .. .. .. .. .. .. .. .. .. 
.. .. .. 58 .. .. .. .. .. .. .. .. .. .. .. .. .. .. .. .. .. .. .. .. .. .. .. .. .. .. 
.. .. .. .. .. .. .. .. .. .. .. .. .. .. .. 50 .. .. .. .. .. .. 51 .. .. .. .. .. .. 50 
.. .. .. .. .. .. 51 .. .. .. .. .. .. 50 .. .. .. .. .. .. .. .. .. .. .. .. .. .. .. .. 
.. .. .. .. .. .. .. .. .. .. .. .. .. .. .. .. .. .. .. .. .. .. .. .. .. 48 .. .. .. .. 
.. .. .. .. .. .. .. .. .. .. .. .. .. .. .. .. .. .. .. .. .. .. .. .. .. .. .. .. .. .. 
.. .. .. .. .. .. .. 48 .. .. .. .. .. .. 50 .. .. .. .. .. .. 48 .. .. .. .. .. .. 50 .. 
.. .. .. .. .. 48 .. .. .. .. .. .. .. .. .. .. .. .. .. 63 .. .. .. .. .. .. .. .. .. .. 
.. .. .. 48 .. .. .. .. .. .. .. .. .. .. .. .. .. 46 .. .. .. .. .. .. .. .. .. .. .. .. 
.. .. .. .. .. .. .. .. .. .. .. .. .. .. .. .. .. .. .. .. .. .. .. .. .. .. .. .. .. 50 
.. .. .. .. .. .. .. .. .. .. .. .. .. .. .. .. .. .. .. .. .. .. .. .. .. .. .. 51 .. .. 
.. .. .. .. .. .. .. .. .. .. .. 53 .. .. .. .. .. .. .. .. .. .. .. .. .. 51 .. .. .. .. 
.. .. .. .. .. .. .. .. .. .. .. .. .. .. .. .. .. .. .. .. .. .. .. 53 .. .. .. .. .. .. 
.. .. .. .. .. .. .. 55 .. .. .. .. .. .. .. .. .. .. .. .. .. .. .. .. .. .. .. .. .. .. 
.. .. .. .. .. .. .. .. .. .. .. .. .. .. .. .. .. .. .. 53 .. .. .. .. .. .. .. .. .. .. 
.. .. .. 51 .. .. .. .. .. .. .. .. .. .. .. .. .. 53 .. .. .. .. .. .. .. .. .. .. .. .. 
.. 46 .. .. .. .. .. .. .. .. .. .. .. .. .. .. .. .. .. .. .. .. .. .. .. .. .. .. .. .. 
.. .. .. .. .. .. .. .. .. .. .. .. .. 50 .. .. .. .. .. .. .. .. .. .. .. .. .. .. .. .. 
.. .. .. .. .. .. .. .. .. .. .. 51 .. .. .. .. .. .. .. .. .. .. .. .. .. 53 .. .. .. .. 
.. .. .. .. .. .. .. .. .. 51 .. .. .. .. .. .. .. .. .. .. .. .. .. .. .. .. .. .. .. .. 
50 .. .. .. .. .. .. 51 .. .. .. .. .. .. .. .. .. .. .. .. .. 53 .. .. .. .. .. .. .. .. 
.. .. .. .. .. 55 .. .. .. .. .. .. .. .. .. .. .. .. .. 56 .. .. .. .. .. .. 55 .. .. .. 
.. .. .. 53 .. .. .. .. .. .. .. .. .. .. .. .. .. 51 .. .. .. .. .. .. .. .. .. .. .. .. 
.. 53 .. .. .. .. .. .. .. .. .. .. .. .. .. 58 .. .. .. .. .. .. .. .. .. .. .. .. .. .. 
.. .. .. .. .. .. .. .. .. .. .. .. .. .. .. .. .. .. .. .. .. .. .. .. .. .. .. 43 .. .. 
.. .. .. .. .. .. .. .. .. .. .. 55 .. .. .. .. .. .. .. .. .. .. .. .. .. 51 .. .. .. .. 
.. .. .. .. .. .. .. .. .. .. .. .. .. .. .. .. .. .. .. .. .. .. .. .. .. .. .. .. .. .. 
.. .. .. .. .. .. .. 55 .. .. .. .. .. .. .. .. .. .. .. .. .. 51 .. .. .. .. .. .. .. .. 
.. .. .. .. .. 43 .. .. .. .. .. .. .. .. .. .. .. .. .. 44 .. .. .. .. .. .. .. .. .. .. 
.. .. .. 43 .. .. .. .. .. .. .. .. .. .. .. .. .. 44 .. .. .. .. .. .. .. .. .. .. .. .. 
.. 41 .. .. .. .. .. .. .. .. .. .. .. .. .. 43 .. .. .. .. .. .. .. .. .. .. .. .. .. 58 
.. .. .. .. .. .. .. .. .. .. .. .. .. 55 .. .. .. .. .. .. .. .. .. .. .. .. .. 58 .. .. 
.. .. .. .. .. .. .. .. .. .. .. 55 .. .. .. .. .. .. .. .. .. .. .. .. .. 58 .. .. .. .. 
.. .. .. .. .. .. .. .. .. 55 .. .. .. .. .. .. .. .. .. .. .. .. .. .. .. .. .. .. .. .. 
.. .. .. .. .. .. .. .. .. .. .. .. .. .. .. .. .. .. .. .. .. 55 .. .. .. .. .. .. .. .. 
.. .. .. .. .. 51 .. .. .. .. .. .. .. .. .. .. .. .. .. 43 .. .. .. .. .. .. .. .. .. .. 
.. .. .. 44 .. .. .. .. .. .. .. .. .. .. .. .. .. 43 .. .. .. .. .. .. .. .. .. .. .. .. 
.. 44 .. .. .. .. .. .. .. .. .. .. .. .. .. 41 .. .. .. .. .. .. .. .. .. .. .. .. .. 43 
.. .. .. .. .. .. .. .. .. .. .. .. .. .. .. .. .. .. .. .. .. .. .. .. .. .. .. .. .. .. 
.. .. .. .. .. .. .. .. .. .. .. 46 .. .. .. .. .. .. .. .. .. .. .. .. .. 51 .. .. .. .. 
.. .. .. .. .. .. .. .. .. 50 .. .. .. .. .. .. .. .. .. .. .. .. .. 51 .. .. .. .. .. .. 
.. .. .. .. .. .. .. .. .. .. .. .. .. .. .. .. .. .. .. .. .. 50 .. .. .. .. .. .. .. .. 
.. .. .. .. .. 51 .. .. .. .. .. .. .. .. .. .. .. .. .. 53 .. .. .. .. .. .. .. .. .. .. 
.. .. .. 50 .. .. .. .. .. .. .. .. .. .. .. .. .. 46 .. .. .. .. .. .. .. .. .. .. .. .. 
.. .. .. .. .. .. .. .. .. .. .. .. .. .. .. .. .. .. .. .. .. .. .. .. .. .. .. .. .. 51 
.. .. .. .. .. .. .. .. .. .. .. .. .. 50 .. .. .. .. .. .. .. .. .. .. .. .. .. 51 .. .. 
.. .. .. .. .. .. .. .. .. .. .. 53 .. .. .. .. .. .. .. .. .. .. .. .. .. 46 .. .. .. .. 
.. .. .. .. .. .. .. .. .. 51 .. .. .. .. .. .. .. .. .. .. .. .. .. 50 .. .. .. .. .. .. 
.. .. .. .. .. .. .. 53 .. .. .. .. .. .. .. .. .. .. .. .. .. 41 .. .. .. .. .. .. .. .. 
.. .. .. .. .. 46 .. .. .. .. .. .. .. .. .. .. .. .. .. .. .. .. .. .. .. .. .. .. .. .. 
.. .. .. 51 .. .. .. .. .. .. .. .. .. .. .. .. .. .. .. .. .. .. .. .. .. .. .. .. .. .. 
.. 50 .. .. .. .. .. .. .. .. .. .. .. .. .. .. .. .. .. .. .. .. .. .. .. .. .. .. .. 48 
.. .. .. .. .. .. .. .. .. .. .. .. .. .. .. .. .. .. .. .. .. .. .. .. .. .. .. 46 .. .. 
.. .. .. .. .. .. .. .. .. .. .. .. .. .. .. .. .. .. .. .. .. .. .. .. .. 51 .. .. .. .. 
.. .. .. .. .. .. .. .. .. .. .. .. .. .. .. .. .. .. .. .. .. .. .. 50 .. .. .. .. .. .. 
.. .. .. .. .. .. .. .. .. .. .. .. .. .. .. .. .. .. .. .. .. 48 .. .. .. .. .. .. .. .. 
.. .. .. .. .. .. .. .. .. .. .. .. .. .. .. .. .. .. .. 46 .. .. .. .. .. .. .. .. .. .. 
.. .. .. .. .. .. .. .. .. .. .. .. .. .. .. .. .. 50 .. .. .. .. .. .. .. .. .. .. .. .. 
.. .. .. .. .. .. .. .. .. .. .. .. .. .. .. 53 .. .. .. .. .. .. 51 .. .. .. .. .. .. 50 
.. .. .. .. .. .. 48 .. .. .. .. .. .. 53 .. .. .. .. .. .. .. .. .. .. .. .. .. 41 .. .. 
.. .. .. .. .. .. .. .. .. .. .. 46 .. .. .. .. .. .. .. .. .. .. .. .. .. .. .. .. .. .. 
.. .. .. .. .. .. .. .. .. 53 .. .. .. .. .. .. .. .. .. .. .. .. .. .. .. .. .. .. .. .. 
.. .. .. .. .. .. .. .. .. .. .. .. .. .. .. .. .. .. .. .. .. .. .. .. .. .. .. .. .. .. 
.. .. .. .. .. .. .. .. .. .. .. .. .. .. .. .. .. .. .. .. .. .. .. .. .. .. .. .. .. .. 
.. .. .. .. .. .. .. .. .. .. .. .. .. .. .. .. .. .. .. .. .. .. .. .. .. .. .. .. .. .. 
.. .. .. .. .. .. .. .. .. .. .. .. .. .. .. .. .. .. .. .. .. .. .. .. .. .. .. .. 
! Song 3
146 55 .. .. .. .. .. .. .. .. .. .. .. .. .. .. .. .. .. .. .. .. .. .. .. .. .. .. .. .. 
.. .. .. .. .. .. .. 58 .. .. .. .. .. .. .. .. .. .. .. .. .. .. .. .. .. 56 .. .. .. .. 
.. .. .. .. .. .. .. .. .. .. .. .. .. 55 .. .. .. .. .. .. .. .. .. .. .. .. .. .. .. .. 
.. .. .. .. .. .. .. .. .. .. .. .. .. .. .. .. .. .. .. 67 .. .. .. .. .. .. .. .. .. .. 
.. .. .. .. .. .. .. 65 .. .. .. .. .. .. .. .. .. .. .. .. .. .. .. .. .. 63 .. .. .. .. 
.. .. .. .. .. .. .. .. .. .. .. .. .. .. .. .. .. .. .. .. .. .. .. .. .. .. .. .. .. .. 
.. 68 .. .. .. .. .. .. .. .. .. .. .. .. .. .. .. .. .. 67 .. .. .. .. .. .. .. .. .. .. 
.. .. .. .. .. .. .. .. .. .. .. .. .. .. .. .. .. .. .. .. .. .. .. .. .. 65 .. .. .. .. 
.. .. .. .. .. .. .. .. .. .. .. .. .. 63 .. .. .. .. .. .. .. .. .. .. .. .. .. .. .. .. 
.. .. .. .. .. .. .. .. .. .. .. .. .. .. .. .. .. .. .. 56 .. .. .. .. .. .. .. .. .. .. 
.. .. .. .. .. .. .. 58 .. .. .. .. .. .. .. .. 56 .. .. .. .. .. .. .. .. 55 .. .. .. .. 
.. .. .. .. .. .. .. .. .. .. .. .. .. 53 .. .. .. .. .. .. .. .. .. .. .. .. .. .. .. .. 
.. 55 .. .. .. .. .. .. .. .. .. .. .. .. .. .. .. .. .. .. .. .. .. .. .. .. .. .. .. .. 
.. .. .. .. .. .. .. 58 .. .. .. .. .. .. .. .. .. .. .. .. .. .. .. .. .. 56 .. .. .. .. 
.. .. .. .. .. .. .. .. .. .. .. .. .. 55 .. .. .. .. .. .. .. .. .. .. .. .. .. .. .. .. 
.. .. .. .. .. .. .. .. .. .. .. .. .. .. .. .. .. .. .. 67 .. .. .. .. .. .. .. .. .. .. 
.. .. .. .. .. .. .. 65 .. .. .. .. .. .. .. .. .. .. .. .. .. .. .. .. .. 63 .. .. .. .. 
.. .. .. .. .. .. .. .. .. .. .. .. .. .. .. .. .. .. .. .. .. .. .. .. .. .. .. .. .. .. 
.. 68 .. .. .. .. .. .. .. .. .. .. .. .. .. .. .. .. .. 67 .. .. .. .. .. .. .. .. .. .. 
.. .. .. .. .. .. .. .. .. .. .. .. .. .. .. .. .. .. .. .. .. .. .. .. .. 65 .. .. .. .. 
.. .. .. .. .. .. .. .. .. .. .. .. .. 63 .. .. .. .. .. .. .. .. .. .. .. .. .. .. .. .. 
.. .. .. .. .. .. .. .. .. .. .. .. .. .. .. .. .. .. .. 56 .. .. .. .. .. .. .. .. .. .. 
.. .. .. .. .. .. .. 60 .. .. .. .. .. .. .. .. 56 .. .. .. .. .. .. .. .. 55 .. .. .. .. 
.. .. .. .. .. .. .. .. .. .. .. .. .. 53 .. .. .. .. .. .. .. .. .. .. .. .. .. .. .. .. 
.. 55 .. .. .. .. .. .. .. .. .. .. .. .. .. .. .. .. .. 58 .. .. .. .. .. .. .. .. .. .. 
.. .. .. .. .. .. .. 55 .. .. .. .. .. .. .. .. .. .. .. .. .. .. .. .. .. 67 .. .. .. .. 
.. .. .. .. .. .. .. .. .. .. .. .. .. 63 .. .. .. .. .. .. .. .. .. .. .. .. .. .. .. .. 
.. 58 .. .. .. .. .. .. .. .. .. .. .. .. .. .. .. .. .. 55 .. .. .. .. .. .. .. .. .. .. 
.. .. .. .. .. .. .. 67 .. .. .. .. .. .. .. .. .. .. .. .. .. .. .. .. .. 63 .. .. .. .. 
.. .. .. .. .. .. .. .. .. .. .. .. .. .. .. .. .. .. .. .. .. .. .. .. .. .. .. .. .. .. 
.. 68 .. .. .. .. .. .. .. .. .. .. .. .. .. .. .. .. .. 67 .. .. .. .. .. .. .. .. .. .. 
.. .. .. .. .. .. .. .. .. .. .. .. .. .. .. .. .. .. .. .. .. .. .. .. .. 65 .. .. .. .. 
.. .. .. .. .. .. .. .. .. .. .. .. .. 63 .. .. .. .. .. .. .. .. .. .. .. .. .. .. .. .. 
.. .. .. .. .. .. .. .. .. .. .. .. .. .. .. .. .. .. .. 56 .. .. .. .. .. .. .. .. .. .. 
.. .. .. .. .. .. .. 60 .. .. .. .. .. .. .. .. 56 .. .. .. .. .. .. .. .. 55 .. .. .. .. 
.. .. .. .. .. .. .. .. .. .. .. .. .. 53 .. .. .. .. .. .. .. .. .. .. .. .. .. .. .. .. 
.. 55 .. .. .. .. .. .. .. .. .. .. .. .. .. .. .. .. .. .. .. .. .. .. .. .. .. .. .. .. 
.. .. .. .. .. .. .. .. .. .. .. .. .. .. .. .. .. .. .. .. .. .. .. .. .. 67 .. .. .. .. 
.. .. .. .. .. .. .. .. .. .. .. .. .. 63 .. .. .. .. .. .. .. .. .. .. .. .. .. .. .. .. 
.. .. .. .. .. .. .. .. .. .. .. .. .. .. .. .. .. .. .. .. .. .. .. .. .. .. .. .. .. .. 
.. .. .. .. .. .. .. 67 .. .. .. .. .. .. .. .. .. .. .. .. .. .. .. .. .. 63 .. .. .. .. 
.. .. .. .. .. .. .. .. .. .. .. .. .. .. .. .. .. .. .. .. .. .. .. .. .. .. .. .. .. .. 
.. .. .. .. .. .. .. .. .. .. 65 .. .. .. .. .. .. .. .. 67 .. .. .. .. .. .. .. .. 69 .. 
.. .. .. .. .. .. .. 70 .. .. .. .. .. .. .. .. .. .. .. .. .. .. .. .. .. .. .. .. .. .. 
.. .. .. .. .. .. .. .. .. .. .. .. .. .. .. .. .. .. .. .. .. .. 69 .. .. .. .. .. .. .. 
.. 70 .. .. .. .. .. .. .. .. 72 .. .. .. .. .. .. .. .. 74 .. .. .. .. .. .. .. .. .. .. 
.. .. .. .. .. .. .. .. .. .. .. .. .. .. .. .. .. .. .. .. .. .. .. .. .. .. .. .. .. .. 
.. .. .. .. 72 .. .. .. .. .. .. .. .. 74 .. .. .. .. .. .. .. .. 75 .. .. .. .. .. .. .. 
.. 77 .. .. .. .. .. .. .. .. .. .. .. .. .. .. .. .. .. 74 .. .. .. .. .. .. .. .. 75 .. 
.. .. .. .. .. .. .. 77 .. .. .. .. .. .. .. .. 75 .. .. .. .. .. .. .. .. 74 .. .. .. .. 
.. .. .. .. 72 .. .. .. .. .. .. .. .. 70 .. .. .. .. .. .. .. .. .. .. .. .. .. .. .. .. 
.. 62 .. .. .. .. .. .. .. .. .. .. .. .. .. .. .. .. .. 63 .. .. .. .. .. .. .. .. .. .. 
.. .. .. .. .. .. .. 60 .. .. .. .. .. .. .. .. .. .. .. .. .. .. .. .. .. 62 .. .. .. .. 
.. .. .. .. .. .. .. .. .. .. .. .. .. .. .. .. .. .. .. .. .. .. .. .. .. .. .. .. .. .. 
.. .. .. .. .. .. .. .. .. .. .. .. .. .. .. .. .. .. .. .. .. .. .. .. .. .. .. .. .. .. 
.. .. .. .. .. .. .. .. .. .. .. .. .. .. .. .. .. .. .. .. .. .. .. .. .. .. .. .. .. .. 
.. .. .. .. .. .. .. .. .. .. .. .. .. .. .. .. .. .. .. .. .. .. .. .. .. .. .. .. .. .. 
.. .. .. .. .. .. .. .. .. .. .. .. .. .. .. .. .. .. .. 74 .. .. .. .. .. .. .. .. .. .. 
.. .. .. .. .. .. .. .. .. .. .. .. .. .. .. .. .. .. .. .. .. .. .. .. .. 70 .. .. .. .. 
.. .. .. .. .. .. .. .. .. .. .. .. .. .. .. .. .. .. .. .. .. .. .. .. .. .. .. .. .. .. 
.. .. .. .. .. .. .. .. .. .. .. .. .. .. .. .. .. .. .. .. .. .. .. .. .. .. .. .. .. .. 
.. .. .. .. .. .. .. .. .. .. .. .. .. .. .. .. .. .. .. .. .. .. .. .. .. .. .. .. .. .. 
.. .. .. .. .. .. .. .. .. .. .. .. .. 74 .. .. .. .. .. .. .. .. .. .. .. .. .. .. .. .. 
.. 70 .. .. .. .. .. .. .. .. 72 .. .. .. .. .. .. .. .. 74 .. .. .. .. .. .. .. .. .. .. 
.. .. .. .. .. .. .. 70 .. .. .. .. .. .. .. .. 72 .. .. .. .. .. .. .. .. 74 .. .. .. .. 
.. .. .. .. .. .. .. .. .. .. .. .. .. 70 .. .. .. .. .. .. .. .. 72 .. .. .. .. .. .. .. 
.. 74 .. .. .. .. .. .. .. .. .. .. .. .. .. .. .. .. .. 70 .. .. .. .. .. .. .. .. 72 .. 
.. .. .. .. .. .. .. 77 .. .. .. .. .. .. .. .. .. .. .. .. .. .. .. .. .. 58 .. .. .. .. 
.. .. .. .. .. .. .. .. .. .. .. .. .. 63 .. .. .. .. .. .. .. .. .. .. .. .. .. .. .. .. 
.. .. .. .. .. .. .. .. .. .. .. .. .. .. .. .. .. .. .. 58 .. .. .. .. .. .. .. .. .. .. 
.. .. .. .. .. .. .. 70 .. .. .. .. .. .. .. .. .. .. .. .. .. .. .. .. .. .. .. .. .. .. 
.. .. .. .. .. .. .. .. .. .. .. .. .. .. .. .. .. .. .. .. .. .. .. .. .. .. .. .. .. .. 
.. 62 .. .. .. .. .. .. .. .. 63 .. .. .. .. .. .. .. .. 62 .. .. .. .. .. .. .. .. 63 .. 
.. .. .. .. .. .. .. 62 .. .. .. .. .. .. .. .. .. .. .. .. .. .. .. .. .. .. .. .. .. .. 
.. .. .. .. .. .. .. .. .. .. .. .. .. .. .. .. .. .. .. .. .. .. .. .. .. .. .. .. .. .. 
.. 60 .. .. .. .. .. .. .. .. .. .. .. .. .. .. .. .. .. .. .. .. .. .. .. .. .. .. .. .. 
.. .. .. .. .. .. .. .. .. .. .. .. .. .. .. .. .. .. .. .. .. .. .. .. .. 60 .. .. .. .. 
.. .. .. .. 62 .. .. .. .. .. .. .. .. 60 .. .. .. .. .. .. .. .. 62 .. .. .. .. .. .. .. 
.. 60 .. .. .. .. .. .. .. .. .. .. .. .. .. .. .. .. .. 75 .. .. .. .. .. .. .. .. .. .. 
.. .. .. .. .. .. .. 60 .. .. .. .. .. .. .. .. .. .. .. .. .. .. .. .. .. 58 .. .. .. .. 
.. .. .. .. .. .. .. .. .. .. .. .. .. .. .. .. .. .. .. .. .. .. .. .. .. .. .. .. .. .. 
.. .. .. .. .. .. .. .. .. .. .. .. .. .. .. .. .. .. .. 62 .. .. .. .. .. .. .. .. .. .. 
.. .. .. .. .. .. .. .. .. .. .. .. .. .. .. .. .. .. .. .. .. .. .. .. .. 63 .. .. .. .. 
.. .. .. .. .. .. .. .. .. .. .. .. .. 65 .. .. .. .. .. .. .. .. .. .. .. .. .. .. .. .. 
.. 63 .. .. .. .. .. .. .. .. .. .. .. .. .. .. .. .. .. .. .. .. .. .. .. .. .. .. .. .. 
.. .. .. .. .. .. .. 65 .. .. .. .. .. .. .. .. .. .. .. .. .. .. .. .. .. 67 .. .. .. .. 
.. .. .. .. .. .. .. .. .. .. .. .. .. .. .. .. .. .. .. .. .. .. .. .. .. .. .. .. .. .. 
.. .. .. .. .. .. .. .. .. .. .. .. .. .. .. .. .. .. .. 65 .. .. .. .. .. .. .. .. .. .. 
.. .. .. .. .. .. .. 63 .. .. .. .. .. .. .. .. .. .. .. .. .. .. .. .. .. 65 .. .. .. .. 
.. .. .. .. .. .. .. .. .. .. .. .. .. 58 .. .. .. .. .. .. .. .. .. .. .. .. .. .. .. .. 
.. .. .. .. .. .. .. .. .. .. .. .. .. .. .. .. .. .. .. .. .. .. .. .. .. .. .. .. .. .. 
.. .. .. .. .. .. .. 62 .. .. .. .. .. .. .. .. .. .. .. .. .. .. .. .. .. .. .. .. .. .. 
.. .. .. .. .. .. .. .. .. .. .. .. .. 63 .. .. .. .. .. .. .. .. .. .. .. .. .. .. .. .. 
.. 65 .. .. .. .. .. .. .. .. .. .. .. .. .. .. .. .. .. 63 .. .. .. .. .. .. .. .. .. .. 
.. .. .. .. .. .. .. .. .. .. .. .. .. .. .. .. 62 .. .. .. .. .. .. .. .. 63 .. .. .. .. 
.. .. .. .. .. .. .. .. .. .. .. .. .. 65 .. .. .. .. .. .. .. .. .. .. .. .. .. .. .. .. 
.. 67 .. .. .. .. .. .. .. .. .. .. .. .. .. .. .. .. .. 68 .. .. .. .. .. .. .. .. 67 .. 
.. .. .. .. .. .. .. 65 .. .. .. .. .. .. .. .. .. .. .. .. .. .. .. .. .. 63 .. .. .. .. 
.. .. .. .. .. .. .. .. .. .. .. .. .. 65 .. .. .. .. .. .. .. .. .. .. .. .. .. .. .. .. 
.. 70 .. .. .. .. .. .. .. .. .. .. .. .. .. .. .. .. .. .. .. .. .. .. .. .. .. .. .. .. 
.. .. .. .. .. .. .. .. .. .. .. .. .. .. .. .. .. .. .. .. .. .. .. .. .. 55 .. .. .. .. 
.. .. .. .. .. .. .. .. .. .. .. .. .. 67 .. .. .. .. .. .. .. .. .. .. .. .. .. .. .. .. 
.. 63 .. .. .. .. .. .. .. .. .. .. .. .. .. .. .. .. .. .. .. .. .. .. .. .. .. .. .. .. 
.. .. .. .. .. .. .. .. .. .. .. .. .. .. .. .. .. .. .. .. .. .. .. .. .. 67 .. .. .. .. 
.. .. .. .. .. .. .. .. .. .. .. .. .. 63 .. .. .. .. .. .. .. .. .. .. .. .. .. .. .. .. 
.. 55 .. .. .. .. .. .. .. .. .. .. .. .. .. .. .. .. .. 56 .. .. .. .. .. .. .. .. .. .. 
.. .. .. .. .. .. .. 55 .. .. .. .. .. .. .. .. .. .. .. .. .. .. .. .. .. 56 .. .. .. .. 
.. .. .. .. .. .. .. .. .. .. .. .. .. 53 .. .. .. .. .. .. .. .. .. .. .. .. .. .. .. .. 
.. 55 .. .. .. .. .. .. .. .. .. .. .. .. .. .. .. .. .. 70 .. .. .. .. .. .. .. .. .. .. 
.. .. .. .. .. .. .. 67 .. .. .. .. .. .. .. .. .. .. .. .. .. .. .. .. .. 70 .. .. .. .. 
.. .. .. .. .. .. .. .. .. .. .. .. .. 67 .. .. .. .. .. .. .. .. .. .. .. .. .. .. .. .. 
.. 70 .. .. .. .. .. .. .. .. .. .. .. .. .. .. .. .. .. 67 .. .. .. .. .. .. .. .. .. .. 
.. .. .. .. .. .. .. .. .. .. .. .. .. .. .. .. .. .. .. .. .. .. .. .. .. .. .. .. .. .. 
.. .. .. .. .. .. .. .. .. .. .. .. .. 67 .. .. .. .. .. .. .. .. .. .. .. .. .. .. .. .. 
.. 63 .. .. .. .. .. .. .. .. .. .. .. .. .. .. .. .. .. 55 .. .. .. .. .. .. .. .. .. .. 
.. .. .. .. .. .. .. 56 .. .. .. .. .. .. .. .. .. .. .. .. .. .. .. .. .. 55 .. .. .. .. 
.. .. .. .. .. .. .. .. .. .. .. .. .. 56 .. .. .. .. .. .. .. .. .. .. .. .. .. .. .. .. 
.. 53 .. .. .. .. .. .. .. .. .. .. .. .. .. .. .. .. .. 55 .. .. .. .. .. .. .. .. .. .. 
.. .. .. .. .. .. .. .. .. .. .. .. .. .. .. .. .. .. .. .. .. .. .. .. .. .. .. .. .. .. 
.. .. .. .. .. .. .. .. .. .. .. .. .. 58 .. .. .. .. .. .. .. .. .. .. .. .. .. .. .. .. 
.. 63 .. .. .. .. .. .. .. .. .. .. .. .. .. .. .. .. .. 62 .. .. .. .. .. .. .. .. .. .. 
.. .. .. .. .. .. .. 63 .. .. .. .. .. .. .. .. .. .. .. .. .. .. .. .. .. .. .. .. .. .. 
.. .. .. .. .. .. .. .. .. .. .. .. .. 62 .. .. .. .. .. .. .. .. .. .. .. .. .. .. .. .. 
.. 63 .. .. .. .. .. .. .. .. .. .. .. .. .. .. .. .. .. 65 .. .. .. .. .. .. .. .. .. .. 
.. .. .. .. .. .. .. 62 .. .. .. .. .. .. .. .. .. .. .. .. .. .. .. .. .. 58 .. .. .. .. 
.. .. .. .. .. .. .. .. .. .. .. .. .. .. .. .. .. .. .. .. .. .. .. .. .. .. .. .. .. .. 
.. .. .. .. .. .. .. .. .. .. .. .. .. .. .. .. .. .. .. 63 .. .. .. .. .. .. .. .. .. .. 
.. .. .. .. .. .. .. 62 .. .. .. .. .. .. .. .. .. .. .. .. .. .. .. .. .. 63 .. .. .. .. 
.. .. .. .. .. .. .. .. .. .. .. .. .. 65 .. .. .. .. .. .. .. .. .. .. .. .. .. .. .. .. 
.. 58 .. .. .. .. .. .. .. .. .. .. .. .. .. .. .. .. .. 63 .. .. .. .. .. .. .. .. .. .. 
.. .. .. .. .. .. .. 62 .. .. .. .. .. .. .. .. .. .. .. .. .. .. .. .. .. 65 .. .. .. .. 
.. .. .. .. .. .. .. .. .. .. .. .. .. 53 .. .. .. .. .. .. .. .. .. .. .. .. .. .. .. .. 
.. 58 .. .. .. .. .. .. .. .. .. .. .. .. .. .. .. .. .. .. .. .. .. .. .. .. .. .. .. .. 
.. .. .. .. .. .. .. 63 .. .. .. .. .. .. .. .. .. .. .. .. .. .. .. .. .. .. .. .. .. .. 
.. .. .. .. .. .. .. .. .. .. .. .. .. 62 .. .. .. .. .. .. .. .. .. .. .. .. .. .. .. .. 
.. .. .. .. .. .. .. .. .. .. .. .. .. .. .. .. .. .. .. 60 .. .. .. .. .. .. .. .. .. .. 
.. .. .. .. .. .. .. .. .. .. .. .. .. .. .. .. .. .. .. .. .. .. .. .. .. 58 .. .. .. .. 
.. .. .. .. .. .. .. .. .. .. .. .. .. .. .. .. .. .. .. .. .. .. .. .. .. .. .. .. .. .. 
.. 63 .. .. .. .. .. .. .. .. .. .. .. .. .. .. .. .. .. .. .. .. .. .. .. .. .. .. .. .. 
.. .. .. .. .. .. .. 62 .. .. .. .. .. .. .. .. .. .. .. .. .. .. .. .. .. .. .. .. .. .. 
.. .. .. .. .. .. .. .. .. .. .. .. .. 60 .. .. .. .. .. .. .. .. .. .. .. .. .. .. .. .. 
.. .. .. .. .. .. .. .. .. .. .. .. .. .. .. .. .. .. .. 58 .. .. .. .. .. .. .. .. .. .. 
.. .. .. .. .. .. .. .. .. .. .. .. .. .. .. .. .. .. .. .. .. .. .. .. .. 62 .. .. .. .. 
.. .. .. .. .. .. .. .. .. .. .. .. .. .. .. .. .. .. .. .. .. .. .. .. .. .. .. .. .. .. 
.. 65 .. .. .. .. .. .. .. .. 63 .. .. .. .. .. .. .. .. 62 .. .. .. .. .. .. .. .. 60 .. 
.. .. .. .. .. .. .. 65 .. .. .. .. .. .. .. .. .. .. .. .. .. .. .. .. .. 53 .. .. .. .. 
.. .. .. .. .. .. .. .. .. .. .. .. .. 58 .. .. .. .. .. .. .. .. .. .. .. .. .. .. .. .. 
.. .. .. .. .. .. .. .. .. .. .. .. .. .. .. .. .. .. .. 65 .. .. .. .. .. .. .. .. .. .. 
.. .. .. .. .. .. .. .. .. .. .. .. .. .. .. .. .. .. .. .. .. .. .. .. .. .. .. .. .. .. 
.. .. .. .. .. .. .. .. .. .. .. .. .. .. .. .. .. .. .. .. .. .. .. .. .. .. .. .. .. .. 
.. .. .. .. .. .. .. .. .. .. .. .. .. .. .. .. .. .. .. .. .. .. .. .. .. .. .. .. .. .. 
.. .. .. .. .. .. .. .. .. .. .. .. .. .. .. .. .. .. .. .. .. .. .. .. .. .. .. .. .. .. 
.. .. .. .. .. .. .. .. .. .. .. .. .. .. .. .. .. .. .. .. .. .. .. .. .. .. .. .. .. .. 
.. .. .. .. .. .. .. .. .. .. .. .. .. .. .. .. .. .. .. 55 .. .. .. .. .. .. .. .. .. .. 
.. .. .. .. .. .. .. .. .. .. .. .. .. .. .. .. .. .. .. .. .. .. .. .. .. 58 .. .. .. .. 
.. .. .. .. .. .. .. .. .. .. .. .. .. 56 .. .. .. .. .. .. .. .. .. .. .. .. .. .. .. .. 
.. 55 .. .. .. .. .. .. .. .. .. .. .. .. .. .. .. .. .. .. .. .. .. .. .. .. .. .. .. .. 
.. .. .. .. .. .. .. 67 .. .. .. .. .. .. .. .. .. .. .. .. .. .. .. .. .. 65 .. .. .. .. 
.. .. .. .. .. .. .. .. .. .. .. .. .. 63 .. .. .. .. .. .. .. .. .. .. .. .. .. .. .. .. 
.. .. .. .. .. .. .. .. .. .. .. .. .. .. .. .. .. .. .. 68 .. .. .. .. .. .. .. .. .. .. 
.. .. .. .. .. .. .. 67 .. .. .. .. .. .. .. .. .. .. .. .. .. .. .. .. .. .. .. .. .. .. 
.. .. .. .. .. .. .. .. .. .. .. .. .. 65 .. .. .. .. .. .. .. .. .. .. .. .. .. .. .. .. 
.. 63 .. .. .. .. .. .. .. .. .. .. .. .. .. .. .. .. .. .. .. .. .. .. .. .. .. .. .. .. 
.. .. .. .. .. .. .. 56 .. .. .. .. .. .. .. .. .. .. .. .. .. .. .. .. .. 58 .. .. .. .. 
.. .. .. .. 56 .. .. .. .. .. .. .. .. 55 .. .. .. .. .. .. .. .. .. .. .. .. .. .. .. .. 
.. 53 .. .. .. .. .. .. .. .. .. .. .. .. .. .. .. .. .. 55 .. .. .. .. .. .. .. .. .. .. 
.. .. .. .. .. .. .. .. .. .. .. .. .. .. .. .. .. .. .. .. .. .. .. .. .. 58 .. .. .. .. 
.. .. .. .. .. .. .. .. .. .. .. .. .. 56 .. .. .. .. .. .. .. .. .. .. .. .. .. .. .. .. 
.. 55 .. .. .. .. .. .. .. .. .. .. .. .. .. .. .. .. .. .. .. .. .. .. .. .. .. .. .. .. 
.. .. .. .. .. .. .. 67 .. .. .. .. .. .. .. .. .. .. .. .. .. .. .. .. .. 65 .. .. .. .. 
.. .. .. .. .. .. .. .. .. .. .. .. .. 63 .. .. .. .. .. .. .. .. .. .. .. .. .. .. .. .. 
.. .. .. .. .. .. .. .. .. .. .. .. .. .. .. .. .. .. .. 68 .. .. .. .. .. .. .. .. .. .. 
.. .. .. .. .. .. .. 67 .. .. .. .. .. .. .. .. .. .. .. .. .. .. .. .. .. .. .. .. .. .. 
.. .. .. .. .. .. .. .. .. .. .. .. .. 65 .. .. .. .. .. .. .. .. .. .. .. .. .. .. .. .. 
.. 63 .. .. .. .. .. .. .. .. .. .. .. .. .. .. .. .. .. .. .. .. .. .. .. .. .. .. .. .. 
.. .. .. .. .. .. .. 56 .. .. .. .. .. .. .. .. .. .. .. .. .. .. .. .. .. 60 .. .. .. .. 
.. .. .. .. 56 .. .. .. .. .. .. .. .. 55 .. .. .. .. .. .. .. .. .. .. .. .. .. .. .. .. 
.. 53 .. .. .. .. .. .. .. .. .. .. .. .. .. .. .. .. .. 55 .. .. .. .. .. .. .. .. .. .. 
.. .. .. .. .. .. .. 58 .. .. .. .. .. .. .. .. .. .. .. .. .. .. .. .. .. 55 .. .. .. .. 
.. .. .. .. .. .. .. .. .. .. .. .. .. 67 .. .. .. .. .. .. .. .. .. .. .. .. .. .. .. .. 
.. 63 .. .. .. .. .. .. .. .. .. .. .. .. .. .. .. .. .. 58 .. .. .. .. .. .. .. .. .. .. 
.. .. .. .. .. .. .. 55 .. .. .. .. .. .. .. .. .. .. .. .. .. .. .. .. .. 67 .. .. .. .. 
.. .. .. .. .. .. .. .. .. .. .. .. .. 63 .. .. .. .. .. .. .. .. .. .. .. .. .. .. .. .. 
.. .. .. .. .. .. .. .. .. .. .. .. .. .. .. .. .. .. .. 68 .. .. .. .. .. .. .. .. .. .. 
.. .. .. .. .. .. .. 67 .. .. .. .. .. .. .. .. .. .. .. .. .. .. .. .. .. .. .. .. .. .. 
.. .. .. .. .. .. .. .. .. .. .. .. .. 65 .. .. .. .. .. .. .. .. .. .. .. .. .. .. .. .. 
.. 63 .. .. .. .. .. .. .. .. .. .. .. .. .. .. .. .. .. .. .. .. .. .. .. .. .. .. .. .. 
.. .. .. .. .. .. .. 56 .. .. .. .. .. .. .. .. .. .. .. .. .. .. .. .. .. 60 .. .. .. .. 
.. .. .. .. 56 .. .. .. .. .. .. .. .. 55 .. .. .. .. .. .. .. .. .. .. .. .. .. .. .. .. 
.. 53 .. .. .. .. .. .. .. .. .. .. .. .. .. .. .. .. .. 55 .. .. .. .. .. .. .. .. .. .. 
.. .. .. .. .. .. .. .. .. .. .. .. .. .. .. .. .. .. .. .. .. .. .. .. .. .. .. .. .. .. 
.. .. .. .. .. .. .. .. .. .. .. .. .. 67 .. .. .. .. .. .. .. .. .. .. .. .. .. .. .. .. 
.. 63 .. .. .. .. .. .. .. .. .. .. .. .. .. .. .. .. .. .. .. .. .. .. .. .. .. .. .. .. 
.. .. .. .. .. .. .. .. .. .. .. .. .. .. .. .. .. .. .. .. .. .. .. .. .. 67 .. .. .. .. 
.. .. .. .. .. .. .. .. .. .. .. .. .. 63 .. .. .. .. .. .. .. .. .. .. .. .. .. .. .. .. 
.. .. .. .. .. .. .. .. .. .. .. .. .. .. .. .. .. .. .. .. .. .. .. .. .. .. .. .. 65 .. 
.. .. .. .. .. .. .. 67 .. .. .. .. .. .. .. .. 69 .. .. .. .. .. .. .. .. 70 .. .. .. .. 
.. .. .. .. .. .. .. .. .. .. .. .. .. .. .. .. .. .. .. .. .. .. .. .. .. .. .. .. .. .. 
.. .. .. .. .. .. .. .. .. .. 69 .. .. .. .. .. .. .. .. 70 .. .. .. .. .. .. .. .. 72 .. 
.. .. .. .. .. .. .. 74 .. .. .. .. .. .. .. .. .. .. .. .. .. .. .. .. .. .. .. .. .. .. 
.. .. .. .. .. .. .. .. .. .. .. .. .. .. .. .. .. .. .. .. .. .. 72 .. .. .. .. .. .. .. 
.. 74 .. .. .. .. .. .. .. .. 75 .. .. .. .. .. .. .. .. 77 .. .. .. .. .. .. .. .. .. .. 
.. .. .. .. .. .. .. 74 .. .. .. .. .. .. .. .. 75 .. .. .. .. .. .. .. .. 77 .. .. .. .. 
.. .. .. .. 75 .. .. .. .. .. .. .. .. 74 .. .. .. .. .. .. .. .. 72 .. .. .. .. .. .. .. 
.. 70 .. .. .. .. .. .. .. .. .. .. .. .. .. .. .. .. .. 62 .. .. .. .. .. .. .. .. .. .. 
.. .. .. .. .. .. .. 63 .. .. .. .. .. .. .. .. .. .. .. .. .. .. .. .. .. 60 .. .. .. .. 
.. .. .. .. .. .. .. .. .. .. .. .. .. 62 .. .. .. .. .. .. .. .. .. .. .. .. .. .. .. .. 
.. .. .. .. .. .. .. .. .. .. .. .. .. .. .. .. .. .. .. .. .. .. .. .. .. .. .. .. .. .. 
.. .. .. .. .. .. .. .. .. .. .. .. .. .. .. .. .. .. .. .. .. .. .. .. .. .. .. .. .. .. 
.. .. .. .. .. .. .. .. .. .. .. .. .. .. .. .. .. .. .. .. .. .. .. .. .. .. .. .. .. .. 
.. .. .. .. .. .. .. .. .. .. .. .. .. .. .. .. .. .. .. .. .. .. .. .. .. .. .. .. .. .. 
.. .. .. .. .. .. .. 74 .. .. .. .. .. .. .. .. .. .. .. .. .. .. .. .. .. .. .. .. .. .. 
.. .. .. .. .. .. .. .. .. .. .. .. .. 70 .. .. .. .. .. .. .. .. .. .. .. .. .. .. .. .. 
.. .. .. .. .. .. .. .. .. .. .. .. .. .. .. .. .. .. .. .. .. .. .. .. .. .. .. .. .. .. 
.. .. .. .. .. .. .. .. .. .. .. .. .. .. .. .. .. .. .. .. .. .. .. .. .. .. .. .. .. .. 
.. .. .. .. .. .. .. .. .. .. .. .. .. .. .. .. .. .. .. .. .. .. .. .. .. .. .. .. .. .. 
.. 74 .. .. .. .. .. .. .. .. .. .. .. .. .. .. .. .. .. 70 .. .. .. .. .. .. .. .. 72 .. 
.. .. .. .. .. .. .. 74 .. .. .. .. .. .. .. .. .. .. .. .. .. .. .. .. .. 70 .. .. .. .. 
.. .. .. .. 72 .. .. .. .. .. .. .. .. 74 .. .. .. .. .. .. .. .. .. .. .. .. .. .. .. .. 
.. 70 .. .. .. .. .. .. .. .. 72 .. .. .. .. .. .. .. .. 74 .. .. .. .. .. .. .. .. .. .. 
.. .. .. .. .. .. .. 70 .. .. .. .. .. .. .. .. 72 .. .. .. .. .. .. .. .. 77 .. .. .. .. 
.. .. .. .. .. .. .. .. .. .. .. .. .. 58 .. .. .. .. .. .. .. .. .. .. .. .. .. .. .. .. 
.. 63 .. .. .. .. .. .. .. .. .. .. .. .. .. .. .. .. .. .. .. .. .. .. .. .. .. .. .. .. 
.. .. .. .. .. .. .. 58 .. .. .. .. .. .. .. .. .. .. .. .. .. .. .. .. .. 70 .. .. .. .. 
.. .. .. .. .. .. .. .. .. .. .. .. .. .. .. .. .. .. .. .. .. .. .. .. .. .. .. .. .. .. 
.. .. .. .. .. .. .. .. .. .. .. .. .. .. .. .. .. .. .. 62 .. .. .. .. .. .. .. .. 63 .. 
.. .. .. .. .. .. .. 62 .. .. .. .. .. .. .. .. 63 .. .. .. .. .. .. .. .. 62 .. .. .. .. 
.. .. .. .. .. .. .. .. .. .. .. .. .. .. .. .. .. .. .. .. .. .. .. .. .. .. .. .. .. .. 
.. .. .. .. .. .. .. .. .. .. .. .. .. .. .. .. .. .. .. 60 .. .. .. .. .. .. .. .. .. .. 
.. .. .. .. .. .. .. .. .. .. .. .. .. .. .. .. .. .. .. .. .. .. .. .. .. .. .. .. .. .. 
.. .. .. .. .. .. .. .. .. .. .. .. .. 60 .. .. .. .. .. .. .. .. 62 .. .. .. .. .. .. .. 
.. 60 .. .. .. .. .. .. .. .. 62 .. .. .. .. .. .. .. .. 60 .. .. .. .. .. .. .. .. .. .. 
.. .. .. .. .. .. .. 75 .. .. .. .. .. .. .. .. .. .. .. .. .. .. .. .. .. 60 .. .. .. .. 
.. .. .. .. .. .. .. .. .. .. .. .. .. 58 .. .. .. .. .. .. .. .. .. .. .. .. .. .. .. .. 
.. .. .. .. .. .. .. .. .. .. .. .. .. .. .. .. .. .. .. .. .. .. .. .. .. .. .. .. .. .. 
.. .. .. .. .. .. .. 62 .. .. .. .. .. .. .. .. .. .. .. .. .. .. .. .. .. .. .. .. .. .. 
.. .. .. .. .. .. .. .. .. .. .. .. .. 63 .. .. .. .. .. .. .. .. .. .. .. .. .. .. .. .. 
.. 65 .. .. .. .. .. .. .. .. .. .. .. .. .. .. .. .. .. 63 .. .. .. .. .. .. .. .. .. .. 
.. .. .. .. .. .. .. .. .. .. .. .. .. .. .. .. .. .. .. .. .. .. .. .. .. 65 .. .. 
! End
