! Simple
! Song 0
146 52 .. .. .. .. .. .. .. .. .. .. .. .. .. .. .. .. .. .. .. .. .. .. .. .. .. .. .. .. 
.. .. .. .. .. .. .. .. .. .. .. .. .. .. .. .. .. .. .. .. .. .. .. .. .. .. .. .. .. .. 
.. .. .. .. .. .. .. .. .. .. .. .. .. .. .. .. .. .. .. .. .. .. .. .. .. .. .. .. .. .. 
.. .. .. .. .. .. .. .. .. .. .. .. .. .. .. .. .. .. .. .. .. .. .. .. .. .. .. .. .. .. 
.. .. .. .. .. .. .. .. .. .. .. .. .. .. .. .. .. .. .. .. .. .. .. .. .. .. .. .. .. .. 
.. .. .. .. .. .. .. .. .. .. .. .. .. .. .. .. .. .. .. .. .. .. .. .. .. .. .. .. .. .. 
.. .. .. .. .. .. .. .. .. .. .. .. .. .. .. .. .. .. .. .. .. .. .. .. .. .. .. .. .. .. 
.. .. .. .. .. .. .. .. .. .. .. .. .. .. .. .. .. .. .. .. .. .. .. .. .. .. .. .. .. .. 
.. .. .. .. .. .. .. .. .. .. .. .. .. .. .. .. .. .. .. .. .. .. .. .. .. .. .. .. .. .. 
.. .. .. .. .. .. .. .. .. .. .. .. .. .. .. .. .. .. .. .. .. .. .. .. .. .. .. .. .. .. 
.. .. .. .. .. .. .. .. .. .. .. .. .. .. .. .. .. .. .. .. .. .. .. .. .. .. .. .. .. .. 
.. .. .. .. .. .. .. .. .. .. .. .. .. .. .. .. .. .. .. .. .. .. .. .. .. .. .. .. .. .. 
.. .. .. .. .. .. .. .. .. .. .. .. .. .. .. .. .. .. .. .. .. .. .. .. .. .. .. .. .. .. 
.. .. .. .. .. .. .. .. .. .. .. .. .. .. .. .. .. .. .. .. .. .. .. .. .. .. .. .. .. .. 
.. .. .. .. .. .. .. .. .. .. .. .. .. .. .. .. .. .. .. .. .. .. .. .. .. .. .. .. .. .. 
.. .. .. .. .. .. .. .. .. .. .. .. .. .. .. .. .. .. .. .. .. .. .. .. .. .. .. .. .. .. 
.. .. .. .. .. .. .. .. .. .. .. .. .. .. .. .. .. .. .. .. .. .. .. .. .. .. .. .. .. .. 
.. .. .. .. .. .. .. .. .. .. .. .. .. .. .. .. .. .. .. .. .. .. .. .. .. .. .. .. .. .. 
.. .. .. .. .. .. .. .. .. .. .. .. .. .. .. .. .. .. .. .. .. .. .. .. .. .. .. .. .. .. 
.. .. .. .. .. .. .. .. .. .. .. .. .. .. .. .. .. .. .. .. .. .. .. .. .. .. .. .. .. .. 
.. .. .. .. .. .. .. .. .. .. .. .. .. .. .. .. .. .. .. .. .. .. .. .. .. .. .. .. .. .. 
.. .. .. .. .. .. .. .. .. .. .. .. .. .. .. .. .. .. .. .. .. .. .. .. .. .. .. .. .. .. 
.. .. .. .. .. .. .. .. .. .. .. .. .. .. .. .. .. .. .. .. .. .. .. .. .. .. .. .. .. .. 
.. .. .. .. .. .. .. .. .. .. .. .. .. .. .. .. .. .. .. .. .. .. .. .. .. .. .. .. .. .. 
.. .. .. .. .. .. .. .. .. .. .. .. .. .. .. .. .. .. .. .. .. .. .. .. .. .. .. .. .. .. 
.. .. .. .. .. .. .. .. .. .. .. .. .. .. .. .. .. .. .. .. .. .. .. .. .. .. .. .. .. .. 
.. .. .. .. .. .. .. .. .. .. .. .. .. .. .. .. .. .. .. .. .. .. .. .. .. .. .. .. .. .. 
.. .. .. .. .. .. .. .. .. .. .. .. .. .. .. .. .. .. .. .. .. .. .. .. .. .. .. .. .. .. 
.. .. .. .. .. .. .. .. .. .. .. .. .. .. .. .. .. .. .. .. .. .. .. .. .. .. .. .. .. .. 
.. .. .. .. .. .. .. .. .. .. .. .. .. .. .. .. .. .. .. .. .. .. .. .. .. .. .. .. .. .. 
.. .. .. .. .. .. .. .. .. .. .. .. .. .. .. .. .. .. .. .. .. .. .. .. .. .. .. .. .. .. 
.. .. .. .. .. .. .. .. .. .. .. .. .. .. .. .. .. .. .. .. .. .. .. .. .. .. .. .. .. .. 
.. .. .. .. .. .. .. .. .. .. .. .. .. .. .. 50 .. .. .. .. .. .. .. .. .. .. .. .. .. .. 
.. .. .. .. .. .. .. .. .. .. .. .. .. .. .. .. .. .. .. .. .. .. .. .. .. .. .. .. .. .. 
.. .. .. .. .. .. .. .. .. .. .. .. .. .. .. .. .. .. .. .. .. .. .. .. .. .. .. .. .. .. 
.. 49 .. .. .. .. .. .. .. .. .. .. .. .. .. .. .. .. .. .. .. .. .. .. .. .. .. .. .. .. 
.. .. .. .. .. .. .. .. .. .. .. .. .. .. .. .. 43 .. .. .. .. .. .. .. .. .. .. .. .. .. 
.. .. .. .. .. .. .. .. .. .. .. .. .. .. .. .. .. .. .. .. .. .. .. .. .. .. .. .. .. .. 
.. .. 46 .. .. .. .. .. .. .. .. .. .. .. .. .. .. .. .. .. .. .. .. .. .. .. .. .. .. .. 
.. .. .. .. .. .. .. .. .. .. .. .. .. .. .. .. .. .. .. .. .. .. .. .. .. .. .. .. .. .. 
.. .. .. 26 .. .. .. .. .. .. .. .. .. .. .. .. .. .. 42 .. .. .. .. .. .. .. .. .. .. .. 
.. .. .. .. .. .. .. .. .. .. .. .. .. .. .. .. .. .. .. 46 45 .. 46 .. .. .. .. .. .. .. 
.. .. .. .. .. .. 58 .. .. 46 .. 58 .. .. 46 .. 58 .. .. 42 .. .. .. .. .. .. .. .. .. .. 
.. .. .. .. 46 45 .. .. 46 .. .. .. .. .. .. .. .. .. .. .. .. .. 58 .. 46 .. .. 58 .. .. 
46 .. 58 .. .. 42 .. .. .. .. .. .. .. .. .. .. .. .. .. .. .. .. .. .. .. .. .. .. .. .. 
.. .. .. .. .. 34 33 .. 34 .. .. .. .. 38 37 38 .. .. .. .. 43 42 .. .. 43 .. .. .. .. .. 
.. .. .. .. .. .. .. 42 .. 43 .. .. .. .. .. .. .. .. .. .. .. .. .. 55 .. .. 43 .. 55 .. 
.. 43 .. 55 .. .. 41 40 .. .. 41 .. .. .. .. .. .. .. .. .. .. .. .. .. 53 .. 41 .. .. 53 
.. 41 .. .. 53 .. .. .. 41 .. 53 .. .. 41 .. 53 .. .. 41 .. 53 50 .. .. .. .. .. .. .. .. 
.. .. .. .. .. .. .. .. .. .. .. .. .. .. 53 .. .. .. .. .. .. .. .. 52 .. .. .. 53 .. .. 
.. .. .. .. .. .. .. 50 .. .. .. .. .. .. .. .. .. .. .. .. .. .. .. .. .. .. .. .. .. .. 
.. .. .. .. .. .. .. .. .. .. .. .. .. .. .. .. .. .. .. .. .. .. .. .. .. .. .. .. .. .. 
.. .. .. .. .. .. .. .. 43 .. .. .. .. .. .. .. .. .. .. .. .. .. .. .. .. .. .. .. .. .. 
.. .. .. .. .. .. .. .. .. .. .. .. .. .. .. .. .. .. .. .. .. .. .. .. .. .. .. .. .. .. 
.. .. .. .. .. .. .. .. .. .. .. .. .. .. .. .. 41 .. .. .. .. .. .. .. .. .. .. .. .. .. 
.. .. .. .. .. .. .. .. .. .. .. .. .. .. .. .. .. .. .. .. .. .. .. .. .. .. .. .. .. .. 
.. .. .. .. .. .. .. .. .. .. .. .. .. .. .. .. .. 42 .. .. .. .. .. .. .. .. .. .. .. .. 
.. .. .. .. .. .. .. .. .. .. .. .. .. .. .. .. .. .. .. .. .. .. .. .. .. 46 45 .. .. 46 
.. .. .. .. .. .. .. .. .. .. .. .. .. 58 .. 46 .. .. 58 .. .. 46 .. 58 .. .. 42 .. .. .. 
.. .. .. .. .. .. .. .. .. .. .. 46 45 .. .. 46 .. .. .. .. .. .. .. .. .. .. .. .. .. 58 
.. 46 .. .. 58 .. 46 .. .. 58 .. 42 .. .. .. .. .. .. .. .. .. .. .. .. .. .. .. .. .. .. 
.. .. .. .. .. .. .. .. .. .. .. .. 34 33 34 .. .. .. .. 38 .. 37 38 .. .. .. .. 43 42 .. 
.. 43 .. .. .. .. .. .. .. .. .. .. .. 42 .. .. 43 .. .. .. .. .. .. .. .. .. .. .. .. .. 
55 .. 43 .. .. 55 .. 43 .. .. 55 .. 41 .. 40 .. 41 .. .. .. .. .. .. .. .. .. .. .. .. .. 
53 .. .. 41 .. 53 .. .. 41 .. 53 .. .. .. 41 .. .. 53 .. 41 .. .. 53 .. 41 .. .. 53 55 .. 
.. .. .. .. .. .. .. .. .. .. .. .. .. .. .. .. .. .. .. .. .. .. .. .. .. .. .. .. .. .. 
.. .. .. .. .. .. .. .. .. .. .. .. .. .. .. .. .. .. .. .. .. .. .. .. .. .. .. .. .. .. 
.. .. .. .. .. .. .. .. .. .. .. .. .. .. .. .. .. .. .. .. .. .. .. .. .. .. .. .. .. .. 
.. .. .. .. .. .. .. .. .. .. .. .. .. .. .. .. .. .. .. .. .. .. .. .. .. .. .. .. .. .. 
.. .. .. .. .. .. .. .. .. .. .. .. .. .. .. .. .. .. .. .. .. .. .. .. .. .. .. .. .. .. 
53 .. .. 60 53 60 .. 53 60 .. 53 .. 60 53 60 58 .. .. .. .. .. .. .. .. 57 .. .. .. 58 .. 
.. .. .. .. .. .. .. .. .. 57 .. .. .. 58 .. .. .. .. .. .. .. .. .. .. .. .. 57 .. .. .. 
58 .. .. .. .. .. .. .. .. .. .. .. 57 .. .. .. 26 .. .. .. .. .. .. .. .. .. .. .. .. .. 
.. 42 .. .. .. .. .. .. .. .. .. .. .. .. .. .. .. .. .. .. .. .. .. .. .. .. .. .. .. .. 
.. .. 46 45 .. .. 46 .. .. .. .. .. .. .. .. .. .. .. .. .. 58 .. 46 .. .. 58 .. 46 .. .. 
58 .. 42 .. .. .. .. .. .. .. .. .. .. .. .. .. .. 46 .. 45 .. 46 .. .. .. .. .. .. .. .. 
.. .. .. .. .. 58 .. .. 46 .. 58 .. .. 46 .. 58 .. .. 42 .. .. .. .. .. .. .. .. .. .. .. 
.. .. .. .. .. .. .. .. .. .. .. .. .. .. .. .. .. .. 34 .. 33 34 .. .. .. .. 38 37 38 .. 
.. .. .. .. 43 42 .. 43 .. .. .. .. .. .. .. .. .. .. .. .. 42 .. .. 43 .. .. .. .. .. .. 
.. .. .. .. .. .. 55 .. .. 43 .. .. 55 .. 43 .. .. 55 .. 41 40 .. .. 41 .. .. .. .. .. .. 
.. .. .. .. .. .. .. 53 .. 41 .. .. 53 .. 41 .. .. 53 .. .. .. 41 .. 53 .. .. 41 .. 53 .. 
.. 41 .. 53 .. 50 .. .. .. .. .. .. .. .. .. .. .. .. .. .. 53 .. .. .. .. .. .. .. .. 52 
.. .. .. 53 .. .. .. .. .. .. .. .. .. .. 52 .. .. .. 53 .. .. .. .. .. .. .. .. .. .. 52 
.. .. .. 53 .. .. 50 .. .. .. .. .. .. .. .. .. .. .. .. .. .. .. .. .. .. .. .. .. .. .. 
.. .. .. .. .. .. .. .. .. .. .. .. .. .. .. .. .. .. .. .. .. 43 .. .. .. .. .. .. .. .. 
.. .. .. .. .. .. .. .. .. .. .. .. .. .. .. .. .. .. .. .. .. .. .. .. .. .. .. .. .. .. 
.. .. .. .. .. .. .. .. .. .. .. .. .. .. .. .. .. .. .. .. .. .. .. .. .. .. .. .. .. .. 
.. .. .. .. .. .. .. .. .. .. .. .. .. .. .. .. .. .. .. .. .. .. .. .. .. .. .. .. .. .. 
.. .. .. .. .. .. .. .. 41 .. .. .. .. .. .. .. .. .. .. .. .. .. .. .. .. .. .. .. .. .. 
.. .. .. .. .. .. .. .. 26 .. .. .. .. .. .. .. .. .. .. .. .. .. .. .. .. .. .. .. .. .. 
.. .. .. .. .. .. .. .. .. 46 45 .. 46 .. .. .. .. .. .. .. .. .. .. .. .. .. 58 .. .. 46 
.. 58 .. .. 46 .. 58 .. .. 46 45 .. .. 46 .. .. .. .. .. .. .. .. .. .. .. .. .. 58 .. 46 
.. .. 58 .. 46 .. .. 58 .. 46 .. 45 .. 46 .. .. .. .. .. .. .. .. .. .. .. .. .. 58 .. .. 
46 .. 58 .. .. 46 .. 58 .. .. 46 45 .. .. 46 .. .. .. .. .. .. .. .. .. .. .. .. 58 .. .. 
46 .. .. 58 .. 46 .. .. 58 .. .. 46 .. .. 58 .. .. 46 .. 58 .. .. 46 .. 58 38 .. 37 38 .. 
.. .. .. .. 37 .. 38 .. .. .. .. 43 42 .. 43 .. .. .. .. 42 .. .. 43 .. .. .. .. 42 .. .. 
43 .. .. .. .. .. .. .. .. .. .. 38 37 .. 38 .. .. .. .. .. .. .. .. .. .. .. 44 .. .. .. 
.. .. .. .. .. .. .. .. .. .. .. 46 .. .. .. .. .. .. .. .. .. .. .. .. .. .. .. .. .. .. 
.. .. .. .. .. .. .. .. .. .. .. .. .. .. .. .. .. .. .. .. .. .. .. .. .. .. .. .. .. .. 
.. .. .. .. .. .. .. .. .. .. .. .. .. .. .. .. .. .. .. .. .. .. .. .. .. .. .. .. .. .. 
.. .. .. .. .. .. .. .. .. .. .. .. .. .. .. .. .. .. .. .. .. .. .. .. .. .. .. .. 44 .. 
.. .. .. .. .. .. .. .. .. .. .. .. .. 46 .. .. .. .. .. .. .. .. .. .. .. .. .. .. .. .. 
.. .. .. .. .. .. .. .. .. .. .. .. .. 49 .. .. .. .. .. .. .. .. .. .. .. .. .. .. .. 46 
.. .. .. .. .. .. .. .. .. .. .. .. .. .. .. .. .. .. .. .. .. .. .. .. .. .. .. .. .. .. 
.. .. .. .. .. .. .. .. .. .. .. .. .. .. .. .. .. .. .. .. .. .. .. .. .. .. .. .. .. .. 
.. .. .. .. .. .. .. .. .. .. .. .. .. .. .. .. .. .. .. .. .. .. .. .. .. .. .. .. .. .. 
26 .. .. .. .. .. .. .. .. .. .. .. .. .. .. 46 .. .. .. .. .. .. .. .. .. .. .. .. .. .. 
.. .. .. .. .. .. .. .. .. .. .. .. .. .. .. .. .. .. .. .. .. .. .. .. .. .. .. .. .. .. 
.. .. .. .. .. .. .. .. .. .. .. .. .. .. .. .. .. .. .. .. .. .. .. .. .. .. .. .. .. .. 
.. .. .. .. .. .. .. .. .. .. .. .. .. .. .. .. .. .. .. .. .. .. .. .. .. .. .. .. .. .. 
.. .. .. .. .. .. .. .. .. .. .. .. .. .. .. .. .. 49 .. .. .. .. .. .. .. .. .. .. .. .. 
.. .. 46 .. .. .. .. .. .. .. .. .. .. .. .. .. .. .. .. .. .. .. .. .. .. .. .. .. .. .. 
.. .. .. .. .. .. .. .. .. .. .. .. .. .. .. .. .. .. .. .. .. .. .. .. .. .. .. .. .. .. 
.. .. .. .. .. .. .. .. .. .. .. .. .. .. .. .. .. .. 49 .. .. .. .. .. .. .. .. .. .. .. 
.. .. .. .. .. .. .. .. .. .. .. .. .. .. .. .. .. .. .. .. .. .. .. .. .. .. .. .. .. .. 
.. .. .. .. .. .. .. .. .. .. .. .. .. .. .. .. .. .. .. .. .. .. .. .. .. .. .. .. .. .. 
.. .. .. .. .. .. .. .. .. .. .. .. .. .. .. .. .. .. .. .. .. .. .. .. .. .. .. .. .. .. 
.. .. .. .. .. 47 .. .. .. .. .. .. .. .. .. .. .. .. .. .. 49 .. .. .. .. .. .. .. .. .. 
.. .. .. .. .. .. .. .. .. .. .. .. .. .. .. .. .. .. .. .. .. .. .. .. .. .. .. .. .. .. 
.. .. .. .. .. .. .. .. .. .. .. .. .. .. .. .. .. .. .. .. .. .. .. .. .. .. .. .. .. .. 
.. .. .. .. .. .. .. .. .. .. .. .. .. .. .. .. .. .. .. .. .. .. .. .. .. .. .. .. .. .. 
.. .. .. .. .. .. 47 .. .. .. .. .. .. .. .. .. .. .. .. .. .. 49 .. .. .. .. .. .. .. .. 
.. .. .. .. .. .. .. .. .. .. .. .. .. .. .. .. .. .. .. .. .. .. .. .. .. .. .. .. .. .. 
.. .. .. .. .. .. .. .. .. .. .. .. .. .. .. .. .. .. .. .. .. .. .. .. .. .. .. .. .. .. 
.. .. .. .. .. .. .. .. .. .. .. .. .. .. .. .. .. .. .. .. .. .. .. .. .. .. .. .. .. .. 
.. .. .. .. .. .. .. .. .. .. .. .. .. .. .. .. .. .. .. .. .. .. .. 55 .. .. .. .. .. .. 
.. .. .. .. .. .. .. .. 54 .. .. .. .. .. .. .. .. 53 .. .. .. 54 .. .. .. .. .. .. .. .. 
.. .. 53 .. .. .. 54 .. .. 52 .. .. .. .. .. .. .. .. .. .. .. .. .. .. .. .. .. .. .. .. 
.. .. .. .. .. .. .. .. .. .. .. .. .. .. .. .. .. .. .. .. .. .. .. .. .. .. .. .. .. .. 
.. .. .. .. .. .. .. .. .. .. 26 .. .. .. .. .. .. .. .. .. .. .. .. .. .. 44 .. .. .. .. 
.. .. .. .. .. .. .. .. .. .. .. .. .. .. .. .. .. .. .. .. .. .. .. .. .. 42 .. .. .. .. 
.. .. .. .. .. .. .. .. .. .. 44 .. .. .. .. .. .. .. .. .. .. .. .. .. .. .. .. .. .. .. 
.. .. .. .. .. .. .. .. .. .. .. .. .. .. .. .. .. .. .. .. .. .. .. .. .. .. .. .. .. .. 
.. .. .. .. .. .. .. .. .. .. .. .. .. .. .. .. .. .. .. .. .. .. .. .. .. .. .. .. .. .. 
.. .. .. .. .. .. .. .. .. .. .. .. .. .. .. .. .. .. .. .. .. .. .. .. .. .. .. .. .. .. 
.. .. .. .. .. .. .. .. .. .. .. .. 47 .. .. .. .. .. .. .. .. .. .. .. .. .. .. .. .. .. 
.. .. .. .. .. .. .. .. .. .. .. .. .. .. .. .. .. .. .. .. .. .. .. .. .. .. .. .. .. .. 
.. .. .. .. .. .. .. .. .. .. .. .. .. 42 .. .. .. .. .. .. .. .. .. .. .. .. .. .. 44 .. 
.. .. .. .. .. .. .. .. .. .. .. .. .. .. .. .. .. .. .. .. .. .. .. .. .. .. .. .. 42 .. 
.. .. .. .. .. .. .. .. .. .. .. .. .. .. 44 .. .. .. .. .. .. .. .. .. .. .. .. .. .. .. 
.. .. .. .. .. .. .. .. .. .. .. .. .. .. .. .. .. .. .. .. .. .. .. .. .. .. .. .. .. .. 
.. .. .. .. .. .. .. .. .. .. .. .. .. .. .. .. .. .. .. .. .. .. .. .. .. .. .. .. .. .. 
.. .. .. .. .. .. .. .. .. .. .. .. .. .. .. .. .. .. .. .. .. .. .. .. .. .. .. .. .. .. 
.. .. .. .. .. .. .. .. .. .. .. .. .. .. .. 47 .. .. .. .. .. .. .. .. .. .. .. .. .. .. 
.. .. .. .. .. .. .. .. .. .. .. .. .. .. .. .. .. .. .. .. .. .. .. .. .. .. .. .. .. .. 
.. .. .. .. .. .. .. .. .. .. .. .. .. .. .. .. 42 .. .. .. .. .. .. .. .. .. .. .. .. .. 
.. 47 .. .. .. .. .. .. .. .. .. .. .. .. .. .. .. .. .. .. .. .. .. .. .. .. .. .. .. .. 
.. .. .. .. .. .. .. .. .. .. .. .. .. .. .. .. .. .. .. .. .. .. .. .. .. .. .. .. .. .. 
.. .. .. .. .. .. .. .. .. .. .. .. .. .. .. .. .. 46 .. .. .. .. .. .. .. .. .. .. .. .. 
.. .. .. .. .. .. .. .. .. .. .. .. .. .. .. .. .. .. .. .. .. .. .. .. .. .. .. .. .. .. 
.. .. .. .. .. .. .. .. .. .. .. .. .. .. .. .. .. .. .. .. .. .. .. .. .. .. .. .. .. .. 
.. .. .. .. .. .. .. .. .. .. .. .. .. .. .. .. .. .. .. 47 .. .. .. .. .. .. .. .. .. .. 
.. .. .. .. .. .. .. .. .. .. .. .. .. .. .. .. .. .. .. .. .. .. .. .. .. .. .. .. .. .. 
.. .. .. .. 44 .. .. .. .. .. .. .. .. .. .. .. .. .. .. .. .. .. .. .. .. .. .. .. .. .. 
.. .. .. .. .. 47 .. .. .. .. .. .. .. .. .. .. .. .. .. .. .. .. .. .. .. .. .. .. .. .. 
.. .. .. .. .. .. .. .. .. .. .. .. .. .. .. .. .. .. .. .. .. .. .. .. .. .. .. .. .. .. 
.. .. .. .. .. .. 20 .. .. .. .. .. .. .. .. .. .. .. .. .. .. 32 .. .. .. .. .. .. .. .. 
.. .. .. .. .. .. 20 .. .. .. .. .. .. .. .. .. .. .. .. .. .. 32 .. .. .. .. .. .. .. .. 
.. .. .. .. .. .. 42 .. .. .. .. .. .. .. .. .. .. .. .. .. .. .. 44 .. .. .. .. .. .. .. 
.. .. .. .. .. .. .. .. .. .. .. .. .. .. .. .. .. .. .. .. .. .. .. .. .. .. .. .. .. .. 
.. .. .. .. .. .. .. 25 .. .. .. .. .. .. .. .. .. .. .. .. .. .. 37 .. .. .. .. .. .. .. 
.. .. .. .. .. .. .. .. 25 .. .. .. .. .. .. .. .. .. .. .. .. .. .. 37 .. .. .. .. .. .. 
.. .. .. .. .. .. .. .. 26 .. .. .. .. .. .. .. .. .. .. .. .. .. .. .. .. .. .. .. .. .. 
.. .. .. .. .. .. .. .. .. .. .. .. .. .. .. .. .. .. .. .. .. .. .. .. .. .. .. .. .. .. 
.. .. .. .. .. .. .. .. .. .. .. .. .. .. .. .. .. .. .. .. .. .. .. .. .. .. .. .. .. .. 
.. .. .. .. .. .. .. .. .. .. .. .. .. .. .. .. .. .. .. .. .. .. .. .. .. .. .. .. .. .. 
.. .. .. .. .. .. .. .. .. .. 54 .. .. 66 .. .. 54 .. .. 66 .. 54 .. .. 66 55 .. .. .. 67 
.. 55 .. .. 67 .. 55 .. .. 67 54 .. .. .. 66 .. 54 .. .. 66 .. .. 54 .. 66 55 .. .. .. 67 
.. .. 55 .. 67 .. .. 55 .. 67 .. 54 .. .. 66 .. .. 54 .. 66 .. .. 54 .. 66 .. 55 .. .. .. 
67 .. 55 .. .. 67 .. 55 .. .. 67 54 .. .. .. 66 .. 54 .. .. 66 .. 54 .. .. 66 55 .. .. .. 
67 .. 55 .. .. 67 .. .. 55 .. 67 54 .. .. .. 66 .. .. 54 .. 66 .. .. 54 .. 66 .. 55 .. .. 
67 .. .. 55 .. 67 .. .. 55 .. .. 67 54 .. .. .. 66 .. 54 .. .. 66 .. 54 .. .. 66 55 .. .. 
.. 67 .. 55 .. .. 67 .. 55 .. .. 67 54 .. .. .. 66 .. .. 54 .. 66 .. .. 54 .. 66 55 .. .. 
.. 67 .. .. 55 .. 67 .. .. 55 .. 67 .. 54 .. .. 66 .. .. 54 .. 66 .. .. 54 .. .. 66 55 .. 
.. .. 67 .. 55 .. .. 67 .. 55 .. .. 67 58 .. .. .. 70 .. 58 .. .. 70 .. 58 .. .. 70 55 .. 
.. .. 67 .. .. 55 .. 67 .. .. 55 .. 67 58 .. .. .. 70 .. .. 58 .. 70 .. .. 58 .. 70 .. 55 
.. .. 67 .. .. 55 .. .. 67 .. 55 .. .. 67 58 .. .. .. 70 .. 58 .. .. 70 .. 58 .. .. 70 55 
.. .. .. 67 .. 55 .. .. 67 .. 55 .. .. 67 58 .. .. .. 70 .. .. 58 .. 70 .. .. 58 .. 70 55 
.. .. .. 67 .. .. 55 .. 67 .. .. 55 .. 67 .. 50 .. .. .. .. .. .. .. .. .. .. .. .. .. .. 
.. .. .. .. .. .. .. .. .. .. .. .. .. .. .. .. .. .. .. .. .. .. .. .. .. .. .. .. .. .. 
.. .. .. .. .. .. .. .. .. .. .. .. .. .. .. .. .. .. .. .. .. .. .. .. .. .. .. .. .. .. 
.. 49 .. .. .. .. .. .. .. .. .. .. .. .. .. .. .. .. .. .. .. .. .. .. .. .. .. .. .. .. 
.. .. .. .. .. .. .. .. .. .. .. .. .. .. .. .. 43 .. .. .. .. .. .. .. .. .. .. .. .. .. 
.. .. .. .. .. .. .. .. .. .. .. .. .. .. .. .. .. .. .. .. .. .. .. .. .. .. .. .. .. .. 
.. .. 46 .. .. .. .. .. .. .. .. .. .. .. .. .. .. .. .. .. .. .. .. .. .. .. .. .. .. .. 
.. .. .. .. .. .. .. .. .. .. .. .. .. .. .. .. .. .. .. .. .. .. .. .. .. .. .. .. .. .. 
.. .. .. 26 .. .. .. .. .. .. .. .. .. .. .. .. .. .. 42 .. .. .. .. .. .. .. .. .. .. .. 
.. .. .. .. .. .. .. .. .. .. .. .. .. .. .. .. .. .. 46 .. 45 .. 46 .. .. .. .. .. .. .. 
.. .. .. .. .. .. 58 .. .. 46 .. 58 .. .. 46 .. 58 .. .. 42 .. .. .. .. .. .. .. .. .. .. 
.. .. .. .. 46 45 .. .. 46 .. .. .. .. .. .. .. .. .. .. .. .. .. 58 .. 46 .. .. 58 .. 46 
.. .. 58 .. 42 .. .. .. .. .. .. .. .. .. .. .. .. .. .. .. .. .. .. .. .. .. .. .. .. .. 
.. .. .. .. .. 34 33 34 .. .. .. .. 38 .. 37 38 .. .. .. .. 43 42 .. .. 43 .. .. .. .. .. 
.. .. .. .. .. .. .. 42 .. 43 .. .. .. .. .. .. .. .. .. .. .. .. .. 55 .. .. 43 .. 55 .. 
.. 43 .. 55 .. .. 41 40 .. .. 41 .. .. .. .. .. .. .. .. .. .. .. .. 53 .. .. 41 .. .. 53 
.. 41 .. .. 53 .. .. 41 .. .. 53 .. 41 .. .. 53 .. .. 41 .. 53 50 .. .. .. .. .. .. .. .. 
.. .. .. .. .. .. .. .. .. .. .. .. .. .. 53 .. .. .. .. .. .. .. .. 52 .. .. .. 53 .. .. 
.. .. .. .. .. .. .. 50 .. .. .. .. .. .. .. .. .. .. .. .. .. .. .. .. .. .. .. .. .. .. 
.. .. .. .. .. .. .. .. .. .. .. .. .. .. .. .. .. .. .. .. .. .. .. .. .. .. .. .. .. .. 
.. .. .. .. .. .. .. .. 43 .. .. .. .. .. .. .. .. .. .. .. .. .. .. .. .. .. .. .. .. .. 
.. .. .. .. .. .. .. .. .. .. .. .. .. .. .. .. .. .. .. .. .. .. .. .. .. .. .. .. .. .. 
.. .. .. .. .. .. .. .. .. .. .. .. .. .. .. .. 41 .. .. .. .. .. .. .. .. .. .. .. .. .. 
.. .. .. .. .. .. .. .. .. .. .. .. .. .. .. .. .. .. .. .. .. .. .. .. .. .. .. .. .. .. 
.. .. .. .. .. .. .. .. .. .. .. .. .. .. .. .. .. 42 .. .. .. .. .. .. .. 26 .. .. .. .. 
.. .. .. .. .. .. .. .. .. .. .. .. .. .. .. .. .. .. .. .. .. .. .. .. .. 46 45 .. .. 46 
.. .. .. .. .. .. .. .. .. .. .. .. .. 58 .. 46 .. .. 58 .. 46 .. .. 58 .. 46 .. 45 .. 46 
.. .. .. .. .. .. .. .. .. .. .. .. .. 58 .. .. 46 .. 58 .. .. 46 .. 58 .. .. 46 45 .. .. 
46 .. .. .. .. .. .. .. .. .. .. .. .. .. 58 .. 46 .. .. 58 .. 46 .. .. 58 .. 46 .. 45 .. 
46 .. .. .. .. .. .. .. .. .. .. .. .. .. 58 .. .. 46 .. 58 .. .. 46 .. 58 .. .. .. 46 .. 
.. 58 .. 46 .. .. 58 .. 46 .. .. 58 38 37 38 .. .. .. .. .. .. 37 38 .. .. .. .. 43 42 .. 
.. 43 .. .. .. .. 42 .. .. 43 .. .. .. .. 42 .. 43 .. .. .. .. .. .. .. .. .. .. .. 38 37 
38 .. .. .. .. .. .. .. .. .. .. .. .. 44 .. .. .. .. .. .. .. .. .. .. .. .. .. .. 46 .. 
.. .. .. .. .. .. .. .. .. .. .. .. .. .. .. .. .. .. .. .. .. .. .. .. .. .. .. .. .. .. 
.. .. .. .. .. .. .. .. .. .. .. .. .. .. .. .. .. .. .. .. .. .. .. .. .. .. .. .. .. .. 
.. .. .. .. .. .. .. .. .. .. .. .. .. .. .. .. .. .. .. .. .. .. .. .. .. .. .. .. .. .. 
.. .. .. .. .. .. .. .. .. .. .. .. .. .. 44 .. .. .. .. .. .. .. .. .. .. .. .. .. .. .. 
46 .. .. .. .. .. .. .. .. .. .. .. .. .. .. .. .. .. .. .. .. .. .. .. .. .. .. .. .. .. 
49 .. .. .. .. .. .. .. .. .. .. .. .. .. .. 46 .. .. .. .. .. .. .. .. .. .. .. .. .. .. 
.. .. .. .. .. .. .. .. .. .. .. .. .. .. .. .. .. .. .. .. .. .. .. .. .. .. .. .. .. .. 
.. .. .. .. .. .. .. .. .. .. .. .. .. .. .. .. .. .. .. .. .. .. .. .. .. .. .. .. .. .. 
.. .. .. .. .. .. .. .. .. .. .. .. .. .. .. .. .. 26 .. .. .. .. .. .. .. .. .. .. .. .. 
.. .. 46 .. .. .. .. .. .. .. .. .. .. .. .. .. .. .. .. .. .. .. .. .. .. .. .. .. .. .. 
.. .. .. .. .. .. .. .. .. .. .. .. .. .. .. .. .. .. .. .. .. .. .. .. .. .. .. .. .. .. 
.. .. .. .. .. .. .. .. .. .. .. .. .. .. .. .. .. .. .. .. .. .. .. .. .. .. .. .. .. .. 
.. .. .. .. .. .. .. .. .. .. .. .. .. .. .. .. .. .. .. .. .. .. .. .. .. .. .. .. .. .. 
.. .. .. 49 .. .. .. .. .. .. .. .. .. .. .. .. .. .. .. 46 .. .. .. .. .. .. .. .. .. .. 
.. .. .. .. .. .. .. .. .. .. .. .. .. .. .. .. .. .. .. .. .. .. .. .. .. .. .. .. .. .. 
.. .. .. .. .. .. .. .. .. .. .. .. .. .. .. .. .. .. .. .. .. .. .. .. .. .. .. .. .. .. 
.. .. .. .. .. 49 .. .. .. .. .. .. .. .. .. .. .. .. .. .. .. .. .. .. .. .. .. .. .. .. 
.. .. .. .. .. .. .. .. .. .. .. .. .. .. .. .. .. .. .. .. .. .. .. .. .. .. .. .. .. .. 
.. .. .. .. .. .. .. .. .. .. .. .. .. .. .. .. .. .. .. .. .. .. .. .. .. .. .. .. .. .. 
.. .. .. .. .. .. .. .. .. .. .. .. .. .. .. .. .. .. .. .. .. 47 .. .. .. .. .. .. .. .. 
.. .. .. .. .. .. 49 .. .. .. .. .. .. .. .. .. .. .. .. .. .. .. .. .. .. .. .. .. .. .. 
.. .. .. .. .. .. .. .. .. .. .. .. .. .. .. .. .. .. .. .. .. .. .. .. .. .. .. .. .. .. 
.. .. .. .. .. .. .. .. .. .. .. .. .. .. .. .. .. .. .. .. .. .. .. .. .. .. .. .. .. .. 
.. .. .. .. .. .. .. .. .. .. .. .. .. .. .. .. .. .. .. .. .. .. .. 47 .. .. .. .. .. .. 
.. .. .. .. .. .. .. .. 49 .. .. .. .. .. .. .. .. .. .. .. .. .. .. .. .. .. .. .. .. .. 
.. .. .. .. .. .. .. .. .. .. .. .. .. .. .. .. .. .. .. .. .. .. .. .. .. .. .. .. .. .. 
.. .. .. .. .. .. .. .. .. .. .. .. .. .. .. .. .. .. .. .. .. .. .. .. .. .. .. .. .. .. 
.. .. .. .. .. .. .. .. .. .. .. .. .. .. .. .. .. .. .. .. .. .. .. .. .. .. .. .. 
! Song 1
146 24 .. .. .. .. .. .. .. .. .. .. .. .. .. .. .. .. .. .. .. .. .. .. .. .. .. .. .. .. 
.. .. .. .. .. .. .. .. .. .. .. .. .. .. .. .. .. .. .. .. .. .. .. .. .. .. .. .. .. .. 
.. .. .. .. .. .. .. .. .. .. .. .. .. .. .. .. .. .. .. .. .. .. .. .. .. .. .. .. .. .. 
.. .. .. .. .. .. .. .. .. .. .. .. .. .. .. .. .. .. .. .. .. .. .. .. .. .. .. .. .. .. 
.. .. .. .. .. .. .. .. .. .. .. .. .. .. .. .. .. .. .. .. .. .. .. .. .. .. .. .. .. .. 
.. .. .. .. .. .. .. .. .. .. .. .. .. .. .. .. .. .. .. .. .. .. .. .. .. .. .. .. .. .. 
.. .. .. .. .. .. .. .. .. .. .. .. .. .. .. .. .. .. .. .. .. .. .. .. .. .. .. .. .. .. 
.. .. .. .. .. .. .. .. .. .. .. .. .. .. .. .. .. .. .. .. .. .. .. .. .. .. .. .. .. .. 
.. .. .. .. .. .. .. .. .. .. .. .. .. .. .. .. .. .. .. .. .. .. .. .. .. .. .. .. .. .. 
.. .. .. .. .. .. .. .. .. .. .. .. .. .. .. .. .. .. .. .. .. .. .. .. .. .. .. .. .. .. 
.. .. .. .. .. .. .. .. .. .. .. .. .. .. .. .. .. .. .. .. .. .. .. .. .. .. .. .. .. .. 
.. .. .. .. .. .. .. .. .. .. .. .. .. .. .. .. .. .. .. .. .. .. .. .. .. .. .. .. .. .. 
.. .. .. .. .. .. .. .. .. .. .. .. .. .. .. .. .. .. .. .. .. .. .. .. .. .. .. .. .. .. 
.. .. .. .. .. .. .. .. .. .. .. .. .. .. .. .. .. .. .. .. .. .. .. .. .. .. .. .. .. 38 
37 .. 36 35 34 33 .. 38 37 36 35 34 .. 33 38 37 36 .. 35 34 33 36 .. 35 34 33 32 .. 31 35 
34 33 .. 32 31 30 33 .. 32 31 30 29 .. 28 31 30 29 .. 28 27 26 29 28 .. 27 26 25 24 .. 29 
28 27 26 .. 25 24 23 22 .. 21 20 19 18 .. 52 .. .. .. .. .. .. .. .. .. .. .. .. .. .. .. 
.. .. .. .. .. .. .. .. .. .. .. .. .. .. .. .. .. .. .. .. .. .. .. .. .. .. .. .. .. .. 
.. .. .. .. .. .. .. .. .. .. .. .. .. .. .. .. .. .. .. .. .. .. .. .. .. .. .. .. .. .. 
.. .. .. .. .. .. .. .. .. .. .. .. .. .. .. .. .. .. .. .. .. .. .. .. .. .. .. .. .. .. 
.. .. .. .. .. .. .. .. .. .. .. .. .. .. .. .. .. .. .. .. .. .. .. .. .. .. .. .. .. .. 
.. .. .. .. .. .. .. .. .. .. .. .. .. .. .. .. .. .. .. .. .. .. .. .. .. .. .. .. .. .. 
.. .. .. .. .. .. .. .. .. .. .. .. .. .. .. .. .. .. .. .. .. .. .. .. .. .. .. .. .. .. 
.. .. .. .. .. .. .. .. .. .. .. .. .. .. .. .. .. .. .. .. .. .. .. .. .. .. .. .. .. .. 
.. .. .. .. .. .. .. .. .. .. .. .. .. .. .. .. .. .. .. .. .. .. .. .. .. .. .. .. .. .. 
.. .. .. .. .. .. .. .. .. .. .. .. .. .. .. .. .. .. .. .. .. .. .. .. .. .. .. .. .. .. 
.. .. .. .. .. .. .. .. .. .. .. .. .. .. .. .. .. .. .. .. .. .. .. .. .. .. .. .. .. .. 
.. .. .. .. .. .. .. .. .. .. .. .. .. .. .. .. .. .. .. .. .. .. .. .. .. .. .. .. .. .. 
.. .. .. .. .. .. .. .. .. .. .. .. .. .. .. .. .. .. .. .. .. .. .. .. .. .. .. .. .. .. 
.. .. .. .. .. .. .. .. .. .. .. .. .. .. .. .. .. .. .. .. .. .. .. .. .. .. 38 37 .. 36 
35 34 33 .. 38 37 36 35 .. 34 33 38 37 .. 36 35 34 33 .. 36 35 34 33 .. 32 31 35 34 .. 33 
32 31 30 .. 33 32 31 30 .. 29 28 31 30 29 .. 28 27 26 29 .. 28 27 26 25 .. 24 29 28 27 .. 
26 25 24 23 .. 22 21 20 19 .. 18 45 .. .. .. .. .. .. .. .. .. .. .. .. .. .. 47 .. .. .. 
.. .. .. .. .. .. .. .. .. .. .. .. .. .. .. .. .. .. .. .. .. .. .. .. .. .. 48 .. .. .. 
.. .. .. .. .. .. .. .. .. .. 50 .. .. .. .. .. .. .. .. .. .. .. .. .. .. 52 .. .. .. .. 
.. .. .. .. .. .. .. .. .. .. 50 .. .. .. .. .. .. .. .. .. .. .. .. .. .. .. .. .. .. .. 
.. .. .. .. .. .. .. .. .. .. 48 .. .. .. .. .. .. .. .. .. .. .. .. .. .. .. .. .. .. .. 
.. .. .. .. .. .. .. .. .. .. 47 .. .. .. .. .. .. .. .. .. .. .. .. .. .. .. .. .. .. .. 
.. .. .. .. .. .. .. .. .. .. 45 .. .. .. .. .. .. .. .. .. .. .. .. .. .. 43 .. .. .. .. 
.. .. .. .. .. .. .. .. .. .. .. .. .. .. .. .. .. .. .. .. .. .. .. .. .. 45 .. .. .. .. 
.. .. .. .. .. .. .. .. .. .. .. .. .. .. .. .. .. .. .. .. .. .. .. .. 47 .. .. .. .. .. 
.. .. .. .. .. .. .. .. .. .. .. .. .. .. .. .. .. .. .. .. .. .. .. .. 48 .. .. .. .. .. 
.. .. .. .. .. .. .. .. .. 50 .. .. .. .. .. .. .. .. .. .. .. .. .. .. 52 .. .. .. .. .. 
.. .. .. .. .. .. .. .. .. 55 .. .. .. .. .. .. .. .. .. .. .. .. .. .. .. .. .. .. .. .. 
.. .. .. .. .. .. .. .. .. 57 .. .. .. .. .. .. .. 56 .. .. .. 57 .. .. .. .. .. .. .. .. 
.. .. 56 .. .. .. 57 .. .. 59 .. .. .. .. .. .. .. 58 .. .. .. 59 .. .. .. .. .. .. .. .. 
.. .. 58 .. .. .. 59 .. 57 .. .. .. .. .. .. .. .. 56 .. .. .. 57 .. 55 .. .. .. .. .. .. 
.. .. .. .. .. .. .. .. 59 .. .. .. .. .. .. .. .. 58 .. .. .. 59 .. 57 .. .. .. .. .. .. 
.. .. 56 .. .. .. 57 .. .. .. .. .. .. .. .. .. .. 56 .. .. 57 .. .. 52 .. .. .. .. .. .. 
.. .. .. .. .. .. .. .. .. .. .. .. .. .. .. .. .. .. .. .. .. .. .. .. .. .. .. .. .. .. 
.. .. .. .. .. .. .. .. 50 .. .. .. .. .. .. .. .. .. .. .. .. .. .. 48 .. .. .. .. .. .. 
.. .. .. .. .. .. .. .. .. .. .. .. .. .. .. .. .. .. .. .. .. .. .. .. .. .. .. .. .. .. 
.. .. .. .. .. .. .. 50 .. .. .. .. .. .. .. .. .. .. .. .. .. .. .. .. .. .. .. .. .. .. 
.. .. .. .. .. .. .. 47 .. .. .. .. .. .. .. .. .. .. .. .. .. .. .. .. .. .. .. .. .. .. 
.. .. .. .. .. .. .. 45 .. .. .. .. .. .. .. .. .. .. .. .. .. .. 43 .. .. .. .. .. .. .. 
.. .. .. .. .. .. .. 45 .. .. .. .. .. .. 47 .. .. .. .. .. .. .. 45 .. .. .. .. .. .. .. 
.. .. .. .. .. .. .. .. .. .. .. .. .. .. .. .. .. .. .. .. .. .. 47 .. .. .. .. .. .. .. 
.. .. .. .. .. .. .. .. .. .. .. .. .. .. .. .. .. .. .. .. .. 48 .. .. .. .. .. .. .. .. 
.. .. .. .. .. .. 50 .. .. .. .. .. .. .. .. .. .. .. .. .. .. 52 .. .. .. .. .. .. .. .. 
.. .. .. .. .. .. 50 .. .. .. .. .. .. .. .. .. .. .. .. .. .. .. .. .. .. .. .. .. .. .. 
.. .. .. .. .. .. 48 .. .. .. .. .. .. .. .. .. .. .. .. .. .. .. .. .. .. .. .. .. .. .. 
.. .. .. .. .. .. 47 .. .. .. .. .. .. .. .. .. .. .. .. .. .. .. .. .. .. .. .. .. .. .. 
.. .. .. .. .. .. .. .. .. .. .. .. .. .. .. .. .. .. .. .. 43 .. .. .. .. .. .. .. .. .. 
.. .. .. .. .. .. .. .. .. .. .. .. .. .. .. .. .. .. .. .. 40 .. .. .. .. .. .. .. .. .. 
.. .. .. .. .. .. .. .. .. .. .. .. .. .. .. .. .. .. .. .. 45 .. .. .. .. .. .. .. .. .. 
.. .. .. .. .. 47 .. .. .. .. .. .. .. .. .. .. .. .. .. .. 48 .. .. .. .. .. .. .. .. .. 
.. .. .. .. .. 47 .. .. .. .. .. .. .. .. .. .. .. .. .. .. 45 .. .. .. .. .. .. .. .. .. 
.. .. .. .. .. .. .. .. .. .. .. .. .. .. .. .. .. .. .. .. .. .. .. .. .. .. .. .. .. .. 
.. .. .. .. .. 47 .. .. .. .. .. .. .. .. .. .. .. .. .. .. .. .. .. .. .. .. .. .. .. .. 
.. .. .. .. 48 .. .. .. .. .. .. .. .. .. .. .. .. .. .. .. .. .. .. .. .. .. .. .. .. .. 
.. .. .. .. 47 .. .. .. .. .. .. .. .. .. .. .. .. .. .. 45 .. .. .. .. .. .. .. .. .. .. 
.. .. .. .. 43 .. .. .. .. .. .. .. .. .. .. .. .. .. .. 45 .. .. .. .. .. .. .. .. .. .. 
.. .. .. .. .. .. .. .. .. .. .. .. .. .. .. .. .. .. .. 40 .. .. .. .. .. .. .. .. .. .. 
.. .. .. .. 45 .. .. .. .. .. .. .. .. .. .. .. .. .. .. 47 .. .. .. .. .. .. .. .. .. .. 
.. .. .. 48 .. .. .. .. .. .. .. .. .. .. .. .. .. .. 50 .. .. .. .. .. .. .. .. .. .. .. 
.. .. .. 52 .. .. .. .. .. .. .. .. .. .. .. .. .. .. .. .. .. .. .. .. .. .. .. .. .. .. 
.. .. .. 50 .. .. .. .. .. .. .. .. .. .. .. .. .. .. 48 .. .. .. .. .. .. .. .. .. .. .. 
.. .. .. 50 .. .. .. .. .. .. .. .. .. .. .. .. .. .. .. .. .. .. .. .. .. .. .. .. .. .. 
.. .. .. 48 .. .. .. .. .. .. .. .. .. .. .. .. .. .. 47 .. .. .. .. .. .. .. .. .. .. .. 
.. .. .. 48 .. .. .. .. .. .. .. .. .. .. .. .. .. .. 45 .. .. .. .. .. .. .. .. .. .. .. 
.. .. .. .. .. .. .. .. .. .. .. .. .. .. .. .. .. .. .. .. .. .. .. .. .. .. .. .. .. .. 
.. .. 47 .. .. .. .. .. .. .. .. .. .. .. .. .. .. 48 .. .. .. .. .. .. .. .. .. .. .. .. 
.. .. 47 .. .. .. .. .. .. .. .. .. .. .. .. .. .. 45 .. .. .. .. .. .. .. .. .. .. .. .. 
.. .. 43 .. .. .. .. .. .. .. .. .. .. .. .. .. .. .. .. .. .. .. .. .. .. .. .. .. .. .. 
.. .. 45 .. .. .. .. .. .. .. .. .. .. .. .. .. .. .. .. .. .. .. .. .. .. .. .. .. .. .. 
.. .. 40 .. .. .. .. .. .. .. .. .. .. .. .. .. .. .. .. .. .. .. .. .. .. .. .. .. .. .. 
.. .. .. .. .. .. .. .. .. .. .. .. .. .. .. .. 38 .. .. .. .. .. .. .. .. .. .. .. .. .. 
.. .. .. .. .. .. .. .. .. .. .. .. .. .. .. .. 40 .. .. .. .. .. .. .. .. .. .. .. .. .. 
.. .. .. .. .. .. .. .. .. .. .. .. .. .. .. .. 45 .. .. .. .. .. .. .. .. .. .. .. .. .. 
.. 47 .. .. .. .. .. .. .. .. .. .. .. .. .. .. 48 .. .. .. .. .. .. .. .. .. .. .. .. .. 
.. 50 .. .. .. .. .. .. .. .. .. .. .. .. .. .. 52 .. .. .. .. .. .. .. .. .. .. .. .. .. 
.. 55 .. .. .. .. .. .. .. .. .. .. .. .. .. .. .. .. .. .. .. .. .. .. .. .. .. .. .. .. 
52 .. .. .. .. .. .. .. .. .. .. .. .. .. .. 55 .. .. .. .. .. .. .. .. .. .. .. .. .. .. 
57 .. .. .. .. .. .. .. .. 56 .. .. .. 57 .. 38 37 .. 36 35 34 33 .. 38 37 36 35 34 .. 33 
38 37 36 .. 35 34 33 36 .. 35 34 33 32 .. 31 35 34 33 .. 32 31 30 33 .. 32 31 30 29 .. 28 
31 30 29 .. 28 27 26 29 .. 28 27 26 25 24 .. 29 28 27 26 .. 25 24 23 22 .. 21 20 19 18 .. 
50 .. .. .. .. .. .. .. .. .. .. .. .. .. .. .. .. .. .. .. .. .. .. .. .. .. .. .. .. 45 
.. .. .. .. .. .. .. .. .. .. .. .. .. .. 48 .. .. .. .. .. .. .. .. .. .. .. .. .. .. 50 
.. .. .. .. .. .. .. .. .. .. .. .. .. .. .. .. .. .. .. .. .. .. .. .. .. .. .. .. .. 53 
.. .. .. .. .. .. .. .. 52 .. .. .. 53 .. .. .. .. .. .. .. .. .. .. 52 .. .. 53 .. .. 50 
.. .. .. .. .. .. .. .. .. .. .. .. .. .. 48 .. .. .. .. .. .. .. .. .. .. .. .. .. .. 45 
.. .. .. .. .. .. .. .. .. .. .. .. .. .. .. .. .. .. .. .. .. .. .. .. .. .. .. .. .. 48 
.. .. .. .. .. .. .. .. .. .. .. .. .. 50 .. .. .. .. .. .. .. .. .. .. .. .. .. .. 53 .. 
.. .. .. .. .. .. .. 52 .. .. .. 53 .. 48 .. .. .. .. .. .. .. .. .. .. .. .. .. .. .. .. 
.. .. .. .. .. .. .. .. .. .. .. .. .. .. .. .. .. .. .. .. .. .. .. .. .. .. .. .. 45 .. 
.. .. .. .. .. .. .. .. .. .. .. .. .. 43 .. .. .. .. .. .. .. .. .. .. .. .. .. .. 45 .. 
.. .. .. .. .. .. .. .. .. .. .. .. .. 48 .. .. .. .. .. .. .. .. .. .. .. .. .. .. 52 .. 
.. .. .. .. .. .. .. .. .. .. .. .. .. .. .. .. .. .. .. .. .. .. .. .. .. .. .. .. 50 .. 
.. .. .. .. .. .. .. .. .. .. .. .. .. .. .. .. .. .. .. .. .. .. .. .. .. .. .. 48 .. .. 
.. .. .. .. .. .. .. .. .. .. .. .. .. .. .. .. .. .. .. .. .. .. .. .. .. .. .. 50 .. .. 
.. .. .. .. .. .. .. .. .. .. .. .. 52 .. .. .. .. .. .. .. .. .. .. .. .. .. .. .. .. .. 
.. .. .. .. .. .. .. .. .. .. .. .. 40 .. .. .. .. .. .. .. .. .. .. .. .. .. .. 43 .. .. 
.. .. .. .. .. .. .. .. .. .. .. .. 47 .. .. .. .. .. .. .. .. .. .. .. .. .. .. 52 .. .. 
.. .. .. .. .. .. .. .. .. .. .. .. .. .. .. .. .. .. .. .. .. .. .. .. .. .. 50 .. .. .. 
.. .. .. .. .. .. .. .. .. .. .. 48 .. .. .. .. .. .. .. .. .. .. .. .. .. .. 47 .. .. .. 
.. .. .. .. .. .. .. .. .. .. .. 48 .. .. .. .. .. .. .. .. .. .. .. .. .. .. 50 .. .. .. 
.. .. .. .. .. .. .. .. .. .. .. 48 .. .. .. .. .. .. .. 47 .. .. .. .. .. .. 45 .. .. .. 
.. .. .. .. .. .. .. .. .. .. .. 47 .. .. .. .. .. .. .. .. .. .. .. .. .. .. 43 .. .. .. 
.. .. .. .. .. .. .. .. .. .. .. 40 .. .. .. .. .. .. .. .. .. .. .. .. .. .. 47 .. .. .. 
.. .. .. .. .. .. .. .. .. .. .. 45 .. .. .. .. .. .. .. .. .. .. .. .. .. .. .. .. .. .. 
.. .. .. .. .. .. .. .. .. .. .. .. .. .. .. .. .. .. .. .. .. .. .. .. .. 43 .. .. .. .. 
.. .. .. .. .. .. .. .. .. .. 45 .. .. .. .. .. .. .. .. .. .. .. .. .. .. 47 .. .. .. .. 
.. .. .. .. .. .. .. .. .. .. 48 .. .. .. .. .. .. .. .. .. .. .. .. .. .. 47 .. .. .. .. 
.. .. .. .. .. .. .. .. .. .. 48 .. .. .. .. .. .. .. .. .. .. .. .. .. .. 47 .. .. .. .. 
.. .. .. .. .. .. .. .. .. .. 48 .. .. .. .. .. .. .. .. .. .. .. .. .. .. 50 .. .. .. .. 
.. .. .. .. .. .. .. .. .. 52 .. .. .. .. .. .. .. .. .. .. .. .. .. .. 50 .. .. .. .. .. 
.. .. .. .. .. .. .. .. .. 48 .. .. .. .. .. .. .. .. .. .. .. .. .. .. .. .. .. .. .. .. 
.. .. .. .. .. .. .. .. .. 53 .. .. .. .. .. .. .. .. 52 .. .. .. 53 .. 52 .. .. .. .. .. 
.. .. .. .. .. .. .. .. .. 53 .. .. .. .. .. .. .. .. 52 .. .. 53 .. .. 57 .. .. .. .. .. 
.. .. .. 56 .. .. 57 .. .. .. .. .. .. .. .. .. .. 56 .. .. .. 57 .. .. 55 .. .. .. .. .. 
.. .. .. .. .. .. .. .. .. 53 .. .. .. .. .. .. .. 52 .. .. .. 53 .. .. 52 .. .. .. .. .. 
.. .. .. .. .. .. .. .. 53 .. .. .. .. .. .. .. .. 52 .. .. .. 53 .. 50 .. .. .. .. .. .. 
.. .. .. .. .. .. .. .. 52 .. .. .. .. .. .. .. .. .. .. .. .. .. .. 53 .. .. .. .. .. .. 
.. .. 52 .. .. .. 53 .. 52 .. .. .. .. .. .. .. 50 .. .. .. .. .. .. 52 .. .. .. .. .. .. 
53 .. .. .. .. .. .. .. 52 .. .. .. .. .. .. .. .. .. .. .. .. .. .. 50 .. .. .. .. .. .. 
.. .. .. .. .. .. .. .. 52 .. .. .. .. .. .. .. .. .. .. .. .. .. .. 43 .. .. .. .. .. .. 
.. .. .. .. .. .. .. .. 48 .. .. .. .. .. .. .. .. .. .. .. .. .. 52 .. .. .. .. .. .. .. 
.. .. .. .. .. .. .. 55 .. .. .. .. .. .. .. .. .. .. .. .. .. .. 53 .. .. .. .. .. .. .. 
.. 52 .. .. .. 53 .. 52 .. .. .. .. .. .. .. .. .. .. .. .. .. .. 50 .. .. .. .. .. .. .. 
.. .. .. .. .. .. .. 52 .. .. .. .. .. .. 53 .. .. .. .. .. .. .. 52 .. .. .. .. .. .. 50 
.. .. .. .. .. .. .. 48 .. .. .. .. .. .. .. .. .. .. .. .. .. .. 50 .. .. .. .. .. .. .. 
.. .. .. .. .. .. .. 52 .. .. .. .. .. .. .. .. .. .. .. .. .. .. 43 .. .. .. .. .. .. .. 
.. .. .. .. .. .. .. 48 .. .. .. .. .. .. .. .. .. .. .. .. .. 52 .. .. .. .. .. .. .. .. 
.. .. .. .. .. .. 40 .. .. .. .. .. .. .. .. .. .. .. .. .. .. 43 .. .. .. .. .. .. .. .. 
.. .. .. .. .. .. 47 .. .. .. .. .. .. .. .. .. .. .. .. .. .. 52 .. .. .. .. .. .. .. .. 
.. .. .. .. .. .. 40 .. .. .. .. .. .. 43 .. .. .. .. .. .. .. 47 .. .. .. .. .. .. .. .. 
.. .. .. .. .. .. 52 .. .. .. .. .. .. .. .. .. .. .. .. .. .. 47 .. .. .. .. .. .. 43 .. 
.. .. .. .. .. .. 40 .. .. .. .. .. .. .. .. .. .. .. .. .. .. 43 .. .. .. .. .. .. .. .. 
.. .. .. .. .. 47 .. .. .. .. .. .. .. .. .. .. .. .. .. .. 50 .. .. .. .. .. .. .. .. .. 
.. .. .. .. .. 52 .. .. .. .. .. .. .. .. .. .. .. .. .. .. 50 .. .. .. .. .. .. .. .. .. 
.. .. .. .. .. 48 .. .. .. .. .. .. .. .. .. .. .. .. .. .. 47 .. .. .. .. .. .. .. .. .. 
.. .. .. .. .. 48 .. .. .. .. .. .. 50 .. .. .. .. .. .. .. 48 .. .. .. .. .. .. 47 .. .. 
.. .. .. .. .. 45 .. .. .. .. .. .. .. .. .. .. .. .. .. .. 43 .. .. .. .. .. .. .. .. .. 
.. .. .. .. .. 45 .. .. .. .. .. .. .. .. .. .. .. .. .. 48 .. .. .. .. .. .. .. .. .. .. 
.. .. .. .. 40 .. .. .. .. .. .. .. .. .. .. .. .. .. .. 43 .. .. .. .. .. .. .. .. .. .. 
.. .. .. .. 45 .. .. .. .. .. .. .. .. .. .. .. .. .. .. .. .. .. .. .. .. .. .. .. .. .. 
.. .. .. .. .. .. .. .. .. .. .. .. .. .. .. .. .. .. .. .. .. .. .. .. .. .. .. .. .. .. 
.. .. .. .. .. .. .. .. .. .. .. .. .. .. .. .. .. .. .. .. .. .. .. .. .. .. .. .. .. .. 
.. .. .. .. .. .. .. .. .. .. .. .. .. .. .. .. .. .. .. .. .. .. .. .. .. .. .. .. .. .. 
.. .. .. .. 42 41 40 39 .. 38 37 36 35 34 .. 33 32 31 30 .. 29 .. .. .. .. .. .. .. .. .. 
.. .. .. 39 .. 38 37 36 35 .. 34 33 32 31 .. 30 29 28 27 .. 26 .. .. .. .. .. 37 36 35 34 
.. 33 32 31 30 .. 29 28 27 26 .. 35 34 33 32 .. 31 30 35 34 .. 33 32 31 30 .. 29 28 27 26 
.. 25 24 33 32 31 .. 30 29 28 27 .. 26 25 24 23 .. 22 33 32 31 .. 30 29 28 27 .. 26 25 24 
23 .. 22 42 41 40 .. 39 38 37 42 .. 41 40 39 38 .. 37 42 41 40 39 .. 38 37 42 41 .. 40 39 
38 37 .. 39 38 37 36 .. 35 34 33 32 .. 31 30 29 28 .. 37 36 35 34 .. 33 32 35 34 .. 33 32 
31 30 29 .. 28 27 26 25 .. 24 35 34 33 .. 32 31 30 35 .. 34 33 32 31 .. 30 29 28 27 .. 26 
25 24 33 .. 32 31 30 29 .. 28 27 26 25 24 .. 23 22 33 32 .. 31 30 29 28 .. 27 26 25 24 .. 
23 22 42 41 .. 40 39 38 37 .. 36 35 34 33 .. 32 31 39 38 .. 37 36 35 34 .. 33 32 31 30 29 
.. 28 37 36 35 .. 34 33 32 31 .. 30 29 28 27 .. 26 25 24 .. .. .. .. .. 35 .. 34 33 32 31 
.. 30 29 28 27 .. 26 25 24 35 34 .. 33 32 31 30 .. 35 34 33 32 .. 31 30 29 28 .. 27 26 25 
24 .. 33 32 31 30 .. 29 28 33 32 .. 31 30 29 28 .. 33 32 31 30 29 .. 28 27 26 25 .. 24 23 
22 42 .. 41 40 39 38 .. 37 42 41 40 .. 39 38 37 42 .. 41 40 39 38 .. 37 42 41 40 .. 39 38 
37 39 .. 38 37 36 35 34 .. 37 36 35 34 .. 33 32 37 36 .. 35 34 33 32 .. 35 34 33 32 .. 31 
30 29 28 .. 27 26 25 24 .. 37 36 35 34 .. 33 32 35 34 33 .. 32 31 30 29 .. 28 27 26 25 .. 
24 37 36 35 .. 34 33 32 31 .. 30 29 28 27 .. 26 33 32 31 .. 30 29 28 27 .. 26 25 24 23 22 
.. 42 41 40 39 .. 38 37 36 35 .. 34 33 32 31 .. 30 29 .. .. .. .. .. .. .. .. .. .. .. .. 
.. 39 38 37 36 .. 35 34 33 32 .. 31 30 29 28 27 .. 26 .. .. .. .. .. 37 36 35 .. 34 33 32 
31 .. 30 29 28 27 .. 26 35 34 33 .. 32 31 30 35 .. 34 33 32 31 .. 30 29 28 27 26 .. 25 24 
33 32 .. 31 30 29 28 .. 27 26 25 24 .. 23 22 33 32 .. 31 30 29 28 .. 27 26 25 24 .. 23 22 
42 41 .. 40 39 38 37 42 .. 41 40 39 38 .. 37 42 41 40 .. 39 38 37 42 .. 41 40 39 38 .. 37 
39 38 37 .. 36 35 34 33 .. 32 31 30 29 .. 28 37 36 35 .. 34 33 32 35 34 .. 33 32 31 30 .. 
29 28 27 26 .. 25 24 35 34 .. 33 32 31 30 .. 35 34 33 32 .. 31 30 29 28 .. 27 26 25 24 .. 
33 32 31 30 29 .. 28 27 26 25 .. 24 23 22 33 .. 32 31 30 29 .. 28 27 26 25 .. 24 23 22 42 
.. 41 40 39 38 .. 37 36 35 34 .. 33 32 31 39 38 .. 37 36 35 34 .. 33 32 31 30 .. 29 28 37 
36 .. 35 34 33 32 .. 31 30 29 28 .. 27 26 25 24 .. .. .. .. .. .. 35 34 33 32 .. 31 30 29 
28 27 .. 26 25 24 35 .. 34 33 32 31 .. 30 35 34 33 .. 32 31 30 29 .. 28 27 26 25 .. 24 33 
32 31 .. 30 29 28 33 .. 32 31 30 29 28 .. 33 32 31 30 .. 29 28 27 26 .. 25 24 23 22 .. 42 
41 40 39 .. 38 37 42 41 .. 40 39 38 37 .. 42 41 40 39 .. 38 37 42 41 40 .. 39 38 37 39 .. 
38 37 36 35 .. 34 37 36 35 .. 34 33 32 37 .. 36 35 34 33 .. 32 35 34 33 .. 32 31 30 29 .. 
28 27 26 25 .. 24 37 36 35 34 .. 33 32 35 34 .. 33 32 31 30 .. 29 28 27 26 .. 25 24 37 36 
.. 35 34 33 32 .. 31 30 29 28 .. 27 26 33 32 .. 31 30 29 28 27 .. 26 25 24 23 .. 22 42 41 
40 .. 39 38 37 36 .. 35 34 33 32 .. 31 30 29 .. .. .. .. .. .. .. .. .. .. .. .. .. 39 38 
37 36 .. 35 34 33 32 .. 31 30 29 28 .. 27 26 .. .. .. .. .. 37 36 .. 35 34 33 32 .. 31 30 
29 28 .. 27 26 35 34 .. 33 32 31 30 .. 35 34 33 32 31 .. 30 29 28 27 .. 26 25 24 33 .. 32 
31 30 29 .. 28 27 26 25 .. 24 23 22 33 .. 32 31 30 29 .. 28 27 26 25 .. 24 23 22 42 41 .. 
40 39 38 37 .. 42 41 40 39 .. 38 37 42 41 .. 40 39 38 37 .. 42 41 40 39 .. 38 37 39 38 .. 
37 36 35 34 .. 33 32 31 30 29 .. 28 37 36 35 .. 34 33 32 35 .. 34 33 32 31 .. 30 29 28 27 
.. 26 25 24 35 .. 34 33 32 31 .. 30 35 34 33 .. 32 31 30 29 .. 28 27 26 25 24 .. 33 32 31 
30 .. 29 28 27 26 .. 25 24 23 22 .. 33 32 31 30 .. 29 28 27 26 .. 25 24 23 22 .. 42 41 40 
39 .. 38 37 36 35 34 .. 33 32 31 39 .. 38 37 36 35 .. 34 33 32 31 .. 30 29 28 37 .. 36 35 
34 33 .. 32 31 30 29 .. 28 27 26 25 .. 24 .. .. .. .. .. 35 34 33 32 .. 31 30 29 28 .. 27 
26 25 24 .. 35 34 33 32 .. 31 30 35 34 .. 33 32 31 30 .. 29 28 27 26 .. 25 24 33 32 .. 31 
30 29 28 33 .. 32 31 30 29 .. 28 33 32 31 .. 30 29 28 27 .. 26 25 24 23 .. 22 42 41 40 .. 
39 38 37 42 .. 41 40 39 38 .. 37 42 41 40 39 .. 38 37 42 41 .. 40 39 38 37 .. 39 38 37 36 
.. 35 34 37 36 .. 35 34 33 32 .. 37 36 35 34 .. 33 32 35 34 .. 33 32 31 30 29 .. 28 27 26 
25 .. 24 37 36 35 .. 34 33 32 35 .. 34 33 32 31 .. 30 29 28 27 .. 26 25 24 37 .. 36 35 34 
33 .. 32 31 30 29 .. 28 27 26 33 32 .. 31 30 29 28 .. 27 26 25 24 .. 23 22 40 .. .. .. .. 
.. .. .. .. .. .. .. .. .. .. .. .. .. .. .. .. .. .. .. .. .. .. .. .. .. 45 .. .. .. .. 
.. .. .. .. .. .. .. .. .. .. 47 .. .. .. .. .. .. .. .. .. .. .. .. .. .. 48 .. .. .. .. 
.. .. .. .. .. .. .. .. .. .. 47 .. .. .. .. .. .. .. .. .. .. .. .. .. .. 45 .. .. .. .. 
.. .. .. .. .. .. .. .. .. .. .. .. .. .. .. .. .. .. .. .. .. .. .. .. .. .. .. .. .. .. 
.. .. .. .. .. .. .. .. .. 47 .. .. .. .. .. .. .. .. .. .. .. .. .. .. .. .. .. .. .. .. 
.. .. .. .. .. .. .. .. .. 48 .. .. .. .. .. .. .. .. .. .. .. .. .. .. .. .. .. .. .. .. 
.. .. .. .. .. .. .. .. .. 47 .. .. .. .. .. .. .. .. .. .. .. .. .. .. 45 .. .. .. .. .. 
.. .. .. .. .. .. .. .. .. 43 .. .. .. .. .. .. .. .. .. .. .. .. .. .. 45 .. .. .. .. .. 
.. .. .. .. .. .. .. .. .. .. .. .. .. .. .. .. .. .. .. .. .. .. .. .. 40 .. .. .. .. .. 
.. .. .. .. .. .. .. .. 45 .. .. .. .. .. .. .. .. .. .. .. .. .. .. 47 .. .. .. .. .. .. 
.. .. .. .. .. .. .. .. 48 .. .. .. .. .. .. .. .. .. .. .. .. .. .. 50 .. .. .. .. .. .. 
.. .. .. .. .. .. .. .. 52 .. .. .. .. .. .. .. .. .. .. .. .. .. .. .. .. .. .. .. .. .. 
.. .. .. .. .. .. .. .. 50 .. .. .. .. .. .. .. .. .. .. .. .. .. .. 48 .. .. .. .. .. .. 
.. .. .. .. .. .. .. .. 50 .. .. .. .. .. .. .. .. .. .. .. .. .. .. .. .. .. .. .. .. .. 
.. .. .. .. .. .. .. .. 48 .. .. .. .. .. .. .. .. .. .. .. .. .. .. 47 .. .. .. .. .. .. 
.. .. .. .. .. .. .. 48 .. .. .. .. .. .. .. .. .. .. .. .. .. .. 45 .. .. .. .. .. .. .. 
.. .. .. .. .. .. .. .. .. .. .. .. .. .. .. .. .. .. .. .. .. .. .. .. .. .. .. .. .. .. 
.. .. .. .. .. .. .. 47 .. .. .. .. .. .. .. .. .. .. .. .. .. .. 48 .. .. .. .. .. .. .. 
.. .. .. .. .. .. .. 47 .. .. .. .. .. .. .. .. .. .. .. .. .. .. 45 .. .. .. .. .. .. .. 
.. .. .. .. .. .. .. 43 .. .. .. .. .. .. .. .. .. .. .. .. .. .. .. .. .. .. .. .. .. .. 
.. .. .. .. .. .. .. 45 .. .. .. .. .. .. .. .. .. .. .. .. .. .. .. .. .. .. .. .. .. .. 
.. .. .. .. .. .. 40 .. .. .. .. .. .. .. .. .. .. .. .. .. .. .. .. .. .. .. .. .. .. .. 
.. .. .. .. .. .. .. .. .. .. .. .. .. .. .. .. .. .. .. .. .. 38 .. .. .. .. .. .. .. .. 
.. .. .. .. .. .. .. .. .. .. .. .. .. .. .. .. .. .. .. .. .. 40 .. .. .. .. .. .. .. .. 
.. .. .. .. .. .. .. .. .. .. .. .. .. .. .. .. .. .. .. .. .. 45 .. .. .. .. .. .. .. .. 
.. .. .. .. .. .. 47 .. .. .. .. .. .. .. .. .. .. .. .. .. .. 48 .. .. .. .. .. .. .. .. 
.. .. .. .. .. .. 50 .. .. .. .. .. .. .. .. .. .. .. .. .. 52 .. .. .. .. .. .. .. .. .. 
.. .. .. .. .. 55 .. .. .. .. .. .. .. .. .. .. .. .. .. .. .. .. .. .. .. .. .. .. .. .. 
.. .. .. .. .. 52 .. .. .. .. .. .. .. .. .. .. .. .. .. .. 55 .. .. .. .. .. .. .. .. .. 
.. .. .. .. .. 57 .. .. .. .. .. .. .. .. 56 .. .. 57 .. .. 38 37 36 .. 35 34 33 38 .. 37 
36 35 34 .. 33 38 37 36 .. 35 34 33 36 .. 35 34 33 32 31 .. 35 34 33 32 .. 31 30 33 32 .. 
31 30 29 28 .. 31 30 29 28 .. 27 26 29 28 .. 27 26 25 24 .. 29 28 27 26 .. 25 24 23 
! Song 2
146 50 .. .. .. .. .. .. .. .. .. 45 .. .. .. .. .. .. .. .. .. 50 .. .. .. .. .. .. .. .. 
54 .. .. .. .. .. .. .. 53 .. 50 .. .. .. .. .. .. .. .. 54 .. .. .. .. .. .. .. 53 .. 57 
.. .. .. .. .. .. .. 56 .. .. .. 57 .. .. .. .. .. .. .. .. .. 56 .. .. .. 57 .. .. .. .. 
.. .. .. .. .. .. 56 55 .. .. .. .. .. .. .. .. 54 .. .. .. .. .. .. .. .. 53 55 .. .. .. 
.. .. .. .. .. .. .. .. .. .. .. .. .. .. .. .. .. .. .. .. .. .. .. .. 52 .. .. .. .. .. 
.. .. .. .. .. .. .. .. .. .. .. .. .. .. .. .. .. .. .. .. .. .. .. 48 .. .. .. .. .. .. 
.. .. .. .. .. .. .. .. .. .. .. .. .. .. .. .. .. .. .. .. .. .. 43 .. .. .. .. .. .. .. 
.. .. .. .. .. .. .. .. .. .. .. .. .. .. .. .. .. .. .. .. 48 .. .. .. .. .. .. .. .. .. 
45 .. .. .. .. .. .. .. .. 48 .. .. .. .. .. .. .. .. .. 53 .. .. .. .. .. .. .. 52 48 .. 
.. .. .. .. .. .. .. .. 53 .. .. .. .. .. .. .. 52 57 .. .. .. .. .. .. .. .. 56 .. .. 57 
.. .. .. .. .. .. .. .. .. .. 56 .. .. 57 .. .. .. .. .. .. .. .. .. .. 56 59 .. .. .. .. 
.. .. .. .. 58 60 .. .. .. .. .. .. .. 59 .. .. .. .. .. .. .. .. .. 58 .. .. 59 .. .. .. 
.. .. .. .. .. .. .. 58 .. .. .. 59 .. 55 .. .. .. .. .. .. .. .. .. .. .. .. .. .. .. .. 
.. .. .. .. .. .. .. .. .. .. .. .. 50 .. .. .. .. .. .. .. .. .. .. .. .. .. .. .. .. .. 
.. .. .. .. .. .. .. .. .. .. 47 .. .. .. .. .. .. .. .. .. .. .. .. .. .. .. .. .. .. .. 
.. .. .. .. .. .. .. .. .. 45 .. .. .. .. .. .. .. .. 40 .. .. .. .. .. .. .. .. .. 45 .. 
.. .. .. .. .. .. .. 49 .. .. .. .. .. .. .. .. .. 45 .. .. .. .. .. .. .. .. 49 .. .. .. 
.. .. .. .. .. .. 52 .. .. .. .. .. .. .. .. .. .. .. .. .. .. .. .. .. .. .. .. .. .. .. 
.. .. .. .. .. .. .. .. .. .. .. .. .. .. .. .. .. .. .. .. .. .. .. .. .. .. .. .. .. .. 
.. .. .. 47 .. .. .. .. .. .. .. .. .. 42 .. .. .. .. .. .. .. .. 47 .. .. .. .. .. .. .. 
.. .. 51 .. .. .. .. .. .. .. .. 47 .. .. .. .. .. .. .. .. .. 51 .. .. .. .. .. .. .. .. 
54 .. .. .. .. .. .. .. .. 53 .. .. 54 .. .. .. .. .. .. .. .. .. .. 53 .. .. 54 .. .. .. 
.. .. .. .. .. .. .. 53 .. .. .. .. .. .. .. .. .. 52 51 .. .. .. .. .. .. .. .. 49 .. .. 
.. .. .. .. .. .. .. .. .. .. .. .. .. .. .. .. .. .. .. .. .. .. .. .. .. .. .. .. .. .. 
.. .. .. .. .. .. .. .. .. .. .. .. .. .. .. .. .. .. .. .. .. .. .. .. .. .. .. .. .. .. 
.. .. .. .. .. .. .. .. .. .. .. .. .. .. .. .. .. .. .. .. .. .. .. .. .. .. .. .. .. .. 
.. .. .. .. .. .. .. .. .. .. .. .. .. .. .. .. .. .. .. .. .. .. .. .. .. .. .. .. .. .. 
.. .. .. .. .. .. .. .. .. .. .. .. .. .. .. .. .. .. .. .. .. .. .. .. .. .. .. .. .. .. 
.. .. .. .. .. .. .. .. .. .. .. .. .. .. .. .. .. .. .. .. .. .. .. .. .. .. .. .. .. .. 
.. .. .. .. .. .. .. .. .. .. .. .. .. .. .. .. .. .. .. .. .. .. .. .. .. .. .. .. .. .. 
.. .. .. .. .. .. .. .. .. .. .. .. .. .. .. .. 52 .. .. .. .. .. .. .. .. .. .. .. .. .. 
.. .. .. .. .. .. .. .. .. .. .. .. .. .. .. .. .. .. .. .. .. .. .. .. .. .. .. .. .. .. 
.. .. .. .. .. .. .. .. .. .. .. .. .. .. .. .. .. .. .. .. .. .. .. .. .. .. .. .. .. .. 
.. .. .. .. .. .. .. .. .. .. .. .. .. .. .. .. .. .. .. .. .. .. .. .. .. .. .. .. .. .. 
.. .. .. .. .. .. .. .. .. .. .. .. .. .. .. .. .. .. .. .. .. .. 
! Song 3
146 47 .. .. .. .. .. .. .. .. .. .. .. .. .. .. .. 59 .. .. .. .. .. .. .. 57 .. .. .. .. 
.. .. .. 54 .. .. .. .. .. .. .. 52 .. .. .. .. .. .. .. 50 .. .. .. .. .. .. .. 52 .. .. 
.. .. .. .. .. 53 .. .. .. .. .. .. .. 54 .. .. .. .. .. .. .. 52 .. .. .. .. .. .. .. 50 
.. .. .. .. .. .. .. .. .. .. .. .. .. .. .. .. .. .. .. .. .. .. .. 47 .. .. .. .. .. .. 
.. .. .. .. .. .. .. .. .. 43 .. .. .. .. .. .. .. .. .. .. .. .. .. .. .. 47 .. .. .. .. 
.. .. .. 50 .. .. .. .. .. .. .. 52 .. .. .. .. .. .. .. 53 .. .. .. .. .. .. .. .. .. 52 
.. .. .. 53 .. 54 .. .. .. .. .. .. .. .. .. 53 .. .. .. 54 .. 52 .. .. .. .. .. .. .. 50 
.. .. .. .. .. .. .. .. .. .. .. .. .. .. .. 47 .. .. .. .. .. .. .. .. .. .. .. .. .. .. 
.. 50 .. .. .. .. .. .. .. .. .. .. .. .. .. .. .. 47 .. .. .. .. .. .. .. .. .. .. .. .. 
.. .. .. 50 .. .. .. .. .. .. .. 52 .. .. .. .. .. .. .. 53 .. .. .. .. .. .. .. 54 .. .. 
.. .. .. .. .. 57 .. .. .. .. .. .. .. 58 .. .. .. .. .. .. .. 59 .. .. .. .. .. .. .. 57 
.. .. .. .. .. .. .. 54 .. .. .. .. .. .. .. 52 .. .. .. .. .. .. .. 50 .. .. .. .. .. .. 
.. 52 .. .. .. .. .. .. .. 54 .. .. .. .. .. .. .. 50 .. .. .. .. .. .. .. 47 .. .. .. .. 
.. .. .. .. .. .. .. .. .. .. .. 45 .. .. .. .. .. .. .. .. .. .. .. .. .. .. .. 47 .. .. 
.. .. .. .. .. 50 .. .. .. .. .. .. .. .. .. .. .. .. .. .. .. .. .. .. .. .. .. .. .. 47 
.. .. .. .. .. .. .. .. .. .. .. .. .. .. .. .. .. .. .. .. .. .. .. .. .. .. .. .. .. .. 
.. .. .. .. .. .. .. .. .. .. .. .. .. .. .. .. .. .. .. .. .. .. .. .. .. .. .. .. .. .. 
.. .. .. 52 .. .. .. .. .. .. .. .. .. .. .. .. .. .. .. .. .. .. .. .. .. .. .. .. .. .. 
.. .. .. .. .. .. .. .. .. .. .. .. .. .. .. .. .. .. .. .. .. .. .. .. .. .. .. .. .. .. 
.. .. .. .. .. .. .. .. .. .. .. .. .. .. .. .. .. .. .. .. .. .. .. .. .. .. .. .. .. .. 
.. .. .. .. .. .. .. .. .. .. .. .. .. .. .. .. .. .. .. .. .. .. .. .. .. .. .. .. .. .. 
.. .. .. .. .. .. .. .. .. .. 
! Song 4
146 54 .. .. .. .. .. .. .. .. 53 .. .. 54 .. 52 .. .. .. .. .. .. .. .. .. .. .. .. .. 54 
.. .. .. .. .. .. .. 53 .. .. .. 54 .. 57 .. .. .. .. .. .. .. 56 .. .. .. 57 .. .. .. .. 
.. .. .. .. .. 56 .. .. 57 .. .. 54 .. .. .. .. .. .. .. 53 .. .. 54 .. .. 57 .. .. .. .. 
.. .. .. 56 .. .. 57 .. .. .. .. .. .. .. .. .. 56 .. .. .. 57 .. 59 .. .. .. .. .. .. .. 
58 .. .. .. 59 .. 57 .. .. .. .. .. .. .. 56 .. .. .. 57 .. 59 .. .. .. .. .. .. .. 58 .. 
.. 59 .. .. 62 .. .. .. .. .. .. .. 61 .. .. 62 .. .. .. .. .. .. .. .. .. .. 61 .. .. 62 
.. 61 .. .. .. .. .. .. .. 60 .. .. .. 61 .. 59 .. .. .. .. .. .. .. 58 .. .. .. 59 .. 57 
.. .. .. .. .. .. .. 56 .. .. .. 57 .. 59 .. .. .. .. .. .. .. 58 .. .. 59 .. .. .. .. .. 
.. .. .. .. .. 58 .. .. 59 .. .. 54 .. .. .. .. .. .. .. 53 .. .. 54 .. .. .. .. .. .. .. 
.. .. 53 .. .. .. 54 .. 50 .. .. .. .. .. .. .. .. .. .. .. .. .. .. .. .. .. .. .. .. .. 
.. .. .. .. .. .. 54 .. .. .. .. .. .. .. 53 .. .. 54 .. .. .. .. .. .. .. .. .. .. 53 .. 
.. 54 .. .. 47 .. .. .. .. .. .. .. .. .. .. .. .. .. .. .. .. .. .. .. .. .. .. .. .. .. 
.. .. .. .. .. .. .. .. .. .. .. .. .. .. .. .. .. .. .. .. .. .. .. .. .. .. .. .. .. .. 
.. .. .. .. .. .. .. .. .. .. .. .. .. .. .. .. .. .. .. .. .. .. .. .. .. .. .. .. .. .. 
.. .. .. .. .. .. .. .. .. .. .. .. .. .. .. .. .. .. .. .. .. .. .. .. 52 .. .. .. .. .. 
.. .. .. .. .. .. .. .. .. .. .. .. .. .. .. .. .. .. .. .. .. .. .. .. .. .. .. .. .. .. 
.. .. .. .. .. .. .. .. .. .. .. .. .. .. .. .. .. .. .. .. .. .. .. .. .. .. .. .. .. .. 
.. .. .. .. .. .. .. .. .. .. .. .. .. .. .. .. .. .. .. .. .. .. .. .. .. .. .. .. .. .. 
.. .. .. .. .. .. .. .. .. .. .. .. .. .. .. .. .. .. .. .. .. .. .. .. .. .. .. .. .. 
! Song 5
146 47 .. .. .. .. .. .. .. .. .. .. 45 .. .. .. .. .. .. .. .. .. 47 .. .. .. .. .. .. .. 
.. .. 50 .. .. .. .. .. .. .. .. .. 47 .. .. .. .. .. .. .. .. .. 50 .. .. .. .. .. .. .. 
.. .. 52 .. .. .. .. .. .. .. .. .. .. .. .. .. .. .. .. .. .. .. .. .. .. .. .. .. .. .. 
.. .. .. .. .. .. .. .. .. .. .. .. .. .. .. .. .. .. .. .. .. .. .. .. .. .. .. .. .. .. 
.. .. .. 54 .. .. .. .. .. .. .. .. 53 49 .. .. .. .. .. .. .. .. .. 54 .. .. .. .. .. .. 
.. .. 53 .. 57 .. .. .. .. .. .. .. 56 .. 54 .. .. .. .. .. .. .. .. 53 57 .. .. .. .. .. 
.. .. .. 56 59 .. .. .. .. .. .. .. .. 58 57 .. .. .. .. .. .. .. .. 56 54 .. .. .. .. .. 
.. .. .. 53 52 .. .. .. .. .. .. .. .. .. .. 50 .. .. .. .. .. .. .. .. .. 52 .. .. .. .. 
.. .. .. .. .. 54 .. .. .. .. .. .. .. .. 53 52 .. .. .. .. .. .. .. .. .. 50 .. .. .. .. 
.. .. .. .. .. 47 .. .. .. .. .. .. .. .. .. 45 .. .. .. .. .. .. .. .. .. .. 42 .. .. .. 
.. .. .. .. .. .. 47 .. .. .. .. .. .. .. .. .. .. .. .. .. .. .. .. .. .. .. .. .. .. .. 
.. .. .. .. .. .. .. .. .. .. .. .. .. .. .. .. .. .. .. .. .. .. .. .. .. .. .. .. .. .. 
.. .. .. .. .. .. 52 .. .. .. .. .. .. .. .. .. .. .. .. .. .. .. .. .. .. .. .. .. .. .. 
.. .. .. .. .. .. .. .. .. .. .. .. .. .. .. .. .. .. .. .. .. .. .. .. .. .. .. .. .. .. 
.. .. .. .. .. .. .. .. .. .. .. .. .. .. .. .. .. .. .. .. .. .. .. .. .. .. .. .. .. .. 
.. .. .. .. .. .. .. .. .. .. .. .. .. .. .. .. .. .. .. .. .. .. .. .. .. .. .. .. .. .. 
.. .. .. .. .. .. .. .. .. .. .. .. 
! Song 6
146 58 .. .. .. .. .. .. .. 57 54 .. .. .. .. .. .. 53 .. 51 .. .. .. .. .. .. .. 58 .. .. 
.. .. .. .. .. 57 54 .. .. .. .. .. .. 53 51 .. .. .. .. .. .. .. .. 58 .. .. .. .. .. .. 
57 53 .. .. .. .. .. .. .. 52 50 .. .. .. .. .. .. .. 58 .. .. .. .. .. .. .. 57 53 .. .. 
.. .. .. .. 52 50 .. .. .. .. .. .. .. .. 58 .. .. .. .. .. .. 57 55 .. .. .. .. .. .. .. 
.. 49 .. .. .. .. .. .. .. 58 .. .. .. .. .. .. .. 57 55 .. .. .. .. .. .. .. .. 49 .. .. 
.. .. .. .. .. 56 .. .. .. .. .. .. .. 55 51 .. .. .. .. .. .. .. 48 .. .. .. .. .. .. .. 
.. 56 .. .. .. .. .. .. 55 51 .. .. .. .. .. .. .. .. 48 .. .. .. .. .. .. .. 56 .. .. .. 
.. .. .. .. 55 51 .. .. .. .. .. .. .. 47 .. .. .. .. .. .. .. .. 56 .. .. .. .. .. .. 55 
51 .. .. .. .. .. .. .. .. 47 .. .. .. .. .. .. .. 54 .. .. .. .. .. .. .. 53 51 .. .. .. 
.. .. .. .. .. 46 .. .. .. .. .. .. .. 54 .. .. .. .. .. .. .. 53 51 .. .. .. .. .. .. .. 
46 .. .. .. .. .. .. .. .. 53 .. .. .. .. .. .. 52 50 .. .. .. .. .. .. .. .. 46 .. .. .. 
.. .. .. .. 53 .. .. .. .. .. .. .. 52 50 .. .. .. .. .. .. .. 46 .. .. .. .. .. .. .. .. 
39 .. .. .. .. .. .. .. 42 .. .. .. .. .. .. .. .. 44 .. .. .. .. .. .. .. 45 .. .. .. .. 
.. .. .. .. 46 .. .. .. .. .. .. .. .. 49 .. .. .. .. .. .. .. 50 .. .. .. .. .. .. .. .. 
51 .. .. .. .. .. .. .. 54 .. .. .. .. .. .. .. 53 56 .. .. .. .. .. .. 55 57 .. .. .. .. 
.. .. .. 56 58 .. .. .. .. .. .. 57 63 .. .. .. .. .. .. .. 62 .. .. 63 .. .. .. .. .. .. 
.. .. .. 62 .. .. 63 .. .. .. .. .. .. .. .. .. 62 .. .. .. 63 .. .. .. .. .. .. .. .. .. 
62 .. .. 63 .. .. .. .. .. .. .. .. .. .. 62 .. .. 63 .. .. .. .. .. .. .. .. .. .. 62 .. 
.. 63 .. .. .. .. .. .. .. .. .. .. 62 .. .. 63 .. .. .. .. .. .. .. .. .. 52 .. .. .. .. 
.. .. .. .. .. .. .. .. .. .. .. .. .. .. .. .. .. .. .. .. .. .. .. .. .. .. .. .. .. .. 
.. .. .. .. .. .. .. .. .. .. .. .. .. .. .. .. .. .. .. .. .. .. .. .. .. .. .. .. .. .. 
.. .. .. .. .. .. .. .. .. .. .. .. .. .. .. .. .. .. .. .. .. .. .. .. .. .. .. .. .. .. 
.. .. .. .. .. .. .. .. .. .. .. .. .. .. .. .. .. .. .. .. .. .. .. .. .. .. .. .. .. .. 
.. 
! Song 7
146 44 .. .. .. .. .. .. .. .. .. .. 46 .. .. .. .. .. .. .. .. .. .. 47 .. .. .. .. .. .. 
.. .. .. .. 51 .. .. .. .. .. .. .. .. .. .. .. .. .. .. .. .. .. .. .. .. .. .. .. .. .. 
.. .. .. .. .. .. 42 .. .. .. .. .. .. .. .. .. .. 44 .. .. .. .. .. .. .. .. .. .. 46 .. 
.. .. .. .. .. .. .. .. .. 49 .. .. .. .. .. .. .. .. .. .. .. .. .. .. .. .. .. .. .. .. 
54 .. .. .. .. .. .. .. .. 53 .. 56 .. .. .. .. .. .. .. .. 55 .. .. .. 56 .. .. .. .. .. 
.. .. 58 .. .. .. .. .. .. .. .. .. 57 59 .. .. .. .. .. .. .. .. .. 58 .. .. .. 59 .. .. 
.. .. .. .. .. 56 .. .. .. .. .. .. .. .. 55 .. 58 .. .. .. .. .. .. .. .. 57 56 .. .. .. 
.. .. .. .. .. .. 55 54 .. .. .. .. .. .. .. .. .. 53 58 .. .. .. .. .. .. .. .. 57 .. .. 
.. 58 .. .. .. .. .. .. .. 54 .. .. .. .. .. .. .. .. .. 53 56 .. .. .. .. .. .. .. .. .. 
55 .. .. .. 56 .. .. .. .. .. .. .. .. .. .. .. 55 .. .. .. 56 .. .. 51 .. .. .. .. .. .. 
.. .. .. .. .. .. .. .. .. .. .. .. .. .. .. .. .. .. .. .. .. .. .. .. .. 49 .. .. .. .. 
.. .. .. .. .. .. 51 .. .. .. .. .. .. .. .. .. 49 .. .. .. .. .. .. .. .. .. .. 47 .. .. 
.. .. .. .. .. .. .. .. .. .. .. .. .. .. .. .. .. .. .. 46 .. .. .. .. .. .. .. .. .. .. 
44 .. .. .. .. .. .. .. .. .. .. .. .. .. .. .. .. .. .. .. .. .. .. .. .. .. .. .. .. .. 
.. .. 42 .. .. .. .. .. .. .. .. .. .. .. .. .. .. .. .. .. .. .. .. .. .. .. .. .. .. .. 
.. .. .. .. 44 .. .. .. .. .. .. .. .. .. .. .. .. .. .. .. .. .. .. .. .. .. .. .. .. .. 
.. .. .. .. .. .. .. .. .. .. .. .. .. .. .. .. .. .. .. .. .. .. .. .. .. .. .. .. .. .. 
.. .. .. .. .. .. .. .. .. 52 .. .. .. .. .. .. .. .. .. .. .. .. .. .. .. .. .. .. .. .. 
.. .. .. .. .. .. .. .. .. .. .. .. .. .. .. .. .. .. .. .. .. .. .. .. .. .. .. .. .. .. 
.. .. .. .. .. .. .. .. .. .. .. .. .. .. .. .. .. .. .. .. .. .. .. .. .. .. .. .. .. .. 
.. .. .. .. .. .. .. .. .. .. .. .. .. .. .. .. .. .. .. .. .. .. .. .. .. .. .. .. .. .. 
.. .. .. .. .. .. .. .. .. .. .. .. .. .. 
! Song 8
146 49 .. .. .. .. .. .. .. .. .. .. .. .. .. .. 51 .. .. .. .. .. .. .. .. .. .. .. .. .. 
.. 52 .. .. .. .. .. .. .. .. .. .. .. .. .. .. 56 .. .. .. .. .. .. .. .. 55 .. .. .. 56 
.. .. .. .. .. .. .. .. .. .. 55 .. .. .. 56 .. 54 .. .. .. .. .. .. .. .. 53 .. .. 54 .. 
.. 52 .. .. .. .. .. .. .. .. .. .. .. .. .. .. .. .. .. .. .. .. .. .. .. .. .. .. .. .. 
.. 51 .. .. .. .. .. .. .. .. .. .. .. .. .. .. 52 .. .. .. .. .. .. .. .. .. .. .. .. .. 
.. 51 .. .. .. .. .. .. .. .. .. .. .. .. .. .. 49 .. .. .. .. .. .. .. .. .. .. .. .. .. 
.. .. .. .. .. .. .. .. .. .. .. .. .. .. .. .. .. .. .. .. .. .. .. .. .. .. .. .. .. .. 
47 .. .. .. .. .. .. .. .. .. .. .. .. .. .. .. .. .. .. .. .. .. .. .. .. .. .. .. .. .. 
49 .. .. .. .. .. .. .. .. .. .. .. .. .. .. 42 41 40 .. 39 38 37 42 .. 41 40 39 38 .. 37 
42 41 40 .. 39 38 37 36 .. 35 34 33 32 .. 31 39 38 37 .. 36 35 34 33 .. 32 31 30 29 .. 28 
39 38 37 36 .. 35 34 33 32 .. 31 30 29 28 .. 37 36 35 34 .. 33 32 31 30 .. 29 28 27 26 .. 
35 34 33 32 .. 31 30 29 28 .. 27 26 25 24 33 .. 32 31 30 29 .. 28 27 26 25 .. 24 23 22 33 
.. 32 31 30 29 .. 28 27 26 25 .. 24 23 22 21 .. 20 .. .. .. .. .. .. .. .. .. .. .. .. 52 
.. .. .. .. .. .. .. .. .. .. .. .. .. .. .. .. .. .. .. .. .. .. .. .. .. .. .. .. .. .. 
.. .. .. .. .. .. .. .. .. .. .. .. .. .. .. .. .. .. .. .. .. .. .. .. .. .. .. .. .. .. 
.. .. .. .. .. .. .. .. .. .. .. .. .. .. .. .. .. .. .. .. .. .. .. .. .. .. .. .. .. .. 
.. .. .. .. .. .. .. .. .. .. .. .. .. .. .. .. .. .. .. .. 
! Song 9
146 52 .. .. .. .. .. .. .. .. .. .. .. .. .. .. .. .. .. .. .. .. .. .. .. .. .. .. .. .. 
.. .. .. .. .. .. .. .. .. .. .. .. .. .. .. .. .. .. .. .. .. .. .. .. .. .. .. .. .. .. 
.. .. .. .. .. .. .. .. .. .. .. .. .. .. .. .. .. .. .. .. .. .. .. .. .. .. .. .. .. .. 
.. .. .. .. .. .. .. .. .. .. .. .. .. .. .. .. .. .. .. .. .. .. .. .. .. .. .. .. .. .. 
.. .. .. .. .. .. .. .. .. .. .. .. .. .. .. .. .. .. .. .. .. .. .. .. .. .. .. .. .. .. 
.. .. .. .. .. .. .. .. .. .. .. .. .. .. .. .. .. .. .. .. .. .. .. .. .. .. .. .. .. .. 
.. .. .. .. .. .. .. .. .. .. .. .. .. .. .. .. .. .. .. .. .. .. .. .. .. .. .. .. .. .. 
.. .. .. .. .. .. .. .. .. .. .. .. .. .. .. .. .. .. .. .. .. .. .. .. .. .. .. .. .. .. 
.. .. .. .. .. .. .. .. .. .. .. .. .. .. .. .. .. .. .. .. .. .. .. .. .. .. .. .. .. .. 
.. .. .. .. .. .. .. .. .. .. .. .. .. .. .. .. .. .. .. .. .. .. .. .. .. .. .. .. .. .. 
.. .. .. .. .. .. .. .. .. .. .. .. .. .. .. .. .. .. .. .. .. .. .. .. .. .. .. .. .. .. 
.. .. .. .. .. .. .. .. .. .. .. .. .. .. .. .. .. .. .. .. .. .. .. .. .. .. .. .. .. .. 
.. .. .. .. .. .. .. .. .. .. .. .. .. .. .. .. .. .. .. .. .. .. .. .. .. .. .. .. .. .. 
.. .. .. .. .. .. .. .. .. .. .. .. .. .. .. .. .. .. .. .. .. .. .. .. .. .. .. .. .. .. 
.. .. .. .. .. .. .. .. .. .. .. .. .. .. .. .. .. .. .. .. .. .. .. .. .. .. .. .. .. .. 
.. .. .. .. .. .. .. .. .. .. .. .. .. .. .. .. .. .. .. .. .. .. .. .. .. .. .. .. .. .. 
.. .. .. .. .. .. .. .. .. .. .. .. .. .. .. .. .. .. .. .. .. .. .. .. .. .. .. .. .. .. 
.. .. .. .. .. .. .. .. .. 40 .. .. .. .. .. .. .. .. .. .. .. .. .. .. .. .. .. .. .. .. 
.. .. .. .. .. .. .. .. .. .. .. 45 .. .. .. .. .. .. .. .. .. .. .. .. .. .. .. 47 .. .. 
.. .. .. .. .. 48 .. .. .. .. .. .. .. .. .. .. .. .. .. .. .. .. .. .. .. .. .. .. .. .. 
47 .. .. .. .. .. .. .. .. .. .. .. .. .. .. .. 45 .. .. .. .. .. .. .. .. .. .. .. .. .. 
.. .. 43 .. .. .. .. .. .. .. .. .. .. .. .. .. .. .. 45 .. .. .. .. .. .. .. 48 .. .. .. 
.. .. .. .. 50 .. .. .. .. .. .. .. 51 .. .. .. .. .. .. .. .. 52 .. .. .. .. .. .. .. .. 
.. .. .. .. .. .. .. 50 .. .. .. .. .. .. .. 48 .. .. .. .. .. .. .. .. .. .. .. .. .. .. 
.. .. .. .. .. .. .. .. .. 45 .. .. .. .. .. .. .. .. .. .. .. .. .. .. .. .. .. .. .. .. 
.. .. .. .. .. .. .. .. .. .. .. 48 .. .. .. .. .. .. .. 50 .. .. .. .. .. .. .. .. 51 .. 
.. .. .. .. .. .. 52 .. .. .. .. .. .. .. 50 .. .. .. .. .. .. .. 48 .. .. .. .. .. .. .. 
45 .. .. .. .. .. .. .. .. .. .. .. .. .. .. .. 43 .. .. .. .. .. .. .. 45 .. .. .. .. .. 
.. .. .. .. .. .. .. .. .. .. 48 .. .. .. .. .. .. .. 45 .. .. .. .. .. .. .. .. 43 .. .. 
.. .. .. .. .. 40 .. .. .. .. .. .. .. .. .. .. .. .. .. .. .. 43 .. .. .. .. .. .. .. 44 
.. .. .. .. .. .. .. 45 .. .. .. .. .. .. .. 48 .. .. .. .. .. .. .. 50 .. .. .. .. .. .. 
.. 51 .. .. .. .. .. .. .. 52 .. .. .. .. .. .. .. 55 .. .. .. .. .. .. .. 56 .. .. .. .. 
.. .. .. .. 57 .. .. .. .. .. .. .. .. 56 .. .. .. 57 .. .. .. .. .. .. .. .. .. .. .. 56 
.. .. .. 57 .. .. .. .. .. .. .. .. .. .. .. .. .. 56 .. .. .. 57 .. .. .. .. .. .. .. .. 
55 .. .. .. .. .. .. .. 52 .. .. .. .. .. .. .. 50 .. .. .. .. .. .. .. .. .. .. .. .. .. 
.. .. .. .. .. .. .. .. .. .. .. .. .. .. .. .. .. .. .. 19 .. .. .. .. .. .. .. 52 .. .. 
.. .. .. .. .. 53 .. .. .. .. .. .. .. 52 .. .. .. .. .. .. .. 50 .. .. .. .. .. .. .. 48 
.. .. .. .. .. .. .. 45 .. .. .. .. .. .. .. 47 .. .. .. .. .. .. .. 50 .. .. .. .. .. .. 
.. 48 .. .. .. .. .. .. .. 45 .. .. .. .. .. .. .. .. 43 .. .. .. .. .. .. .. 41 .. .. .. 
.. .. .. .. 43 .. .. .. .. .. .. .. 45 .. .. .. .. .. .. .. 43 .. .. .. .. .. .. .. 41 .. 
.. .. .. .. .. .. 38 .. .. .. .. .. .. .. .. .. .. .. .. .. .. .. 41 .. .. .. .. .. .. .. 
.. .. .. .. .. .. .. .. 43 .. .. .. .. .. .. .. 44 .. .. .. .. .. .. .. .. 45 .. .. .. .. 
.. .. .. 48 .. .. .. .. .. .. .. 49 .. .. .. .. .. .. .. 50 .. .. .. .. .. .. .. .. .. .. 
.. .. .. .. .. .. .. .. .. .. .. .. .. .. .. .. .. .. .. .. .. .. .. .. .. .. .. .. .. .. 
.. .. .. .. .. .. .. 19 .. .. .. .. .. .. .. 48 .. .. .. .. .. .. .. 49 .. .. .. .. .. .. 
.. .. 50 .. .. .. .. .. .. .. 53 .. .. .. .. .. .. .. 55 .. .. .. .. .. .. .. 56 .. .. .. 
.. .. .. .. 57 .. .. .. .. .. .. .. .. 56 .. .. .. 57 .. .. 55 .. .. .. .. .. .. .. 53 .. 
.. .. .. .. .. .. .. .. 52 .. .. .. 53 .. 50 .. .. .. .. .. .. .. .. .. .. .. .. .. .. .. 
.. .. .. .. .. .. .. .. .. .. .. .. .. .. .. .. .. 19 .. .. .. .. .. .. .. 48 .. .. .. .. 
.. .. .. 50 .. .. .. .. .. .. .. 53 .. .. .. .. .. .. .. 50 .. .. .. .. .. .. .. 48 .. .. 
.. .. .. .. .. 47 .. .. .. .. .. .. .. 48 .. .. .. .. .. .. .. 50 .. .. .. .. .. .. .. 48 
.. .. .. .. .. .. .. 47 .. .. .. .. .. .. .. .. .. .. .. .. .. .. .. .. 45 .. .. .. .. .. 
.. .. .. .. .. .. .. .. .. .. .. .. .. .. .. .. .. .. .. .. .. .. .. .. .. .. 19 .. .. .. 
.. .. .. .. 40 .. .. .. .. .. .. .. 45 .. .. .. .. .. .. .. 47 .. .. .. .. .. .. .. 48 .. 
.. .. .. .. .. .. 47 .. .. .. .. .. .. .. .. 45 .. .. .. .. .. .. .. 40 .. .. .. .. .. .. 
.. 45 .. .. .. .. .. .. .. 47 .. .. .. .. .. .. .. 48 .. .. .. .. .. .. .. 50 .. .. .. .. 
.. .. .. 51 .. .. .. .. .. .. .. 52 .. .. .. .. .. .. .. .. .. .. .. .. .. .. .. 50 .. .. 
.. .. .. .. .. 48 .. .. .. .. .. .. .. 45 .. .. .. .. .. .. .. .. .. .. .. .. .. .. .. .. 
48 .. .. .. .. .. .. .. .. .. .. .. .. .. .. .. 50 .. .. .. .. .. .. .. 51 .. .. .. .. .. 
.. .. 52 .. .. .. .. .. .. .. 55 .. .. .. .. .. .. .. 56 .. .. .. .. .. .. .. 57 .. .. .. 
.. .. .. .. .. .. 56 .. .. .. 57 .. .. .. .. .. .. .. .. .. .. .. 56 .. .. .. 57 .. .. .. 
.. .. .. .. .. .. .. .. 56 .. .. .. 57 .. .. 19 .. .. .. .. .. .. .. 55 .. .. .. .. .. .. 
.. 57 .. .. .. .. .. .. .. 55 .. .. .. .. .. .. .. 52 .. .. .. .. .. .. .. 50 .. .. .. .. 
.. .. .. 48 .. .. .. .. .. .. .. 50 .. .. .. .. .. .. .. 51 .. .. .. .. .. .. .. 52 .. .. 
.. .. .. .. .. .. 50 .. .. .. .. .. .. .. 48 .. .. .. .. .. .. .. 45 .. .. .. .. .. .. .. 
43 .. .. .. .. .. .. .. 44 .. .. .. .. .. .. .. 45 .. .. .. .. .. .. .. .. .. .. .. .. .. 
.. .. 48 .. .. .. .. .. .. .. 50 .. .. .. .. .. .. .. 51 .. .. .. .. .. .. .. 52 .. .. .. 
.. .. .. .. 55 .. .. .. .. .. .. .. .. 56 .. .. .. .. .. .. .. 57 .. .. .. .. .. .. .. .. 
56 .. .. .. 57 .. .. .. .. .. .. .. .. .. .. 58 .. .. .. .. .. .. .. .. 57 .. .. .. 58 .. 
.. 59 .. .. .. .. .. .. .. .. 58 .. .. .. .. 59 .. .. .. .. .. .. .. .. .. .. .. 58 .. .. 
.. 59 .. 19 .. .. .. .. .. .. .. 55 .. .. .. .. .. .. .. .. 52 .. .. .. .. .. .. .. 59 .. 
.. .. .. .. .. .. 55 .. .. .. .. .. .. .. 52 .. .. .. .. .. .. .. 59 .. .. .. .. .. .. .. 
55 .. .. .. .. .. .. .. 52 .. .. .. .. .. .. .. 59 .. .. .. .. .. .. .. 55 .. .. .. .. .. 
.. .. 52 .. .. .. .. .. .. .. 59 .. .. .. .. .. .. .. 55 .. .. .. .. .. .. .. .. 52 .. .. 
.. .. .. .. .. 59 .. .. .. .. .. .. .. 55 .. .. .. .. .. .. .. 52 .. .. .. .. .. .. .. 47 
.. .. .. .. .. .. .. .. .. .. .. .. .. .. .. .. .. .. .. .. .. .. .. .. .. .. .. .. .. .. 
.. 52 .. .. .. .. .. .. .. .. .. .. .. .. .. .. .. 54 .. .. .. .. .. .. .. .. .. 53 .. .. 
.. 54 .. .. 55 .. .. .. .. .. .. .. .. .. .. .. .. .. .. .. 57 .. .. .. .. .. .. .. 53 .. 
.. .. .. .. .. .. 50 .. .. .. .. .. .. .. 57 .. .. .. .. .. .. .. .. 56 .. .. .. 57 .. .. 
53 .. .. .. .. .. .. .. 50 .. .. .. .. .. .. .. 57 .. .. .. .. .. .. .. 53 .. .. .. .. .. 
.. .. .. 50 .. .. .. .. .. .. .. 53 .. .. .. .. .. .. .. 50 .. .. .. .. .. .. .. 45 .. .. 
.. .. .. .. .. 53 .. .. .. .. .. .. .. 50 .. .. .. .. .. .. .. 45 .. .. .. .. .. .. .. 50 
.. .. .. .. .. .. .. 45 .. .. .. .. .. .. .. 41 .. .. .. .. .. .. .. 50 .. .. .. .. .. .. 
.. 45 .. .. .. .. .. .. .. .. 41 .. .. .. .. .. .. .. 50 .. .. .. .. .. .. .. 45 .. .. .. 
.. .. .. .. 41 .. .. .. .. .. .. .. 53 .. .. .. .. .. .. .. 50 .. .. .. .. .. .. .. 45 .. 
.. .. .. .. .. .. 53 .. .. .. .. .. .. .. 50 .. .. .. .. .. .. .. 45 .. .. .. .. .. .. .. 
.. .. .. .. .. .. .. .. 52 .. .. .. .. .. .. .. .. .. .. .. .. .. .. .. .. .. .. .. .. .. 
.. .. .. .. .. .. .. .. .. .. .. 19 .. .. .. .. .. .. .. 50 .. .. .. .. .. .. .. 48 .. .. 
.. .. .. .. .. 45 .. .. .. .. .. .. .. 48 .. .. .. .. .. .. .. 50 .. .. .. .. .. .. .. 52 
.. .. .. .. .. .. .. 50 .. .. .. .. .. .. .. 48 .. .. .. .. .. .. .. .. 45 .. .. .. .. .. 
.. .. 43 .. .. .. .. .. .. .. 44 .. .. .. .. .. .. .. 45 .. .. .. .. .. .. .. 48 .. .. .. 
.. .. .. .. 50 .. .. .. .. .. .. .. 51 .. .. .. .. .. .. .. 52 .. .. .. .. .. .. .. 50 .. 
.. .. .. .. .. .. 48 .. .. .. .. .. .. .. 45 .. .. .. .. .. .. .. .. .. .. .. .. .. .. .. 
.. .. .. .. .. .. .. .. .. 43 .. .. .. .. .. .. .. .. .. .. .. .. .. .. .. 45 .. .. .. .. 
.. .. .. .. .. .. .. .. .. .. .. 48 .. .. .. .. .. .. .. .. .. .. .. .. .. .. .. 45 .. .. 
.. .. .. .. .. .. .. .. .. .. .. .. .. .. .. .. .. .. .. .. .. .. .. .. .. .. .. .. .. .. 
.. .. .. .. .. .. .. .. .. .. .. .. .. .. .. .. .. .. .. .. .. .. .. .. .. .. .. .. .. .. 
.. .. .. .. .. .. .. .. .. .. .. .. .. .. .. .. .. .. .. .. .. .. .. .. .. .. .. .. .. .. 
.. .. .. .. 19 .. .. .. .. .. .. .. .. .. .. .. .. .. .. .. 43 .. .. .. .. .. .. .. .. .. 
.. .. .. .. .. .. 45 .. .. .. .. .. .. .. .. .. .. .. .. .. .. .. .. 43 .. .. .. .. .. .. 
.. .. .. .. .. .. .. .. .. 45 .. .. .. .. .. .. .. 43 .. .. .. .. .. .. .. .. .. .. .. .. 
.. .. .. 45 .. .. .. .. .. .. .. .. .. .. .. .. .. .. .. .. .. .. .. .. .. .. .. .. .. .. 
.. .. .. .. .. .. .. .. .. .. .. .. .. .. .. .. .. .. .. .. .. .. .. .. .. .. .. .. .. .. 
.. .. .. .. .. .. .. .. 19 .. .. .. .. .. .. .. 39 .. .. .. .. .. .. .. .. .. .. .. .. .. 
.. .. 43 .. .. .. .. .. .. .. 46 .. .. .. .. .. .. .. 51 .. .. .. .. .. .. .. 43 .. .. .. 
.. .. .. .. 46 .. .. .. .. .. .. .. 51 .. .. .. .. .. .. .. .. 55 .. .. .. .. .. .. .. 46 
.. .. .. .. .. .. .. 51 .. .. .. .. .. .. .. 55 .. .. .. .. .. .. .. 58 .. .. .. .. .. .. 
.. 57 .. .. .. .. .. .. .. 55 .. .. .. .. .. .. .. 58 .. .. .. .. .. .. .. 57 .. .. .. .. 
.. .. .. 55 .. .. .. .. .. .. .. 56 .. .. .. .. .. .. .. 57 .. .. .. .. .. .. .. .. 55 .. 
.. .. .. .. .. .. 53 .. .. .. .. .. .. .. 50 .. .. .. .. .. .. .. 51 .. .. .. .. .. .. .. 
52 .. .. .. .. .. .. .. 50 .. .. .. .. .. .. .. 48 .. .. .. .. .. .. .. 45 .. .. .. .. .. 
.. .. 48 .. .. .. .. .. .. .. 50 .. .. .. .. .. .. .. 51 .. .. .. .. .. .. .. 52 .. .. .. 
.. .. .. .. .. 46 .. .. .. .. .. .. .. .. .. .. .. .. .. .. .. 50 .. .. .. .. .. .. .. 53 
.. .. .. .. .. .. .. 58 .. .. .. .. .. .. .. 53 .. .. .. .. .. .. .. 50 .. .. .. .. .. .. 
.. 53 .. .. .. .. .. .. .. 58 .. .. .. .. .. .. .. 62 .. .. .. .. .. .. .. 58 .. .. .. .. 
.. .. .. 53 .. .. .. .. .. .. .. .. 50 .. .. .. .. .. .. .. 46 .. .. .. .. .. .. .. 53 .. 
.. .. .. .. .. .. 58 .. .. .. .. .. .. .. 57 .. .. .. .. .. .. .. .. 56 .. .. .. 57 .. .. 
55 .. .. .. .. .. .. .. 56 .. .. .. .. .. .. .. 57 .. .. .. .. .. .. .. 55 .. .. .. .. .. 
.. .. 52 .. .. .. .. .. .. .. 50 .. .. .. .. .. .. .. .. 51 .. .. .. .. .. .. .. 52 .. .. 
.. .. .. .. .. 50 .. .. .. .. .. .. .. 48 .. .. .. .. .. .. .. 45 .. .. .. .. .. .. .. 48 
.. .. .. .. .. .. .. 50 .. .. .. .. .. .. .. 48 .. .. .. .. .. .. .. 39 .. .. .. .. .. .. 
.. .. .. .. .. .. .. .. .. 43 .. .. .. .. .. .. .. 46 .. .. .. .. .. .. .. .. 51 .. .. .. 
.. .. .. .. 43 .. .. .. .. .. .. .. 46 .. .. .. .. .. .. .. 51 .. .. .. .. .. .. .. 55 .. 
.. .. .. .. .. .. 46 .. .. .. .. .. .. .. 51 .. .. .. .. .. .. .. 55 .. .. .. .. .. .. .. 
58 .. .. .. .. .. .. .. 51 .. .. .. .. .. .. .. 55 .. .. .. .. .. .. .. 58 .. .. .. .. .. 
.. .. .. 57 .. .. .. .. .. .. .. 55 .. .. .. .. .. .. .. 56 .. .. .. .. .. .. .. 57 .. .. 
.. .. .. .. .. 55 .. .. .. .. .. .. .. 52 .. .. .. .. .. .. .. 50 .. .. .. .. .. .. .. 51 
.. .. .. .. .. .. .. 52 .. .. .. .. .. .. .. 50 .. .. .. .. .. .. .. 48 .. .. .. .. .. .. 
.. 45 .. .. .. .. .. .. .. .. 48 .. .. .. .. .. .. .. 52 .. .. .. .. .. .. .. 50 .. .. .. 
.. .. .. .. 48 .. .. .. .. .. .. .. 46 .. .. .. .. .. .. .. .. .. .. .. .. .. .. .. 50 .. 
.. .. .. .. .. .. 53 .. .. .. .. .. .. .. 58 .. .. .. .. .. .. .. 53 .. .. .. .. .. .. .. 
50 .. .. .. .. .. .. .. .. 62 .. .. .. .. .. .. .. .. 61 .. .. .. 62 .. .. 58 .. .. .. .. 
.. .. .. 53 .. .. .. .. .. .. .. 62 .. .. .. .. .. .. .. 58 .. .. .. .. .. .. .. 53 .. .. 
.. .. .. .. .. 62 .. .. .. .. .. .. .. 58 .. .. .. .. .. .. .. 59 .. .. .. .. .. .. .. 56 
.. .. .. .. .. .. .. 52 .. .. .. .. .. .. .. .. 50 .. .. .. .. .. .. .. 52 .. .. .. .. .. 
.. .. 53 .. .. .. .. .. .. .. 52 .. .. .. .. .. .. .. 50 .. .. .. .. .. .. .. 48 .. .. .. 
.. .. .. .. 47 .. .. .. .. .. .. .. 45 .. .. .. .. .. .. .. 44 .. .. .. .. .. .. .. 43 .. 
.. .. .. .. .. .. 42 .. .. .. .. .. .. .. 41 .. .. .. .. .. .. .. .. .. .. .. .. .. .. .. 
.. 39 .. .. .. .. .. .. .. .. .. .. .. .. .. .. .. 43 .. .. .. .. .. .. .. 46 .. .. .. .. 
.. .. .. 51 .. .. .. .. .. .. .. 43 .. .. .. .. .. .. .. 46 .. .. .. .. .. .. .. 51 .. .. 
.. .. .. .. .. 55 .. .. .. .. .. .. .. 46 .. .. .. .. .. .. .. 51 .. .. .. .. .. .. .. .. 
55 .. .. .. .. .. .. .. 58 .. .. .. .. .. .. .. .. 57 .. .. .. 58 .. .. 57 .. .. .. .. .. 
.. .. 55 .. .. .. .. .. .. .. 56 .. .. .. .. .. .. .. 57 .. .. .. .. .. .. .. 55 .. .. .. 
.. .. .. .. 52 .. .. .. .. .. .. .. 50 .. .. .. .. .. .. .. 51 .. .. .. .. .. .. .. 52 .. 
.. .. .. .. .. .. .. 50 .. .. .. .. .. .. .. 48 .. .. .. .. .. .. .. 45 .. .. .. .. .. .. 
.. 48 .. .. .. .. .. .. .. 50 .. .. .. .. .. .. .. 51 .. .. .. .. .. .. .. 52 .. .. .. .. 
.. .. .. 50 .. .. .. .. .. .. .. 48 .. .. .. .. .. .. .. 46 .. .. .. .. .. .. .. .. .. .. 
.. .. .. .. .. 50 .. .. .. .. .. .. .. .. 53 .. .. .. .. .. .. .. 58 .. .. .. .. .. .. .. 
53 .. .. .. .. .. .. .. 62 .. .. .. .. .. .. .. 58 .. .. .. .. .. .. .. 53 .. .. .. .. .. 
.. .. 50 .. .. .. .. .. .. .. 62 .. .. .. .. .. .. .. 58 .. .. .. .. .. .. .. 53 .. .. .. 
.. .. .. .. 50 .. .. .. .. .. .. .. 62 .. .. .. .. .. .. .. .. 58 .. .. .. .. .. .. .. 57 
.. .. .. .. .. .. .. .. 56 .. .. .. 57 .. .. 59 .. .. .. .. .. .. .. 57 .. .. .. .. .. .. 
.. .. 56 .. .. .. 57 .. .. 55 .. .. .. .. .. .. .. 52 .. .. .. .. .. .. .. .. .. .. .. .. 
.. .. .. .. .. .. .. .. .. .. .. 55 .. .. .. .. .. .. .. 57 .. .. .. .. .. .. .. .. 55 .. 
.. .. .. .. .. .. 52 .. .. .. .. .. .. .. 50 .. .. .. .. .. .. .. 48 .. .. .. .. .. .. .. 
45 .. .. .. .. .. .. .. 39 .. .. .. .. .. .. .. .. .. .. .. .. .. .. .. 43 .. .. .. .. .. 
.. .. 46 .. .. .. .. .. .. .. 51 .. .. .. .. .. .. .. 46 .. .. .. .. .. .. .. .. 51 .. .. 
.. .. .. .. .. 58 .. .. .. .. .. .. .. .. 57 .. .. .. 58 .. .. 51 .. .. .. .. .. .. .. 55 
.. .. .. .. .. .. .. 58 .. .. .. .. .. .. .. 63 .. .. .. .. .. .. .. 58 .. .. .. .. .. .. 
.. 55 .. .. .. .. .. .. .. 51 .. .. .. .. .. .. .. 57 .. .. .. .. .. .. .. .. .. 56 .. .. 
.. 57 .. .. 60 .. .. .. .. .. .. .. 57 .. .. .. .. .. .. .. 55 .. .. .. .. .. .. .. 56 .. 
.. .. .. .. .. .. 57 .. .. .. .. .. .. .. 55 .. .. .. .. .. .. .. 50 .. .. .. .. .. .. .. 
51 .. .. .. .. .. .. .. 52 .. .. .. .. .. .. .. 50 .. .. .. .. .. .. .. 48 .. .. .. .. .. 
.. .. 45 .. .. .. .. .. .. .. .. 48 .. .. .. .. .. .. .. 52 .. .. .. .. .. .. .. 46 .. .. 
.. .. .. .. .. .. .. .. .. .. .. .. .. 50 .. .. .. .. .. .. .. 53 .. .. .. .. .. .. .. 58 
.. .. .. .. .. .. .. 53 .. .. .. .. .. .. .. 62 .. .. .. .. .. .. .. 58 .. .. .. .. .. .. 
.. 53 .. .. .. .. .. .. .. 50 .. .. .. .. .. .. .. .. 53 .. .. .. .. .. .. .. 50 .. .. .. 
.. .. .. .. 53 .. .. .. .. .. .. .. 50 .. .. .. .. .. .. .. 53 .. .. .. .. .. .. .. 50 .. 
.. .. .. .. .. .. 52 .. .. .. .. .. .. .. 51 .. .. .. .. .. .. .. 50 .. .. .. .. .. .. .. 
49 .. .. .. .. .. .. .. 48 .. .. .. .. .. .. .. 47 .. .. .. .. .. .. .. .. 46 .. .. .. .. 
.. .. .. 45 .. .. .. .. .. .. .. 44 .. .. .. .. .. .. .. 43 .. .. .. .. .. .. .. 42 .. .. 
.. .. .. .. .. 41 .. .. .. .. .. .. .. 40 .. .. .. .. .. .. .. .. .. .. .. .. .. .. .. .. 
.. .. .. .. .. .. .. .. .. .. .. .. .. .. .. 38 .. 37 36 35 .. 34 33 32 .. 31 30 .. 29 28 
27 .. 38 37 36 .. 35 34 33 .. 32 31 30 .. 29 28 27 .. 36 35 34 .. 33 32 31 .. 30 29 .. 28 
27 26 .. 25 35 34 .. 33 32 31 .. 30 33 32 .. 31 30 29 .. 28 27 26 .. 25 24 23 .. 22 31 30 
.. 29 28 .. 27 26 25 .. 24 23 22 .. 21 20 31 .. 30 29 28 .. 27 26 29 .. 28 27 26 .. 25 24 
23 .. 22 21 .. 20 19 18 .. 29 28 27 .. 26 25 24 .. 23 22 21 .. 20 19 18 .. 38 37 36 .. 35 
34 33 .. 38 37 .. 36 35 34 .. 33 38 37 .. 36 35 34 .. 33 38 37 .. 36 35 34 .. 33 36 35 .. 
34 33 32 .. 31 30 .. 29 28 27 .. 26 25 35 .. 34 33 32 .. 31 30 33 .. 32 31 30 .. 29 28 27 
.. 26 25 24 .. 23 22 31 .. 30 29 .. 28 27 26 .. 31 30 29 .. 28 27 26 .. 25 24 23 .. 22 21 
20 .. 29 28 27 .. 26 25 24 .. 23 22 .. 21 20 19 .. 18 29 28 .. 27 26 25 .. 24 23 22 .. 21 
20 19 .. 18 38 37 .. 36 35 34 .. 33 32 .. 31 30 29 .. 28 27 38 .. 37 36 35 .. 34 33 32 .. 
31 30 29 .. 28 27 36 .. 35 34 33 .. 32 31 .. 30 29 28 .. 27 26 25 .. 35 34 33 .. 32 31 30 
.. 33 32 31 .. 30 29 28 .. 27 26 25 .. 24 23 22 .. 31 30 .. 29 28 27 .. 26 31 30 .. 29 28 
27 .. 26 25 24 .. 23 22 21 .. 20 29 28 .. 27 26 25 .. 24 23 .. 22 21 20 .. 19 18 29 .. 28 
27 26 .. 25 24 23 .. 22 21 20 .. 19 18 38 .. 37 36 35 .. 34 33 .. 36 35 34 .. 33 32 31 .. 
36 35 34 .. 33 32 31 .. 30 29 28 .. 27 26 25 .. 35 34 33 .. 32 31 .. 30 29 28 .. 27 26 25 
.. 24 33 32 .. 31 30 29 .. 28 31 30 .. 29 28 27 .. 26 31 30 .. 29 28 27 .. 26 31 .. 30 29 
28 .. 27 26 31 .. 30 29 28 .. 27 26 29 .. 28 27 26 .. 25 24 29 .. 28 27 26 .. 25 24 .. 23 
22 21 .. 20 19 18 .. 29 28 27 .. 26 25 24 .. 23 22 21 .. 20 19 18 .. 38 37 36 .. 35 34 .. 
33 32 31 .. 30 29 28 .. 27 38 37 .. 36 35 34 .. 33 32 31 .. 30 29 28 .. 27 36 35 .. 34 33 
.. 32 31 30 .. 29 28 27 .. 26 25 35 .. 34 33 32 .. 31 30 33 .. 32 31 30 .. 29 28 27 .. 26 
25 24 .. 23 22 .. 31 30 29 .. 28 27 26 .. 25 24 23 .. 22 21 20 .. 31 30 29 .. 28 27 26 .. 
29 28 27 .. 26 25 .. 24 23 22 .. 21 20 19 .. 18 29 28 .. 27 26 25 .. 24 23 22 .. 21 20 19 
.. 18 38 37 .. 36 35 .. 34 33 38 .. 37 36 35 .. 34 33 38 .. 37 36 35 .. 34 33 38 .. 37 36 
35 .. 34 33 36 .. 35 34 .. 33 32 31 .. 30 29 28 .. 27 26 25 .. 35 34 33 .. 32 31 30 .. 33 
32 31 .. 30 29 28 .. 27 26 25 .. 24 23 .. 22 31 30 .. 29 28 27 .. 26 31 30 .. 29 28 27 .. 
26 25 24 .. 23 22 21 .. 20 29 28 .. 27 26 .. 25 24 23 .. 22 21 20 .. 19 18 29 .. 28 27 26 
.. 25 24 23 .. 22 21 20 .. 19 18 38 .. 37 36 .. 35 34 33 .. 32 31 30 .. 29 28 27 .. 38 37 
36 .. 35 34 33 .. 32 31 30 .. 29 28 27 .. 36 35 .. 34 33 32 .. 31 30 29 .. 28 27 26 .. 25 
35 34 .. 33 32 31 .. 30 33 32 .. 31 30 29 .. 28 27 26 .. 25 24 .. 23 22 31 .. 30 29 28 .. 
27 26 31 .. 30 29 28 .. 27 26 25 .. 24 23 22 .. 21 20 29 .. 28 27 .. 26 25 24 .. 23 22 21 
.. 20 19 18 .. 29 28 27 .. 26 25 24 .. 23 22 21 .. 20 19 18 .. 38 37 .. 36 35 34 .. 33 36 
35 .. 34 33 32 .. 31 36 35 .. 34 33 32 .. 31 30 29 .. 28 27 26 .. 25 35 .. 34 33 32 .. 31 
30 29 .. 28 27 26 .. 25 24 33 .. 32 31 30 .. 29 28 31 .. 30 29 28 .. 27 26 31 .. 30 29 .. 
28 27 26 .. 31 30 29 .. 28 27 26 .. 31 30 29 .. 28 27 26 .. 29 28 27 .. 26 25 24 .. 29 28 
.. 27 26 25 .. 24 23 22 .. 21 20 19 .. 18 29 28 .. 27 26 25 .. 24 23 22 .. 21 20 19 .. 18 
46 .. .. .. 58 .. .. 46 .. .. 58 .. 46 .. .. 58 .. .. .. 46 .. .. 58 .. 46 .. .. 58 .. .. 
46 .. .. 58 .. .. .. 46 .. 58 .. .. 46 .. .. 58 .. 46 .. .. 58 .. .. .. 46 .. .. 58 .. 46 
.. .. 58 .. .. 46 .. .. 58 .. .. .. 46 .. 58 .. .. 46 .. .. 58 .. 46 .. .. 58 .. .. .. 46 
.. .. 58 .. 46 .. .. 24 .. .. .. .. .. .. .. .. .. .. .. .. .. .. .. 46 .. .. .. 58 .. .. 
46 49 .. .. .. 61 .. .. 49 .. 53 .. .. .. 65 .. 53 .. .. 65 .. .. 53 .. 65 .. 56 .. .. .. 
68 .. 56 .. .. 68 .. .. 56 .. .. 68 57 .. .. .. 69 .. .. 57 .. 69 .. .. 57 .. .. 69 58 .. 
.. .. 70 .. .. 58 .. 70 .. .. 58 .. .. 70 .. .. .. 58 .. .. 70 .. 58 .. .. 70 .. .. 58 .. 
56 .. .. .. 68 .. .. 56 .. .. 68 .. 56 .. .. 68 .. 53 .. .. .. 65 .. 53 .. .. 65 .. .. 53 
.. 65 .. 51 .. .. .. 63 .. 51 .. .. 63 .. .. 51 .. .. 63 53 .. .. .. 65 .. .. 53 .. 65 .. 
.. 53 .. .. 65 .. .. .. 53 .. 65 .. .. 53 .. .. 65 .. .. 53 .. 65 .. .. .. 53 .. .. 65 .. 
.. 53 .. 65 .. .. 53 .. .. 65 .. .. .. 53 .. 65 .. .. 53 .. .. 65 .. .. 24 .. .. .. .. .. 
.. .. .. .. .. .. .. .. .. .. 51 .. .. .. 63 .. 51 .. 49 .. .. .. 61 .. .. 49 51 .. .. .. 
63 .. .. 51 53 .. .. .. 65 .. .. 53 51 .. .. .. 63 .. .. 51 49 .. .. .. 61 .. .. 49 48 .. 
.. .. 60 .. .. 48 .. .. 60 .. 48 .. .. 60 49 .. .. .. 61 .. .. 49 48 .. .. .. .. 60 .. 48 
.. .. 60 .. .. 48 .. 60 .. .. .. 48 .. .. 60 .. .. 44 .. .. .. 56 .. 44 .. 46 .. .. .. 58 
.. .. 46 .. 58 .. .. 46 .. .. 58 .. .. .. 46 .. 58 .. .. 46 .. .. 58 .. 46 .. .. 58 .. .. 
.. 46 .. .. 58 .. .. 46 .. 58 .. .. 46 24 .. .. .. .. .. .. .. 44 .. .. .. 56 .. .. 44 .. 
.. 56 .. .. 44 .. 56 .. 46 .. .. .. 58 .. 46 .. .. 58 .. .. 46 .. 58 .. .. .. 46 .. .. 58 
.. .. 46 .. .. 58 .. 46 .. .. 58 .. .. .. 46 .. .. 58 .. 46 .. .. 58 .. .. 46 49 .. .. .. 
61 .. .. 49 52 .. .. .. 64 .. .. 52 .. .. 64 .. 52 .. .. 64 53 .. .. .. 65 .. .. 53 .. .. 
65 .. 53 .. .. 65 56 .. .. .. .. 68 .. 56 .. 57 .. .. .. 69 .. 57 .. .. 69 .. .. 57 .. 69 
.. .. .. 57 .. .. 69 .. .. 57 .. .. 69 .. 57 .. .. 58 .. .. .. 70 .. .. 58 .. 70 .. .. 58 
.. .. 70 56 .. .. .. 68 .. .. 56 58 .. .. .. 70 .. .. 58 61 .. .. .. 73 .. .. 61 .. .. 73 
.. 61 .. .. 73 58 .. .. .. 70 .. .. 58 56 .. .. .. .. 68 .. 56 .. .. 68 .. .. 56 .. 68 .. 
58 .. .. .. 70 .. 58 .. 61 .. .. .. 73 .. 61 .. 58 .. .. .. 70 .. .. 58 56 .. .. .. 68 .. 
.. 56 .. 68 .. .. 56 .. .. 68 53 .. .. .. 65 .. .. 53 .. .. 65 .. 53 .. .. 65 56 .. .. .. 
68 .. .. 56 .. .. 68 .. 56 .. .. 68 .. .. .. 56 .. .. 68 .. .. 56 .. 68 .. .. 56 .. .. 24 
.. .. .. .. .. .. .. 58 .. .. .. 70 .. 58 .. 56 .. .. .. 68 .. 56 .. 53 .. .. .. 65 .. .. 
53 51 .. .. .. 63 .. .. 51 .. 63 .. .. 51 .. .. 63 49 .. .. .. 61 .. .. 49 .. .. 61 .. 49 
.. .. 61 51 .. .. .. 63 .. .. 51 .. .. 63 .. 51 .. .. 63 53 .. .. .. 65 .. .. 53 .. .. 65 
.. .. 53 .. 65 .. 46 .. .. .. 58 .. 46 .. .. 58 .. .. 46 .. 58 .. .. .. 46 .. .. 58 .. .. 
46 .. .. 58 .. 46 .. .. 58 .. .. .. 46 .. .. 58 .. 46 .. .. 58 .. .. 46 .. 58 .. .. 
! End
